<?xml version="1.0" encoding="UTF-8"?>
<osm version="0.6" generator="Overpass API 0.7.62.1 084b4234">
<note>The data included in this document is from www.openstreetmap.org. The data is made available under ODbL.</note>
<meta osm_base="2024-07-13T14:42:35Z" areas="2024-07-13T10:20:42Z"/>

  <node id="600140105" lat="45.1893126" lon="5.7254511" version="6" timestamp="2022-12-04T13:26:42Z" changeset="129704144" uid="10536958" user="exilexi">
    <tag k="brand" v="Hugo Boss"/>
    <tag k="brand:wikidata" v="Q491627"/>
    <tag k="brand:wikipedia" v="en:Hugo Boss"/>
    <tag k="check_date:opening_hours" v="2022-12-04"/>
    <tag k="name" v="Hugo Boss"/>
    <tag k="opening_hours" v="Mo-Sa 10:00-19:00"/>
    <tag k="shop" v="clothes"/>
    <tag k="short_name" v="Boss"/>
    <tag k="source" v="cadastre-dgi-fr source : Direction Générale des Impôts - Cadastre. Mise à jour : 2009"/>
    <tag k="wheelchair" v="yes"/>
  </node>
  <node id="724213269" lat="43.6110913" lon="3.8738929" version="5" timestamp="2023-02-16T12:20:43Z" changeset="132626659" uid="303837" user="Kekun">
    <tag k="brand" v="Hugo Boss"/>
    <tag k="brand:wikidata" v="Q491627"/>
    <tag k="brand:wikipedia" v="en:Hugo Boss"/>
    <tag k="name" v="Hugo Boss"/>
    <tag k="opening_hours" v="Mo-Sa 10:00-19:00"/>
    <tag k="shop" v="clothes"/>
    <tag k="short_name" v="Boss"/>
  </node>
  <node id="1786535695" lat="45.7769112" lon="3.0807294" version="8" timestamp="2023-07-13T13:57:57Z" changeset="138457640" uid="290680" user="wheelmap_visitor">
    <tag k="brand" v="Hugo Boss"/>
    <tag k="brand:wikidata" v="Q491627"/>
    <tag k="brand:wikipedia" v="en:Hugo Boss"/>
    <tag k="contact:city" v="Clermont-Ferrand"/>
    <tag k="contact:housenumber" v="5"/>
    <tag k="contact:postcode" v="63000"/>
    <tag k="contact:street" v="Rue Blatin"/>
    <tag k="name" v="Hugo Boss"/>
    <tag k="opening_hours" v="Mo 14:00-19:00; Tu-Fr 10:00-12:30,14:00-19:00; Sa 10:00-19:00"/>
    <tag k="shop" v="clothes"/>
    <tag k="short_name" v="Boss"/>
    <tag k="wheelchair" v="limited"/>
  </node>
  <node id="1867078494" lat="49.4912925" lon="0.1036542" version="8" timestamp="2024-04-18T19:29:34Z" changeset="150191570" uid="1903730" user="Kurosawa06">
    <tag k="addr:city" v="Le Havre"/>
    <tag k="addr:housenumber" v="61"/>
    <tag k="addr:postcode" v="76600"/>
    <tag k="addr:street" v="Rue Louis Brindeau"/>
    <tag k="brand" v="Hugo Boss"/>
    <tag k="brand:wikidata" v="Q491627"/>
    <tag k="name" v="Hugo Boss"/>
    <tag k="shop" v="clothes"/>
    <tag k="short_name" v="Boss"/>
  </node>
  <node id="2510509606" lat="43.6025582" lon="1.4473669" version="8" timestamp="2024-01-20T15:53:52Z" changeset="146483994" uid="148173" user="orhygine">
    <tag k="brand" v="Hugo Boss"/>
    <tag k="brand:wikidata" v="Q491627"/>
    <tag k="brand:wikipedia" v="en:Hugo Boss"/>
    <tag k="check_date" v="2024-01-20"/>
    <tag k="level" v="0"/>
    <tag k="name" v="Hugo Boss"/>
    <tag k="shop" v="clothes"/>
    <tag k="short_name" v="Boss"/>
    <tag k="source" v="survey"/>
    <tag k="wheelchair" v="no"/>
  </node>
  <node id="2596942716" lat="45.5669239" lon="5.9202504" version="5" timestamp="2024-07-08T11:13:35Z" changeset="153690758" uid="14088292" user="PuffintonHost">
    <tag k="brand" v="Hugo Boss"/>
    <tag k="brand:wikidata" v="Q491627"/>
    <tag k="name" v="Hugo Boss"/>
    <tag k="opening_hours" v="Mo 14:00-19:00; Tu-Sa 10:00-19:00"/>
    <tag k="shop" v="clothes"/>
    <tag k="short_name" v="Boss"/>
  </node>
  <node id="2680653216" lat="48.8721316" lon="2.2990392" version="3" timestamp="2023-12-14T15:32:17Z" changeset="145117224" uid="290680" user="wheelmap_visitor">
    <tag k="brand" v="Hugo Boss"/>
    <tag k="brand:wikidata" v="Q491627"/>
    <tag k="brand:wikipedia" v="en:Hugo Boss"/>
    <tag k="name" v="Hugo Boss"/>
    <tag k="shop" v="clothes"/>
    <tag k="short_name" v="Boss"/>
    <tag k="source" v="survey"/>
    <tag k="wheelchair" v="yes"/>
  </node>
  <node id="3039119285" lat="43.5526201" lon="7.0202554" version="6" timestamp="2023-01-09T15:55:57Z" changeset="131061849" uid="8874984" user="anyroka">
    <tag k="brand" v="Hugo Boss"/>
    <tag k="brand:wikidata" v="Q491627"/>
    <tag k="check_date:opening_hours" v="2022-08-16"/>
    <tag k="name" v="Hugo Boss"/>
    <tag k="opening_hours:signed" v="no"/>
    <tag k="shop" v="clothes"/>
    <tag k="short_name" v="Boss"/>
    <tag k="source" v="survey"/>
  </node>
  <node id="3239700751" lat="45.7694376" lon="4.8508790" version="12" timestamp="2024-02-02T19:54:04Z" changeset="146998902" uid="6070510" user="Adric0m">
    <tag k="access:covid19" v="yes"/>
    <tag k="brand" v="Hugo Boss"/>
    <tag k="brand:wikidata" v="Q491627"/>
    <tag k="brand:wikipedia" v="en:Hugo Boss"/>
    <tag k="check_date" v="2024-02-02"/>
    <tag k="check_date:opening_hours" v="2024-02-02"/>
    <tag k="clothes" v="men"/>
    <tag k="contact:facebook" v="boutiquelegend"/>
    <tag k="delivery:covid19" v="yes"/>
    <tag k="email" v="boutiquelegend@hotmail.com"/>
    <tag k="name" v="Legend"/>
    <tag k="opening_hours" v="Tu-Sa 10:00-19:00; Mo 14:00-19:00"/>
    <tag k="phone" v="+33 4 78 89 81 88"/>
    <tag k="ref:FR:SIRET" v="42224413700028"/>
    <tag k="shop" v="clothes"/>
    <tag k="source:name" v="Mapillary;knowledge"/>
    <tag k="wheelchair" v="yes"/>
  </node>
  <node id="3851637879" lat="48.8363847" lon="8.0891303" version="3" timestamp="2024-01-13T18:15:52Z" changeset="146223033" uid="3232636" user="Karthoo">
    <tag k="brand" v="Hugo Boss"/>
    <tag k="brand:wikidata" v="Q491627"/>
    <tag k="check_date" v="2024-01-03"/>
    <tag k="lastcheck" v="2016-07-28"/>
    <tag k="name" v="Hugo Boss"/>
    <tag k="shop" v="clothes"/>
    <tag k="short_name" v="Boss"/>
  </node>
  <node id="4563757494" lat="49.0054815" lon="2.5778774" version="5" timestamp="2023-11-19T06:23:48Z" changeset="144196910" uid="9660877" user="Neonkaaaaa">
    <tag k="addr:postcode" v="95711"/>
    <tag k="brand" v="Hugo Boss"/>
    <tag k="brand:wikidata" v="Q491627"/>
    <tag k="brand:wikipedia" v="en:Hugo Boss"/>
    <tag k="name" v="Hugo Boss"/>
    <tag k="opening_hours" v="24/7"/>
    <tag k="shop" v="clothes"/>
    <tag k="short_name" v="Boss"/>
    <tag k="wheelchair" v="yes"/>
  </node>
  <node id="4782112513" lat="48.3857297" lon="-4.4918600" version="3" timestamp="2022-05-11T10:28:14Z" changeset="120832646" uid="8874984" user="anyroka">
    <tag k="brand" v="Hugo Boss"/>
    <tag k="brand:wikidata" v="Q491627"/>
    <tag k="name" v="Hugo Boss"/>
    <tag k="shop" v="clothes"/>
    <tag k="short_name" v="Boss"/>
  </node>
  <node id="4803796221" lat="48.8692184" lon="2.3326148" version="3" timestamp="2020-05-06T15:01:44Z" changeset="84768112" uid="332493" user="bazgal">
    <tag k="brand" v="Hugo Boss"/>
    <tag k="brand:wikidata" v="Q491627"/>
    <tag k="brand:wikipedia" v="en:Hugo Boss"/>
    <tag k="name" v="Hugo Boss"/>
    <tag k="name:fr" v="Hugo Boss"/>
    <tag k="shop" v="clothes"/>
    <tag k="short_name" v="Boss"/>
  </node>
  <node id="4833415229" lat="48.5843830" lon="7.7466597" version="5" timestamp="2024-04-26T08:11:47Z" changeset="150526057" uid="748514" user="geekpapy">
    <tag k="addr:city" v="Strasbourg"/>
    <tag k="addr:housenumber" v="3"/>
    <tag k="addr:postcode" v="67000"/>
    <tag k="addr:street" v="Rue de la Mésange"/>
    <tag k="brand" v="Hugo Boss"/>
    <tag k="brand:wikidata" v="Q491627"/>
    <tag k="clothes:women" v="yes"/>
    <tag k="name" v="Hugo Boss"/>
    <tag k="ref:FR:SIRET" v="45077204100353"/>
    <tag k="shop" v="clothes"/>
    <tag k="short_name" v="Boss"/>
    <tag k="source" v="survey"/>
  </node>
  <node id="5000830283" lat="48.3282849" lon="4.1026736" version="3" timestamp="2023-12-22T11:46:04Z" changeset="145403646" uid="19823194" user="unknwow_user">
    <tag k="brand" v="Hugo Boss"/>
    <tag k="brand:wikidata" v="Q491627"/>
    <tag k="brand:wikipedia" v="en:Hugo Boss"/>
    <tag k="check_date" v="2023-12-22"/>
    <tag k="name" v="Hugo Boss"/>
    <tag k="shop" v="clothes"/>
    <tag k="short_name" v="Boss"/>
    <tag k="source" v="survey"/>
  </node>
  <node id="5695218833" lat="48.8535180" lon="2.3351439" version="4" timestamp="2023-05-25T15:50:05Z" changeset="136549894" uid="10246445" user="871694e9-20e8-4037-b035-e4c8607650cf">
    <tag k="brand" v="Hugo Boss"/>
    <tag k="brand:wikidata" v="Q491627"/>
    <tag k="brand:wikipedia" v="en:Hugo Boss"/>
    <tag k="check_date" v="2023-05-20"/>
    <tag k="name" v="Hugo Boss"/>
    <tag k="shop" v="clothes"/>
    <tag k="short_name" v="Boss"/>
    <tag k="source" v="survey 06/2018"/>
  </node>
  <node id="6027840886" lat="44.8572422" lon="-0.5592846" version="2" timestamp="2022-05-13T08:08:07Z" changeset="120921566" uid="8874984" user="anyroka">
    <tag k="brand" v="Hugo Boss"/>
    <tag k="brand:wikidata" v="Q491627"/>
    <tag k="name" v="Hugo Boss"/>
    <tag k="shop" v="clothes"/>
    <tag k="short_name" v="Boss"/>
  </node>
  <node id="6301613248" lat="48.7269184" lon="2.3628957" version="2" timestamp="2020-03-21T01:19:38Z" changeset="82450610" uid="502891" user="chabe01">
    <tag k="brand" v="Hugo Boss"/>
    <tag k="brand:wikidata" v="Q491627"/>
    <tag k="brand:wikipedia" v="en:Hugo Boss"/>
    <tag k="name" v="Hugo Boss"/>
    <tag k="shop" v="clothes"/>
    <tag k="short_name" v="Boss"/>
  </node>
  <node id="6514903348" lat="43.6114186" lon="3.8739755" version="3" timestamp="2021-04-28T10:34:07Z" changeset="103766674" uid="12133321" user="Océan Sicard--Baux">
    <tag k="brand" v="Hugo Boss"/>
    <tag k="brand:wikidata" v="Q491627"/>
    <tag k="brand:wikipedia" v="en:Hugo Boss"/>
    <tag k="name" v="Hugo Boss"/>
    <tag k="opening_hours" v="Mo-Sa 10:00-19:00"/>
    <tag k="shop" v="clothes"/>
    <tag k="short_name" v="Boss"/>
  </node>
  <node id="6580402903" lat="48.8547371" lon="2.7841632" version="2" timestamp="2024-05-07T16:22:15Z" changeset="151018660" uid="10731965" user="Hydrel">
    <tag k="brand" v="Hugo Boss"/>
    <tag k="brand:wikidata" v="Q491627"/>
    <tag k="brand:wikipedia" v="en:Hugo Boss"/>
    <tag k="check_date" v="2024-05-07"/>
    <tag k="name" v="Hugo Boss"/>
    <tag k="shop" v="clothes"/>
    <tag k="short_name" v="Boss"/>
  </node>
  <node id="6992750710" lat="45.7600859" lon="4.8338554" version="8" timestamp="2023-08-17T13:57:11Z" changeset="140014559" uid="101225" user="nuxper_np">
    <tag k="brand" v="Hugo Boss"/>
    <tag k="brand:website" v="https://www.hugoboss.com/"/>
    <tag k="brand:wikidata" v="Q491627"/>
    <tag k="brand:wikipedia" v="en:Hugo Boss"/>
    <tag k="email" v="BOSS_Lyon_Jacobins@hugoboss.com"/>
    <tag k="name" v="Hugo Boss"/>
    <tag k="opening_hours" v="Mo-Sa 10:00-19:00"/>
    <tag k="phone" v="+33437236750"/>
    <tag k="ref:FR:SIRET" v="45077204100270"/>
    <tag k="shop" v="clothes"/>
    <tag k="short_name" v="Boss"/>
    <tag k="survey:date" v="2023-08-17"/>
    <tag k="website" v="https://www.hugoboss.com/fr/storedetail?storeid=9923464"/>
  </node>
  <node id="7004526655" lat="45.7637187" lon="4.8331234" version="5" timestamp="2024-02-14T13:06:19Z" changeset="147450464" uid="17767741" user="olimago">
    <tag k="brand" v="Hugo Boss"/>
    <tag k="brand:wikidata" v="Q491627"/>
    <tag k="brand:wikipedia" v="en:Hugo Boss"/>
    <tag k="name" v="Hugo Boss"/>
    <tag k="opening_hours" v="Mo 14:30-19:00; Tu-Fr 11:00-13:30,14:30-19:00; Sa 10:30-19:00"/>
    <tag k="shop" v="clothes"/>
    <tag k="short_name" v="Boss"/>
    <tag k="survey:date" v="2022-03-14"/>
  </node>
  <node id="7015667545" lat="43.5942799" lon="4.9926970" version="2" timestamp="2019-11-29T08:24:59Z" changeset="77714273" uid="2212351" user="cOSMografix">
    <tag k="brand" v="Hugo Boss"/>
    <tag k="brand:wikidata" v="Q491627"/>
    <tag k="brand:wikipedia" v="en:Hugo Boss"/>
    <tag k="clothes" v="men"/>
    <tag k="name" v="Hugo Boss"/>
    <tag k="shop" v="clothes"/>
    <tag k="short_name" v="Boss"/>
  </node>
  <node id="7258001204" lat="44.8418310" lon="-0.5760564" version="3" timestamp="2023-04-25T09:45:03Z" changeset="135334127" uid="16518693" user="Barbell4116">
    <tag k="brand" v="Hugo Boss"/>
    <tag k="brand:wikidata" v="Q491627"/>
    <tag k="brand:wikipedia" v="en:Hugo Boss"/>
    <tag k="check_date:opening_hours" v="2023-04-25"/>
    <tag k="name" v="Hugo Boss"/>
    <tag k="opening_hours:signed" v="no"/>
    <tag k="shop" v="clothes"/>
    <tag k="short_name" v="Boss"/>
  </node>
  <node id="10202735649" lat="47.2127668" lon="-1.5610316" version="1" timestamp="2022-11-19T22:25:42Z" changeset="129140004" uid="392288" user="Kalepom">
    <tag k="advertising" v="poster_box"/>
    <tag k="animated" v="screen"/>
    <tag k="brand" v="Hugo Boss"/>
    <tag k="brand:wikidata" v="Q491627"/>
    <tag k="brand:wikipedia" v="en:Hugo Boss"/>
    <tag k="direction" v="215"/>
    <tag k="indoor" v="yes"/>
    <tag k="land_property" v="private"/>
    <tag k="legal_type:FR" v="enseigne"/>
    <tag k="lit" v="no"/>
    <tag k="luminous" v="yes"/>
    <tag k="mapillary" v="1062868611074785"/>
    <tag k="message" v="commercial"/>
    <tag k="sides" v="1"/>
    <tag k="support" v="showcase"/>
    <tag k="visibility" v="street"/>
  </node>
  <node id="10296056657" lat="45.9064774" lon="6.1320036" version="2" timestamp="2024-02-17T20:49:08Z" changeset="147587307" uid="10361585" user="Hedgie8">
    <tag k="addr:city" v="Annecy"/>
    <tag k="addr:housenumber" v="25"/>
    <tag k="addr:postcode" v="74000"/>
    <tag k="addr:street" v="Avenue du Parmelan"/>
    <tag k="brand" v="Hugo Boss"/>
    <tag k="brand:wikidata" v="Q491627"/>
    <tag k="clothes" v="men"/>
    <tag k="name" v="Hugo Boss"/>
    <tag k="opening_hours" v="Mo-Fr 10:00-19:30; Sa 10:00-20:00"/>
    <tag k="shop" v="clothes"/>
    <tag k="short_name" v="Boss"/>
  </node>
  <way id="393519515" version="2" timestamp="2019-06-24T16:09:46Z" changeset="71567379" uid="502891" user="chabe01">
    <nd ref="3967214474"/>
    <nd ref="3967215460"/>
    <nd ref="3967214673"/>
    <nd ref="3967214674"/>
    <nd ref="3967214364"/>
    <nd ref="3967214677"/>
    <nd ref="3967214474"/>
    <tag k="brand" v="Hugo Boss"/>
    <tag k="brand:wikidata" v="Q491627"/>
    <tag k="brand:wikipedia" v="en:Hugo Boss"/>
    <tag k="level" v="0"/>
    <tag k="name" v="Hugo Boss"/>
    <tag k="shop" v="clothes"/>
    <tag k="short_name" v="Boss"/>
  </way>
  <way id="394221443" version="3" timestamp="2023-02-24T04:36:27Z" changeset="132951130" uid="184969" user="EvanE">
    <nd ref="3972314984"/>
    <nd ref="3972314993"/>
    <nd ref="3972314996"/>
    <nd ref="3972314998"/>
    <nd ref="3967214477"/>
    <nd ref="3972301807"/>
    <nd ref="3972301806"/>
    <nd ref="3972314987"/>
    <nd ref="3967215159"/>
    <nd ref="3967214674"/>
    <nd ref="3967214673"/>
    <nd ref="3967214469"/>
    <nd ref="3972314984"/>
    <tag k="brand" v="Hugo Boss"/>
    <tag k="brand:wikidata" v="Q491627"/>
    <tag k="brand:wikipedia" v="en:Hugo Boss"/>
    <tag k="layer" v="-2"/>
    <tag k="level" v="-1"/>
    <tag k="name" v="Hugo Boss"/>
    <tag k="shop" v="clothes"/>
    <tag k="short_name" v="Boss"/>
  </way>
  <way id="510279929" version="3" timestamp="2020-03-21T01:19:38Z" changeset="82450610" uid="502891" user="chabe01">
    <nd ref="4993192710"/>
    <nd ref="4993192665"/>
    <nd ref="4993192664"/>
    <nd ref="4993192663"/>
    <nd ref="4993192710"/>
    <tag k="brand" v="Hugo Boss"/>
    <tag k="brand:wikidata" v="Q491627"/>
    <tag k="brand:wikipedia" v="en:Hugo Boss"/>
    <tag k="indoor" v="area"/>
    <tag k="level" v="1"/>
    <tag k="name" v="Hugo Boss"/>
    <tag k="shop" v="clothes"/>
    <tag k="short_name" v="Boss"/>
  </way>
  <way id="1044165761" version="5" timestamp="2023-12-21T13:36:49Z" changeset="145371276" uid="290680" user="wheelmap_visitor">
    <nd ref="9608364271"/>
    <nd ref="9608364269"/>
    <nd ref="9608364273"/>
    <nd ref="9608364270"/>
    <nd ref="9608364271"/>
    <tag k="brand" v="Hugo Boss"/>
    <tag k="brand:wikidata" v="Q491627"/>
    <tag k="description" v="Retrouvez les marques de luxe Hugo Boss et Armani dans votre boutique 5e avenue La Part-Dieu, niveau 0."/>
    <tag k="indoor" v="room"/>
    <tag k="level" v="0"/>
    <tag k="name" v="Hugo Boss"/>
    <tag k="opening_hours" v="Mo-Sa 09:30-20:00"/>
    <tag k="phone" v="+33 4 72 61 13 10"/>
    <tag k="shop" v="clothes"/>
    <tag k="short_name" v="Boss"/>
    <tag k="website" v="https://www.hugoboss.com/"/>
    <tag k="wheelchair" v="yes"/>
  </way>
  <way id="1044165812" version="2" timestamp="2022-03-26T10:08:16Z" changeset="118940785" uid="12391080" user="Mevesscarto">
    <nd ref="9608372524"/>
    <nd ref="9608372523"/>
    <nd ref="9608372522"/>
    <nd ref="9608372521"/>
    <nd ref="9608372520"/>
    <nd ref="9608372524"/>
    <tag k="brand" v="Hugo Boss"/>
    <tag k="brand:wikidata" v="Q491627"/>
    <tag k="brand:wikipedia" v="en:Hugo Boss"/>
    <tag k="clothes" v="men"/>
    <tag k="indoor" v="room"/>
    <tag k="level" v="0"/>
    <tag k="name" v="Hugo Boss"/>
    <tag k="opening_hours" v="Mo-Sa 09:30-20:00"/>
    <tag k="phone" v="+33 9 70 10 80 01"/>
    <tag k="shop" v="clothes"/>
    <tag k="short_name" v="Boss"/>
  </way>
  <way id="1044165813" version="2" timestamp="2022-03-26T10:08:16Z" changeset="118940785" uid="12391080" user="Mevesscarto">
    <nd ref="9608372530"/>
    <nd ref="9608372526"/>
    <nd ref="9608372525"/>
    <nd ref="9608372528"/>
    <nd ref="9608372529"/>
    <nd ref="9608372530"/>
    <tag k="brand" v="Hugo Boss"/>
    <tag k="brand:wikidata" v="Q491627"/>
    <tag k="brand:wikipedia" v="en:Hugo Boss"/>
    <tag k="clothes" v="children"/>
    <tag k="indoor" v="room"/>
    <tag k="level" v="0"/>
    <tag k="name" v="Hugo Boss"/>
    <tag k="opening_hours" v="Mo-Sa 09:30-20:00"/>
    <tag k="phone" v="+33 4 78 42 49 52"/>
    <tag k="shop" v="clothes"/>
    <tag k="short_name" v="Boss"/>
    <tag k="website" v="https://www.kidsaround.com/brand/boss"/>
  </way>
  <node id="9608364269" lat="45.7624564" lon="4.8557686" version="3" timestamp="2022-06-16T09:16:46Z" changeset="122453668" uid="12391080" user="Mevesscarto"/>
  <node id="9608364270" lat="45.7624099" lon="4.8560536" version="3" timestamp="2022-06-16T09:16:46Z" changeset="122453668" uid="12391080" user="Mevesscarto"/>
  <node id="9608364271" lat="45.7623854" lon="4.8557808" version="3" timestamp="2022-06-16T09:16:46Z" changeset="122453668" uid="12391080" user="Mevesscarto"/>
  <node id="9608364273" lat="45.7624808" lon="4.8560416" version="3" timestamp="2022-06-16T09:16:46Z" changeset="122453668" uid="12391080" user="Mevesscarto"/>
  <node id="9608372520" lat="45.7618371" lon="4.8550028" version="3" timestamp="2022-06-16T09:16:46Z" changeset="122453668" uid="12391080" user="Mevesscarto"/>
  <node id="9608372521" lat="45.7619984" lon="4.8547026" version="3" timestamp="2022-06-16T09:16:46Z" changeset="122453668" uid="12391080" user="Mevesscarto"/>
  <node id="9608372522" lat="45.7618166" lon="4.8547362" version="3" timestamp="2022-06-16T09:16:46Z" changeset="122453668" uid="12391080" user="Mevesscarto"/>
  <node id="9608372523" lat="45.7618203" lon="4.8547833" version="3" timestamp="2022-06-16T09:16:46Z" changeset="122453668" uid="12391080" user="Mevesscarto"/>
  <node id="9608372524" lat="45.7617544" lon="4.8549092" version="3" timestamp="2022-06-16T09:16:46Z" changeset="122453668" uid="12391080" user="Mevesscarto"/>
  <node id="9608372525" lat="45.7617992" lon="4.8547748" version="3" timestamp="2022-06-16T09:16:46Z" changeset="122453668" uid="12391080" user="Mevesscarto"/>
  <node id="9608372526" lat="45.7617388" lon="4.8548915" version="3" timestamp="2022-06-16T09:16:46Z" changeset="122453668" uid="12391080" user="Mevesscarto"/>
  <node id="9608372528" lat="45.7617779" lon="4.8547788" version="3" timestamp="2022-06-16T09:16:46Z" changeset="122453668" uid="12391080" user="Mevesscarto"/>
  <node id="9608372529" lat="45.7617374" lon="4.8547872" version="3" timestamp="2022-06-16T09:16:46Z" changeset="122453668" uid="12391080" user="Mevesscarto"/>
  <node id="9608372530" lat="45.7617036" lon="4.8548518" version="3" timestamp="2022-06-16T09:16:46Z" changeset="122453668" uid="12391080" user="Mevesscarto"/>
  <node id="3967214364" lat="48.8789718" lon="2.2834445" version="3" timestamp="2016-01-27T22:27:41Z" changeset="36847111" uid="1779584" user="dhuyp"/>
  <node id="3967214469" lat="48.8789123" lon="2.2835505" version="2" timestamp="2016-01-26T23:14:28Z" changeset="36827677" uid="1779584" user="dhuyp"/>
  <node id="3967214474" lat="48.8790878" lon="2.2834835" version="2" timestamp="2016-01-26T23:14:29Z" changeset="36827677" uid="1779584" user="dhuyp"/>
  <node id="3967214477" lat="48.8791145" lon="2.2833800" version="2" timestamp="2016-01-26T23:14:29Z" changeset="36827677" uid="1779584" user="dhuyp"/>
  <node id="3967214673" lat="48.8789197" lon="2.2835090" version="2" timestamp="2016-01-26T23:14:36Z" changeset="36827677" uid="1779584" user="dhuyp"/>
  <node id="3967214674" lat="48.8789419" lon="2.2834269" version="3" timestamp="2016-01-27T22:27:42Z" changeset="36847111" uid="1779584" user="dhuyp"/>
  <node id="3967214677" lat="48.8789806" lon="2.2834102" version="3" timestamp="2016-01-27T22:27:42Z" changeset="36847111" uid="1779584" user="dhuyp"/>
  <node id="3967215159" lat="48.8789620" lon="2.2833479" version="3" timestamp="2016-01-27T22:27:43Z" changeset="36847111" uid="1779584" user="dhuyp"/>
  <node id="3967215460" lat="48.8790575" lon="2.2835848" version="2" timestamp="2016-01-26T23:14:47Z" changeset="36827677" uid="1779584" user="dhuyp"/>
  <node id="3972301806" lat="48.8790121" lon="2.2833749" version="1" timestamp="2016-01-27T22:27:06Z" changeset="36847111" uid="1779584" user="dhuyp"/>
  <node id="3972301807" lat="48.8790337" lon="2.2833150" version="1" timestamp="2016-01-27T22:27:07Z" changeset="36847111" uid="1779584" user="dhuyp"/>
  <node id="3972314984" lat="48.8789024" lon="2.2836226" version="1" timestamp="2016-01-27T22:27:03Z" changeset="36847111" uid="1779584" user="dhuyp"/>
  <node id="3972314987" lat="48.8789666" lon="2.2833370" version="1" timestamp="2016-01-27T22:27:05Z" changeset="36847111" uid="1779584" user="dhuyp"/>
  <node id="3972314993" lat="48.8791089" lon="2.2837341" version="1" timestamp="2016-01-27T22:27:08Z" changeset="36847111" uid="1779584" user="dhuyp"/>
  <node id="3972314996" lat="48.8791489" lon="2.2835786" version="1" timestamp="2016-01-27T22:27:09Z" changeset="36847111" uid="1779584" user="dhuyp"/>
  <node id="3972314998" lat="48.8791906" lon="2.2834551" version="1" timestamp="2016-01-27T22:27:10Z" changeset="36847111" uid="1779584" user="dhuyp"/>
  <node id="4993192663" lat="48.7285062" lon="2.3592952" version="2" timestamp="2017-07-26T19:16:37Z" changeset="50598356" uid="3178375" user="LeTopographeFou"/>
  <node id="4993192664" lat="48.7285189" lon="2.3593617" version="3" timestamp="2021-05-15T13:14:25Z" changeset="104733279" uid="5026505" user="yanisperron"/>
  <node id="4993192665" lat="48.7284575" lon="2.3593885" version="3" timestamp="2021-05-15T13:14:25Z" changeset="104733279" uid="5026505" user="yanisperron"/>
  <node id="4993192710" lat="48.7284448" lon="2.3593222" version="2" timestamp="2017-07-26T19:16:38Z" changeset="50598356" uid="3178375" user="LeTopographeFou"/>

</osm>
