[
    {
        "osm_id": 724213269,
        "osm_name": "Hugo Boss",
        "osm_url": "https://www.osm.org/node/724213269",
        "osm_business": "clothes",
        "atp_city": "Montpellier",
        "atp_address": "7 Rue Foch",
        "osm_housenumber": null,
        "osm_street": null,
        "atp_phone": "+33 4 67 02 16 16",
        "osm_phone": null,
        "atp_opening_hours": "Mo-Sa 10:00-13:00,14:00-19:00; Su 14:00-13:00",
        "osm_hours": "Mo-Sa 10:00-19:00",
        "atp_website": "https://www.hugoboss.com/us/storedetail?storeid=9922113",
        "osm_website": null,
        "brand_wikidata": "Q491627",
        "brand": "Hugo Boss",
        "match_count": 1
    },
    {
        "osm_id": 1867078494,
        "osm_name": "Hugo Boss",
        "osm_url": "https://www.osm.org/node/1867078494",
        "osm_business": "clothes",
        "atp_city": "Le Havre",
        "atp_address": "62 rue Dicquemare",
        "osm_housenumber": "61",
        "osm_street": "Rue Louis Brindeau",
        "atp_phone": "+33 2 35 19 07 18",
        "osm_phone": null,
        "atp_opening_hours": "Mo 14:00-19:00; Tu-Sa 10:00-19:00",
        "osm_hours": null,
        "atp_website": "https://www.hugoboss.com/us/storedetail?storeid=9922177",
        "osm_website": null,
        "brand_wikidata": "Q491627",
        "brand": "Hugo Boss",
        "match_count": 1
    },
    {
        "osm_id": 2596942716,
        "osm_name": "Hugo Boss",
        "osm_url": "https://www.osm.org/node/2596942716",
        "osm_business": "clothes",
        "atp_city": "CHAMB\u00c9RY",
        "atp_address": "3 RUE FAVRE",
        "osm_housenumber": null,
        "osm_street": null,
        "atp_phone": null,
        "osm_phone": null,
        "atp_opening_hours": "Mo-Su 10:00-19:00",
        "osm_hours": "Mo 14:00-19:00; Tu-Sa 10:00-19:00",
        "atp_website": "https://www.hugoboss.com/us/storedetail?storeid=1037945",
        "osm_website": null,
        "brand_wikidata": "Q491627",
        "brand": "Hugo Boss",
        "match_count": 1
    },
    {
        "osm_id": 2680653216,
        "osm_name": "Hugo Boss",
        "osm_url": "https://www.osm.org/node/2680653216",
        "osm_business": "clothes",
        "atp_city": "Paris",
        "atp_address": "115-117 Avenue des Champs Elys\u00e9es",
        "osm_housenumber": null,
        "osm_street": null,
        "atp_phone": "+33 1 53 57 35 40",
        "osm_phone": null,
        "atp_opening_hours": "Mo-Sa 10:00-20:30; Su 11:00-20:00",
        "osm_hours": null,
        "atp_website": "https://www.hugoboss.com/us/storedetail?storeid=9922101",
        "osm_website": null,
        "brand_wikidata": "Q491627",
        "brand": "Hugo Boss",
        "match_count": 1
    },
    {
        "osm_id": 3851637879,
        "osm_name": "Hugo Boss",
        "osm_url": "https://www.osm.org/node/3851637879",
        "osm_business": "clothes",
        "atp_city": "Roppenheim",
        "atp_address": "1 Route de L'Europe",
        "osm_housenumber": null,
        "osm_street": null,
        "atp_phone": "+33 3 68 72 02 66",
        "osm_phone": null,
        "atp_opening_hours": "Mo-Sa 10:00-19:00",
        "osm_hours": null,
        "atp_website": "https://www.hugoboss.com/us/storedetail?storeid=9924385",
        "osm_website": null,
        "brand_wikidata": "Q491627",
        "brand": "Hugo Boss",
        "match_count": 1
    },
    {
        "osm_id": 4782112513,
        "osm_name": "Hugo Boss",
        "osm_url": "https://www.osm.org/node/4782112513",
        "osm_business": "clothes",
        "atp_city": "Brest",
        "atp_address": "27 Rue de Siam",
        "osm_housenumber": null,
        "osm_street": null,
        "atp_phone": "+33 2 98 44 20 51",
        "osm_phone": null,
        "atp_opening_hours": "Mo 11:00-19:00; Tu-Sa 10:00-19:00",
        "osm_hours": null,
        "atp_website": "https://www.hugoboss.com/us/storedetail?storeid=9929261",
        "osm_website": null,
        "brand_wikidata": "Q491627",
        "brand": "Hugo Boss",
        "match_count": 1
    },
    {
        "osm_id": 4803796221,
        "osm_name": "Hugo Boss",
        "osm_url": "https://www.osm.org/node/4803796221",
        "osm_business": "clothes",
        "atp_city": "Paris",
        "atp_address": "43 Avenue de l'Op\u00e9ra",
        "osm_housenumber": null,
        "osm_street": null,
        "atp_phone": "+33 1 47 03 94 00",
        "osm_phone": null,
        "atp_opening_hours": "Mo-Sa 10:00-19:30; Su 11:00-19:00",
        "osm_hours": null,
        "atp_website": "https://www.hugoboss.com/us/storedetail?storeid=9929229",
        "osm_website": null,
        "brand_wikidata": "Q491627",
        "brand": "Hugo Boss",
        "match_count": 1
    },
    {
        "osm_id": 5695218833,
        "osm_name": "Hugo Boss",
        "osm_url": "https://www.osm.org/node/5695218833",
        "osm_business": "clothes",
        "atp_city": "Paris",
        "atp_address": "168 Boulevard St Germain",
        "osm_housenumber": null,
        "osm_street": null,
        "atp_phone": "+33 1 56 81 26 90",
        "osm_phone": null,
        "atp_opening_hours": "Mo-Sa 10:30-19:30; Su 11:00-19:00",
        "osm_hours": null,
        "atp_website": "https://www.hugoboss.com/us/storedetail?storeid=9922114",
        "osm_website": null,
        "brand_wikidata": "Q491627",
        "brand": "Hugo Boss",
        "match_count": 1
    },
    {
        "osm_id": 6514903348,
        "osm_name": "Hugo Boss",
        "osm_url": "https://www.osm.org/node/6514903348",
        "osm_business": "clothes",
        "atp_city": "Montpellier",
        "atp_address": "7 Rue Foch",
        "osm_housenumber": null,
        "osm_street": null,
        "atp_phone": "+33 4 67 02 16 16",
        "osm_phone": null,
        "atp_opening_hours": "Mo-Sa 10:00-13:00,14:00-19:00; Su 14:00-13:00",
        "osm_hours": "Mo-Sa 10:00-19:00",
        "atp_website": "https://www.hugoboss.com/us/storedetail?storeid=9922113",
        "osm_website": null,
        "brand_wikidata": "Q491627",
        "brand": "Hugo Boss",
        "match_count": 1
    },
    {
        "osm_id": 6580402903,
        "osm_name": "Hugo Boss",
        "osm_url": "https://www.osm.org/node/6580402903",
        "osm_business": "clothes",
        "atp_city": "Serris",
        "atp_address": "3 Cours de Garonne",
        "osm_housenumber": null,
        "osm_street": null,
        "atp_phone": "+33 1 64 17 07 36",
        "osm_phone": null,
        "atp_opening_hours": "Mo-Su 10:00-20:00",
        "osm_hours": null,
        "atp_website": "https://www.hugoboss.com/us/storedetail?storeid=9922181",
        "osm_website": null,
        "brand_wikidata": "Q491627",
        "brand": "Hugo Boss",
        "match_count": 1
    },
    {
        "osm_id": 6992750710,
        "osm_name": "Hugo Boss",
        "osm_url": "https://www.osm.org/node/6992750710",
        "osm_business": "clothes",
        "atp_city": "Lyon",
        "atp_address": "9 Place des Jacobins",
        "osm_housenumber": null,
        "osm_street": null,
        "atp_phone": "+33 4 37 23 67 50",
        "osm_phone": "+33437236750",
        "atp_opening_hours": "Mo-Sa 10:00-19:00",
        "osm_hours": "Mo-Sa 10:00-19:00",
        "atp_website": "https://www.hugoboss.com/us/storedetail?storeid=9923464",
        "osm_website": "https://www.hugoboss.com/fr/storedetail?storeid=9923464",
        "brand_wikidata": "Q491627",
        "brand": "Hugo Boss",
        "match_count": 1
    },
    {
        "osm_id": 393519515,
        "osm_name": "Hugo Boss",
        "osm_url": "https://www.osm.org/way/393519515",
        "osm_business": "clothes",
        "atp_city": "Paris",
        "atp_address": "2 Place de la Porte Maillot",
        "osm_housenumber": null,
        "osm_street": null,
        "atp_phone": "+33 1 56 68 84 84",
        "osm_phone": null,
        "atp_opening_hours": "Mo-Sa 10:30-19:30; Su 11:00-19:00",
        "osm_hours": null,
        "atp_website": "https://www.hugoboss.com/us/storedetail?storeid=9922175",
        "osm_website": null,
        "brand_wikidata": "Q491627",
        "brand": "Hugo Boss",
        "match_count": 1
    },
    {
        "osm_id": 394221443,
        "osm_name": "Hugo Boss",
        "osm_url": "https://www.osm.org/way/394221443",
        "osm_business": "clothes",
        "atp_city": "Paris",
        "atp_address": "2 Place de la Porte Maillot",
        "osm_housenumber": null,
        "osm_street": null,
        "atp_phone": "+33 1 56 68 84 84",
        "osm_phone": null,
        "atp_opening_hours": "Mo-Sa 10:30-19:30; Su 11:00-19:00",
        "osm_hours": null,
        "atp_website": "https://www.hugoboss.com/us/storedetail?storeid=9922175",
        "osm_website": null,
        "brand_wikidata": "Q491627",
        "brand": "Hugo Boss",
        "match_count": 1
    }
]