[
    {
        "osm_id": 25972924,
        "osm_name": "Path\u00e9",
        "osm_url": "https://www.osm.org/node/25972924",
        "osm_business": "cinema",
        "atp_city": "Lyon",
        "atp_address": "79 rue de la R\u00e9publique",
        "osm_housenumber": null,
        "osm_street": null,
        "atp_phone": null,
        "osm_phone": null,
        "atp_opening_hours": null,
        "osm_hours": "24/7",
        "atp_website": "https://www.pathe.fr/cinemas/cinema-pathe-bellecour",
        "osm_website": null,
        "brand_wikidata": "Q3060526",
        "brand": "Path\u00e9 Gaumont",
        "match_count": 1
    },
    {
        "osm_id": 232928765,
        "osm_name": "Gaumont Aquaboulevard",
        "osm_url": "https://www.osm.org/node/232928765",
        "osm_business": "cinema",
        "atp_city": "Paris",
        "atp_address": "8 rue du Colonel Pierre Avia",
        "osm_housenumber": null,
        "osm_street": null,
        "atp_phone": null,
        "osm_phone": null,
        "atp_opening_hours": null,
        "osm_hours": null,
        "atp_website": "https://www.pathe.fr/cinemas/cinema-gaumont-aquaboulevard",
        "osm_website": "https://www.cinemaspathegaumont.com/cinemas/cinema-gaumont-aquaboulevard",
        "brand_wikidata": "Q3060526",
        "brand": "Path\u00e9 Gaumont",
        "match_count": 1
    },
    {
        "osm_id": 282416684,
        "osm_name": "Path\u00e9 \u00c9vreux",
        "osm_url": "https://www.osm.org/node/282416684",
        "osm_business": "cinema",
        "atp_city": "Evreux",
        "atp_address": "3 rue du 7\u00e9me Chasseur",
        "osm_housenumber": "3",
        "osm_street": "Rue de la Rochette",
        "atp_phone": null,
        "osm_phone": null,
        "atp_opening_hours": null,
        "osm_hours": "Mo-Su,PH 09:30-00:30",
        "atp_website": "https://www.pathe.fr/cinemas/cinema-pathe-evreux",
        "osm_website": null,
        "brand_wikidata": "Q3060526",
        "brand": "Path\u00e9 Gaumont",
        "match_count": 1
    },
    {
        "osm_id": 321012070,
        "osm_name": "Path\u00e9 Les Fauvettes",
        "osm_url": "https://www.osm.org/node/321012070",
        "osm_business": "cinema",
        "atp_city": "Paris",
        "atp_address": "58 avenue des Gobelins",
        "osm_housenumber": null,
        "osm_street": null,
        "atp_phone": null,
        "osm_phone": null,
        "atp_opening_hours": null,
        "osm_hours": null,
        "atp_website": "https://www.pathe.fr/cinemas/cinema-pathe-les-fauvettes",
        "osm_website": "https://www.cinemaspathegaumont.com/cinemas/cinema-pathe-les-fauvettes",
        "brand_wikidata": "Q3060526",
        "brand": "Path\u00e9 Gaumont",
        "match_count": 1
    },
    {
        "osm_id": 347532098,
        "osm_name": "Gaumont Com\u00e9die",
        "osm_url": "https://www.osm.org/node/347532098",
        "osm_business": "cinema",
        "atp_city": "Montpellier",
        "atp_address": "10 place de la Com\u00e9die",
        "osm_housenumber": null,
        "osm_street": null,
        "atp_phone": null,
        "osm_phone": null,
        "atp_opening_hours": null,
        "osm_hours": "Mo-Sa 12:45-00:30, Su 10:45-00:30",
        "atp_website": "https://www.pathe.fr/cinemas/cinema-gaumont-comedie",
        "osm_website": "https://www.cinemaspathegaumont.com/cinemas/cinema-gaumont-comedie",
        "brand_wikidata": "Q3060526",
        "brand": "Path\u00e9 Gaumont",
        "match_count": 1
    },
    {
        "osm_id": 364987099,
        "osm_name": "Path\u00e9 Nantes",
        "osm_url": "https://www.osm.org/node/364987099",
        "osm_business": "cinema",
        "atp_city": "Nantes",
        "atp_address": "12 place du Commerce",
        "osm_housenumber": null,
        "osm_street": null,
        "atp_phone": null,
        "osm_phone": "+33 8 92 69 66 96",
        "atp_opening_hours": null,
        "osm_hours": "PH,Mo-Sa 13:00-24:00+; Su 10:30-24:00+",
        "atp_website": "https://www.pathe.fr/cinemas/cinema-pathe-nantes",
        "osm_website": "https://www.cinemasgaumontpathe.com/cinemas/cinema-gaumont-nantes/",
        "brand_wikidata": "Q3060526",
        "brand": "Path\u00e9 Gaumont",
        "match_count": 1
    },
    {
        "osm_id": 620865754,
        "osm_name": "Path\u00e9 Montataire",
        "osm_url": "https://www.osm.org/node/620865754",
        "osm_business": "cinema",
        "atp_city": "Montataire",
        "atp_address": "91 rue Louis Blanc",
        "osm_housenumber": null,
        "osm_street": null,
        "atp_phone": null,
        "osm_phone": null,
        "atp_opening_hours": null,
        "osm_hours": null,
        "atp_website": "https://www.pathe.fr/cinemas/cinema-pathe-montataire",
        "osm_website": null,
        "brand_wikidata": "Q3060526",
        "brand": "Path\u00e9 Gaumont",
        "match_count": 1
    },
    {
        "osm_id": 667281522,
        "osm_name": "Path\u00e9 Quai d'Ivry",
        "osm_url": "https://www.osm.org/node/667281522",
        "osm_business": "cinema",
        "atp_city": "Ivry-sur-Seine",
        "atp_address": "5 Rue Fran\u00e7ois Mitterrand",
        "osm_housenumber": "5",
        "osm_street": "Rue Fran\u00e7ois Mitterrand",
        "atp_phone": null,
        "osm_phone": "+33892696696",
        "atp_opening_hours": null,
        "osm_hours": null,
        "atp_website": "https://www.pathe.fr/cinemas/cinema-pathe-quai-d-ivry",
        "osm_website": null,
        "brand_wikidata": "Q3060526",
        "brand": "Path\u00e9 Gaumont",
        "match_count": 1
    },
    {
        "osm_id": 687044630,
        "osm_name": "Gaumont Op\u00e9ra Premier",
        "osm_url": "https://www.osm.org/node/687044630",
        "osm_business": "cinema",
        "atp_city": "Paris",
        "atp_address": "32 rue Louis Legrand",
        "osm_housenumber": "32",
        "osm_street": "Rue Louis Le Grand",
        "atp_phone": null,
        "osm_phone": null,
        "atp_opening_hours": null,
        "osm_hours": null,
        "atp_website": "https://www.pathe.fr/cinemas/cinema-pathe-opera-premier",
        "osm_website": "https://www.cinemaspathegaumont.com/cinemas/cinema-pathe-opera",
        "brand_wikidata": "Q3060526",
        "brand": "Path\u00e9 Gaumont",
        "match_count": 1
    },
    {
        "osm_id": 802009153,
        "osm_name": "Path\u00e9 Boulogne",
        "osm_url": "https://www.osm.org/node/802009153",
        "osm_business": "cinema",
        "atp_city": "Boulogne-Billancourt",
        "atp_address": "26 rue le Corbusier",
        "osm_housenumber": null,
        "osm_street": null,
        "atp_phone": null,
        "osm_phone": null,
        "atp_opening_hours": null,
        "osm_hours": "Mo-Su 13:15-00:30",
        "atp_website": "https://www.pathe.fr/cinemas/cinema-pathe-boulogne",
        "osm_website": null,
        "brand_wikidata": "Q3060526",
        "brand": "Path\u00e9 Gaumont",
        "match_count": 1
    },
    {
        "osm_id": 1027041966,
        "osm_name": "Path\u00e9 Carr\u00e9 de Soie",
        "osm_url": "https://www.osm.org/node/1027041966",
        "osm_business": "cinema",
        "atp_city": "Vaulx-en-Velin",
        "atp_address": "2 rue Jacquard",
        "osm_housenumber": null,
        "osm_street": null,
        "atp_phone": null,
        "osm_phone": null,
        "atp_opening_hours": null,
        "osm_hours": "Mo-Su,PH 10:00-00:30",
        "atp_website": "https://www.pathe.fr/cinemas/cinema-pathe-carre-de-soie",
        "osm_website": "http://www.cinemasgaumontpathe.com/cinemas/cinema-pathe-carre-de-soie/",
        "brand_wikidata": "Q3060526",
        "brand": "Path\u00e9 Gaumont",
        "match_count": 1
    },
    {
        "osm_id": 1156502988,
        "osm_name": "Path\u00e9 Docks Vauban",
        "osm_url": "https://www.osm.org/node/1156502988",
        "osm_business": "cinema",
        "atp_city": "Le Havre",
        "atp_address": "quai des Antilles",
        "osm_housenumber": null,
        "osm_street": "Quai des Antilles",
        "atp_phone": null,
        "osm_phone": null,
        "atp_opening_hours": null,
        "osm_hours": null,
        "atp_website": "https://www.pathe.fr/cinemas/cinema-pathe-docks-vauban",
        "osm_website": "https://www.cinemaspathegaumont.com/cinemas/cinema-gaumont-docks-vauban",
        "brand_wikidata": "Q3060526",
        "brand": "Path\u00e9 Gaumont",
        "match_count": 1
    },
    {
        "osm_id": 1207265103,
        "osm_name": "Path\u00e9 Libert\u00e9",
        "osm_url": "https://www.osm.org/node/1207265103",
        "osm_business": "cinema",
        "atp_city": "Toulon",
        "atp_address": "265 Boulevard du G\u00e9n\u00e9ral Leclerc",
        "osm_housenumber": null,
        "osm_street": "Boulevard du G\u00e9n\u00e9ral Leclerc",
        "atp_phone": null,
        "osm_phone": "+33892696696",
        "atp_opening_hours": null,
        "osm_hours": "Mo-Sa 12:00-22:00; Su 10:00-22:00",
        "atp_website": "https://www.pathe.fr/cinemas/cinema-pathe-toulon",
        "osm_website": null,
        "brand_wikidata": "Q3060526",
        "brand": "Path\u00e9 Gaumont",
        "match_count": 1
    },
    {
        "osm_id": 1211400103,
        "osm_name": "Path\u00e9 Lingosti\u00e8re",
        "osm_url": "https://www.osm.org/node/1211400103",
        "osm_business": "cinema",
        "atp_city": "Nice",
        "atp_address": "604 boulevard du Mercantour",
        "osm_housenumber": "604",
        "osm_street": "Boulevard du Mercantour",
        "atp_phone": null,
        "osm_phone": null,
        "atp_opening_hours": null,
        "osm_hours": null,
        "atp_website": "https://www.pathe.fr/cinemas/cinema-pathe-lingostiere",
        "osm_website": "https://www.cinemaspathegaumont.com/cinemas/cinema-pathe-lingostiere",
        "brand_wikidata": "Q3060526",
        "brand": "Path\u00e9 Gaumont",
        "match_count": 1
    },
    {
        "osm_id": 1387560075,
        "osm_name": "Path\u00e9 Cap Sud",
        "osm_url": "https://www.osm.org/node/1387560075",
        "osm_business": "cinema",
        "atp_city": "Avignon",
        "atp_address": "175 rue Pierre Seghers",
        "osm_housenumber": null,
        "osm_street": "Rue Pierre Seghers",
        "atp_phone": null,
        "osm_phone": "+33892696696",
        "atp_opening_hours": null,
        "osm_hours": null,
        "atp_website": "https://www.pathe.fr/cinemas/cinema-pathe-cap-sud",
        "osm_website": "https://www.cinemaspathegaumont.com/cinemas/cinema-pathe-cap-sud",
        "brand_wikidata": "Q3060526",
        "brand": "Path\u00e9 Gaumont",
        "match_count": 1
    },
    {
        "osm_id": 1530364523,
        "osm_name": "Cin\u00e9ma Path\u00e9 Chamb\u00e9ry Les Halles - 4DX",
        "osm_url": "https://www.osm.org/node/1530364523",
        "osm_business": "cinema",
        "atp_city": "Chamb\u00e9ry",
        "atp_address": "4 rue Derri\u00e8re Les Murs",
        "osm_housenumber": "4",
        "osm_street": "Rue Derri\u00e8re les Murs",
        "atp_phone": null,
        "osm_phone": null,
        "atp_opening_hours": null,
        "osm_hours": null,
        "atp_website": "https://www.pathe.fr/cinemas/cinema-pathe-chambery",
        "osm_website": "http://www.cinemaspathegaumont.com/cinemas/cinema-pathe-chambery",
        "brand_wikidata": "Q3060526",
        "brand": "Path\u00e9 Gaumont",
        "match_count": 1
    },
    {
        "osm_id": 1571730093,
        "osm_name": "Path\u00e9 Atlantis",
        "osm_url": "https://www.osm.org/node/1571730093",
        "osm_business": "cinema",
        "atp_city": "Nantes-Saint-Herblain",
        "atp_address": "all\u00e9e la P\u00e9rouse",
        "osm_housenumber": null,
        "osm_street": "All\u00e9e la P\u00e9rouse",
        "atp_phone": null,
        "osm_phone": "+33 1 46 37 28 24;+33 8 36 68 20 22",
        "atp_opening_hours": null,
        "osm_hours": null,
        "atp_website": "https://www.pathe.fr/cinemas/cinema-pathe-atlantis",
        "osm_website": "https://www.cinemasgaumontpathe.com/cinemas/cinema-pathe-atlantis/",
        "brand_wikidata": "Q3060526",
        "brand": "Path\u00e9 Gaumont",
        "match_count": 1
    },
    {
        "osm_id": 1867139339,
        "osm_name": "Path\u00e9 Massena",
        "osm_url": "https://www.osm.org/node/1867139339",
        "osm_business": "cinema",
        "atp_city": "Nice",
        "atp_address": "31 avenue Jean M\u00e9decin",
        "osm_housenumber": null,
        "osm_street": null,
        "atp_phone": null,
        "osm_phone": null,
        "atp_opening_hours": null,
        "osm_hours": null,
        "atp_website": "https://www.pathe.fr/cinemas/cinema-pathe-massena",
        "osm_website": null,
        "brand_wikidata": "Q3060526",
        "brand": "Path\u00e9 Gaumont",
        "match_count": 1
    },
    {
        "osm_id": 2354755471,
        "osm_name": "Path\u00e9 Dammarie",
        "osm_url": "https://www.osm.org/node/2354755471",
        "osm_business": "cinema",
        "atp_city": "Dammarie-les-Lys",
        "atp_address": "824 avenue du Lys",
        "osm_housenumber": null,
        "osm_street": null,
        "atp_phone": null,
        "osm_phone": null,
        "atp_opening_hours": null,
        "osm_hours": null,
        "atp_website": "https://www.pathe.fr/cinemas/cinema-pathe-dammarie",
        "osm_website": "https://www.cinemaspathegaumont.com/cinemas/cinema-pathe-dammarie",
        "brand_wikidata": "Q3060526",
        "brand": "Path\u00e9 Gaumont",
        "match_count": 1
    },
    {
        "osm_id": 2459532684,
        "osm_name": "Cin\u00e9ma Path\u00e9 Madeleine",
        "osm_url": "https://www.osm.org/node/2459532684",
        "osm_business": "cinema",
        "atp_city": "Marseille",
        "atp_address": "36 avenue du Mar\u00e9chal Foch",
        "osm_housenumber": null,
        "osm_street": null,
        "atp_phone": null,
        "osm_phone": null,
        "atp_opening_hours": null,
        "osm_hours": null,
        "atp_website": "https://www.pathe.fr/cinemas/cinema-pathe-madeleine",
        "osm_website": null,
        "brand_wikidata": "Q3060526",
        "brand": "Path\u00e9 Gaumont",
        "match_count": 1
    },
    {
        "osm_id": 2511594625,
        "osm_name": "Path\u00e9 A\u00e9roville",
        "osm_url": "https://www.osm.org/node/2511594625",
        "osm_business": "cinema",
        "atp_city": "Roissy-en-France",
        "atp_address": "30 rue des Buissons",
        "osm_housenumber": null,
        "osm_street": null,
        "atp_phone": null,
        "osm_phone": null,
        "atp_opening_hours": null,
        "osm_hours": null,
        "atp_website": "https://www.pathe.fr/cinemas/cinema-pathe-aeroville",
        "osm_website": "https://www.cinemaspathegaumont.com/cinemas/cinema-pathe-aeroville",
        "brand_wikidata": "Q3060526",
        "brand": "Path\u00e9 Gaumont",
        "match_count": 1
    },
    {
        "osm_id": 4362111791,
        "osm_name": "Path\u00e9 Beaugrenelle",
        "osm_url": "https://www.osm.org/node/4362111791",
        "osm_business": "cinema",
        "atp_city": "Paris",
        "atp_address": "7 rue Linois - Centre Commercial Beaugrenelle",
        "osm_housenumber": "12",
        "osm_street": "Rue Linois",
        "atp_phone": null,
        "osm_phone": "+33892696696",
        "atp_opening_hours": null,
        "osm_hours": "Mo-Su 09:30-00:00",
        "atp_website": "https://www.pathe.fr/cinemas/cinema-pathe-beaugrenelle",
        "osm_website": "https://www.cinemaspathegaumont.com/cinemas/cinema-pathe-beaugrenelle",
        "brand_wikidata": "Q3060526",
        "brand": "Path\u00e9 Gaumont",
        "match_count": 1
    },
    {
        "osm_id": 4883839446,
        "osm_name": "Path\u00e9 Rives de l'orne",
        "osm_url": "https://www.osm.org/node/4883839446",
        "osm_business": "cinema",
        "atp_city": "Caen",
        "atp_address": "14 esplanade L\u00e9opold S\u00e9dar Senghor",
        "osm_housenumber": "14",
        "osm_street": "Esplanade L\u00e9opold S\u00e9dar-Senghor",
        "atp_phone": null,
        "osm_phone": "+33 2 31 52 59 74",
        "atp_opening_hours": null,
        "osm_hours": null,
        "atp_website": "https://www.pathe.fr/cinemas/cinema-pathe-les-rives-de-l-orne",
        "osm_website": "https://www.cinemaspathegaumont.com/cinemas/cinema-pathe-les-rives-de-l-orne",
        "brand_wikidata": "Q3060526",
        "brand": "Path\u00e9 Gaumont",
        "match_count": 1
    },
    {
        "osm_id": 4983713469,
        "osm_name": "Cin\u00e9ma Path\u00e9 La Valette",
        "osm_url": "https://www.osm.org/node/4983713469",
        "osm_business": "cinema",
        "atp_city": "La Valette-du-Var",
        "atp_address": "300 avenue de l'Universit\u00e9",
        "osm_housenumber": null,
        "osm_street": null,
        "atp_phone": null,
        "osm_phone": null,
        "atp_opening_hours": null,
        "osm_hours": null,
        "atp_website": "https://www.pathe.fr/cinemas/cinema-pathe-la-valette",
        "osm_website": null,
        "brand_wikidata": "Q3060526",
        "brand": "Path\u00e9 Gaumont",
        "match_count": 1
    },
    {
        "osm_id": 5175286839,
        "osm_name": "Path\u00e9 Massy",
        "osm_url": "https://www.osm.org/node/5175286839",
        "osm_business": "cinema",
        "atp_city": "Massy",
        "atp_address": "21 place du Grand Ouest",
        "osm_housenumber": null,
        "osm_street": null,
        "atp_phone": null,
        "osm_phone": null,
        "atp_opening_hours": null,
        "osm_hours": "PH,Mo-Su 09:00-23:00+",
        "atp_website": "https://www.pathe.fr/cinemas/cinema-pathe-massy",
        "osm_website": "https://www.pathe.fr/cinemas/cinema-pathe-massy",
        "brand_wikidata": "Q3060526",
        "brand": "Path\u00e9 Gaumont",
        "match_count": 1
    },
    {
        "osm_id": 5457002083,
        "osm_name": "Path\u00e9 Gare du Sud",
        "osm_url": "https://www.osm.org/node/5457002083",
        "osm_business": "cinema",
        "atp_city": "Nice",
        "atp_address": "9 all\u00e9e Charles Pasqua",
        "osm_housenumber": "9",
        "osm_street": "All\u00e9e Charles Pasqua",
        "atp_phone": null,
        "osm_phone": "+33 892 696 696",
        "atp_opening_hours": null,
        "osm_hours": null,
        "atp_website": "https://www.pathe.fr/cinemas/cinema-pathe-gare-du-sud",
        "osm_website": "https://www.cinemaspathegaumont.com/cinemas/cinema-pathe-gare-du-sud",
        "brand_wikidata": "Q3060526",
        "brand": "Path\u00e9 Gaumont",
        "match_count": 1
    },
    {
        "osm_id": 5549907184,
        "osm_name": "Path\u00e9 Wilson",
        "osm_url": "https://www.osm.org/node/5549907184",
        "osm_business": "cinema",
        "atp_city": "Toulouse",
        "atp_address": "place Wilson",
        "osm_housenumber": "3",
        "osm_street": "Place du Pr\u00e9sident Wilson",
        "atp_phone": null,
        "osm_phone": "+33 8 92 69 66 96",
        "atp_opening_hours": null,
        "osm_hours": "PH,Mo-Su 10:00-00:30",
        "atp_website": "https://www.pathe.fr/cinemas/cinema-pathe-wilson",
        "osm_website": "https://www.cinemaspathegaumont.com/cinemas/cinema-pathe-wilson",
        "brand_wikidata": "Q3060526",
        "brand": "Path\u00e9 Gaumont",
        "match_count": 1
    },
    {
        "osm_id": 7724510429,
        "osm_name": "Path\u00e9",
        "osm_url": "https://www.osm.org/node/7724510429",
        "osm_business": "cinema",
        "atp_city": "Rennes",
        "atp_address": "12 rue Yvonne Jean Haffen",
        "osm_housenumber": null,
        "osm_street": null,
        "atp_phone": null,
        "osm_phone": null,
        "atp_opening_hours": null,
        "osm_hours": null,
        "atp_website": "https://www.pathe.fr/cinemas/cinema-pathe-rennes",
        "osm_website": "https://www.pathe.fr/cinemas/cinema-pathe-rennes",
        "brand_wikidata": "Q3060526",
        "brand": "Path\u00e9 Gaumont",
        "match_count": 1
    },
    {
        "osm_id": 8119059400,
        "osm_name": "Path\u00e9 Saran",
        "osm_url": "https://www.osm.org/node/8119059400",
        "osm_business": "cinema",
        "atp_city": "Saran",
        "atp_address": "1010 Rue Nationale",
        "osm_housenumber": null,
        "osm_street": null,
        "atp_phone": null,
        "osm_phone": "+33 892 69 66 96",
        "atp_opening_hours": null,
        "osm_hours": null,
        "atp_website": "https://www.pathe.fr/cinemas/cinema-pathe-saran",
        "osm_website": "https://www.cinemaspathegaumont.com/cinemas/cinema-pathe-saran",
        "brand_wikidata": "Q3060526",
        "brand": "Path\u00e9 Gaumont",
        "match_count": 1
    },
    {
        "osm_id": 9327263232,
        "osm_name": "Gaumont Saint-Denis",
        "osm_url": "https://www.osm.org/node/9327263232",
        "osm_business": "cinema",
        "atp_city": "Saint-Denis",
        "atp_address": "8 rue du Mondial 98",
        "osm_housenumber": "8",
        "osm_street": "Rue du Mondial 1998",
        "atp_phone": null,
        "osm_phone": null,
        "atp_opening_hours": null,
        "osm_hours": "Mo-Sa 13:15-22:30, Su 10:15-22:30",
        "atp_website": "https://www.pathe.fr/cinemas/cinema-gaumont-saint-denis",
        "osm_website": "https://www.cinemaspathegaumont.com/cinemas/cinema-gaumont-saint-denis",
        "brand_wikidata": "Q3060526",
        "brand": "Path\u00e9 Gaumont",
        "match_count": 1
    },
    {
        "osm_id": 9482866875,
        "osm_name": "Path\u00e9 Orl\u00e9ans",
        "osm_url": "https://www.osm.org/node/9482866875",
        "osm_business": "cinema",
        "atp_city": "Orl\u00e9ans",
        "atp_address": "2 rue des Halles",
        "osm_housenumber": "2",
        "osm_street": "Rue des Halles",
        "atp_phone": null,
        "osm_phone": "+33 8 09 103 103",
        "atp_opening_hours": null,
        "osm_hours": null,
        "atp_website": "https://www.pathe.fr/cinemas/cinema-pathe-orleans",
        "osm_website": "https://www.pathe.fr/cinemas/cinema-pathe-orleans",
        "brand_wikidata": "Q3060526",
        "brand": "Path\u00e9 Gaumont",
        "match_count": 1
    },
    {
        "osm_id": 11254780661,
        "osm_name": "Gaumont Disney Village",
        "osm_url": "https://www.osm.org/node/11254780661",
        "osm_business": "cinema",
        "atp_city": "Marne-La-Vall\u00e9e",
        "atp_address": "esplanade Fran\u00e7ois Truffaut",
        "osm_housenumber": null,
        "osm_street": "Disney Village",
        "atp_phone": null,
        "osm_phone": null,
        "atp_opening_hours": null,
        "osm_hours": null,
        "atp_website": "https://www.pathe.fr/cinemas/cinema-gaumont-disney-village",
        "osm_website": "https://www.pathe.fr/cinemas/cinema-gaumont-disney-village",
        "brand_wikidata": "Q3060526",
        "brand": "Path\u00e9 Gaumont",
        "match_count": 1
    },
    {
        "osm_id": 16921980,
        "osm_name": "Gaumont Odysseum",
        "osm_url": "https://www.osm.org/way/16921980",
        "osm_business": "cinema",
        "atp_city": "Montpellier",
        "atp_address": "235 rue Georges M\u00e9li\u00e8s",
        "osm_housenumber": "235",
        "osm_street": "Rue Georges M\u00e9li\u00e8s",
        "atp_phone": null,
        "osm_phone": "+33 4 99 52 33 00",
        "atp_opening_hours": null,
        "osm_hours": "Mo,Tu,Th,Fr 13:00-01:00, We,Sa,Su 10:20-01:00",
        "atp_website": "https://www.pathe.fr/cinemas/cinema-gaumont-montpellier-multiplexe",
        "osm_website": "http://www.cinemasgaumontpathe.com/cinemas/cinema-gaumont-montpellier-multiplexe/informations-pratiques.html",
        "brand_wikidata": "Q3060526",
        "brand": "Path\u00e9 Gaumont",
        "match_count": 1
    },
    {
        "osm_id": 22981812,
        "osm_name": "Path\u00e9 Grenoble",
        "osm_url": "https://www.osm.org/way/22981812",
        "osm_business": "cinema",
        "atp_city": "Grenoble",
        "atp_address": "21 boulevard Mar\u00e9chal Lyautey",
        "osm_housenumber": "21",
        "osm_street": "Boulevard Mar\u00e9chal Lyautey",
        "atp_phone": null,
        "osm_phone": "+33892696696",
        "atp_opening_hours": null,
        "osm_hours": null,
        "atp_website": "https://www.pathe.fr/cinemas/cinema-pathe-grenoble",
        "osm_website": null,
        "brand_wikidata": "Q3060526",
        "brand": "Path\u00e9 Gaumont",
        "match_count": 1
    },
    {
        "osm_id": 36941659,
        "osm_name": "Gaumont Path\u00e9",
        "osm_url": "https://www.osm.org/way/36941659",
        "osm_business": "cinema",
        "atp_city": "Annecy",
        "atp_address": "7 avenue de Brogny",
        "osm_housenumber": "7",
        "osm_street": "Avenue de Brogny",
        "atp_phone": null,
        "osm_phone": "+33892696696",
        "atp_opening_hours": null,
        "osm_hours": null,
        "atp_website": "https://www.pathe.fr/cinemas/cinema-pathe-annecy",
        "osm_website": "https://www.cinemaspathegaumont.com/cinemas/cinema-pathe-annecy",
        "brand_wikidata": "Q3060526",
        "brand": "Path\u00e9 Gaumont",
        "match_count": 1
    },
    {
        "osm_id": 72585311,
        "osm_name": "Path\u00e9",
        "osm_url": "https://www.osm.org/way/72585311",
        "osm_business": "cinema",
        "atp_city": "Valence",
        "atp_address": "avenue de Romans",
        "osm_housenumber": null,
        "osm_street": null,
        "atp_phone": null,
        "osm_phone": null,
        "atp_opening_hours": null,
        "osm_hours": null,
        "atp_website": "https://www.pathe.fr/cinemas/cinema-pathe-valence",
        "osm_website": null,
        "brand_wikidata": "Q3060526",
        "brand": "Path\u00e9 Gaumont",
        "match_count": 1
    },
    {
        "osm_id": 77984782,
        "osm_name": "Path\u00e9 Conflans",
        "osm_url": "https://www.osm.org/way/77984782",
        "osm_business": "cinema",
        "atp_city": "Conflans-Sainte-Honorine",
        "atp_address": "ZA les Boutries",
        "osm_housenumber": null,
        "osm_street": null,
        "atp_phone": null,
        "osm_phone": null,
        "atp_opening_hours": null,
        "osm_hours": null,
        "atp_website": "https://www.pathe.fr/cinemas/cinema-pathe-conflans",
        "osm_website": null,
        "brand_wikidata": "Q3060526",
        "brand": "Path\u00e9 Gaumont",
        "match_count": 1
    },
    {
        "osm_id": 78534914,
        "osm_name": "Fondation J\u00e9r\u00f4me Seydoux-Path\u00e9",
        "osm_url": "https://www.osm.org/way/78534914",
        "osm_business": "cinema",
        "atp_city": "Paris",
        "atp_address": "58 avenue des Gobelins",
        "osm_housenumber": null,
        "osm_street": null,
        "atp_phone": null,
        "osm_phone": null,
        "atp_opening_hours": null,
        "osm_hours": null,
        "atp_website": "https://www.pathe.fr/cinemas/cinema-pathe-les-fauvettes",
        "osm_website": "https://www.fondation-jeromeseydoux-pathe.com/",
        "brand_wikidata": "Q3060526",
        "brand": "Path\u00e9 Gaumont",
        "match_count": 1
    },
    {
        "osm_id": 79113090,
        "osm_name": "Path\u00e9 Brumath",
        "osm_url": "https://www.osm.org/way/79113090",
        "osm_business": "cinema",
        "atp_city": "Brumath",
        "atp_address": "ZI Fr\u00e8res Lumi\u00e8re",
        "osm_housenumber": null,
        "osm_street": null,
        "atp_phone": null,
        "osm_phone": "+33892696696",
        "atp_opening_hours": null,
        "osm_hours": null,
        "atp_website": "https://www.pathe.fr/cinemas/cinema-pathe-brumath",
        "osm_website": null,
        "brand_wikidata": "Q3060526",
        "brand": "Path\u00e9 Gaumont",
        "match_count": 1
    },
    {
        "osm_id": 79628456,
        "osm_name": "Path\u00e9 Al\u00e9sia",
        "osm_url": "https://www.osm.org/way/79628456",
        "osm_business": "cinema",
        "atp_city": "Paris",
        "atp_address": "73 avenue du G\u00e9n\u00e9ral Leclerc",
        "osm_housenumber": null,
        "osm_street": null,
        "atp_phone": null,
        "osm_phone": "+33892696696",
        "atp_opening_hours": null,
        "osm_hours": null,
        "atp_website": "https://www.pathe.fr/cinemas/cinema-pathe-alesia",
        "osm_website": "https://www.cinemaspathegaumont.com/cinemas/cinema-gaumont-alesia",
        "brand_wikidata": "Q3060526",
        "brand": "Path\u00e9 Gaumont",
        "match_count": 1
    },
    {
        "osm_id": 81063696,
        "osm_name": "Path\u00e9 \u00c9chirolles",
        "osm_url": "https://www.osm.org/way/81063696",
        "osm_business": "cinema",
        "atp_city": "\u00c9chirolles",
        "atp_address": "4 rue Albert Londres",
        "osm_housenumber": null,
        "osm_street": null,
        "atp_phone": null,
        "osm_phone": null,
        "atp_opening_hours": null,
        "osm_hours": null,
        "atp_website": "https://www.pathe.fr/cinemas/cinema-pathe-echirolles",
        "osm_website": "https://www.pathe.fr/cinemas/cinema-pathe-echirolles",
        "brand_wikidata": "Q3060526",
        "brand": "Path\u00e9 Gaumont",
        "match_count": 1
    },
    {
        "osm_id": 86630383,
        "osm_name": "Gaumont Mill\u00e9sime",
        "osm_url": "https://www.osm.org/way/86630383",
        "osm_business": "cinema",
        "atp_city": "Thillois",
        "atp_address": "parc Mill\u00e9sime",
        "osm_housenumber": null,
        "osm_street": null,
        "atp_phone": null,
        "osm_phone": null,
        "atp_opening_hours": null,
        "osm_hours": null,
        "atp_website": "https://www.pathe.fr/cinemas/cinema-pathe-thillois",
        "osm_website": "https://www.cinemaspathegaumont.com/cinemas/cinema-gaumont-parc-millesime",
        "brand_wikidata": "Q3060526",
        "brand": "Path\u00e9 Gaumont",
        "match_count": 1
    },
    {
        "osm_id": 105099561,
        "osm_name": "Cin\u00e9ma Path\u00e9 Li\u00e9vin",
        "osm_url": "https://www.osm.org/way/105099561",
        "osm_business": "cinema",
        "atp_city": "Li\u00e9vin",
        "atp_address": "rue Fran\u00e7ois Courtin",
        "osm_housenumber": null,
        "osm_street": "Rue Fran\u00e7ois Courtin",
        "atp_phone": null,
        "osm_phone": null,
        "atp_opening_hours": null,
        "osm_hours": null,
        "atp_website": "https://www.pathe.fr/cinemas/cinema-pathe-lievin",
        "osm_website": null,
        "brand_wikidata": "Q3060526",
        "brand": "Path\u00e9 Gaumont",
        "match_count": 1
    },
    {
        "osm_id": 106761383,
        "osm_name": "Gaumont",
        "osm_url": "https://www.osm.org/way/106761383",
        "osm_business": "cinema",
        "atp_city": "Coquelles",
        "atp_address": "boulevard du Kent",
        "osm_housenumber": null,
        "osm_street": null,
        "atp_phone": null,
        "osm_phone": null,
        "atp_opening_hours": null,
        "osm_hours": null,
        "atp_website": "https://www.pathe.fr/cinemas/cinema-pathe-cite-europe",
        "osm_website": "https://www.cinemaspathegaumont.com/cinemas/cinema-gaumont-cite-europe",
        "brand_wikidata": "Q3060526",
        "brand": "Path\u00e9 Gaumont",
        "match_count": 1
    },
    {
        "osm_id": 109068297,
        "osm_name": "Path\u00e9 Vaise",
        "osm_url": "https://www.osm.org/way/109068297",
        "osm_business": "cinema",
        "atp_city": "Lyon",
        "atp_address": "rue des Docks",
        "osm_housenumber": null,
        "osm_street": null,
        "atp_phone": null,
        "osm_phone": null,
        "atp_opening_hours": null,
        "osm_hours": "Mo-Fr 12:30-00:30, Sa,Su 10:00-00:30",
        "atp_website": "https://www.pathe.fr/cinemas/cinema-pathe-vaise",
        "osm_website": null,
        "brand_wikidata": "Q3060526",
        "brand": "Path\u00e9 Gaumont",
        "match_count": 1
    },
    {
        "osm_id": 139420815,
        "osm_name": "Gaumont",
        "osm_url": "https://www.osm.org/way/139420815",
        "osm_business": "cinema",
        "atp_city": "Amiens",
        "atp_address": "3 boulevard de Belfort",
        "osm_housenumber": "3",
        "osm_street": "Boulevard de Belfort",
        "atp_phone": null,
        "osm_phone": null,
        "atp_opening_hours": null,
        "osm_hours": null,
        "atp_website": "https://www.pathe.fr/cinemas/cinema-pathe-amiens",
        "osm_website": "https://www.cinemaspathegaumont.com/",
        "brand_wikidata": "Q3060526",
        "brand": "Path\u00e9 Gaumont",
        "match_count": 1
    },
    {
        "osm_id": 145456257,
        "osm_name": "Path\u00e9 Angers",
        "osm_url": "https://www.osm.org/way/145456257",
        "osm_business": "cinema",
        "atp_city": "Angers",
        "atp_address": "1 avenue des Droits de l'Homme",
        "osm_housenumber": null,
        "osm_street": "Avenue des Droits de l'Homme",
        "atp_phone": null,
        "osm_phone": null,
        "atp_opening_hours": null,
        "osm_hours": "Mo-Su,PH 10:00-00:30+",
        "atp_website": "https://www.pathe.fr/cinemas/cinema-pathe-angers",
        "osm_website": "https://www.cinemasgaumontpathe.com/cinemas/cinema-pathe-angers/",
        "brand_wikidata": "Q3060526",
        "brand": "Path\u00e9 Gaumont",
        "match_count": 1
    },
    {
        "osm_id": 162847981,
        "osm_name": "Path\u00e9 Belle \u00c9pine",
        "osm_url": "https://www.osm.org/way/162847981",
        "osm_business": "cinema",
        "atp_city": "Thiais",
        "atp_address": "Centre Commercial Belle \u00c9pine",
        "osm_housenumber": null,
        "osm_street": null,
        "atp_phone": null,
        "osm_phone": "+33 892 69 66 96",
        "atp_opening_hours": null,
        "osm_hours": "Su-Th 09:30-01:00; Fr-Sa 09:30-02:00",
        "atp_website": "https://www.pathe.fr/cinemas/cinema-pathe-belle-epine",
        "osm_website": null,
        "brand_wikidata": "Q3060526",
        "brand": "Path\u00e9 Gaumont",
        "match_count": 1
    },
    {
        "osm_id": 202013246,
        "osm_name": "Path\u00e9 Valenciennes",
        "osm_url": "https://www.osm.org/way/202013246",
        "osm_business": "cinema",
        "atp_city": "Valenciennes",
        "atp_address": "59 avenue des Alpes",
        "osm_housenumber": null,
        "osm_street": null,
        "atp_phone": null,
        "osm_phone": null,
        "atp_opening_hours": null,
        "osm_hours": null,
        "atp_website": "https://www.pathe.fr/cinemas/cinema-pathe-valenciennes",
        "osm_website": "https://www.pathe.fr/cinemas/cinema-pathe-valenciennes",
        "brand_wikidata": "Q3060526",
        "brand": "Path\u00e9 Gaumont",
        "match_count": 1
    },
    {
        "osm_id": 261234232,
        "osm_name": "Cin\u00e9ma Path\u00e9",
        "osm_url": "https://www.osm.org/way/261234232",
        "osm_business": "cinema",
        "atp_city": "Le Mans",
        "atp_address": "3 place des Jacobins",
        "osm_housenumber": "2",
        "osm_street": "Place des Jacobins",
        "atp_phone": null,
        "osm_phone": null,
        "atp_opening_hours": null,
        "osm_hours": null,
        "atp_website": "https://www.pathe.fr/cinemas/cinema-pathe-le-mans",
        "osm_website": "https://www.cinemaspathegaumont.com/cinemas/cinema-pathe-le-mans",
        "brand_wikidata": "Q3060526",
        "brand": "Path\u00e9 Gaumont",
        "match_count": 1
    },
    {
        "osm_id": 326832121,
        "osm_name": "Path\u00e9 Convention",
        "osm_url": "https://www.osm.org/way/326832121",
        "osm_business": "cinema",
        "atp_city": "Paris",
        "atp_address": "29 rue Alain Chartier",
        "osm_housenumber": "27",
        "osm_street": "Rue Alain Chartier",
        "atp_phone": null,
        "osm_phone": null,
        "atp_opening_hours": null,
        "osm_hours": null,
        "atp_website": "https://www.pathe.fr/cinemas/cinema-pathe-convention",
        "osm_website": "http://www.cinemasgaumontpathe.com/cinemas/cinema-gaumont-convention/",
        "brand_wikidata": "Q3060526",
        "brand": "Path\u00e9 Gaumont",
        "match_count": 1
    },
    {
        "osm_id": 576462282,
        "osm_name": "Path\u00e9 Levallois",
        "osm_url": "https://www.osm.org/way/576462282",
        "osm_business": "cinema",
        "atp_city": "Levallois",
        "atp_address": "28 rue d'Alsace",
        "osm_housenumber": null,
        "osm_street": null,
        "atp_phone": null,
        "osm_phone": null,
        "atp_opening_hours": null,
        "osm_hours": null,
        "atp_website": "https://www.pathe.fr/cinemas/cinema-pathe-levallois",
        "osm_website": null,
        "brand_wikidata": "Q3060526",
        "brand": "Path\u00e9 Gaumont",
        "match_count": 1
    },
    {
        "osm_id": 991425031,
        "osm_name": "Path\u00e9 Gaumont",
        "osm_url": "https://www.osm.org/way/991425031",
        "osm_business": "cinema",
        "atp_city": "Dijon",
        "atp_address": "12 parvis de l'UNESCO",
        "osm_housenumber": "12",
        "osm_street": null,
        "atp_phone": null,
        "osm_phone": null,
        "atp_opening_hours": null,
        "osm_hours": "Mo-Su 10:00-23:30",
        "atp_website": "https://www.pathe.fr/cinemas/cinema-pathe-dijon",
        "osm_website": null,
        "brand_wikidata": "Q3060526",
        "brand": "Path\u00e9 Gaumont",
        "match_count": 1
    },
    {
        "osm_id": 1195120422,
        "osm_name": "Path\u00e9",
        "osm_url": "https://www.osm.org/way/1195120422",
        "osm_business": "cinema",
        "atp_city": "Rouen",
        "atp_address": "boulevard Ferdinand de Lesseps",
        "osm_housenumber": null,
        "osm_street": "Boulevard Ferdinand de Lesseps",
        "atp_phone": null,
        "osm_phone": "+33 8 92 69 66 96",
        "atp_opening_hours": null,
        "osm_hours": "Mo-Su 10:30-23:00",
        "atp_website": "https://www.pathe.fr/cinemas/cinema-pathe-docks-76",
        "osm_website": null,
        "brand_wikidata": "Q3060526",
        "brand": "Path\u00e9 Gaumont",
        "match_count": 1
    }
]