<?xml version="1.0" encoding="UTF-8"?>
<osm version="0.6" generator="Overpass API 0.7.62.1 084b4234">
<note>The data included in this document is from www.openstreetmap.org. The data is made available under ODbL.</note>
<meta osm_base="2024-07-13T14:45:45Z" areas="2024-07-13T10:20:42Z"/>

  <node id="401532025" lat="48.8391427" lon="-0.8889776" version="3" timestamp="2020-03-29T17:17:43Z" changeset="82786040" uid="392288" user="Kalepom">
    <tag k="brand" v="Esprit"/>
    <tag k="brand:wikidata" v="Q532746"/>
    <tag k="brand:wikipedia" v="en:Esprit Holdings"/>
    <tag k="name" v="Esprit"/>
    <tag k="shop" v="clothes"/>
    <tag k="source" v="cadastre-dgi-fr source : Direction Générale des Impôts - Cadastre ; mise à jour : 2006"/>
  </node>
  <node id="1240915872" lat="49.0480928" lon="-1.4453467" version="7" timestamp="2022-06-10T12:33:46Z" changeset="122209264" uid="50179" user="Aroche">
    <tag k="addr:housenumber" v="4"/>
    <tag k="addr:postcode" v="50200"/>
    <tag k="addr:street" v="Place du Parvis Notre-Dame"/>
    <tag k="brand" v="Esprit"/>
    <tag k="brand:wikidata" v="Q532746"/>
    <tag k="name" v="Esprit"/>
    <tag k="opening_hours" v="Tu-Sa 09:30-19:00; Mo 14:00-19:00"/>
    <tag k="phone" v="+33 2 33 45 62 22"/>
    <tag k="shop" v="clothes"/>
  </node>
  <node id="1371108962" lat="48.6500282" lon="-2.0249155" version="3" timestamp="2022-04-19T13:39:22Z" changeset="119908393" uid="1253584" user="Camille Jeannin">
    <tag k="brand" v="Esprit"/>
    <tag k="brand:wikidata" v="Q532746"/>
    <tag k="brand:wikipedia" v="en:Esprit Holdings"/>
    <tag k="name" v="Esprit"/>
    <tag k="shop" v="clothes"/>
    <tag k="source" v="survey"/>
  </node>
  <node id="1807608226" lat="43.9218060" lon="4.8649710" version="4" timestamp="2019-12-16T22:26:31Z" changeset="78493876" uid="918586" user="Binnette">
    <tag k="brand" v="Esprit"/>
    <tag k="brand:wikidata" v="Q532746"/>
    <tag k="brand:wikipedia" v="en:Esprit Holdings"/>
    <tag k="indoor" v="yes"/>
    <tag k="name" v="Esprit"/>
    <tag k="shop" v="clothes"/>
    <tag k="source" v="survey 2014"/>
  </node>
  <node id="1912960845" lat="44.3924496" lon="2.6020418" version="2" timestamp="2020-10-31T23:35:22Z" changeset="93355309" uid="2044927" user="Mariusz Staniszewski">
    <tag k="addr:postcode" v="12850"/>
    <tag k="brand" v="Esprit"/>
    <tag k="brand:wikidata" v="Q532746"/>
    <tag k="brand:wikipedia" v="en:Esprit Holdings"/>
    <tag k="contact:phone" v="+33565465432"/>
    <tag k="fixme" v="prendre photo de la galerie pour la position exacte"/>
    <tag k="name" v="Esprit"/>
    <tag k="operator" v="Esprit"/>
    <tag k="shop" v="clothes"/>
    <tag k="source" v="survey"/>
  </node>
  <node id="2002007400" lat="50.4938437" lon="2.5759308" version="2" timestamp="2019-08-11T19:52:18Z" changeset="73249513" uid="9494918" user="viollet_le_ducq">
    <tag k="brand" v="Esprit"/>
    <tag k="brand:wikidata" v="Q532746"/>
    <tag k="brand:wikipedia" v="en:Esprit Holdings"/>
    <tag k="name" v="Esprit"/>
    <tag k="shop" v="clothes"/>
  </node>
  <node id="2020378758" lat="48.1978739" lon="-1.7262559" version="2" timestamp="2020-11-10T07:01:28Z" changeset="93838303" uid="343811" user="baptistemm">
    <tag k="brand" v="Esprit"/>
    <tag k="brand:wikidata" v="Q532746"/>
    <tag k="brand:wikipedia" v="fr:Esprit Holdings"/>
    <tag k="name" v="Esprit"/>
    <tag k="shop" v="clothes"/>
  </node>
  <node id="2060759339" lat="44.5289836" lon="4.7447941" version="3" timestamp="2021-06-11T15:24:54Z" changeset="106222409" uid="125897" user="overflorian">
    <tag k="brand" v="Esprit"/>
    <tag k="brand:wikidata" v="Q532746"/>
    <tag k="brand:wikipedia" v="en:Esprit Holdings"/>
    <tag k="name" v="Esprit"/>
    <tag k="shop" v="clothes"/>
  </node>
  <node id="2124500722" lat="48.0058052" lon="0.1984808" version="6" timestamp="2023-07-14T14:07:41Z" changeset="138509831" uid="172867" user="AmiFritz">
    <tag k="addr:city" v="Le Mans"/>
    <tag k="addr:housenumber" v="14"/>
    <tag k="addr:postcode" v="72000"/>
    <tag k="addr:street" v="Rue Marchande"/>
    <tag k="brand" v="Esprit"/>
    <tag k="brand:wikidata" v="Q532746"/>
    <tag k="brand:wikipedia" v="en:Esprit Holdings"/>
    <tag k="name" v="Esprit"/>
    <tag k="second_hand" v="no"/>
    <tag k="shop" v="clothes"/>
    <tag k="source" v="cadastre-dgi-fr source : Direction Générale des Impôts - Cadastre. Mise à jour : 2013"/>
    <tag k="wheelchair" v="yes"/>
  </node>
  <node id="2269790145" lat="49.3541124" lon="6.1324962" version="3" timestamp="2022-04-06T10:00:20Z" changeset="119378532" uid="8874984" user="anyroka">
    <tag k="brand" v="Esprit"/>
    <tag k="brand:wikidata" v="Q532746"/>
    <tag k="brand:wikipedia" v="en:Esprit Holdings"/>
    <tag k="name" v="Esprit"/>
    <tag k="shop" v="clothes"/>
    <tag k="wheelchair" v="yes"/>
  </node>
  <node id="2458144359" lat="43.6033861" lon="1.4450715" version="4" timestamp="2023-12-03T10:42:08Z" changeset="144715275" uid="3045105" user="SpitfireOnline">
    <tag k="brand" v="Esprit"/>
    <tag k="brand:wikidata" v="Q532746"/>
    <tag k="brand:wikipedia" v="en:Esprit Holdings"/>
    <tag k="check_date" v="2023-12-03"/>
    <tag k="clothes" v="women"/>
    <tag k="contact:addr" v="57 Rue de la Pomme 31000 Toulouse"/>
    <tag k="name" v="Esprit"/>
    <tag k="network" v="Esprit"/>
    <tag k="shop" v="clothes"/>
    <tag k="source" v="survey"/>
  </node>
  <node id="2521368953" lat="48.0143459" lon="-4.0819111" version="3" timestamp="2020-11-07T22:08:52Z" changeset="93722232" uid="392288" user="Kalepom">
    <tag k="brand" v="Esprit"/>
    <tag k="brand:wikidata" v="Q532746"/>
    <tag k="brand:wikipedia" v="en:Esprit Holdings"/>
    <tag k="name" v="Esprit"/>
    <tag k="opening_hours" v="Mo-Sa 10:00-19:00"/>
    <tag k="shop" v="clothes"/>
  </node>
  <node id="2587692337" lat="44.7952900" lon="-0.5337780" version="2" timestamp="2020-01-12T19:00:31Z" changeset="79484711" uid="145394" user="Zassenhaus">
    <tag k="brand" v="Esprit"/>
    <tag k="brand:wikidata" v="Q532746"/>
    <tag k="brand:wikipedia" v="en:Esprit Holdings"/>
    <tag k="name" v="Esprit"/>
    <tag k="shop" v="clothes"/>
  </node>
  <node id="2625796227" lat="45.6913039" lon="5.9126527" version="2" timestamp="2020-09-27T11:53:40Z" changeset="91580289" uid="10951304" user="clemcout">
    <tag k="brand" v="Esprit"/>
    <tag k="brand:wikidata" v="Q532746"/>
    <tag k="brand:wikipedia" v="en:Esprit Holdings"/>
    <tag k="name" v="Esprit"/>
    <tag k="shop" v="clothes"/>
  </node>
  <node id="2872767442" lat="43.8096588" lon="4.3628238" version="3" timestamp="2020-03-15T14:33:37Z" changeset="82218908" uid="10397245" user="chamdam">
    <tag k="addr:city" v="Nîmes"/>
    <tag k="addr:housenumber" v="148"/>
    <tag k="addr:postcode" v="30900"/>
    <tag k="addr:street" v="Rue Jean Lauret"/>
    <tag k="brand" v="Esprit"/>
    <tag k="brand:wikidata" v="Q532746"/>
    <tag k="brand:wikipedia" v="en:Esprit Holdings"/>
    <tag k="name" v="Esprit"/>
    <tag k="opening_hours" v="Mo-Sa 10:00-19:00"/>
    <tag k="phone" v="+33 4 66 76 93 10"/>
    <tag k="shop" v="clothes"/>
    <tag k="website" v="https://esprit-nimes.business.site"/>
  </node>
  <node id="2912535225" lat="48.4981290" lon="-2.7279283" version="2" timestamp="2020-12-25T00:25:28Z" changeset="96405781" uid="158194" user="mneko">
    <tag k="brand" v="Esprit"/>
    <tag k="brand:wikidata" v="Q532746"/>
    <tag k="brand:wikipedia" v="en:Esprit Holdings"/>
    <tag k="name" v="Esprit"/>
    <tag k="shop" v="clothes"/>
  </node>
  <node id="2966664676" lat="47.3801298" lon="0.7165610" version="3" timestamp="2023-10-19T20:21:44Z" changeset="142835060" uid="209796" user="LudovicG">
    <tag k="brand" v="Esprit"/>
    <tag k="brand:wikidata" v="Q532746"/>
    <tag k="brand:wikipedia" v="en:Esprit Holdings"/>
    <tag k="check_date" v="2023-10-19"/>
    <tag k="name" v="Esprit"/>
    <tag k="opening_hours" v="Mo-Th 09:30-20:30; Fr,Sa 09:00-20:30"/>
    <tag k="shop" v="clothes"/>
  </node>
  <node id="3086007064" lat="48.0708508" lon="-0.7695173" version="4" timestamp="2023-04-09T15:53:52Z" changeset="134688540" uid="392288" user="Kalepom">
    <tag k="addr:housenumber" v="4"/>
    <tag k="addr:street" v="Rue de la Paix"/>
    <tag k="brand" v="Esprit"/>
    <tag k="brand:wikidata" v="Q532746"/>
    <tag k="brand:wikipedia" v="en:Esprit Holdings"/>
    <tag k="check_date:opening_hours" v="2023-04-09"/>
    <tag k="clothes" v="women"/>
    <tag k="name" v="Esprit"/>
    <tag k="opening_hours" v="Mo 11:00-19:00; Tu-Sa 10:00-19:00"/>
    <tag k="shop" v="clothes"/>
  </node>
  <node id="3104072700" lat="49.8912632" lon="2.3016851" version="5" timestamp="2022-05-10T08:09:01Z" changeset="120780635" uid="8874984" user="anyroka">
    <tag k="brand" v="Esprit"/>
    <tag k="brand:wikidata" v="Q532746"/>
    <tag k="name" v="Esprit"/>
    <tag k="shop" v="clothes"/>
  </node>
  <node id="3385933251" lat="44.6166930" lon="4.4055695" version="3" timestamp="2020-06-10T07:16:24Z" changeset="86442953" uid="213513" user="ThomR">
    <tag k="brand" v="Esprit"/>
    <tag k="brand:wikidata" v="Q532746"/>
    <tag k="brand:wikipedia" v="en:Esprit Holdings"/>
    <tag k="shop" v="clothes"/>
  </node>
  <node id="3691070529" lat="45.1419006" lon="1.4677703" version="2" timestamp="2022-07-11T07:49:37Z" changeset="123460328" uid="1988610" user="Conlinp">
    <tag k="branch" v="du Sud"/>
    <tag k="brand" v="Esprit"/>
    <tag k="brand:wikidata" v="Q532746"/>
    <tag k="name" v="Esprit"/>
    <tag k="shop" v="clothes"/>
  </node>
  <node id="3838383455" lat="47.6626354" lon="-2.7887573" version="5" timestamp="2020-03-30T10:34:55Z" changeset="82818185" uid="1836105" user="Maxime Lorant">
    <tag k="addr:city" v="Vannes"/>
    <tag k="addr:postcode" v="56000"/>
    <tag k="addr:street" v="Rue Théophraste Renaudot"/>
    <tag k="brand" v="Esprit"/>
    <tag k="brand:wikidata" v="Q532746"/>
    <tag k="brand:wikipedia" v="en:Esprit Holdings"/>
    <tag k="name" v="Esprit"/>
    <tag k="phone" v="+33 2 97 40 68 00"/>
    <tag k="shop" v="clothes"/>
    <tag k="website" v="https://www.esprit.fr"/>
    <tag k="wheelchair" v="yes"/>
  </node>
  <node id="3844289109" lat="46.5130874" lon="-1.7814932" version="4" timestamp="2020-11-01T23:10:24Z" changeset="93385012" uid="392288" user="Kalepom">
    <tag k="brand" v="Esprit"/>
    <tag k="brand:wikidata" v="Q532746"/>
    <tag k="brand:wikipedia" v="en:Esprit Holdings"/>
    <tag k="name" v="Esprit"/>
    <tag k="shop" v="clothes"/>
  </node>
  <node id="4186128057" lat="47.8113938" lon="3.5711319" version="5" timestamp="2022-12-13T09:41:25Z" changeset="130028615" uid="8874984" user="anyroka">
    <tag k="brand" v="Esprit"/>
    <tag k="brand:wikidata" v="Q532746"/>
    <tag k="name" v="Esprit"/>
    <tag k="shop" v="clothes"/>
  </node>
  <node id="4282134138" lat="49.4409030" lon="1.0951497" version="4" timestamp="2024-04-17T20:04:47Z" changeset="150146842" uid="1903730" user="Kurosawa06">
    <tag k="brand" v="Esprit"/>
    <tag k="brand:wikidata" v="Q532746"/>
    <tag k="brand:wikipedia" v="en:Esprit Holdings"/>
    <tag k="check_date" v="2023-06-29"/>
    <tag k="name" v="Esprit"/>
    <tag k="shop" v="clothes"/>
  </node>
  <node id="4404961198" lat="48.9296415" lon="2.0425062" version="7" timestamp="2022-07-10T20:30:47Z" changeset="123446443" uid="1198089" user="GeorgeKaplan">
    <tag k="addr:housenumber" v="75"/>
    <tag k="addr:postcode" v="78300"/>
    <tag k="addr:street" v="Rue du Général de Gaulle"/>
    <tag k="brand" v="Esprit"/>
    <tag k="brand:wikidata" v="Q532746"/>
    <tag k="brand:wikipedia" v="en:Esprit Holdings"/>
    <tag k="description" v="Anciennement : Jules (fin en septembre 2021) Bar le lion d'or"/>
    <tag k="name" v="Esprit"/>
    <tag k="opening_hours" v="Mo-Sa 10:00-19:30; Su 10:00-13:00"/>
    <tag k="shop" v="clothes"/>
  </node>
  <node id="4793685115" lat="48.0672699" lon="-2.9654264" version="3" timestamp="2021-11-06T21:32:37Z" changeset="113461947" uid="3178375" user="LeTopographeFou">
    <tag k="brand" v="Esprit"/>
    <tag k="brand:wikidata" v="Q532746"/>
    <tag k="brand:wikipedia" v="en:Esprit Holdings"/>
    <tag k="level" v="0"/>
    <tag k="name" v="Esprit"/>
    <tag k="opening_hours" v="Tu-Sa 10:00-19:00; Mo 14:00-18:30"/>
    <tag k="shop" v="clothes"/>
  </node>
  <node id="4922191648" lat="48.0787549" lon="7.3554004" version="2" timestamp="2021-01-15T20:49:59Z" changeset="97581816" uid="6060820" user="Harvesterify">
    <tag k="brand" v="Esprit"/>
    <tag k="brand:wikidata" v="Q532746"/>
    <tag k="brand:wikipedia" v="en:Esprit Holdings"/>
    <tag k="name" v="Esprit"/>
    <tag k="shop" v="clothes"/>
  </node>
  <node id="5154125910" lat="48.5602306" lon="-3.1302536" version="2" timestamp="2022-05-12T08:46:53Z" changeset="120876188" uid="8874984" user="anyroka">
    <tag k="brand" v="Esprit"/>
    <tag k="brand:wikidata" v="Q532746"/>
    <tag k="name" v="Esprit"/>
    <tag k="shop" v="clothes"/>
  </node>
  <node id="5159234889" lat="45.5817122" lon="4.7413098" version="2" timestamp="2020-12-25T10:35:43Z" changeset="96416780" uid="581277" user="meihou">
    <tag k="brand" v="Esprit"/>
    <tag k="brand:wikidata" v="Q532746"/>
    <tag k="brand:wikipedia" v="en:Esprit Holdings"/>
    <tag k="name" v="Esprit"/>
    <tag k="shop" v="clothes"/>
  </node>
  <node id="5387652485" lat="48.0170605" lon="6.5902466" version="3" timestamp="2022-11-27T18:20:35Z" changeset="129444220" uid="8241440" user="Jean-Baptiste CHARRON">
    <tag k="brand" v="Esprit"/>
    <tag k="brand:wikidata" v="Q532746"/>
    <tag k="name" v="Esprit"/>
    <tag k="phone" v="+33 329 225 115"/>
    <tag k="shop" v="clothes"/>
    <tag k="source" v="survey"/>
    <tag k="source:date" v="2018-02-04"/>
  </node>
  <node id="5686209173" lat="50.5141271" lon="1.6360467" version="2" timestamp="2021-10-10T23:16:40Z" changeset="112351352" uid="5589" user="user_5589">
    <tag k="addr:city" v="Étaples"/>
    <tag k="addr:postcode" v="62630"/>
    <tag k="addr:street" v="Boulevard de l'Impératrice"/>
    <tag k="branch" v="Numéro 15"/>
    <tag k="brand" v="Esprit"/>
    <tag k="brand:wikidata" v="Q532746"/>
    <tag k="brand:wikipedia" v="en:Esprit Holdings"/>
    <tag k="name" v="Esprit"/>
    <tag k="shop" v="clothes"/>
  </node>
  <node id="5845971340" lat="43.1175128" lon="5.7996932" version="2" timestamp="2022-05-13T09:33:59Z" changeset="120925868" uid="8874984" user="anyroka">
    <tag k="brand" v="Esprit"/>
    <tag k="brand:wikidata" v="Q532746"/>
    <tag k="name" v="Esprit"/>
    <tag k="shop" v="clothes"/>
  </node>
  <node id="5911774829" lat="45.6757691" lon="6.3896213" version="4" timestamp="2023-08-10T10:18:55Z" changeset="139699091" uid="12951226" user="escribis">
    <tag k="brand" v="Esprit"/>
    <tag k="brand:wikidata" v="Q532746"/>
    <tag k="brand:wikipedia" v="en:Esprit Holdings"/>
    <tag k="check_date" v="2023-08-10"/>
    <tag k="clothes" v="women"/>
    <tag k="name" v="Esprit"/>
    <tag k="shop" v="clothes"/>
  </node>
  <node id="6146472075" lat="47.2141936" lon="-1.5610601" version="3" timestamp="2023-06-02T19:35:44Z" changeset="136880987" uid="392288" user="Kalepom">
    <tag k="brand" v="Esprit"/>
    <tag k="brand:wikidata" v="Q532746"/>
    <tag k="brand:wikipedia" v="en:Esprit Holdings"/>
    <tag k="check_date" v="2023-06-02"/>
    <tag k="clothes" v="women"/>
    <tag k="name" v="Esprit"/>
    <tag k="phone" v="+33 2 40 71 66 32"/>
    <tag k="shop" v="clothes"/>
    <tag k="website" v="https://www.esprit.fr"/>
    <tag k="wheelchair" v="yes"/>
  </node>
  <node id="6170332354" lat="46.3358950" lon="-0.4036462" version="1" timestamp="2018-12-29T11:09:02Z" changeset="65862475" uid="1731018" user="_dean">
    <tag k="brand" v="Esprit"/>
    <tag k="brand:wikidata" v="Q532746"/>
    <tag k="brand:wikipedia" v="en:Esprit Holdings"/>
    <tag k="name" v="Esprit"/>
    <tag k="shop" v="clothes"/>
  </node>
  <node id="6221996929" lat="45.0421367" lon="3.8844488" version="4" timestamp="2023-08-14T11:08:49Z" changeset="139865487" uid="2551726" user="rom143">
    <tag k="addr:city" v="Le Puy-en-Velay"/>
    <tag k="addr:housenumber" v="33"/>
    <tag k="addr:postcode" v="43000"/>
    <tag k="addr:street" v="Place du Breuil"/>
    <tag k="brand" v="Esprit"/>
    <tag k="brand:wikidata" v="Q532746"/>
    <tag k="brand:wikipedia" v="en:Esprit Holdings"/>
    <tag k="contact:facebook" v="https://www.facebook.com/espritlepuy/"/>
    <tag k="name" v="Esprit"/>
    <tag k="opening_hours" v="Tu-Sa 09:30-12:30,14:15-19:00; Mo 14:30-18:30"/>
    <tag k="phone" v="+33471021424"/>
    <tag k="shop" v="clothes"/>
  </node>
  <node id="6551142158" lat="46.2508068" lon="4.7951305" version="1" timestamp="2019-06-16T14:38:48Z" changeset="71302757" uid="502891" user="chabe01">
    <tag k="brand" v="Esprit"/>
    <tag k="brand:wikidata" v="Q532746"/>
    <tag k="brand:wikipedia" v="en:Esprit Holdings"/>
    <tag k="name" v="Esprit"/>
    <tag k="shop" v="clothes"/>
  </node>
  <node id="6732175208" lat="48.5772420" lon="-3.8275362" version="3" timestamp="2023-11-24T17:45:14Z" changeset="144416918" uid="368551" user="jabberwocky60">
    <tag k="brand" v="Esprit"/>
    <tag k="brand:wikidata" v="Q532746"/>
    <tag k="brand:wikipedia" v="en:Esprit Holdings"/>
    <tag k="name" v="Esprit"/>
    <tag k="shop" v="clothes"/>
  </node>
  <node id="6860039249" lat="45.9342621" lon="6.0832260" version="1" timestamp="2019-10-08T10:31:11Z" changeset="75408338" uid="8194744" user="Tom360">
    <tag k="brand" v="Esprit"/>
    <tag k="brand:wikidata" v="Q532746"/>
    <tag k="brand:wikipedia" v="en:Esprit Holdings"/>
    <tag k="name" v="Esprit"/>
    <tag k="shop" v="clothes"/>
  </node>
  <node id="6899144461" lat="48.4651378" lon="-4.2644856" version="3" timestamp="2023-12-20T00:45:20Z" changeset="145311794" uid="10688488" user="FoeNyx">
    <tag k="brand" v="Esprit"/>
    <tag k="brand:wikidata" v="Q532746"/>
    <tag k="brand:wikipedia" v="fr:Esprit Holdings"/>
    <tag k="name" v="Esprit"/>
    <tag k="ref:FR:NAF" v="4771Z"/>
    <tag k="ref:FR:SIRET" v="52118321000025"/>
    <tag k="shop" v="clothes"/>
    <tag k="source" v="avis-situation-sirene.insee.fr - 2021-07"/>
  </node>
  <node id="7250956205" lat="49.2156035" lon="4.0605726" version="1" timestamp="2020-02-28T16:31:10Z" changeset="81598929" uid="10411171" user="Ours51">
    <tag k="brand" v="Esprit"/>
    <tag k="brand:wikidata" v="Q532746"/>
    <tag k="brand:wikipedia" v="en:Esprit Holdings"/>
    <tag k="name" v="Esprit"/>
    <tag k="shop" v="clothes"/>
  </node>
  <node id="7301436168" lat="45.7613382" lon="4.8341921" version="5" timestamp="2023-08-17T13:57:11Z" changeset="140014559" uid="101225" user="nuxper_np">
    <tag k="brand" v="Esprit"/>
    <tag k="brand:wikidata" v="Q532746"/>
    <tag k="brand:wikipedia" v="en:Esprit Holdings"/>
    <tag k="name" v="Esprit"/>
    <tag k="opening_hours" v="Mo-Sa 10:00-19:00"/>
    <tag k="ref:FR:SIRET" v="39182946200194"/>
    <tag k="shop" v="clothes"/>
    <tag k="survey:date" v="2023-08-17"/>
    <tag k="wheelchair" v="yes"/>
  </node>
  <node id="7398227856" lat="45.7775873" lon="1.3079704" version="2" timestamp="2020-04-14T06:37:38Z" changeset="83511742" uid="270456" user="pyrog">
    <tag k="brand" v="Esprit"/>
    <tag k="brand:wikidata" v="Q532746"/>
    <tag k="brand:wikipedia" v="en:Esprit Holdings"/>
    <tag k="name" v="Esprit"/>
    <tag k="phone" v="+33 9 87 70 19 74"/>
    <tag k="shop" v="clothes"/>
    <tag k="website" v="https://www.esprit.fr"/>
  </node>
  <node id="7399408975" lat="43.6032844" lon="1.4448691" version="2" timestamp="2020-06-03T17:50:16Z" changeset="86148180" uid="1882956" user="Tyndare">
    <tag k="brand" v="Esprit"/>
    <tag k="brand:wikidata" v="Q532746"/>
    <tag k="brand:wikipedia" v="en:Esprit Holdings"/>
    <tag k="clothes" v="men"/>
    <tag k="name" v="Esprit"/>
    <tag k="shop" v="clothes"/>
    <tag k="source" v="survey"/>
  </node>
  <node id="7405129129" lat="47.0932888" lon="5.4947225" version="2" timestamp="2020-05-12T18:18:23Z" changeset="85100693" uid="1253584" user="Camille Jeannin">
    <tag k="brand" v="Esprit"/>
    <tag k="brand:wikidata" v="Q532746"/>
    <tag k="brand:wikipedia" v="en:Esprit Holdings"/>
    <tag k="name" v="Esprit"/>
    <tag k="ref:FR:SIRET" v="48073894700047"/>
    <tag k="shop" v="clothes"/>
    <tag k="source" v="INSEE - 06/2019"/>
  </node>
  <node id="7701830061" lat="48.6627312" lon="7.7196336" version="2" timestamp="2022-06-20T16:09:43Z" changeset="122630806" uid="5589" user="user_5589">
    <tag k="brand" v="Esprit"/>
    <tag k="brand:wikidata" v="Q532746"/>
    <tag k="name" v="Esprit"/>
    <tag k="shop" v="clothes"/>
  </node>
  <node id="7780521554" lat="48.1745825" lon="6.4474223" version="2" timestamp="2020-12-29T15:00:39Z" changeset="96610068" uid="12132254" user="paul_cld_">
    <tag k="brand" v="Esprit"/>
    <tag k="brand:wikidata" v="Q532746"/>
    <tag k="brand:wikipedia" v="en:Esprit Holdings"/>
    <tag k="name" v="Esprit"/>
    <tag k="opening_hours" v="Mo 14:00-19:00; Tu-Fr 10:00-19:00; Sa 10:00-12:00, 14:00-19:00"/>
    <tag k="shop" v="clothes"/>
    <tag k="survey:date" v="2020-08-03"/>
  </node>
  <node id="8148981554" lat="46.3797467" lon="6.4975280" version="2" timestamp="2021-08-16T16:30:30Z" changeset="109761424" uid="459331" user="phd0">
    <tag k="addr:city" v="Thonon-les-Bains"/>
    <tag k="addr:housenumber" v="7"/>
    <tag k="addr:postcode" v="74200"/>
    <tag k="addr:street" v="Rue Amédée de Foras"/>
    <tag k="brand" v="Esprit"/>
    <tag k="brand:wikidata" v="Q532746"/>
    <tag k="brand:wikipedia" v="en:Esprit Holdings"/>
    <tag k="clothes" v="women"/>
    <tag k="contact:phone" v="+33 4 50 81 13 44"/>
    <tag k="contact:website" v="https://www.esprit.com/storefinder?storeid=13270506&amp;location=46.3793,6.49744"/>
    <tag k="level" v="1"/>
    <tag k="name" v="Esprit"/>
    <tag k="opening_hours" v="Mo-Sa 09:30-19:30; Su off"/>
    <tag k="ref:FR:NAF" v="4771Z"/>
    <tag k="ref:FR:SIRET" v="82149293100018"/>
    <tag k="shop" v="clothes"/>
    <tag k="start_date" v="2016-07-01"/>
    <tag k="wheelchair" v="yes"/>
  </node>
  <node id="8228321222" lat="46.3048277" lon="4.8337725" version="2" timestamp="2021-10-24T18:54:18Z" changeset="112917943" uid="10434036" user="cyel">
    <tag k="brand" v="Esprit"/>
    <tag k="brand:wikidata" v="Q532746"/>
    <tag k="brand:wikipedia" v="en:Esprit Holdings"/>
    <tag k="contact:facebook" v="https://fr-fr.facebook.com/EspritMacon"/>
    <tag k="name" v="Esprit"/>
    <tag k="phone" v="+33 9 86 46 56 60"/>
    <tag k="shop" v="clothes"/>
  </node>
  <node id="8543735219" lat="49.2895295" lon="-0.1156741" version="2" timestamp="2023-03-18T08:00:38Z" changeset="133813368" uid="414659" user="Max-Kritic">
    <tag k="brand" v="Esprit"/>
    <tag k="brand:wikidata" v="Q532746"/>
    <tag k="name" v="Esprit"/>
    <tag k="shop" v="clothes"/>
  </node>
  <node id="8544803319" lat="49.6384469" lon="-1.6233603" version="5" timestamp="2024-05-31T23:11:02Z" changeset="152101340" uid="5743870" user="M_Kabe">
    <tag k="addr:housenumber" v="17"/>
    <tag k="addr:postcode" v="50100"/>
    <tag k="addr:street" v="Rue Maréchal Foch"/>
    <tag k="brand" v="Esprit"/>
    <tag k="brand:wikidata" v="Q532746"/>
    <tag k="brand:wikipedia" v="en:Esprit Holdings"/>
    <tag k="check_date" v="2024-05-31"/>
    <tag k="name" v="Esprit"/>
    <tag k="shop" v="clothes"/>
  </node>
  <node id="8797592096" lat="49.3301850" lon="1.0914328" version="3" timestamp="2023-12-16T22:55:43Z" changeset="145199986" uid="395664" user="Yherisson">
    <tag k="brand" v="Esprit"/>
    <tag k="brand:wikidata" v="Q532746"/>
    <tag k="name" v="Esprit"/>
    <tag k="shop" v="clothes"/>
  </node>
  <node id="9719108703" lat="49.0395098" lon="2.3416874" version="2" timestamp="2022-05-23T21:58:15Z" changeset="121391648" uid="4351323" user="Praet Tri-Men">
    <tag k="addr:city" v="Moisselles"/>
    <tag k="addr:postcode" v="95570"/>
    <tag k="brand" v="Esprit"/>
    <tag k="brand:wikidata" v="Q532746"/>
    <tag k="name" v="Esprit"/>
    <tag k="shop" v="clothes"/>
  </node>
  <node id="9843447368" lat="46.0369155" lon="4.0723322" version="1" timestamp="2022-06-24T08:09:33Z" changeset="122789812" uid="191786" user="Alexandre148025">
    <tag k="brand" v="Esprit"/>
    <tag k="brand:wikidata" v="Q532746"/>
    <tag k="name" v="Esprit"/>
    <tag k="shop" v="clothes"/>
  </node>
  <node id="10015990424" lat="49.9262934" lon="1.0771813" version="2" timestamp="2023-01-01T16:46:39Z" changeset="130756022" uid="414659" user="Max-Kritic">
    <tag k="brand" v="Esprit"/>
    <tag k="brand:wikidata" v="Q532746"/>
    <tag k="name" v="Esprit"/>
    <tag k="shop" v="clothes"/>
  </node>
  <node id="10044321365" lat="47.1265261" lon="-2.1244588" version="1" timestamp="2022-09-22T08:39:20Z" changeset="126494489" uid="1755810" user="kropcheck">
    <tag k="brand" v="Esprit"/>
    <tag k="brand:wikidata" v="Q532746"/>
    <tag k="name" v="Esprit"/>
    <tag k="shop" v="clothes"/>
  </node>
  <node id="11329212376" lat="48.3879501" lon="-4.5260250" version="1" timestamp="2023-11-06T12:53:27Z" changeset="143692369" uid="6237024" user="CecileGuegan">
    <tag k="brand" v="Esprit"/>
    <tag k="brand:wikidata" v="Q532746"/>
    <tag k="clothes" v="women"/>
    <tag k="name" v="Esprit"/>
    <tag k="shop" v="clothes"/>
  </node>
  <node id="11389481244" lat="47.7931087" lon="7.1694610" version="1" timestamp="2023-12-02T08:38:41Z" changeset="144684309" uid="15110941" user="tontonfabrice">
    <tag k="brand" v="Esprit"/>
    <tag k="brand:wikidata" v="Q532746"/>
    <tag k="name" v="Esprit"/>
    <tag k="shop" v="clothes"/>
    <tag k="website" v="https://www.styleast.fr/esprit-cernay/"/>
  </node>
  <node id="11449832197" lat="48.5942498" lon="1.6763461" version="1" timestamp="2023-12-24T17:41:10Z" changeset="145476139" uid="20096652" user="Davidos64">
    <tag k="addr:city" v="Hanches"/>
    <tag k="addr:postcode" v="28130"/>
    <tag k="addr:street" v="Route de Gallardon"/>
    <tag k="brand" v="Esprit"/>
    <tag k="brand:wikidata" v="Q532746"/>
    <tag k="clothes" v="women;men;children"/>
    <tag k="name" v="Esprit"/>
    <tag k="phone" v="+33953420660"/>
    <tag k="shop" v="clothes"/>
    <tag k="website" v="https://www.esprit.fr/"/>
    <tag k="wheelchair" v="yes"/>
  </node>
  <node id="11516983363" lat="45.6064526" lon="4.0653962" version="1" timestamp="2024-01-14T18:29:44Z" changeset="146254836" uid="626158" user="Pistouf">
    <tag k="brand" v="Esprit"/>
    <tag k="brand:wikidata" v="Q532746"/>
    <tag k="name" v="Esprit"/>
    <tag k="shop" v="clothes"/>
  </node>
  <node id="11915646935" lat="47.4852509" lon="-0.6279892" version="1" timestamp="2024-05-18T09:15:06Z" changeset="151483933" uid="20284227" user="ObscureAngel">
    <tag k="brand" v="Esprit"/>
    <tag k="brand:wikidata" v="Q532746"/>
    <tag k="check_date" v="2024-05-18"/>
    <tag k="name" v="Esprit"/>
    <tag k="shop" v="clothes"/>
  </node>
  <way id="42599113" version="4" timestamp="2022-09-07T21:52:28Z" changeset="125919329" uid="3690222" user="Guixovitch">
    <nd ref="532211605"/>
    <nd ref="532211607"/>
    <nd ref="532211608"/>
    <nd ref="532211609"/>
    <nd ref="532211365"/>
    <nd ref="532211374"/>
    <nd ref="532211615"/>
    <nd ref="532211617"/>
    <nd ref="532211619"/>
    <nd ref="532211620"/>
    <nd ref="532211621"/>
    <nd ref="532211605"/>
    <tag k="bmo:type" v="D"/>
    <tag k="brand" v="Esprit"/>
    <tag k="brand:wikidata" v="Q532746"/>
    <tag k="building" v="yes"/>
    <tag k="name" v="Esprit"/>
    <tag k="shop" v="clothes"/>
    <tag k="source" v="Brest Metropole Oceane, 2009"/>
  </way>
  <way id="117268662" version="9" timestamp="2023-07-15T16:57:30Z" changeset="138552227" uid="209796" user="LudovicG">
    <nd ref="1320818084"/>
    <nd ref="1320818087"/>
    <nd ref="4112131221"/>
    <nd ref="1320822475"/>
    <nd ref="1320822274"/>
    <nd ref="1320818064"/>
    <nd ref="1320818068"/>
    <nd ref="1320818071"/>
    <nd ref="1320818084"/>
    <tag k="addr:city" v="Lannion"/>
    <tag k="addr:postcode" v="22300"/>
    <tag k="addr:street" v="Rue Geoffroy de Pontblanc"/>
    <tag k="brand" v="Esprit"/>
    <tag k="brand:wikidata" v="Q532746"/>
    <tag k="brand:wikipedia" v="en:Esprit Holdings"/>
    <tag k="building" v="yes"/>
    <tag k="check_date" v="2023-07-15"/>
    <tag k="name" v="Esprit"/>
    <tag k="shop" v="clothes"/>
    <tag k="source" v="cadastre-dgi-fr source : Direction Générale des Impôts - Cadastre. Mise à jour : 2011"/>
    <tag k="wheelchair" v="yes"/>
  </way>
  <way id="231039375" version="6" timestamp="2019-06-18T18:35:18Z" changeset="71376716" uid="502891" user="chabe01">
    <nd ref="2394581684"/>
    <nd ref="1411111150"/>
    <nd ref="1411111102"/>
    <nd ref="2394581679"/>
    <nd ref="2394581678"/>
    <nd ref="2394581690"/>
    <nd ref="2394581693"/>
    <nd ref="2394581684"/>
    <tag k="brand" v="Esprit"/>
    <tag k="brand:wikidata" v="Q532746"/>
    <tag k="brand:wikipedia" v="en:Esprit Holdings"/>
    <tag k="indoor" v="room"/>
    <tag k="level" v="0"/>
    <tag k="name" v="Esprit"/>
    <tag k="room" v="shop"/>
    <tag k="shop" v="clothes"/>
  </way>
  <way id="254618294" version="11" timestamp="2023-12-17T09:56:09Z" changeset="145208507" uid="362997" user="Virgile1994">
    <nd ref="1722316486"/>
    <nd ref="1722316488"/>
    <nd ref="1722316490"/>
    <nd ref="1722316491"/>
    <nd ref="1722316497"/>
    <nd ref="1722316499"/>
    <nd ref="1722316501"/>
    <nd ref="1722316504"/>
    <nd ref="1722316506"/>
    <nd ref="1722316509"/>
    <nd ref="3449356838"/>
    <nd ref="2604266879"/>
    <nd ref="11425271562"/>
    <nd ref="11425284620"/>
    <nd ref="1722316466"/>
    <nd ref="1722316467"/>
    <nd ref="1722316468"/>
    <nd ref="1722316469"/>
    <nd ref="1722316470"/>
    <nd ref="1722316472"/>
    <nd ref="1722316480"/>
    <nd ref="1722316482"/>
    <nd ref="1722316484"/>
    <nd ref="1722316486"/>
    <tag k="brand" v="Esprit"/>
    <tag k="brand:wikidata" v="Q532746"/>
    <tag k="brand:wikipedia" v="en:Esprit Holdings"/>
    <tag k="building" v="retail"/>
    <tag k="building:levels" v="1"/>
    <tag k="check_date" v="2022-11-14"/>
    <tag k="name" v="Esprit"/>
    <tag k="opening_hours" v="Mo-Sa 10:00-19:00"/>
    <tag k="roof:levels" v="0"/>
    <tag k="shop" v="clothes"/>
    <tag k="source" v="cadastre-dgi-fr source : Direction Générale des Impôts - Cadastre. Mise à jour : 2010"/>
    <tag k="wheelchair" v="yes"/>
  </way>
  <way id="366005617" version="2" timestamp="2020-10-23T02:52:56Z" changeset="92924630" uid="343811" user="baptistemm">
    <nd ref="3700001211"/>
    <nd ref="3700001224"/>
    <nd ref="3700001223"/>
    <nd ref="1360383671"/>
    <nd ref="3700001209"/>
    <nd ref="3700001211"/>
    <tag k="brand" v="Esprit"/>
    <tag k="brand:wikidata" v="Q532746"/>
    <tag k="brand:wikipedia" v="en:Esprit Holdings"/>
    <tag k="name" v="Esprit"/>
    <tag k="shop" v="clothes"/>
  </way>
  <way id="386523739" version="3" timestamp="2021-07-20T16:06:35Z" changeset="108328788" uid="4372540" user="Linkid">
    <nd ref="3898626584"/>
    <nd ref="3898626585"/>
    <nd ref="3898667885"/>
    <nd ref="3898667883"/>
    <nd ref="3898667876"/>
    <nd ref="3898667877"/>
    <nd ref="819361550"/>
    <nd ref="819423507"/>
    <nd ref="819435022"/>
    <nd ref="3898626584"/>
    <tag k="brand" v="Esprit"/>
    <tag k="brand:wikidata" v="Q532746"/>
    <tag k="brand:wikipedia" v="en:Esprit Holdings"/>
    <tag k="indoor" v="room"/>
    <tag k="level" v="0"/>
    <tag k="name" v="Esprit"/>
    <tag k="shop" v="clothes"/>
  </way>
  <way id="439786608" version="2" timestamp="2021-03-16T10:59:37Z" changeset="101115062" uid="6105237" user="Thomas Citharel">
    <nd ref="4374683752"/>
    <nd ref="4374683748"/>
    <nd ref="4374683739"/>
    <nd ref="4374683747"/>
    <nd ref="4374683752"/>
    <tag k="brand" v="Esprit"/>
    <tag k="brand:wikidata" v="Q532746"/>
    <tag k="brand:wikipedia" v="en:Esprit Holdings"/>
    <tag k="indoor" v="room"/>
    <tag k="level" v="0"/>
    <tag k="name" v="Esprit"/>
    <tag k="room" v="shop"/>
    <tag k="shop" v="clothes"/>
  </way>
  <way id="654475271" version="4" timestamp="2019-06-30T19:19:41Z" changeset="71763433" uid="502891" user="chabe01">
    <nd ref="6132668483"/>
    <nd ref="6132668476"/>
    <nd ref="6132668478"/>
    <nd ref="6132668484"/>
    <nd ref="6132668483"/>
    <tag k="addr:city" v="Serris"/>
    <tag k="addr:postcode" v="77700"/>
    <tag k="brand" v="Esprit"/>
    <tag k="brand:wikidata" v="Q532746"/>
    <tag k="brand:wikipedia" v="en:Esprit Holdings"/>
    <tag k="indoor" v="room"/>
    <tag k="level" v="0"/>
    <tag k="name" v="Esprit"/>
    <tag k="opening_hours" v="Mo-Sa 10:00-21:00; Su 10:00-20:00"/>
    <tag k="operator" v="Esprit Holdings Limited"/>
    <tag k="phone" v="+33 1 64 63 48 79"/>
    <tag k="room" v="shop"/>
    <tag k="shop" v="clothes"/>
    <tag k="website" v="https://www.esprit.fr"/>
  </way>
  <way id="761070446" version="1" timestamp="2020-01-05T19:47:00Z" changeset="79221585" uid="10544531" user="claimand_quausty">
    <nd ref="7110665669"/>
    <nd ref="7110665671"/>
    <nd ref="7110665672"/>
    <nd ref="7110665673"/>
    <nd ref="7110665674"/>
    <nd ref="7110665670"/>
    <nd ref="7110665669"/>
    <tag k="brand" v="Esprit"/>
    <tag k="brand:wikidata" v="Q532746"/>
    <tag k="brand:wikipedia" v="en:Esprit Holdings"/>
    <tag k="building" v="yes"/>
    <tag k="name" v="Esprit"/>
    <tag k="shop" v="clothes"/>
  </way>
  <way id="821155684" version="3" timestamp="2023-04-06T09:21:52Z" changeset="134568758" uid="5026505" user="yanisperron">
    <nd ref="7667219084"/>
    <nd ref="7667219083"/>
    <nd ref="7667219082"/>
    <nd ref="7667219081"/>
    <nd ref="7667219080"/>
    <nd ref="7667219079"/>
    <nd ref="7667219078"/>
    <nd ref="7667219084"/>
    <tag k="brand" v="Esprit"/>
    <tag k="brand:wikidata" v="Q532746"/>
    <tag k="brand:wikipedia" v="en:Esprit Holdings"/>
    <tag k="indoor" v="room"/>
    <tag k="level" v="0"/>
    <tag k="name" v="Esprit"/>
    <tag k="room" v="shop"/>
    <tag k="shop" v="clothes"/>
  </way>
  <way id="1194501511" version="8" timestamp="2024-04-07T19:27:08Z" changeset="149707061" uid="11807117" user="bbbhltz">
    <nd ref="11087065738"/>
    <nd ref="11087065737"/>
    <nd ref="11087065736"/>
    <nd ref="11800277686"/>
    <nd ref="11087504887"/>
    <nd ref="11087065735"/>
    <nd ref="11087065734"/>
    <nd ref="11087065733"/>
    <nd ref="11800160444"/>
    <nd ref="11800261738"/>
    <nd ref="11087065738"/>
    <tag k="brand" v="Esprit"/>
    <tag k="brand:wikidata" v="Q532746"/>
    <tag k="indoor" v="room"/>
    <tag k="level" v="0"/>
    <tag k="name" v="Esprit"/>
    <tag k="shop" v="clothes"/>
  </way>
  <way id="1288155902" version="4" timestamp="2024-06-09T09:32:54Z" changeset="152446082" uid="7474211" user="Archytekt">
    <nd ref="11945992355"/>
    <nd ref="11945992354"/>
    <nd ref="11945992368"/>
    <nd ref="11945992350"/>
    <nd ref="11945992351"/>
    <nd ref="11946020370"/>
    <nd ref="11945992355"/>
    <tag k="brand" v="Esprit"/>
    <tag k="brand:wikidata" v="Q532746"/>
    <tag k="indoor" v="room"/>
    <tag k="level" v="0"/>
    <tag k="name" v="Esprit"/>
    <tag k="shop" v="clothes"/>
  </way>
  <node id="532211365" lat="48.4150107" lon="-4.4351369" version="2" timestamp="2010-04-01T00:03:10Z" changeset="4290439" uid="182476" user="BMO_2009"/>
  <node id="532211374" lat="48.4151307" lon="-4.4352284" version="2" timestamp="2010-04-01T00:03:11Z" changeset="4290439" uid="182476" user="BMO_2009"/>
  <node id="532211605" lat="48.4152627" lon="-4.4350731" version="2" timestamp="2010-04-01T00:03:51Z" changeset="4290439" uid="182476" user="BMO_2009"/>
  <node id="532211607" lat="48.4152017" lon="-4.4350266" version="2" timestamp="2010-04-01T00:03:51Z" changeset="4290439" uid="182476" user="BMO_2009"/>
  <node id="532211608" lat="48.4152139" lon="-4.4349904" version="2" timestamp="2010-04-01T00:03:51Z" changeset="4290439" uid="182476" user="BMO_2009"/>
  <node id="532211609" lat="48.4150957" lon="-4.4348804" version="3" timestamp="2021-08-06T20:25:02Z" changeset="109283212" uid="3178375" user="LeTopographeFou"/>
  <node id="532211615" lat="48.4151607" lon="-4.4352840" version="2" timestamp="2010-04-01T00:03:53Z" changeset="4290439" uid="182476" user="BMO_2009"/>
  <node id="532211617" lat="48.4152030" lon="-4.4351966" version="2" timestamp="2010-04-01T00:03:53Z" changeset="4290439" uid="182476" user="BMO_2009"/>
  <node id="532211619" lat="48.4152102" lon="-4.4352045" version="2" timestamp="2010-04-01T00:03:54Z" changeset="4290439" uid="182476" user="BMO_2009"/>
  <node id="532211620" lat="48.4152293" lon="-4.4351652" version="2" timestamp="2010-04-01T00:03:54Z" changeset="4290439" uid="182476" user="BMO_2009"/>
  <node id="532211621" lat="48.4152220" lon="-4.4351573" version="2" timestamp="2010-04-01T00:03:54Z" changeset="4290439" uid="182476" user="BMO_2009"/>
  <node id="1320818064" lat="48.7318840" lon="-3.4577070" version="1" timestamp="2011-06-11T20:53:11Z" changeset="8409765" uid="456113" user="eric_G"/>
  <node id="1320818068" lat="48.7319090" lon="-3.4576950" version="1" timestamp="2011-06-11T20:53:11Z" changeset="8409765" uid="456113" user="eric_G"/>
  <node id="1320818071" lat="48.7319250" lon="-3.4577370" version="1" timestamp="2011-06-11T20:53:11Z" changeset="8409765" uid="456113" user="eric_G"/>
  <node id="1320818084" lat="48.7318570" lon="-3.4577870" version="1" timestamp="2011-06-11T20:53:12Z" changeset="8409765" uid="456113" user="eric_G"/>
  <node id="1320818087" lat="48.7318050" lon="-3.4578210" version="1" timestamp="2011-06-11T20:53:12Z" changeset="8409765" uid="456113" user="eric_G"/>
  <node id="1320822274" lat="48.7318600" lon="-3.4576530" version="1" timestamp="2011-06-11T20:54:56Z" changeset="8409765" uid="456113" user="eric_G"/>
  <node id="1320822475" lat="48.7317640" lon="-3.4577310" version="1" timestamp="2011-06-11T20:55:01Z" changeset="8409765" uid="456113" user="eric_G"/>
  <node id="4112131221" lat="48.7317883" lon="-3.4577844" version="1" timestamp="2016-04-10T17:48:42Z" changeset="38456871" uid="1467976" user="brelevenix">
    <tag k="addr:housenumber" v="5"/>
    <tag k="source" v="cadastre-dgi-fr source : Direction Générale des Finances Publiques - Cadastre. Mise à jour : 2016"/>
  </node>
  <node id="4374683739" lat="48.1384407" lon="-1.7669618" version="1" timestamp="2016-08-29T19:42:39Z" changeset="41786385" uid="214436" user="PanierAvide"/>
  <node id="4374683747" lat="48.1384848" lon="-1.7669389" version="1" timestamp="2016-08-29T19:42:40Z" changeset="41786385" uid="214436" user="PanierAvide"/>
  <node id="4374683748" lat="48.1384864" lon="-1.7671621" version="1" timestamp="2016-08-29T19:42:40Z" changeset="41786385" uid="214436" user="PanierAvide"/>
  <node id="4374683752" lat="48.1385304" lon="-1.7671395" version="1" timestamp="2016-08-29T19:42:40Z" changeset="41786385" uid="214436" user="PanierAvide"/>
  <node id="819361550" lat="43.5490846" lon="1.5082775" version="2" timestamp="2015-12-18T14:11:26Z" changeset="36028679" uid="1816335" user="SoulReaper"/>
  <node id="819423507" lat="43.5491388" lon="1.5082296" version="1" timestamp="2010-07-15T19:39:49Z" changeset="5229479" uid="1685" user="Pinpin"/>
  <node id="819435022" lat="43.5491949" lon="1.5081734" version="1" timestamp="2010-07-15T19:43:23Z" changeset="5229479" uid="1685" user="Pinpin"/>
  <node id="3898626584" lat="43.5492019" lon="1.5081663" version="1" timestamp="2015-12-18T17:18:31Z" changeset="36032258" uid="1816335" user="SoulReaper"/>
  <node id="3898626585" lat="43.5493619" lon="1.5084603" version="1" timestamp="2015-12-18T17:18:31Z" changeset="36032258" uid="1816335" user="SoulReaper"/>
  <node id="3898667876" lat="43.5492289" lon="1.5085890" version="1" timestamp="2015-12-18T17:48:22Z" changeset="36032693" uid="1816335" user="SoulReaper"/>
  <node id="3898667877" lat="43.5492330" lon="1.5085550" version="1" timestamp="2015-12-18T17:48:22Z" changeset="36032693" uid="1816335" user="SoulReaper"/>
  <node id="3898667883" lat="43.5492965" lon="1.5086060" version="1" timestamp="2015-12-18T17:48:22Z" changeset="36032693" uid="1816335" user="SoulReaper"/>
  <node id="3898667885" lat="43.5493088" lon="1.5085192" version="1" timestamp="2015-12-18T17:48:22Z" changeset="36032693" uid="1816335" user="SoulReaper"/>
  <node id="1722316466" lat="45.1848570" lon="5.7706580" version="1" timestamp="2012-04-18T21:09:22Z" changeset="11348773" uid="659506" user="bandit38"/>
  <node id="1722316467" lat="45.1848650" lon="5.7706770" version="1" timestamp="2012-04-18T21:09:22Z" changeset="11348773" uid="659506" user="bandit38"/>
  <node id="1722316468" lat="45.1848720" lon="5.7706930" version="1" timestamp="2012-04-18T21:09:22Z" changeset="11348773" uid="659506" user="bandit38"/>
  <node id="1722316469" lat="45.1848800" lon="5.7707090" version="1" timestamp="2012-04-18T21:09:22Z" changeset="11348773" uid="659506" user="bandit38"/>
  <node id="1722316470" lat="45.1848870" lon="5.7707220" version="1" timestamp="2012-04-18T21:09:22Z" changeset="11348773" uid="659506" user="bandit38"/>
  <node id="1722316472" lat="45.1848940" lon="5.7707340" version="1" timestamp="2012-04-18T21:09:22Z" changeset="11348773" uid="659506" user="bandit38"/>
  <node id="1722316480" lat="45.1849030" lon="5.7707480" version="1" timestamp="2012-04-18T21:09:22Z" changeset="11348773" uid="659506" user="bandit38"/>
  <node id="1722316482" lat="45.1849100" lon="5.7707580" version="1" timestamp="2012-04-18T21:09:22Z" changeset="11348773" uid="659506" user="bandit38"/>
  <node id="1722316484" lat="45.1849200" lon="5.7707720" version="1" timestamp="2012-04-18T21:09:22Z" changeset="11348773" uid="659506" user="bandit38"/>
  <node id="1722316486" lat="45.1849300" lon="5.7707840" version="1" timestamp="2012-04-18T21:09:23Z" changeset="11348773" uid="659506" user="bandit38"/>
  <node id="1722316488" lat="45.1849410" lon="5.7707970" version="1" timestamp="2012-04-18T21:09:23Z" changeset="11348773" uid="659506" user="bandit38"/>
  <node id="1722316490" lat="45.1849520" lon="5.7708070" version="1" timestamp="2012-04-18T21:09:23Z" changeset="11348773" uid="659506" user="bandit38"/>
  <node id="1722316491" lat="45.1849580" lon="5.7708130" version="1" timestamp="2012-04-18T21:09:23Z" changeset="11348773" uid="659506" user="bandit38"/>
  <node id="1722316497" lat="45.1849700" lon="5.7708250" version="1" timestamp="2012-04-18T21:09:23Z" changeset="11348773" uid="659506" user="bandit38"/>
  <node id="1722316499" lat="45.1849820" lon="5.7708360" version="1" timestamp="2012-04-18T21:09:23Z" changeset="11348773" uid="659506" user="bandit38"/>
  <node id="1722316501" lat="45.1849940" lon="5.7708460" version="1" timestamp="2012-04-18T21:09:23Z" changeset="11348773" uid="659506" user="bandit38"/>
  <node id="1722316504" lat="45.1850010" lon="5.7708520" version="1" timestamp="2012-04-18T21:09:23Z" changeset="11348773" uid="659506" user="bandit38"/>
  <node id="1722316506" lat="45.1850130" lon="5.7708610" version="1" timestamp="2012-04-18T21:09:23Z" changeset="11348773" uid="659506" user="bandit38"/>
  <node id="1722316509" lat="45.1850220" lon="5.7708670" version="1" timestamp="2012-04-18T21:09:23Z" changeset="11348773" uid="659506" user="bandit38"/>
  <node id="2604266879" lat="45.1849374" lon="5.7705069" version="2" timestamp="2023-12-17T09:56:09Z" changeset="145208507" uid="362997" user="Virgile1994"/>
  <node id="3449356838" lat="45.1851132" lon="5.7707018" version="2" timestamp="2023-12-17T09:56:09Z" changeset="145208507" uid="362997" user="Virgile1994"/>
  <node id="11425271562" lat="45.1849229" lon="5.7705349" version="1" timestamp="2023-12-17T09:56:07Z" changeset="145208507" uid="362997" user="Virgile1994">
    <tag k="entrance" v="service"/>
    <tag k="highway" v="elevator"/>
  </node>
  <node id="11425284620" lat="45.1848761" lon="5.7706214" version="2" timestamp="2024-03-29T21:59:23Z" changeset="149331916" uid="2353462" user="barnes38">
    <tag k="entrance" v="main"/>
    <tag k="wheelchair" v="yes"/>
  </node>
  <node id="1411111102" lat="46.2202690" lon="5.2468460" version="1" timestamp="2011-08-24T10:55:12Z" changeset="9110631" uid="188930" user="JLZIMMERMANN"/>
  <node id="1411111150" lat="46.2203400" lon="5.2468910" version="1" timestamp="2011-08-24T10:55:23Z" changeset="9110631" uid="188930" user="JLZIMMERMANN"/>
  <node id="2394581678" lat="46.2202614" lon="5.2467893" version="1" timestamp="2013-07-24T00:06:30Z" changeset="17069225" uid="1443767" user="Olyon"/>
  <node id="2394581679" lat="46.2202813" lon="5.2468055" version="1" timestamp="2013-07-24T00:06:30Z" changeset="17069225" uid="1443767" user="Olyon"/>
  <node id="2394581684" lat="46.2203659" lon="5.2469059" version="1" timestamp="2013-07-24T00:06:30Z" changeset="17069225" uid="1443767" user="Olyon"/>
  <node id="2394581690" lat="46.2204811" lon="5.2461845" version="1" timestamp="2013-07-24T00:06:30Z" changeset="17069225" uid="1443767" user="Olyon"/>
  <node id="2394581693" lat="46.2205931" lon="5.2462496" version="1" timestamp="2013-07-24T00:06:30Z" changeset="17069225" uid="1443767" user="Olyon"/>
  <node id="7667219078" lat="47.5731800" lon="1.3746214" version="1" timestamp="2020-06-29T17:30:18Z" changeset="87306828" uid="5026505" user="yanisperron"/>
  <node id="7667219079" lat="47.5731524" lon="1.3744893" version="1" timestamp="2020-06-29T17:30:18Z" changeset="87306828" uid="5026505" user="yanisperron"/>
  <node id="7667219080" lat="47.5731868" lon="1.3744631" version="1" timestamp="2020-06-29T17:30:18Z" changeset="87306828" uid="5026505" user="yanisperron"/>
  <node id="7667219081" lat="47.5732089" lon="1.3744343" version="1" timestamp="2020-06-29T17:30:18Z" changeset="87306828" uid="5026505" user="yanisperron"/>
  <node id="7667219082" lat="47.5732266" lon="1.3744014" version="1" timestamp="2020-06-29T17:30:18Z" changeset="87306828" uid="5026505" user="yanisperron"/>
  <node id="7667219083" lat="47.5732867" lon="1.3743706" version="1" timestamp="2020-06-29T17:30:18Z" changeset="87306828" uid="5026505" user="yanisperron"/>
  <node id="7667219084" lat="47.5733256" lon="1.3745550" version="1" timestamp="2020-06-29T17:30:18Z" changeset="87306828" uid="5026505" user="yanisperron"/>
  <node id="11087065733" lat="49.4454871" lon="1.0653790" version="3" timestamp="2023-08-04T10:21:37Z" changeset="139434359" uid="11807117" user="bbbhltz"/>
  <node id="11087065734" lat="49.4454631" lon="1.0660217" version="3" timestamp="2023-08-05T16:56:08Z" changeset="139488497" uid="11807117" user="bbbhltz"/>
  <node id="11087065735" lat="49.4457008" lon="1.0660417" version="3" timestamp="2023-08-05T16:56:08Z" changeset="139488497" uid="11807117" user="bbbhltz"/>
  <node id="11087065736" lat="49.4457179" lon="1.0655836" version="3" timestamp="2023-08-04T10:21:37Z" changeset="139434359" uid="11807117" user="bbbhltz"/>
  <node id="11087065737" lat="49.4456362" lon="1.0655764" version="3" timestamp="2023-08-04T10:21:37Z" changeset="139434359" uid="11807117" user="bbbhltz"/>
  <node id="11087065738" lat="49.4456431" lon="1.0653928" version="3" timestamp="2023-08-04T10:21:37Z" changeset="139434359" uid="11807117" user="bbbhltz"/>
  <node id="11087504887" lat="49.4457118" lon="1.0657457" version="2" timestamp="2023-08-04T10:21:37Z" changeset="139434359" uid="11807117" user="bbbhltz"/>
  <node id="11800160444" lat="49.4455154" lon="1.0653809" version="1" timestamp="2024-04-07T18:11:04Z" changeset="149704738" uid="11807117" user="bbbhltz"/>
  <node id="11800261738" lat="49.4455736" lon="1.0653863" version="1" timestamp="2024-04-07T19:27:08Z" changeset="149707061" uid="11807117" user="bbbhltz"/>
  <node id="11800277686" lat="49.4457171" lon="1.0656041" version="1" timestamp="2024-04-07T19:24:56Z" changeset="149706996" uid="11807117" user="bbbhltz"/>
  <node id="11945992350" lat="48.9881585" lon="2.2459714" version="2" timestamp="2024-06-02T16:01:13Z" changeset="152166639" uid="7474211" user="Archytekt"/>
  <node id="11945992351" lat="48.9882197" lon="2.2457798" version="2" timestamp="2024-06-02T16:01:13Z" changeset="152166639" uid="7474211" user="Archytekt"/>
  <node id="11945992354" lat="48.9882232" lon="2.2460201" version="3" timestamp="2024-06-09T09:32:54Z" changeset="152446082" uid="7474211" user="Archytekt"/>
  <node id="11945992355" lat="48.9882847" lon="2.2458284" version="2" timestamp="2024-06-02T16:01:13Z" changeset="152166639" uid="7474211" user="Archytekt"/>
  <node id="11945992368" lat="48.9882000" lon="2.2460030" version="2" timestamp="2024-06-02T16:01:13Z" changeset="152166639" uid="7474211" user="Archytekt"/>
  <node id="11946020370" lat="48.9882505" lon="2.2458026" version="1" timestamp="2024-05-30T20:31:07Z" changeset="152053904" uid="7474211" user="Archytekt">
    <tag k="access" v="yes"/>
    <tag k="entrance" v="shop"/>
  </node>
  <node id="6132668476" lat="48.8553875" lon="2.7822644" version="1" timestamp="2018-12-12T13:47:20Z" changeset="65409225" uid="9213880" user="PandaJoueur"/>
  <node id="6132668478" lat="48.8556085" lon="2.7822167" version="1" timestamp="2018-12-12T13:47:20Z" changeset="65409225" uid="9213880" user="PandaJoueur"/>
  <node id="6132668483" lat="48.8553798" lon="2.7821839" version="1" timestamp="2018-12-12T13:47:20Z" changeset="65409225" uid="9213880" user="PandaJoueur"/>
  <node id="6132668484" lat="48.8556011" lon="2.7821363" version="1" timestamp="2018-12-12T13:47:20Z" changeset="65409225" uid="9213880" user="PandaJoueur"/>
  <node id="1360383671" lat="46.7738503" lon="4.8605887" version="2" timestamp="2012-11-17T18:50:37Z" changeset="13909199" uid="767969" user="Yalio"/>
  <node id="3700001209" lat="46.7737437" lon="4.8606230" version="1" timestamp="2015-08-16T16:38:49Z" changeset="33373195" uid="1238664" user="zerpou"/>
  <node id="3700001211" lat="46.7737613" lon="4.8607489" version="1" timestamp="2015-08-16T16:38:49Z" changeset="33373195" uid="1238664" user="zerpou"/>
  <node id="3700001223" lat="46.7738786" lon="4.8606173" version="1" timestamp="2015-08-16T16:38:50Z" changeset="33373195" uid="1238664" user="zerpou"/>
  <node id="3700001224" lat="46.7738923" lon="4.8607150" version="2" timestamp="2016-12-23T23:12:33Z" changeset="44635650" uid="381276" user="Sam390"/>
  <node id="7110665669" lat="47.6471386" lon="6.1420536" version="2" timestamp="2021-03-20T16:32:11Z" changeset="101394296" uid="10544531" user="claimand_quausty"/>
  <node id="7110665670" lat="47.6470365" lon="6.1424813" version="1" timestamp="2020-01-05T19:47:00Z" changeset="79221585" uid="10544531" user="claimand_quausty"/>
  <node id="7110665671" lat="47.6470270" lon="6.1419949" version="2" timestamp="2021-03-20T16:32:11Z" changeset="101394296" uid="10544531" user="claimand_quausty"/>
  <node id="7110665672" lat="47.6469571" lon="6.1422878" version="2" timestamp="2021-03-20T16:32:11Z" changeset="101394296" uid="10544531" user="claimand_quausty"/>
  <node id="7110665673" lat="47.6469401" lon="6.1422707" version="2" timestamp="2021-03-20T16:32:11Z" changeset="101394296" uid="10544531" user="claimand_quausty"/>
  <node id="7110665674" lat="47.6469231" lon="6.1423406" version="2" timestamp="2021-03-20T16:32:11Z" changeset="101394296" uid="10544531" user="claimand_quausty"/>

</osm>
