[
    {
        "osm_id": 5030611521,
        "osm_name": "G-Star Raw",
        "osm_url": "https://www.osm.org/node/5030611521",
        "osm_business": "clothes",
        "atp_city": "STRASBOURG",
        "atp_address": "9 Rue du D\u00f4me",
        "osm_housenumber": "9",
        "osm_street": "Rue du D\u00f4me",
        "atp_phone": "+33 3 88 23 51 66",
        "osm_phone": "+33 3 88 23 51 66",
        "atp_opening_hours": "Mo 11:00-11:00; Tu-Sa 10:00-10:00; Su closed",
        "osm_hours": "Mo 14:00-19:00; Tu-Sa 10:00-19:00",
        "atp_website": "https://www.g-star.com/en_us/stores/fr/g-star-raw-store-strasbourg",
        "osm_website": "https://www.g-star.com",
        "brand_wikidata": "Q1484081",
        "brand": "G-Star Raw",
        "match_count": 1
    },
    {
        "osm_id": 5764042414,
        "osm_name": "G-Star Raw",
        "osm_url": "https://www.osm.org/node/5764042414",
        "osm_business": "clothes",
        "atp_city": "CANNES",
        "atp_address": "26 Rue D'Antibes",
        "osm_housenumber": "26",
        "osm_street": "Rue d'Antibes",
        "atp_phone": "+33 9 67 11 88 53",
        "osm_phone": "+33 4 93 39 88 53",
        "atp_opening_hours": "Mo-Sa 10:00-10:00; Su 11:00-11:00",
        "osm_hours": "Mo-Sa 10:00-19:30",
        "atp_website": "https://www.g-star.com/en_us/stores/fr/g-star-raw-store-cannes",
        "osm_website": "https://www.g-star.com",
        "brand_wikidata": "Q1484081",
        "brand": "G-Star Raw",
        "match_count": 1
    },
    {
        "osm_id": 7343429518,
        "osm_name": "G-Star Raw",
        "osm_url": "https://www.osm.org/node/7343429518",
        "osm_business": "clothes",
        "atp_city": "ROISSY EN FRANCE",
        "atp_address": "CCial Aeroville, Unit 121",
        "osm_housenumber": null,
        "osm_street": null,
        "atp_phone": "+33 1 48 61 48 53",
        "osm_phone": null,
        "atp_opening_hours": "Mo-Su 10:00-10:00",
        "osm_hours": null,
        "atp_website": "https://www.g-star.com/en_us/stores/fr/g-star-raw-store-roissy-en-france",
        "osm_website": null,
        "brand_wikidata": "Q1484081",
        "brand": "G-Star Raw",
        "match_count": 1
    },
    {
        "osm_id": 9508449844,
        "osm_name": "G-Star Raw",
        "osm_url": "https://www.osm.org/node/9508449844",
        "osm_business": "clothes",
        "atp_city": "CABRIES",
        "atp_address": "1 Plan de Campagne",
        "osm_housenumber": null,
        "osm_street": null,
        "atp_phone": "+33 4 42 46 23 67",
        "osm_phone": null,
        "atp_opening_hours": "Mo-Su 09:30-09:30",
        "osm_hours": null,
        "atp_website": "https://www.g-star.com/en_us/stores/fr/g-star-raw-store-avant-cap",
        "osm_website": null,
        "brand_wikidata": "Q1484081",
        "brand": "G-Star Raw",
        "match_count": 1
    },
    {
        "osm_id": 11380846089,
        "osm_name": "G-Star Raw",
        "osm_url": "https://www.osm.org/node/11380846089",
        "osm_business": "clothes",
        "atp_city": "SAINT-PIERRE-D'IRUBE",
        "atp_address": "2-4 Avenue du Portou",
        "osm_housenumber": "2",
        "osm_street": "Avenue du Portou",
        "atp_phone": "+33 5 59 74 77 31",
        "osm_phone": "+33559747731",
        "atp_opening_hours": "Mo-Sa 10:00-10:00; Su closed",
        "osm_hours": "Mo-Sa 10:00-20:00",
        "atp_website": "https://www.g-star.com/en_us/stores/fr/g-star-raw-store-bayonne",
        "osm_website": null,
        "brand_wikidata": "Q1484081",
        "brand": "G-Star Raw",
        "match_count": 1
    },
    {
        "osm_id": 379435627,
        "osm_name": "G-Star Raw",
        "osm_url": "https://www.osm.org/way/379435627",
        "osm_business": "clothes",
        "atp_city": "RENNES",
        "atp_address": "5 Rue du Bosphore",
        "osm_housenumber": null,
        "osm_street": null,
        "atp_phone": "+33 9 64 46 27 94",
        "osm_phone": null,
        "atp_opening_hours": "Mo-Sa 09:30-09:30; Su closed",
        "osm_hours": null,
        "atp_website": "https://www.g-star.com/en_us/stores/fr/g-star-raw-store-rennes-alma",
        "osm_website": null,
        "brand_wikidata": "Q1484081",
        "brand": "G-Star Raw",
        "match_count": 1
    },
    {
        "osm_id": 886307220,
        "osm_name": "G-Star Raw",
        "osm_url": "https://www.osm.org/way/886307220",
        "osm_business": "clothes",
        "atp_city": "NOYELLES GODAULT",
        "atp_address": "43 route Nationale",
        "osm_housenumber": null,
        "osm_street": null,
        "atp_phone": "+33 3 21 43 37 60",
        "osm_phone": null,
        "atp_opening_hours": "Mo-Sa 09:30-09:30",
        "osm_hours": null,
        "atp_website": "https://www.g-star.com/en_us/stores/fr/g-star-raw-noyelles-godault",
        "osm_website": null,
        "brand_wikidata": "Q1484081",
        "brand": "G-Star Raw",
        "match_count": 1
    }
]