[
    {
        "osm_id": 838041074,
        "osm_name": "Apple Store",
        "osm_url": "https://www.osm.org/node/838041074",
        "osm_business": "electronics",
        "atp_city": "Paris",
        "atp_address": "114 av. des Champs-\u00c9lys\u00e9es",
        "osm_housenumber": "114",
        "osm_street": "Avenue des Champs-\u00c9lys\u00e9es",
        "atp_phone": "+33 1 70 98 09 00",
        "osm_phone": "+33 1 70 98 09 00",
        "atp_opening_hours": "Mo-Sa 10:00-20:00; Su 11:00-20:00",
        "osm_hours": "Mo-Sa 10:00-20:00; Su 11:00-20:00",
        "atp_website": "https://www.apple.com/fr/retail/champs-elysees",
        "osm_website": "https://www.apple.com/fr/retail/champs-elysees/",
        "brand_wikidata": "Q421253",
        "brand": "Apple",
        "match_count": 1
    },
    {
        "osm_id": 1650221896,
        "osm_name": "Apple Store",
        "osm_url": "https://www.osm.org/node/1650221896",
        "osm_business": "electronics",
        "atp_city": "Paris",
        "atp_address": "12 rue Hal\u00e9vy",
        "osm_housenumber": "12",
        "osm_street": "Rue Hal\u00e9vy",
        "atp_phone": "+33 1 44 83 42 00",
        "osm_phone": "+33 1 44 83 42 00",
        "atp_opening_hours": "Mo-Sa 10:00-20:00; Su 11:00-19:00",
        "osm_hours": "Mo-Sa 10:00-20:00; Su 11:00-19:00",
        "atp_website": "https://www.apple.com/fr/retail/opera",
        "osm_website": "http://www.apple.fr",
        "brand_wikidata": "Q421253",
        "brand": "Apple",
        "match_count": 1
    },
    {
        "osm_id": 1673435264,
        "osm_name": "Apple Store",
        "osm_url": "https://www.osm.org/node/1673435264",
        "osm_business": "electronics",
        "atp_city": "Montpellier",
        "atp_address": "Centre Commercial Odysseum Zone Odysseum Zac Port Marianne",
        "osm_housenumber": null,
        "osm_street": null,
        "atp_phone": "+33 4 67 13 99 00",
        "osm_phone": null,
        "atp_opening_hours": "Mo-Sa 10:00-20:00",
        "osm_hours": "Mo-Sa 10:00-20:00",
        "atp_website": "https://www.apple.com/fr/retail/odysseum",
        "osm_website": null,
        "brand_wikidata": "Q421253",
        "brand": "Apple",
        "match_count": 1
    },
    {
        "osm_id": 1993649985,
        "osm_name": "Apple Store",
        "osm_url": "https://www.osm.org/node/1993649985",
        "osm_business": "electronics",
        "atp_city": "Strasbourg",
        "atp_address": "L\u2019Aubette Place Kl\u00e9ber",
        "osm_housenumber": null,
        "osm_street": "Place Kl\u00e9ber",
        "atp_phone": "+33 3 88 10 13 00",
        "osm_phone": "+33 3 88 10 13 00",
        "atp_opening_hours": "Mo-Sa 10:00-19:00",
        "osm_hours": "Mo-Sa 10:00-19:00",
        "atp_website": "https://www.apple.com/fr/retail/strasbourg",
        "osm_website": "https://www.apple.com/fr/retail/strasbourg/",
        "brand_wikidata": "Q421253",
        "brand": "Apple",
        "match_count": 1
    },
    {
        "osm_id": 3561581643,
        "osm_name": "Apple Store",
        "osm_url": "https://www.osm.org/node/3561581643",
        "osm_business": "electronics",
        "atp_city": "Saint Herblain",
        "atp_address": "Galerie Atlantis Le Centre",
        "osm_housenumber": null,
        "osm_street": null,
        "atp_phone": "+33 2 40 85 57 00",
        "osm_phone": "+33 2 40 85 57 00",
        "atp_opening_hours": "Mo-Sa 09:30-20:30",
        "osm_hours": "Mo-Sa 09:30-20:30",
        "atp_website": "https://www.apple.com/fr/retail/atlantis",
        "osm_website": "https://www.apple.com/",
        "brand_wikidata": "Q421253",
        "brand": "Apple",
        "match_count": 1
    },
    {
        "osm_id": 4694179398,
        "osm_name": "Apple Store",
        "osm_url": "https://www.osm.org/node/4694179398",
        "osm_business": "electronics",
        "atp_city": "Paris",
        "atp_address": "9 rue Cl\u00e9ment",
        "osm_housenumber": "9",
        "osm_street": "Rue Cl\u00e9ment",
        "atp_phone": "+33 1 85 65 48 00",
        "osm_phone": "+33 1 85 65 48 00",
        "atp_opening_hours": "Mo-Sa 10:00-20:00; Su 11:00-19:00",
        "osm_hours": "Mo-Sa 10:00-20:00; Su 11:00-19:00",
        "atp_website": "https://www.apple.com/fr/retail/marchesaintgermain",
        "osm_website": "https://www.apple.com/fr/retail/marchesaintgermain/",
        "brand_wikidata": "Q421253",
        "brand": "Apple",
        "match_count": 1
    },
    {
        "osm_id": 4975430922,
        "osm_name": "Apple Store",
        "osm_url": "https://www.osm.org/node/4975430922",
        "osm_business": "electronics",
        "atp_city": "Rosny-Sous-Bois",
        "atp_address": "Centre Commercial Rosny 2 Avenue du G\u00e9n\u00e9ral-de-Gaulle",
        "osm_housenumber": null,
        "osm_street": null,
        "atp_phone": "+33 1 73 30 89 00",
        "osm_phone": null,
        "atp_opening_hours": "Mo-Sa 10:00-20:00; Su 11:00-19:00",
        "osm_hours": null,
        "atp_website": "https://www.apple.com/fr/retail/rosny2",
        "osm_website": "https://www.apple.com/fr/retail/rosny2/",
        "brand_wikidata": "Q421253",
        "brand": "Apple",
        "match_count": 1
    },
    {
        "osm_id": 5425635635,
        "osm_name": "Apple Store",
        "osm_url": "https://www.osm.org/node/5425635635",
        "osm_business": "electronics",
        "atp_city": "Lille",
        "atp_address": "1 rue Faidherbe",
        "osm_housenumber": "1",
        "osm_street": "Rue Faidherbe",
        "atp_phone": "+33 3 59 81 89 00",
        "osm_phone": "+33 3 59 81 89 00",
        "atp_opening_hours": "Mo-Fr 10:00-19:30; Sa 10:00-20:00",
        "osm_hours": "Mo-Fr 10:00-19:30, Sa 10:00-20:00",
        "atp_website": "https://www.apple.com/fr/retail/lille",
        "osm_website": "https://www.apple.com/fr/retail/lille/",
        "brand_wikidata": "Q421253",
        "brand": "Apple",
        "match_count": 1
    },
    {
        "osm_id": 5841982674,
        "osm_name": "Apple Store",
        "osm_url": "https://www.osm.org/node/5841982674",
        "osm_business": "electronics",
        "atp_city": "Bordeaux",
        "atp_address": "2-4 rue Sainte-Catherine",
        "osm_housenumber": "2-4",
        "osm_street": "Rue Sainte-Catherine",
        "atp_phone": "+33 5 56 69 58 00",
        "osm_phone": "+33 5 56 69 58 00",
        "atp_opening_hours": "Mo-Fr 10:00-19:30; Sa 10:00-20:00; Su 11:00-18:00",
        "osm_hours": "Mo-Sa 10:00-20:00; Su 11:00-18:00",
        "atp_website": "https://www.apple.com/fr/retail/sainte-catherine",
        "osm_website": "https://apple.com",
        "brand_wikidata": "Q421253",
        "brand": "Apple",
        "match_count": 1
    },
    {
        "osm_id": 6705115685,
        "osm_name": "Apple Store",
        "osm_url": "https://www.osm.org/node/6705115685",
        "osm_business": "electronics",
        "atp_city": "Aix-en-Provence",
        "atp_address": "2 Place du G\u00e9n\u00e9ral de Gaulle",
        "osm_housenumber": "2",
        "osm_street": "Place du G\u00e9n\u00e9ral de Gaulle",
        "atp_phone": "+33 4 88 80 78 00",
        "osm_phone": "+33 4 88 80 78 00",
        "atp_opening_hours": "Mo-Fr 10:00-19:30; Sa 10:00-20:00; Su 11:00-18:00",
        "osm_hours": "Mo-Fr 10:00-19:30; Sa 10:00-20:00; Su 11:00-18:00",
        "atp_website": "https://www.apple.com/fr/retail/aix-en-provence",
        "osm_website": null,
        "brand_wikidata": "Q421253",
        "brand": "Apple",
        "match_count": 1
    },
    {
        "osm_id": 6779446950,
        "osm_name": "Apple Store",
        "osm_url": "https://www.osm.org/node/6779446950",
        "osm_business": "electronics",
        "atp_city": "Nice",
        "atp_address": "Avenue Eug\u00e8ne Donade\u00ef Saint-Laurent Du Var",
        "osm_housenumber": null,
        "osm_street": "Avenue Eug\u00e8ne Donade\u00ef",
        "atp_phone": "+33 4 92 12 51 50",
        "osm_phone": "+33 4 92 12 51 50",
        "atp_opening_hours": "Mo-Sa 10:00-20:30; Su 11:00-19:00",
        "osm_hours": "Mo-Sa 10:00-20:00; Su 11:00-19:00",
        "atp_website": "https://www.apple.com/fr/retail/cap3000",
        "osm_website": null,
        "brand_wikidata": "Q421253",
        "brand": "Apple",
        "match_count": 1
    },
    {
        "osm_id": 7088655785,
        "osm_name": "Apple Store",
        "osm_url": "https://www.osm.org/node/7088655785",
        "osm_business": "electronics",
        "atp_city": "Lyon",
        "atp_address": "Centre Commercial Confluence 112 Cours Charlemagne",
        "osm_housenumber": "112",
        "osm_street": "Cours Charlemagne",
        "atp_phone": "+33 4 37 23 15 00",
        "osm_phone": "+33 4 37 23 15 00",
        "atp_opening_hours": "Mo-Sa 10:00-20:00",
        "osm_hours": "Mo-Sa 10:00-20:00",
        "atp_website": "https://www.apple.com/fr/retail/confluence",
        "osm_website": "https://www.apple.com/fr/retail/confluence/",
        "brand_wikidata": "Q421253",
        "brand": "Apple",
        "match_count": 1
    },
    {
        "osm_id": 9572910569,
        "osm_name": "Apple Store",
        "osm_url": "https://www.osm.org/node/9572910569",
        "osm_business": "electronics",
        "atp_city": "Lieusaint",
        "atp_address": "Centre commercial r\u00e9gional 3, all\u00e9e du Pr\u00e9ambule",
        "osm_housenumber": "3",
        "osm_street": "All\u00e9e du Pr\u00e9ambule",
        "atp_phone": "+33 1 60 18 26 00",
        "osm_phone": "+33 1 60 18 26 00",
        "atp_opening_hours": "Mo-Sa 10:00-20:30; Su 11:00-19:00",
        "osm_hours": "Mo-Sa 10:00-20:30; Su 11:00-19:00",
        "atp_website": "https://www.apple.com/fr/retail/carresenart",
        "osm_website": null,
        "brand_wikidata": "Q421253",
        "brand": "Apple",
        "match_count": 1
    },
    {
        "osm_id": 9572910570,
        "osm_name": "Apple Store",
        "osm_url": "https://www.osm.org/node/9572910570",
        "osm_business": "electronics",
        "atp_city": "Le Chesnay",
        "atp_address": "Centre commercial r\u00e9gional Parly 2 Avenue Charles de Gaulle",
        "osm_housenumber": null,
        "osm_street": null,
        "atp_phone": "+33 1 39 66 26 00",
        "osm_phone": null,
        "atp_opening_hours": "Mo-Sa 10:00-20:30; Su 11:00-19:00",
        "osm_hours": null,
        "atp_website": "https://www.apple.com/fr/retail/parly2",
        "osm_website": "https://www.apple.com/fr/retail/confluence/",
        "brand_wikidata": "Q421253",
        "brand": "Apple",
        "match_count": 1
    },
    {
        "osm_id": 9572910571,
        "osm_name": "Apple Store",
        "osm_url": "https://www.osm.org/node/9572910571",
        "osm_business": "electronics",
        "atp_city": "Dijon",
        "atp_address": "Centre Commercial de la Toison d\u2019Or Avenue de Langres",
        "osm_housenumber": null,
        "osm_street": "Avenue de Langres",
        "atp_phone": "+33 3 80 40 45 00",
        "osm_phone": "+33 3 80 40 45 00",
        "atp_opening_hours": "Mo-Fr 10:00-20:00; Sa 09:00-20:00",
        "osm_hours": "Mo-Fr 10:00-20:00; Sa 09:00-20:00",
        "atp_website": "https://www.apple.com/fr/retail/latoisondor",
        "osm_website": null,
        "brand_wikidata": "Q421253",
        "brand": "Apple",
        "match_count": 1
    },
    {
        "osm_id": 136117856,
        "osm_name": "Apple Store",
        "osm_url": "https://www.osm.org/way/136117856",
        "osm_business": "electronics",
        "atp_city": "V\u00e9lizy-Villacoublay",
        "atp_address": "2 Avenue de l\u2019Europe",
        "osm_housenumber": null,
        "osm_street": null,
        "atp_phone": "+33 1 30 70 77 00",
        "osm_phone": null,
        "atp_opening_hours": "Mo-Sa 10:00-20:30; Su 10:00-18:00",
        "osm_hours": null,
        "atp_website": "https://www.apple.com/fr/retail/velizy2",
        "osm_website": null,
        "brand_wikidata": "Q421253",
        "brand": "Apple",
        "match_count": 1
    },
    {
        "osm_id": 399132129,
        "osm_name": "Apple Store",
        "osm_url": "https://www.osm.org/way/399132129",
        "osm_business": "electronics",
        "atp_city": "Puteaux - la D\u00e9fense",
        "atp_address": "Centre commercial Les Quatre Temps 15 Parvis de la D\u00e9fense",
        "osm_housenumber": null,
        "osm_street": null,
        "atp_phone": "+33 1 41 97 36 00",
        "osm_phone": "+33141973600",
        "atp_opening_hours": "Mo-Sa 10:00-20:30; Su 11:00-19:00",
        "osm_hours": "Mo-Sa 10:00-20:30; Su 10:00-20:00",
        "atp_website": "https://www.apple.com/fr/retail/lesquatretemps",
        "osm_website": "https://www.apple.com/fr/retail/lesquatretemps/",
        "brand_wikidata": "Q421253",
        "brand": "Apple",
        "match_count": 1
    },
    {
        "osm_id": 654450773,
        "osm_name": "Apple Store",
        "osm_url": "https://www.osm.org/way/654450773",
        "osm_business": "electronics",
        "atp_city": "Marne-la-Vall\u00e9e",
        "atp_address": "Centre Commercial Val d\u2019Europe 14, cours du Danube - Serris",
        "osm_housenumber": null,
        "osm_street": null,
        "atp_phone": "+33 1 64 17 35 00",
        "osm_phone": "+33 1 64 17 35 00",
        "atp_opening_hours": "Mo-Sa 10:00-20:30; Su 10:00-19:00",
        "osm_hours": "Mo-Sa 10:00-20:30; Su 10:00-20:00",
        "atp_website": "https://www.apple.com/fr/retail/valdeurope",
        "osm_website": "https://www.apple.com/fr",
        "brand_wikidata": "Q421253",
        "brand": "Apple",
        "match_count": 1
    },
    {
        "osm_id": 734158415,
        "osm_name": "Apple Store",
        "osm_url": "https://www.osm.org/way/734158415",
        "osm_business": "electronics",
        "atp_city": "Marseille",
        "atp_address": "Les Terrasses du Port 9 Quai du Lazaret",
        "osm_housenumber": "9",
        "osm_street": "Boulevard Jacques Saad\u00e9 Quai du Lazaret",
        "atp_phone": "+33 4 20 10 54 00",
        "osm_phone": "+33 4 20 10 54 00",
        "atp_opening_hours": "Mo-Su 10:00-20:00",
        "osm_hours": "Mo-Su 10:00-20:00",
        "atp_website": "https://www.apple.com/fr/retail/marseille",
        "osm_website": null,
        "brand_wikidata": "Q421253",
        "brand": "Apple",
        "match_count": 1
    },
    {
        "osm_id": 1069859047,
        "osm_name": "Apple Store",
        "osm_url": "https://www.osm.org/way/1069859047",
        "osm_business": "electronics",
        "atp_city": "Lyon",
        "atp_address": "Centre commercial La Part-Dieu 17 Rue du Docteur Bouchut",
        "osm_housenumber": null,
        "osm_street": null,
        "atp_phone": "+33 4 72 13 25 00",
        "osm_phone": "+33 4 72 13 25 00",
        "atp_opening_hours": "Mo-Sa 09:30-20:00",
        "osm_hours": "Mo-Sa 09:30-20:00",
        "atp_website": "https://www.apple.com/fr/retail/part-dieu",
        "osm_website": "https://www.apple.com/fr/retail/part-dieu/",
        "brand_wikidata": "Q421253",
        "brand": "Apple",
        "match_count": 1
    }
]