[
    {
        "osm_id": 469739683,
        "osm_name": "Carr\u00e9 Blanc",
        "osm_url": "https://www.osm.org/node/469739683",
        "osm_business": "household_linen",
        "atp_city": "Pontarlier",
        "atp_address": "28, rue de la r\u00e9publique",
        "osm_housenumber": null,
        "osm_street": null,
        "atp_phone": "+33 9 78 46 00 20",
        "osm_phone": "+33 3 81 39 12 46",
        "atp_opening_hours": "Tu-Sa 09:30-19:00",
        "osm_hours": "Mo 14:00-18:30; Tu-Fr 09:30-12:30,14:00-19:00; Sa 09:00-12:30,13:30-19:00",
        "atp_website": "https://boutiques.carreblanc.com/linge-de-maison/Pontarlier/PTE",
        "osm_website": "https://boutiques.carreblanc.com/linge-de-maison/pontarlier/PTL",
        "brand_wikidata": "Q55596025",
        "brand": "Carr\u00e9 blanc",
        "match_count": 1
    },
    {
        "osm_id": 508050020,
        "osm_name": "Carr\u00e9 Blanc",
        "osm_url": "https://www.osm.org/node/508050020",
        "osm_business": "household_linen",
        "atp_city": "Voiron",
        "atp_address": "2, cours Senozan",
        "osm_housenumber": null,
        "osm_street": null,
        "atp_phone": "+33 9 78 46 00 20",
        "osm_phone": null,
        "atp_opening_hours": null,
        "osm_hours": null,
        "atp_website": "https://boutiques.carreblanc.com/linge-de-maison/voiron/VOR",
        "osm_website": "https://www.carreblanc.com/",
        "brand_wikidata": "Q55596025",
        "brand": "Carr\u00e9 blanc",
        "match_count": 1
    },
    {
        "osm_id": 988277690,
        "osm_name": "Carr\u00e9 Blanc",
        "osm_url": "https://www.osm.org/node/988277690",
        "osm_business": "household_linen",
        "atp_city": "Neuilly-sur-Seine",
        "atp_address": "156 bis, avenue Charles de Gaulle",
        "osm_housenumber": null,
        "osm_street": null,
        "atp_phone": "+33 9 78 46 00 20",
        "osm_phone": null,
        "atp_opening_hours": "Mo-Sa 10:00-19:00",
        "osm_hours": null,
        "atp_website": "https://boutiques.carreblanc.com/linge-de-maison/neuilly-sur-seine/NLY",
        "osm_website": "https://www.carreblanc.com/",
        "brand_wikidata": "Q55596025",
        "brand": "Carr\u00e9 blanc",
        "match_count": 1
    },
    {
        "osm_id": 1027996011,
        "osm_name": "Carr\u00e9 Blanc",
        "osm_url": "https://www.osm.org/node/1027996011",
        "osm_business": "household_linen",
        "atp_city": "Boulogne-Billancourt",
        "atp_address": "12, boulevard Jean Jaures",
        "osm_housenumber": null,
        "osm_street": null,
        "atp_phone": "+33 9 78 46 00 20",
        "osm_phone": null,
        "atp_opening_hours": "Mo-Sa 10:00-19:00",
        "osm_hours": null,
        "atp_website": "https://boutiques.carreblanc.com/linge-de-maison/boulogne-billancourt/BOU",
        "osm_website": "https://www.carreblanc.com/",
        "brand_wikidata": "Q55596025",
        "brand": "Carr\u00e9 blanc",
        "match_count": 1
    },
    {
        "osm_id": 1799356660,
        "osm_name": "Carr\u00e9 Blanc",
        "osm_url": "https://www.osm.org/node/1799356660",
        "osm_business": "household_linen",
        "atp_city": "Moulins",
        "atp_address": "13 rue datas - Les halles",
        "osm_housenumber": null,
        "osm_street": null,
        "atp_phone": "+33 9 78 46 00 20",
        "osm_phone": null,
        "atp_opening_hours": "Mo-Sa 09:30-19:00",
        "osm_hours": null,
        "atp_website": "https://boutiques.carreblanc.com/linge-de-maison/moulins/MOU",
        "osm_website": "https://www.carreblanc.com/",
        "brand_wikidata": "Q55596025",
        "brand": "Carr\u00e9 blanc",
        "match_count": 1
    },
    {
        "osm_id": 1864625144,
        "osm_name": "Carr\u00e9 Blanc",
        "osm_url": "https://www.osm.org/node/1864625144",
        "osm_business": "household_linen",
        "atp_city": "Saint-Germain-en-Laye",
        "atp_address": "7, rue de Paris",
        "osm_housenumber": "7",
        "osm_street": "Rue de Paris",
        "atp_phone": "+33 9 78 46 00 20",
        "osm_phone": null,
        "atp_opening_hours": "Tu-Sa 10:00-19:00",
        "osm_hours": null,
        "atp_website": "https://boutiques.carreblanc.com/linge-de-maison/saint-germain-en-laye/LA3",
        "osm_website": "https://www.carreblanc.com/",
        "brand_wikidata": "Q55596025",
        "brand": "Carr\u00e9 blanc",
        "match_count": 1
    },
    {
        "osm_id": 2249052267,
        "osm_name": "Carr\u00e9 Blanc",
        "osm_url": "https://www.osm.org/node/2249052267",
        "osm_business": "household_linen",
        "atp_city": "Chalon-sur-Sa\u00f4ne",
        "atp_address": "12, rue au change",
        "osm_housenumber": null,
        "osm_street": null,
        "atp_phone": "+33 9 78 46 00 20",
        "osm_phone": null,
        "atp_opening_hours": null,
        "osm_hours": null,
        "atp_website": "https://boutiques.carreblanc.com/linge-de-maison/chalon-sur-saone/SAO",
        "osm_website": "https://www.carreblanc.com/",
        "brand_wikidata": "Q55596025",
        "brand": "Carr\u00e9 blanc",
        "match_count": 1
    },
    {
        "osm_id": 2380222800,
        "osm_name": "Carr\u00e9 Blanc",
        "osm_url": "https://www.osm.org/node/2380222800",
        "osm_business": "household_linen",
        "atp_city": "Grenoble",
        "atp_address": "6, rue clot bey",
        "osm_housenumber": null,
        "osm_street": null,
        "atp_phone": "+33 9 78 46 00 20",
        "osm_phone": null,
        "atp_opening_hours": null,
        "osm_hours": null,
        "atp_website": "https://boutiques.carreblanc.com/linge-de-maison/grenoble/GCB",
        "osm_website": "https://www.carreblanc.com/",
        "brand_wikidata": "Q55596025",
        "brand": "Carr\u00e9 blanc",
        "match_count": 1
    },
    {
        "osm_id": 2412257472,
        "osm_name": "Carr\u00e9 Blanc",
        "osm_url": "https://www.osm.org/node/2412257472",
        "osm_business": "household_linen",
        "atp_city": "Ruaudin",
        "atp_address": "Family Village, 1 boulevard des Hunaudi\u00e8res - 1 boulevard des Hunaudi\u00e8res",
        "osm_housenumber": null,
        "osm_street": null,
        "atp_phone": "+33 9 78 46 00 20",
        "osm_phone": null,
        "atp_opening_hours": "Mo-Sa 10:00-19:30",
        "osm_hours": null,
        "atp_website": "https://boutiques.carreblanc.com/linge-de-maison/ruaudin/LMU",
        "osm_website": "https://www.carreblanc.com/",
        "brand_wikidata": "Q55596025",
        "brand": "Carr\u00e9 blanc",
        "match_count": 1
    },
    {
        "osm_id": 2446506201,
        "osm_name": "Carr\u00e9 Blanc",
        "osm_url": "https://www.osm.org/node/2446506201",
        "osm_business": "household_linen",
        "atp_city": "Toulouse",
        "atp_address": "46, rue Alsace Lorraine",
        "osm_housenumber": null,
        "osm_street": null,
        "atp_phone": "+33 9 78 46 00 20",
        "osm_phone": null,
        "atp_opening_hours": "Mo-Sa 10:00-19:00",
        "osm_hours": null,
        "atp_website": "https://boutiques.carreblanc.com/linge-de-maison/toulouse/TOL",
        "osm_website": "https://www.carreblanc.com/",
        "brand_wikidata": "Q55596025",
        "brand": "Carr\u00e9 blanc",
        "match_count": 1
    },
    {
        "osm_id": 2596933185,
        "osm_name": "Carr\u00e9 Blanc",
        "osm_url": "https://www.osm.org/node/2596933185",
        "osm_business": "household_linen",
        "atp_city": "Chamb\u00e9ry",
        "atp_address": "1 rue Saint-Antoine",
        "osm_housenumber": null,
        "osm_street": null,
        "atp_phone": "+33 9 78 46 00 20",
        "osm_phone": null,
        "atp_opening_hours": "Mo-Sa 10:00-19:00",
        "osm_hours": null,
        "atp_website": "https://boutiques.carreblanc.com/linge-de-maison/chambery/CHM",
        "osm_website": "https://www.carreblanc.com/",
        "brand_wikidata": "Q55596025",
        "brand": "Carr\u00e9 blanc",
        "match_count": 1
    },
    {
        "osm_id": 2629988323,
        "osm_name": "Carr\u00e9 Blanc",
        "osm_url": "https://www.osm.org/node/2629988323",
        "osm_business": "household_linen",
        "atp_city": "Villefranche-sur-Sa\u00f4ne",
        "atp_address": "1027, rue nationale",
        "osm_housenumber": null,
        "osm_street": null,
        "atp_phone": "+33 9 78 46 00 20",
        "osm_phone": "+33 4 74 68 58 46",
        "atp_opening_hours": "Tu-Sa 09:30-19:00",
        "osm_hours": "Mo-Th 09:30-12:30,14:00-19:00; Fr,Sa 09:30-12:45,13:45-19:00",
        "atp_website": "https://boutiques.carreblanc.com/linge-de-maison/villefranche-sur-saone/VLE",
        "osm_website": "https://www.carreblanc.com",
        "brand_wikidata": "Q55596025",
        "brand": "Carr\u00e9 blanc",
        "match_count": 1
    },
    {
        "osm_id": 2679326313,
        "osm_name": "Carr\u00e9 Blanc",
        "osm_url": "https://www.osm.org/node/2679326313",
        "osm_business": "household_linen",
        "atp_city": "Lons-le-Saunier",
        "atp_address": "36, rue du commerce",
        "osm_housenumber": "36",
        "osm_street": "Rue du Commerce",
        "atp_phone": "+33 9 78 46 00 20",
        "osm_phone": "+33 3 84 24 06 24",
        "atp_opening_hours": null,
        "osm_hours": "Tu-Sa 10:00-12:00,14:00-19:00",
        "atp_website": "https://boutiques.carreblanc.com/linge-de-maison/lons-le-saunier/LLS",
        "osm_website": "https://www.carreblanc.com",
        "brand_wikidata": "Q55596025",
        "brand": "Carr\u00e9 blanc",
        "match_count": 1
    },
    {
        "osm_id": 2725366241,
        "osm_name": "Carr\u00e9 Blanc",
        "osm_url": "https://www.osm.org/node/2725366241",
        "osm_business": "household_linen",
        "atp_city": "Vienne",
        "atp_address": "26, rue Joseph Brennier",
        "osm_housenumber": "26",
        "osm_street": "Rue Joseph Brenier",
        "atp_phone": "+33 9 78 46 00 20",
        "osm_phone": "+33 4 74 31 70 98",
        "atp_opening_hours": null,
        "osm_hours": "Tu-We,Fr 10:00-19:00; Th,Sa 09:30-12:30,14:00-19:00",
        "atp_website": "https://boutiques.carreblanc.com/linge-de-maison/vienne/VIE",
        "osm_website": "https://boutiques.carreblanc.com/linge-de-maison/vienne/VIE",
        "brand_wikidata": "Q55596025",
        "brand": "Carr\u00e9 blanc",
        "match_count": 1
    },
    {
        "osm_id": 3124089080,
        "osm_name": "Carr\u00e9 Blanc",
        "osm_url": "https://www.osm.org/node/3124089080",
        "osm_business": "household_linen",
        "atp_city": "Nantes",
        "atp_address": "9 rue Rubens",
        "osm_housenumber": null,
        "osm_street": null,
        "atp_phone": "+33 9 78 46 00 20",
        "osm_phone": "+33 2 40 47 44 47",
        "atp_opening_hours": "Mo-Sa 10:30-19:00",
        "osm_hours": "Tu-Sa 11:00-13:30,14:30-19:00",
        "atp_website": "https://boutiques.carreblanc.com/linge-de-maison/nantes/NAN",
        "osm_website": "https://www.carreblanc.com",
        "brand_wikidata": "Q55596025",
        "brand": "Carr\u00e9 blanc",
        "match_count": 1
    },
    {
        "osm_id": 3439991596,
        "osm_name": "Carr\u00e9 Blanc",
        "osm_url": "https://www.osm.org/node/3439991596",
        "osm_business": "household_linen",
        "atp_city": "Orl\u00e9ans",
        "atp_address": "5, rue Thiers",
        "osm_housenumber": "36",
        "osm_street": "Rue Charles Sanglier",
        "atp_phone": "+33 9 78 46 00 20",
        "osm_phone": "+33 2 38 42 05 74",
        "atp_opening_hours": "Tu-Sa 10:00-19:00",
        "osm_hours": "Mo 10:00-13:00,14:00-19:00; Tu-Sa 10:00-19:00",
        "atp_website": "https://boutiques.carreblanc.com/linge-de-maison/orleans/OR2",
        "osm_website": "https://www.carreblanc.com",
        "brand_wikidata": "Q55596025",
        "brand": "Carr\u00e9 blanc",
        "match_count": 1
    },
    {
        "osm_id": 4004312581,
        "osm_name": "Carr\u00e9 Blanc",
        "osm_url": "https://www.osm.org/node/4004312581",
        "osm_business": "household_linen",
        "atp_city": "Paris",
        "atp_address": "58, rue du faubourg saint Antoine",
        "osm_housenumber": "58",
        "osm_street": "Rue du Faubourg Saint-Antoine",
        "atp_phone": "+33 9 78 46 00 20",
        "osm_phone": null,
        "atp_opening_hours": "Mo-Sa 10:00-19:00",
        "osm_hours": "Mo-Sa 10:00-19:00",
        "atp_website": "https://boutiques.carreblanc.com/linge-de-maison/paris/PSA",
        "osm_website": "https://www.carreblanc.com/",
        "brand_wikidata": "Q55596025",
        "brand": "Carr\u00e9 blanc",
        "match_count": 1
    },
    {
        "osm_id": 4034828832,
        "osm_name": "Carr\u00e9 Blanc",
        "osm_url": "https://www.osm.org/node/4034828832",
        "osm_business": "household_linen",
        "atp_city": "Rodez",
        "atp_address": "1, boulevard Guizard",
        "osm_housenumber": null,
        "osm_street": null,
        "atp_phone": "+33 9 78 46 00 20",
        "osm_phone": null,
        "atp_opening_hours": null,
        "osm_hours": null,
        "atp_website": "https://boutiques.carreblanc.com/linge-de-maison/rodez/RDZ",
        "osm_website": "https://www.carreblanc.com/",
        "brand_wikidata": "Q55596025",
        "brand": "Carr\u00e9 blanc",
        "match_count": 1
    },
    {
        "osm_id": 4239755493,
        "osm_name": "Carr\u00e9 Blanc",
        "osm_url": "https://www.osm.org/node/4239755493",
        "osm_business": "household_linen",
        "atp_city": "Brest",
        "atp_address": "57, rue de Siam",
        "osm_housenumber": null,
        "osm_street": null,
        "atp_phone": "+33 9 78 46 00 20",
        "osm_phone": null,
        "atp_opening_hours": "Mo-Sa 10:00-19:00",
        "osm_hours": null,
        "atp_website": "https://boutiques.carreblanc.com/linge-de-maison/brest/BT3",
        "osm_website": null,
        "brand_wikidata": "Q55596025",
        "brand": "Carr\u00e9 blanc",
        "match_count": 1
    },
    {
        "osm_id": 4247539087,
        "osm_name": "Carr\u00e9 Blanc",
        "osm_url": "https://www.osm.org/node/4247539087",
        "osm_business": "household_linen",
        "atp_city": "Saint-Malo",
        "atp_address": "48, rue ville pepin",
        "osm_housenumber": null,
        "osm_street": null,
        "atp_phone": "+33 9 78 46 00 20",
        "osm_phone": null,
        "atp_opening_hours": null,
        "osm_hours": "Tu-Sa 09:30-12:30,14:00-18:45",
        "atp_website": "https://boutiques.carreblanc.com/linge-de-maison/saint-malo/MLO",
        "osm_website": "https://www.carreblanc.com/",
        "brand_wikidata": "Q55596025",
        "brand": "Carr\u00e9 blanc",
        "match_count": 1
    },
    {
        "osm_id": 4610089357,
        "osm_name": "Carr\u00e9 Blanc",
        "osm_url": "https://www.osm.org/node/4610089357",
        "osm_business": "household_linen",
        "atp_city": "Sens",
        "atp_address": "12 place Jean Pierre Pincemin - ZAC Les Portes de Bourgogne",
        "osm_housenumber": null,
        "osm_street": null,
        "atp_phone": "+33 9 78 46 00 20",
        "osm_phone": null,
        "atp_opening_hours": "Mo-Sa 10:00-19:00",
        "osm_hours": null,
        "atp_website": "https://boutiques.carreblanc.com/linge-de-maison/sens/SNS",
        "osm_website": "https://www.carreblanc.com/",
        "brand_wikidata": "Q55596025",
        "brand": "Carr\u00e9 blanc",
        "match_count": 1
    },
    {
        "osm_id": 5315385855,
        "osm_name": "Carr\u00e9 Blanc",
        "osm_url": "https://www.osm.org/node/5315385855",
        "osm_business": "household_linen",
        "atp_city": "Annemasse",
        "atp_address": "6, rue des voirons",
        "osm_housenumber": "6",
        "osm_street": "Rue des Voirons",
        "atp_phone": "+33 9 78 46 00 20",
        "osm_phone": "+33 4 50 37 26 62",
        "atp_opening_hours": "Tu-Sa 10:00-19:00",
        "osm_hours": null,
        "atp_website": "https://boutiques.carreblanc.com/linge-de-maison/annemasse/ANM",
        "osm_website": "https://www.carreblanc.com/",
        "brand_wikidata": "Q55596025",
        "brand": "Carr\u00e9 blanc",
        "match_count": 1
    },
    {
        "osm_id": 5316726118,
        "osm_name": "Carr\u00e9 Blanc",
        "osm_url": "https://www.osm.org/node/5316726118",
        "osm_business": "household_linen",
        "atp_city": "Saint-Cloud",
        "atp_address": "65, boulevard de la r\u00e9publique - Centre commercial Monoprix",
        "osm_housenumber": null,
        "osm_street": null,
        "atp_phone": "+33 9 78 46 00 20",
        "osm_phone": null,
        "atp_opening_hours": "Mo-Sa 10:00-19:00",
        "osm_hours": null,
        "atp_website": "https://boutiques.carreblanc.com/linge-de-maison/st-cloud/SCO",
        "osm_website": null,
        "brand_wikidata": "Q55596025",
        "brand": "Carr\u00e9 blanc",
        "match_count": 1
    },
    {
        "osm_id": 5469045955,
        "osm_name": "Carr\u00e9 Blanc",
        "osm_url": "https://www.osm.org/node/5469045955",
        "osm_business": "household_linen",
        "atp_city": "Saint-\u00c9tienne",
        "atp_address": "7, rue Michelet",
        "osm_housenumber": null,
        "osm_street": null,
        "atp_phone": "+33 9 78 46 00 20",
        "osm_phone": null,
        "atp_opening_hours": null,
        "osm_hours": null,
        "atp_website": "https://boutiques.carreblanc.com/linge-de-maison/saint-etienne/ETI",
        "osm_website": "https://www.carreblanc.com/",
        "brand_wikidata": "Q55596025",
        "brand": "Carr\u00e9 blanc",
        "match_count": 1
    },
    {
        "osm_id": 5580472159,
        "osm_name": "Carr\u00e9 Blanc",
        "osm_url": "https://www.osm.org/node/5580472159",
        "osm_business": "household_linen",
        "atp_city": "Royan",
        "atp_address": "20, boulevard Aristide Briand",
        "osm_housenumber": null,
        "osm_street": null,
        "atp_phone": "+33 9 78 46 00 20",
        "osm_phone": null,
        "atp_opening_hours": null,
        "osm_hours": null,
        "atp_website": "https://boutiques.carreblanc.com/linge-de-maison/royan/RYN",
        "osm_website": "https://www.carreblanc.com/",
        "brand_wikidata": "Q55596025",
        "brand": "Carr\u00e9 blanc",
        "match_count": 1
    },
    {
        "osm_id": 5968545369,
        "osm_name": "Carr\u00e9 Blanc",
        "osm_url": "https://www.osm.org/node/5968545369",
        "osm_business": "household_linen",
        "atp_city": "Oullins-Pierre-B\u00e9nite",
        "atp_address": "131 Grande Rue",
        "osm_housenumber": null,
        "osm_street": null,
        "atp_phone": "+33 9 78 46 00 20",
        "osm_phone": null,
        "atp_opening_hours": null,
        "osm_hours": null,
        "atp_website": "https://boutiques.carreblanc.com/linge-de-maison/oullins/OUD",
        "osm_website": "https://boutiques.carreblanc.com/linge-de-maison/oullins/OUD",
        "brand_wikidata": "Q55596025",
        "brand": "Carr\u00e9 blanc",
        "match_count": 1
    },
    {
        "osm_id": 6125013134,
        "osm_name": "Carr\u00e9 Blanc",
        "osm_url": "https://www.osm.org/node/6125013134",
        "osm_business": "household_linen",
        "atp_city": "Quimper",
        "atp_address": "10, rue Astor",
        "osm_housenumber": null,
        "osm_street": "Rue Astor",
        "atp_phone": "+33 9 78 46 00 20",
        "osm_phone": "+33 2 98 95 43 38",
        "atp_opening_hours": null,
        "osm_hours": "Tu-Sa 10:00-12:30,14:00-19:00",
        "atp_website": "https://boutiques.carreblanc.com/linge-de-maison/quimper/QMP",
        "osm_website": "https://www.carreblanc.com",
        "brand_wikidata": "Q55596025",
        "brand": "Carr\u00e9 blanc",
        "match_count": 1
    },
    {
        "osm_id": 6146327686,
        "osm_name": "Carr\u00e9 Blanc",
        "osm_url": "https://www.osm.org/node/6146327686",
        "osm_business": "clothes",
        "atp_city": "Tours",
        "atp_address": "79, rue des Halles",
        "osm_housenumber": null,
        "osm_street": null,
        "atp_phone": "+33 9 78 46 00 20",
        "osm_phone": "+33 2 85 29 54 91",
        "atp_opening_hours": "Mo-Sa 10:00-19:00",
        "osm_hours": "Mo 14:00-19:00; Tu-Th 10:00-13:00,14:00-19:00; Fr,Sa 10:00-19:00",
        "atp_website": "https://boutiques.carreblanc.com/linge-de-maison/tours/TR3",
        "osm_website": "https://www.carreblanc.com",
        "brand_wikidata": "Q55596025",
        "brand": "Carr\u00e9 blanc",
        "match_count": 1
    },
    {
        "osm_id": 6286842805,
        "osm_name": "Carr\u00e9 Blanc",
        "osm_url": "https://www.osm.org/node/6286842805",
        "osm_business": "household_linen",
        "atp_city": "Pau",
        "atp_address": "6, rue montpensier",
        "osm_housenumber": "6",
        "osm_street": "Rue Montpensier",
        "atp_phone": "+33 9 78 46 00 20",
        "osm_phone": "+33 5 59 82 86 09",
        "atp_opening_hours": null,
        "osm_hours": "Tu-Sa 10:00-12:30,14:30-18:30",
        "atp_website": "https://boutiques.carreblanc.com/linge-de-maison/pau/PUA",
        "osm_website": "https://www.carreblanc.com",
        "brand_wikidata": "Q55596025",
        "brand": "Carr\u00e9 blanc",
        "match_count": 1
    },
    {
        "osm_id": 6344993770,
        "osm_name": "Carr\u00e9 Blanc",
        "osm_url": "https://www.osm.org/node/6344993770",
        "osm_business": "household_linen",
        "atp_city": "Mandelieu-la-Napoule",
        "atp_address": "avenue mar\u00e9chal Lyautey - ZI la canardi\u00e8re",
        "osm_housenumber": null,
        "osm_street": null,
        "atp_phone": "+33 9 78 46 00 20",
        "osm_phone": "+33 4 93 47 06 24",
        "atp_opening_hours": "Mo-Sa 10:00-19:00",
        "osm_hours": "Mo-Sa 10:00-19:00",
        "atp_website": "https://boutiques.carreblanc.com/linge-de-maison/mandelieu-la-napoule/MDL",
        "osm_website": "https://www.carreblanc.com",
        "brand_wikidata": "Q55596025",
        "brand": "Carr\u00e9 blanc",
        "match_count": 1
    },
    {
        "osm_id": 6476703799,
        "osm_name": "Carr\u00e9 Blanc",
        "osm_url": "https://www.osm.org/node/6476703799",
        "osm_business": "household_linen",
        "atp_city": "Bourg-en-Bresse",
        "atp_address": "8 rue Bichat",
        "osm_housenumber": null,
        "osm_street": null,
        "atp_phone": "+33 9 78 46 00 20",
        "osm_phone": null,
        "atp_opening_hours": "Mo-Sa 09:30-19:00",
        "osm_hours": null,
        "atp_website": "https://boutiques.carreblanc.com/linge-de-maison/bourg-en-bresse/BOB",
        "osm_website": null,
        "brand_wikidata": "Q55596025",
        "brand": "Carr\u00e9 blanc",
        "match_count": 1
    },
    {
        "osm_id": 6549495706,
        "osm_name": "Carr\u00e9 Blanc",
        "osm_url": "https://www.osm.org/node/6549495706",
        "osm_business": "household_linen",
        "atp_city": "Compi\u00e8gne",
        "atp_address": "24, rue des trois barbeaux",
        "osm_housenumber": "24",
        "osm_street": "Rue des Trois Barbeaux",
        "atp_phone": "+33 9 78 46 00 20",
        "osm_phone": "+33 3 44 86 25 60",
        "atp_opening_hours": null,
        "osm_hours": "Tu-Sa 10:00-12:00,14:00-18:15; Mo,su off",
        "atp_website": "https://boutiques.carreblanc.com/linge-de-maison/compiegne/CPG",
        "osm_website": null,
        "brand_wikidata": "Q55596025",
        "brand": "Carr\u00e9 blanc",
        "match_count": 1
    },
    {
        "osm_id": 6886709638,
        "osm_name": "Carr\u00e9 Blanc",
        "osm_url": "https://www.osm.org/node/6886709638",
        "osm_business": "household_linen",
        "atp_city": "Bourgoin-Jallieu",
        "atp_address": "86 rue de la Libert\u00e9",
        "osm_housenumber": "86",
        "osm_street": "Rue de la Libert\u00e9",
        "atp_phone": "+33 9 78 46 00 20",
        "osm_phone": null,
        "atp_opening_hours": "Tu-Sa 09:30-19:00",
        "osm_hours": "Mo 14:00-19:00; Tu-Sa 09:30-19:00",
        "atp_website": "https://boutiques.carreblanc.com/linge-de-maison/bourgoin-jallieu/BGJ",
        "osm_website": null,
        "brand_wikidata": "Q55596025",
        "brand": "Carr\u00e9 blanc",
        "match_count": 1
    },
    {
        "osm_id": 7235429905,
        "osm_name": "Carr\u00e9 Blanc",
        "osm_url": "https://www.osm.org/node/7235429905",
        "osm_business": "household_linen",
        "atp_city": "Laval",
        "atp_address": "19 rue des deportes",
        "osm_housenumber": null,
        "osm_street": null,
        "atp_phone": "+33 9 78 46 00 20",
        "osm_phone": null,
        "atp_opening_hours": null,
        "osm_hours": "Tu-Sa 10:00-12:30,14:00-19:00",
        "atp_website": "https://boutiques.carreblanc.com/linge-de-maison/Laval/LAL",
        "osm_website": null,
        "brand_wikidata": "Q55596025",
        "brand": "Carr\u00e9 blanc",
        "match_count": 1
    },
    {
        "osm_id": 7549524749,
        "osm_name": "Carr\u00e9 Blanc",
        "osm_url": "https://www.osm.org/node/7549524749",
        "osm_business": "household_linen",
        "atp_city": "Lyon",
        "atp_address": "33, rue de Brest",
        "osm_housenumber": null,
        "osm_street": null,
        "atp_phone": "+33 9 78 46 00 20",
        "osm_phone": null,
        "atp_opening_hours": null,
        "osm_hours": "Tu-Sa 10:00-13:00, 14:00-18:00",
        "atp_website": "https://boutiques.carreblanc.com/linge-de-maison/lyon/HER",
        "osm_website": null,
        "brand_wikidata": "Q55596025",
        "brand": "Carr\u00e9 blanc",
        "match_count": 1
    },
    {
        "osm_id": 7728545191,
        "osm_name": "Carr\u00e9 Blanc",
        "osm_url": "https://www.osm.org/node/7728545191",
        "osm_business": "household_linen",
        "atp_city": "Nailloux",
        "atp_address": "lieu dit le grill - Nailloux - Outlet Village",
        "osm_housenumber": null,
        "osm_street": null,
        "atp_phone": "+33 9 78 46 00 20",
        "osm_phone": "+33 5 61 07 67 18",
        "atp_opening_hours": "Mo-Sa 10:00-20:00",
        "osm_hours": "Mo-Sa 10:00-19:00",
        "atp_website": "https://boutiques.carreblanc.com/linge-de-maison/nailloux/MDN",
        "osm_website": "https://www.naillouxoutlet.com/fr/boutique/carre-blanc.php",
        "brand_wikidata": "Q55596025",
        "brand": "Carr\u00e9 blanc",
        "match_count": 1
    },
    {
        "osm_id": 7809157542,
        "osm_name": "Carr\u00e9 Blanc",
        "osm_url": "https://www.osm.org/node/7809157542",
        "osm_business": "household_linen",
        "atp_city": "Vannes",
        "atp_address": "10, rue st Nicolas",
        "osm_housenumber": "10",
        "osm_street": "Rue Saint-Nicolas",
        "atp_phone": "+33 9 78 46 00 20",
        "osm_phone": null,
        "atp_opening_hours": null,
        "osm_hours": "Tu-Th,Sa 10:00-13:00,14:00-19:00; Fr 10:00-19:00; Su,Mo off",
        "atp_website": "https://boutiques.carreblanc.com/linge-de-maison/vannes/VA2",
        "osm_website": "https://boutiques.carreblanc.com/linge-de-maison/vannes/VA2",
        "brand_wikidata": "Q55596025",
        "brand": "Carr\u00e9 blanc",
        "match_count": 1
    },
    {
        "osm_id": 8342678220,
        "osm_name": "Carr\u00e9 Blanc",
        "osm_url": "https://www.osm.org/node/8342678220",
        "osm_business": "household_linen",
        "atp_city": "Lyon",
        "atp_address": "13, avenue mar\u00e9chal de Saxe",
        "osm_housenumber": null,
        "osm_street": null,
        "atp_phone": "+33 9 78 46 00 20",
        "osm_phone": null,
        "atp_opening_hours": "Mo-Sa 10:00-19:00",
        "osm_hours": null,
        "atp_website": "https://boutiques.carreblanc.com/linge-de-maison/lyon/SX3",
        "osm_website": null,
        "brand_wikidata": "Q55596025",
        "brand": "Carr\u00e9 blanc",
        "match_count": 1
    },
    {
        "osm_id": 8637319793,
        "osm_name": "Carr\u00e9 Blanc",
        "osm_url": "https://www.osm.org/node/8637319793",
        "osm_business": "household_linen",
        "atp_city": "\u00c9pinal",
        "atp_address": "5 Rue du Boudiou",
        "osm_housenumber": null,
        "osm_street": null,
        "atp_phone": "+33 9 78 46 00 20",
        "osm_phone": null,
        "atp_opening_hours": null,
        "osm_hours": null,
        "atp_website": "https://boutiques.carreblanc.com/linge-de-maison/epinal/EPL",
        "osm_website": null,
        "brand_wikidata": "Q55596025",
        "brand": "Carr\u00e9 blanc",
        "match_count": 1
    },
    {
        "osm_id": 8895812100,
        "osm_name": "Carr\u00e9 Blanc",
        "osm_url": "https://www.osm.org/node/8895812100",
        "osm_business": "household_linen",
        "atp_city": "Antibes",
        "atp_address": "3, rue Sade",
        "osm_housenumber": "3",
        "osm_street": "Rue Sade",
        "atp_phone": "+33 9 78 46 00 20",
        "osm_phone": "+33 493343527",
        "atp_opening_hours": null,
        "osm_hours": "Mo-Su 10:00-13:00; Mo-Th 14:30-19:00; Fr-Sa 14:00-19:00",
        "atp_website": "https://boutiques.carreblanc.com/linge-de-maison/antibes/ABS",
        "osm_website": "https://boutiques.carreblanc.com/linge-de-maison/antibes/ABS",
        "brand_wikidata": "Q55596025",
        "brand": "Carr\u00e9 blanc",
        "match_count": 1
    },
    {
        "osm_id": 9007233476,
        "osm_name": "Carr\u00e9 Blanc",
        "osm_url": "https://www.osm.org/node/9007233476",
        "osm_business": "household_linen",
        "atp_city": "Antony",
        "atp_address": "3, rue Jean Moulin",
        "osm_housenumber": "3",
        "osm_street": "Rue Jean Moulin",
        "atp_phone": "+33 9 78 46 00 20",
        "osm_phone": null,
        "atp_opening_hours": "Mo-Sa 10:00-19:00",
        "osm_hours": "Tu-Sa 10:00-14:00,15:00-19:00",
        "atp_website": "https://boutiques.carreblanc.com/linge-de-maison/antony/TON",
        "osm_website": "https://boutiques.carreblanc.com/linge-de-maison/antony/TON",
        "brand_wikidata": "Q55596025",
        "brand": "Carr\u00e9 blanc",
        "match_count": 1
    },
    {
        "osm_id": 9113006722,
        "osm_name": "Carr\u00e9 Blanc",
        "osm_url": "https://www.osm.org/node/9113006722",
        "osm_business": "household_linen",
        "atp_city": "P\u00e9rigueux",
        "atp_address": "15, rue de la r\u00e9publique",
        "osm_housenumber": null,
        "osm_street": null,
        "atp_phone": "+33 9 78 46 00 20",
        "osm_phone": null,
        "atp_opening_hours": null,
        "osm_hours": "Tu-Sa 10:00-12:30,14:00-19:00",
        "atp_website": "https://boutiques.carreblanc.com/linge-de-maison/perigueux/PIG",
        "osm_website": "https://boutiques.carreblanc.com/linge-de-maison/perigueux/PIG",
        "brand_wikidata": "Q55596025",
        "brand": "Carr\u00e9 blanc",
        "match_count": 1
    },
    {
        "osm_id": 9664282899,
        "osm_name": "Carr\u00e9 Blanc",
        "osm_url": "https://www.osm.org/node/9664282899",
        "osm_business": "household_linen",
        "atp_city": "Dunkerque",
        "atp_address": "51, rue du Pr\u00e9sident Wilson",
        "osm_housenumber": null,
        "osm_street": null,
        "atp_phone": "+33 9 78 46 00 20",
        "osm_phone": null,
        "atp_opening_hours": null,
        "osm_hours": null,
        "atp_website": "https://boutiques.carreblanc.com/linge-de-maison/dunkerque/DUK",
        "osm_website": null,
        "brand_wikidata": "Q55596025",
        "brand": "Carr\u00e9 blanc",
        "match_count": 1
    },
    {
        "osm_id": 9879658659,
        "osm_name": "Carr\u00e9 Blanc",
        "osm_url": "https://www.osm.org/node/9879658659",
        "osm_business": "household_linen",
        "atp_city": "Brive-la-Gaillarde",
        "atp_address": "7 bis, place Charles de Gaulle",
        "osm_housenumber": null,
        "osm_street": null,
        "atp_phone": "+33 9 78 46 00 20",
        "osm_phone": null,
        "atp_opening_hours": null,
        "osm_hours": null,
        "atp_website": "https://boutiques.carreblanc.com/linge-de-maison/brive-la-gaillarde/BRV",
        "osm_website": null,
        "brand_wikidata": "Q55596025",
        "brand": "Carr\u00e9 blanc",
        "match_count": 1
    },
    {
        "osm_id": 10300777961,
        "osm_name": "Carr\u00e9 Blanc",
        "osm_url": "https://www.osm.org/node/10300777961",
        "osm_business": "household_linen",
        "atp_city": "Tarbes",
        "atp_address": "87, rue marechal foch",
        "osm_housenumber": "87",
        "osm_street": "Rue du Mar\u00e9chal Foch",
        "atp_phone": "+33 9 78 46 00 20",
        "osm_phone": "+33 5 62 56 10 10",
        "atp_opening_hours": null,
        "osm_hours": "Tu-Sa 10:00-12:30, 14:30-19:00",
        "atp_website": "https://boutiques.carreblanc.com/linge-de-maison/tarbes/TBS",
        "osm_website": "https://boutiques.carreblanc.com/linge-de-maison/tarbes/TBS",
        "brand_wikidata": "Q55596025",
        "brand": "Carr\u00e9 blanc",
        "match_count": 1
    },
    {
        "osm_id": 10707317809,
        "osm_name": "Carr\u00e9 Blanc",
        "osm_url": "https://www.osm.org/node/10707317809",
        "osm_business": "household_linen",
        "atp_city": "Reims",
        "atp_address": "6, rue Th\u00e9odore Dubois",
        "osm_housenumber": null,
        "osm_street": null,
        "atp_phone": "+33 9 78 46 00 20",
        "osm_phone": null,
        "atp_opening_hours": "Mo-Sa 10:00-19:00",
        "osm_hours": null,
        "atp_website": "https://boutiques.carreblanc.com/linge-de-maison/reims/REM",
        "osm_website": null,
        "brand_wikidata": "Q55596025",
        "brand": "Carr\u00e9 blanc",
        "match_count": 1
    },
    {
        "osm_id": 11064370878,
        "osm_name": "Carr\u00e9 Blanc",
        "osm_url": "https://www.osm.org/node/11064370878",
        "osm_business": "household_linen",
        "atp_city": "Vernon",
        "atp_address": "22, place de Gaulle",
        "osm_housenumber": null,
        "osm_street": null,
        "atp_phone": "+33 9 78 46 00 20",
        "osm_phone": null,
        "atp_opening_hours": null,
        "osm_hours": null,
        "atp_website": "https://boutiques.carreblanc.com/linge-de-maison/vernon/VRN",
        "osm_website": "https://www.carreblanc.com/",
        "brand_wikidata": "Q55596025",
        "brand": "Carr\u00e9 blanc",
        "match_count": 1
    },
    {
        "osm_id": 11907949993,
        "osm_name": "Carr\u00e9 Blanc",
        "osm_url": "https://www.osm.org/node/11907949993",
        "osm_business": "household_linen",
        "atp_city": "Annecy",
        "atp_address": "8, rue de la poste",
        "osm_housenumber": null,
        "osm_street": null,
        "atp_phone": "+33 9 78 46 00 20",
        "osm_phone": null,
        "atp_opening_hours": "Mo-Sa 10:00-19:00",
        "osm_hours": "Mo-Sa 10:00-19:00; Mo 12:00-14:00 closed",
        "atp_website": "https://boutiques.carreblanc.com/linge-de-maison/annecy/ANN",
        "osm_website": "https://boutiques.carreblanc.com/linge-de-maison/annecy/ANN",
        "brand_wikidata": "Q55596025",
        "brand": "Carr\u00e9 blanc",
        "match_count": 1
    },
    {
        "osm_id": 11910724150,
        "osm_name": "Carr\u00e9 Blanc",
        "osm_url": "https://www.osm.org/node/11910724150",
        "osm_business": "household_linen",
        "atp_city": "Caen",
        "atp_address": "38, rue St Pierre",
        "osm_housenumber": "38",
        "osm_street": "Rue Saint-Pierre",
        "atp_phone": "+33 9 78 46 00 20",
        "osm_phone": null,
        "atp_opening_hours": "Mo-Sa 10:00-19:00",
        "osm_hours": null,
        "atp_website": "https://boutiques.carreblanc.com/linge-de-maison/caen/CEN",
        "osm_website": null,
        "brand_wikidata": "Q55596025",
        "brand": "Carr\u00e9 blanc",
        "match_count": 1
    },
    {
        "osm_id": 11950573765,
        "osm_name": "Carr\u00e9 Blanc",
        "osm_url": "https://www.osm.org/node/11950573765",
        "osm_business": "household_linen",
        "atp_city": "Paris",
        "atp_address": "81, rue de s\u00e8vres",
        "osm_housenumber": null,
        "osm_street": null,
        "atp_phone": "+33 9 78 46 00 20",
        "osm_phone": null,
        "atp_opening_hours": "Mo-Sa 10:00-19:00",
        "osm_hours": "Mo 11:00-19:00, Tu-Sa 10:00-19:00",
        "atp_website": "https://boutiques.carreblanc.com/linge-de-maison/paris/S33",
        "osm_website": null,
        "brand_wikidata": "Q55596025",
        "brand": "Carr\u00e9 blanc",
        "match_count": 1
    },
    {
        "osm_id": 297043288,
        "osm_name": "Carr\u00e9 Blanc",
        "osm_url": "https://www.osm.org/way/297043288",
        "osm_business": "household_linen",
        "atp_city": "Villennes-sur-Seine/Orgeval",
        "atp_address": "3, chemin aux boeufs",
        "osm_housenumber": null,
        "osm_street": null,
        "atp_phone": "+33 9 78 46 00 20",
        "osm_phone": null,
        "atp_opening_hours": "Mo-Su 10:00-19:00",
        "osm_hours": null,
        "atp_website": "https://boutiques.carreblanc.com/linge-de-maison/villennes-sur-seine/VSS",
        "osm_website": "https://www.carreblanc.com/",
        "brand_wikidata": "Q55596025",
        "brand": "Carr\u00e9 blanc",
        "match_count": 1
    }
]