[
    {
        "osm_id": 738099556,
        "osm_name": "Pandora",
        "osm_url": "https://www.osm.org/node/738099556",
        "osm_business": "jewelry",
        "atp_city": "Niort",
        "atp_address": "30 rue Victor Hugo",
        "osm_housenumber": null,
        "osm_street": null,
        "atp_phone": "+33 5 49 10 70 24",
        "osm_phone": null,
        "atp_opening_hours": "Mo 14:00-19:00; Tu-Sa 10:00-19:00",
        "osm_hours": "Tu-Sa 10:00-19:00",
        "atp_website": "https://stores.pandora.net/fr-naq/niort/bijoux-pandora-fr426f2e75.html",
        "osm_website": null,
        "brand_wikidata": "Q2241604",
        "brand": "Pandora",
        "match_count": 1
    },
    {
        "osm_id": 1590435504,
        "osm_name": "Pandora",
        "osm_url": "https://www.osm.org/node/1590435504",
        "osm_business": "jewelry",
        "atp_city": "GERARDMER",
        "atp_address": "42 RUE CHARLES DE GAULLE",
        "osm_housenumber": null,
        "osm_street": null,
        "atp_phone": "+33 3 29 41 70 96",
        "osm_phone": null,
        "atp_opening_hours": null,
        "osm_hours": null,
        "atp_website": "https://stores.pandora.net/fr-ges/gerardmer/bijoux-pandora-frdf62547e.html",
        "osm_website": null,
        "brand_wikidata": "Q2241604",
        "brand": "Pandora",
        "match_count": 1
    },
    {
        "osm_id": 2031469239,
        "osm_name": "Pandora",
        "osm_url": "https://www.osm.org/node/2031469239",
        "osm_business": "jewelry",
        "atp_city": "MULHOUSE",
        "atp_address": "64 RUE DU SAUVAGE",
        "osm_housenumber": null,
        "osm_street": null,
        "atp_phone": "+33 3 89 42 03 50",
        "osm_phone": null,
        "atp_opening_hours": "Mo-Sa 10:00-19:00",
        "osm_hours": null,
        "atp_website": "https://stores.pandora.net/fr-ges/mulhouse/bijoux-pandora-frdaa671f9.html",
        "osm_website": null,
        "brand_wikidata": "Q2241604",
        "brand": "Pandora",
        "match_count": 1
    },
    {
        "osm_id": 2389300188,
        "osm_name": "Pandora",
        "osm_url": "https://www.osm.org/node/2389300188",
        "osm_business": "jewelry",
        "atp_city": "PARIS",
        "atp_address": "20 RUE DES FRANCS BOURGEOIS",
        "osm_housenumber": null,
        "osm_street": null,
        "atp_phone": "+33 1 57 40 83 53",
        "osm_phone": null,
        "atp_opening_hours": "Mo 11:00-19:00; Tu-Sa 10:30-19:30; Su 11:00-19:00",
        "osm_hours": null,
        "atp_website": "https://stores.pandora.net/fr-idf/paris/bijoux-pandora-fr77dbbdd0.html",
        "osm_website": null,
        "brand_wikidata": "Q2241604",
        "brand": "Pandora",
        "match_count": 1
    },
    {
        "osm_id": 2845915165,
        "osm_name": "Pandora",
        "osm_url": "https://www.osm.org/node/2845915165",
        "osm_business": "jewelry",
        "atp_city": "SAINT-PIERRE-DU-MONT",
        "atp_address": "328, Boulevard Oscar Niemeyer CENTRE COMMERCIAL GRAND MOUN",
        "osm_housenumber": null,
        "osm_street": null,
        "atp_phone": "+33 5 58 51 78 63",
        "osm_phone": null,
        "atp_opening_hours": "Mo-Sa 09:30-20:00",
        "osm_hours": null,
        "atp_website": "https://stores.pandora.net/fr-40/saint-pierre-du-mont/bijoux-pandora-fra4d4c72c.html",
        "osm_website": null,
        "brand_wikidata": "Q2241604",
        "brand": "Pandora",
        "match_count": 1
    },
    {
        "osm_id": 3040166120,
        "osm_name": "Pandora",
        "osm_url": "https://www.osm.org/node/3040166120",
        "osm_business": "jewelry",
        "atp_city": "CANNES",
        "atp_address": "57 RUE D'ANTIBE",
        "osm_housenumber": null,
        "osm_street": null,
        "atp_phone": "+33 4 93 30 03 52",
        "osm_phone": null,
        "atp_opening_hours": "Mo-Sa 10:00-19:00",
        "osm_hours": null,
        "atp_website": "https://stores.pandora.net/fr-pac/cannes/bijoux-pandora-fr85f76ed5.html",
        "osm_website": null,
        "brand_wikidata": "Q2241604",
        "brand": "Pandora",
        "match_count": 1
    },
    {
        "osm_id": 3261760604,
        "osm_name": "Pandora",
        "osm_url": "https://www.osm.org/node/3261760604",
        "osm_business": "jewelry",
        "atp_city": "ORLEANS",
        "atp_address": "23 RUE DE LA REPUBLIQUE",
        "osm_housenumber": "23",
        "osm_street": "Rue de la R\u00e9publique",
        "atp_phone": "+33 2 38 43 59 06",
        "osm_phone": null,
        "atp_opening_hours": "Mo 11:30-19:00; Tu-Sa 10:00-19:00",
        "osm_hours": null,
        "atp_website": "https://stores.pandora.net/fr-cvl/orleans/bijoux-pandora-fr4061846a.html",
        "osm_website": null,
        "brand_wikidata": "Q2241604",
        "brand": "Pandora",
        "match_count": 1
    },
    {
        "osm_id": 4431569181,
        "osm_name": "Pandora",
        "osm_url": "https://www.osm.org/node/4431569181",
        "osm_business": "jewelry",
        "atp_city": "NANCY",
        "atp_address": "22 rue Saint Jean",
        "osm_housenumber": "22",
        "osm_street": null,
        "atp_phone": "+33 9 67 31 38 52",
        "osm_phone": "+33 9 67 31 38 52",
        "atp_opening_hours": "Mo-Sa 10:00-19:00",
        "osm_hours": "Mo-Sa 10:00-19:00",
        "atp_website": "https://stores.pandora.net/fr-ges/nancy/bijoux-pandora-frfb33ac70.html",
        "osm_website": null,
        "brand_wikidata": "Q2241604",
        "brand": "Pandora",
        "match_count": 1
    },
    {
        "osm_id": 5607065306,
        "osm_name": "Pandora",
        "osm_url": "https://www.osm.org/node/5607065306",
        "osm_business": "jewelry",
        "atp_city": "Valenciennes",
        "atp_address": "57 place des Armes",
        "osm_housenumber": null,
        "osm_street": null,
        "atp_phone": "+33 3 27 43 00 01",
        "osm_phone": null,
        "atp_opening_hours": "Mo-Sa 10:00-19:00",
        "osm_hours": null,
        "atp_website": "https://stores.pandora.net/fr-84/valenciennes/bijoux-pandora-fr0417a68e.html",
        "osm_website": null,
        "brand_wikidata": "Q2241604",
        "brand": "Pandora",
        "match_count": 1
    },
    {
        "osm_id": 6128095985,
        "osm_name": "Pandora",
        "osm_url": "https://www.osm.org/node/6128095985",
        "osm_business": "jewelry",
        "atp_city": "Saran",
        "atp_address": "Centre commercial Cap Saran, 2601 Route Nationale 20",
        "osm_housenumber": "2601",
        "osm_street": "Rue Nationale 20",
        "atp_phone": "+33 2 38 68 18 07",
        "osm_phone": "+33 238681807",
        "atp_opening_hours": "Mo-Sa 09:30-20:00",
        "osm_hours": null,
        "atp_website": "https://stores.pandora.net/fr-45/saran/bijoux-pandora-frb02ed66d.html",
        "osm_website": "https://stores.pandora.net/fr-fr/fr-45/saran/bijoux-pandora-frb02ed66d.html",
        "brand_wikidata": "Q2241604",
        "brand": "Pandora",
        "match_count": 1
    },
    {
        "osm_id": 6249018802,
        "osm_name": "Pandora",
        "osm_url": "https://www.osm.org/node/6249018802",
        "osm_business": "jewelry",
        "atp_city": "Taverny",
        "atp_address": "CENTRE COMMERCIAL LES PORTES DE TAVERNY Rue Th\u00e9roigne de M\u00e9ricourt",
        "osm_housenumber": null,
        "osm_street": null,
        "atp_phone": "+33 1 39 78 00 52",
        "osm_phone": null,
        "atp_opening_hours": "Mo-Sa 10:00-20:00",
        "osm_hours": null,
        "atp_website": "https://stores.pandora.net/fr-95/taverny/bijoux-pandora-fr33c79733.html",
        "osm_website": null,
        "brand_wikidata": "Q2241604",
        "brand": "Pandora",
        "match_count": 1
    },
    {
        "osm_id": 6865904055,
        "osm_name": "Pandora",
        "osm_url": "https://www.osm.org/node/6865904055",
        "osm_business": "jewelry",
        "atp_city": "AIX EN PROVENCE",
        "atp_address": "17 RUE DU MARECHAL FOCH",
        "osm_housenumber": null,
        "osm_street": null,
        "atp_phone": "+33 4 42 53 16 98",
        "osm_phone": null,
        "atp_opening_hours": "Mo-Sa 10:00-19:00",
        "osm_hours": "Mo-Sa 10:00-19:00",
        "atp_website": "https://stores.pandora.net/fr-pac/aixenprovence/bijoux-pandora-fr6f28d26b.html",
        "osm_website": null,
        "brand_wikidata": "Q2241604",
        "brand": "Pandora",
        "match_count": 1
    },
    {
        "osm_id": 6909853088,
        "osm_name": "Pandora",
        "osm_url": "https://www.osm.org/node/6909853088",
        "osm_business": "jewelry",
        "atp_city": "ANGERS",
        "atp_address": "C.CIAL ESPACE ANJOU - 75 AVENUE MONTAIGNE",
        "osm_housenumber": null,
        "osm_street": null,
        "atp_phone": "+33 9 67 50 49 57",
        "osm_phone": null,
        "atp_opening_hours": "Mo-Sa 09:30-20:00",
        "osm_hours": null,
        "atp_website": "https://stores.pandora.net/fr-pdl/angers/bijoux-pandora-frb88257a2.html",
        "osm_website": null,
        "brand_wikidata": "Q2241604",
        "brand": "Pandora",
        "match_count": 1
    },
    {
        "osm_id": 6970262281,
        "osm_name": "Pandora",
        "osm_url": "https://www.osm.org/node/6970262281",
        "osm_business": "jewelry",
        "atp_city": "Lyon",
        "atp_address": "81 RUE DE LA R\u00c9PUBLIQUE",
        "osm_housenumber": null,
        "osm_street": null,
        "atp_phone": "+33 4 78 84 38 62",
        "osm_phone": "+33478843862",
        "atp_opening_hours": "Mo-Sa 10:00-19:30",
        "osm_hours": "Mo-Sa 10:00-19:30",
        "atp_website": "https://stores.pandora.net/fr-ara/lyon/bijoux-pandora-frb62c9db4.html",
        "osm_website": "https://fr.pandora.net",
        "brand_wikidata": "Q2241604",
        "brand": "Pandora",
        "match_count": 1
    },
    {
        "osm_id": 7015342641,
        "osm_name": "Pandora",
        "osm_url": "https://www.osm.org/node/7015342641",
        "osm_business": "jewelry",
        "atp_city": "MIRAMAS",
        "atp_address": "Village de la P\u00e9ronne-Rue de la Quenouille Mc ARTHUR GLEN PROVENCE",
        "osm_housenumber": null,
        "osm_street": null,
        "atp_phone": "+33 4 90 44 23 35",
        "osm_phone": null,
        "atp_opening_hours": "Mo-Th 10:00-19:00; Fr-Sa 10:00-20:00",
        "osm_hours": null,
        "atp_website": "https://stores.pandora.net/fr-13/miramas/bijoux-pandora-fr479bf860.html",
        "osm_website": null,
        "brand_wikidata": "Q2241604",
        "brand": "Pandora",
        "match_count": 1
    },
    {
        "osm_id": 7309228454,
        "osm_name": "Pandora",
        "osm_url": "https://www.osm.org/node/7309228454",
        "osm_business": "jewelry",
        "atp_city": "Le Mans",
        "atp_address": "23 Rue Bolton",
        "osm_housenumber": "23",
        "osm_street": "Rue de Bolton",
        "atp_phone": "+33 2 43 28 41 34",
        "osm_phone": "+33 2 43 28 41 34",
        "atp_opening_hours": "Mo 14:00-19:00; Tu-Sa 10:00-19:00",
        "osm_hours": "Mo 14:00-19:00; Tu-Sa 10:00-19:00",
        "atp_website": "https://stores.pandora.net/fr-pdl/lemans/bijoux-pandora-fr63d8bbed.html",
        "osm_website": "https://fr.pandora.net",
        "brand_wikidata": "Q2241604",
        "brand": "Pandora",
        "match_count": 1
    },
    {
        "osm_id": 7439929547,
        "osm_name": "Pandora",
        "osm_url": "https://www.osm.org/node/7439929547",
        "osm_business": "jewelry",
        "atp_city": "Blois",
        "atp_address": "43 rue du Commerce",
        "osm_housenumber": null,
        "osm_street": null,
        "atp_phone": "+33 2 54 58 33 71",
        "osm_phone": null,
        "atp_opening_hours": "Mo 14:00-19:00; Tu-Sa 10:00-19:00",
        "osm_hours": null,
        "atp_website": "https://stores.pandora.net/fr-41/blois/bijoux-pandora-frc5087137.html",
        "osm_website": null,
        "brand_wikidata": "Q2241604",
        "brand": "Pandora",
        "match_count": 1
    },
    {
        "osm_id": 7713699679,
        "osm_name": "Pandora",
        "osm_url": "https://www.osm.org/node/7713699679",
        "osm_business": "jewelry",
        "atp_city": "BORDEAUX",
        "atp_address": "PLACE PUY PAULIN",
        "osm_housenumber": "74",
        "osm_street": "Rue Porte Dijeaux",
        "atp_phone": "+33 5 57 35 30 54",
        "osm_phone": "+33556524026",
        "atp_opening_hours": "Mo-Sa 10:00-20:00; Su 11:00-19:00",
        "osm_hours": "Mo-Sa 10:00-20:00",
        "atp_website": "https://stores.pandora.net/fr-33/bordeaux/bijoux-pandora-fr5ef8a80b.html",
        "osm_website": "https://fr.pandora.net/fr",
        "brand_wikidata": "Q2241604",
        "brand": "Pandora",
        "match_count": 1
    },
    {
        "osm_id": 7924488953,
        "osm_name": "Pandora",
        "osm_url": "https://www.osm.org/node/7924488953",
        "osm_business": "jewelry",
        "atp_city": "Villeneuve d'Ascq",
        "atp_address": "CC V2, Boulevard de Valmy",
        "osm_housenumber": null,
        "osm_street": null,
        "atp_phone": "+33 3 20 31 89 21",
        "osm_phone": "+33 3 20 31 89 21",
        "atp_opening_hours": "Mo-Sa 09:30-20:00",
        "osm_hours": "Mo 10:00-19:00; Th-Sa 09:30-20:30",
        "atp_website": "https://stores.pandora.net/fr-59/villeneuvedascq/bijoux-pandora-fr958b19b5.html",
        "osm_website": "https://fr.pandora.net/fr/",
        "brand_wikidata": "Q2241604",
        "brand": "Pandora",
        "match_count": 1
    },
    {
        "osm_id": 8145915584,
        "osm_name": "Pandora",
        "osm_url": "https://www.osm.org/node/8145915584",
        "osm_business": "jewelry",
        "atp_city": "ETREMBIERES",
        "atp_address": "21, Chemin de l'Industrie",
        "osm_housenumber": "21",
        "osm_street": "Rue de l'Industrie",
        "atp_phone": "+33 4 50 37 54 61",
        "osm_phone": "+33 4 50 37 32 79",
        "atp_opening_hours": "Mo-Fr 09:30-20:00; Sa 09:00-20:00",
        "osm_hours": "Mo-Fr 09:30-20:00; Sa 09:00-20:00; Su off",
        "atp_website": "https://stores.pandora.net/fr-74/etrembieres/bijoux-pandora-fre1f4e102.html",
        "osm_website": "https://fr.pandora.net/fr/Stores?StoreID=etrembieres-frb8b55f9b",
        "brand_wikidata": "Q2241604",
        "brand": "Pandora",
        "match_count": 1
    },
    {
        "osm_id": 8762657891,
        "osm_name": "Pandora",
        "osm_url": "https://www.osm.org/node/8762657891",
        "osm_business": "jewelry",
        "atp_city": "CAEN",
        "atp_address": "6, Rue de Strasbourg",
        "osm_housenumber": "6",
        "osm_street": "Rue de Strasbourg",
        "atp_phone": "+33 2 31 26 07 30",
        "osm_phone": null,
        "atp_opening_hours": "Mo-Sa 10:00-19:00",
        "osm_hours": "Mo-Sa 10:00-19:00",
        "atp_website": "https://stores.pandora.net/fr-14/caen/bijoux-pandora-frcf6a09ba.html",
        "osm_website": null,
        "brand_wikidata": "Q2241604",
        "brand": "Pandora",
        "match_count": 1
    },
    {
        "osm_id": 8777540001,
        "osm_name": "Pandora",
        "osm_url": "https://www.osm.org/node/8777540001",
        "osm_business": "jewelry",
        "atp_city": "PONT SAINTE MARIE",
        "atp_address": "C.CIAL MC ARTHUR GLEN TROYES - VOIE DU BOIS",
        "osm_housenumber": null,
        "osm_street": null,
        "atp_phone": "+33 3 25 46 86 74",
        "osm_phone": null,
        "atp_opening_hours": "Mo-Su 10:00-19:00",
        "osm_hours": null,
        "atp_website": "https://stores.pandora.net/fr-ges/pontsaintemarie/bijoux-pandora-fr5bc75680.html",
        "osm_website": null,
        "brand_wikidata": "Q2241604",
        "brand": "Pandora",
        "match_count": 1
    },
    {
        "osm_id": 8987442678,
        "osm_name": "Pandora",
        "osm_url": "https://www.osm.org/node/8987442678",
        "osm_business": "jewelry",
        "atp_city": "Lille",
        "atp_address": "100 Avenue Willy Brandt",
        "osm_housenumber": null,
        "osm_street": null,
        "atp_phone": "+33 3 28 53 46 49",
        "osm_phone": null,
        "atp_opening_hours": "Mo-Sa 09:30-20:00",
        "osm_hours": null,
        "atp_website": "https://stores.pandora.net/fr-59/lille/bijoux-pandora-frdf60c337.html",
        "osm_website": null,
        "brand_wikidata": "Q2241604",
        "brand": "Pandora",
        "match_count": 1
    },
    {
        "osm_id": 9670288040,
        "osm_name": "Pandora",
        "osm_url": "https://www.osm.org/node/9670288040",
        "osm_business": "jewelry",
        "atp_city": "DUNKERQUE",
        "atp_address": "24 BOULEVARD ALEXANDRE III",
        "osm_housenumber": "24",
        "osm_street": "Boulevard Alexandre III",
        "atp_phone": "+33 3 28 27 28 51",
        "osm_phone": null,
        "atp_opening_hours": "Mo 11:00-19:00; Tu-Sa 10:00-19:00",
        "osm_hours": null,
        "atp_website": "https://stores.pandora.net/fr-59/dunkerque/bijoux-pandora-fr7c38158c.html",
        "osm_website": null,
        "brand_wikidata": "Q2241604",
        "brand": "Pandora",
        "match_count": 1
    },
    {
        "osm_id": 9869056564,
        "osm_name": "Pandora",
        "osm_url": "https://www.osm.org/node/9869056564",
        "osm_business": "jewelry",
        "atp_city": "PARIS",
        "atp_address": "132 RUE DE RENNES",
        "osm_housenumber": null,
        "osm_street": null,
        "atp_phone": "+33 1 42 22 31 44",
        "osm_phone": null,
        "atp_opening_hours": "Mo-Sa 10:00-19:30",
        "osm_hours": "Mo-Sa 10:00-19:30",
        "atp_website": "https://stores.pandora.net/fr-idf/paris/bijoux-pandora-fr362788e5.html",
        "osm_website": null,
        "brand_wikidata": "Q2241604",
        "brand": "Pandora",
        "match_count": 1
    },
    {
        "osm_id": 10101133995,
        "osm_name": "Pandora",
        "osm_url": "https://www.osm.org/node/10101133995",
        "osm_business": "jewelry",
        "atp_city": "AMIENS",
        "atp_address": "3 PLACE RENE GOBLET",
        "osm_housenumber": "3",
        "osm_street": "Place Ren\u00e9 Goblet",
        "atp_phone": "+33 3 22 53 03 01",
        "osm_phone": "+33 3 22 53 03 01",
        "atp_opening_hours": "Mo-Sa 10:00-19:00",
        "osm_hours": "Mo-Sa 10:00-19:00",
        "atp_website": "https://stores.pandora.net/fr-80/amiens/bijoux-pandora-fr08603a77.html",
        "osm_website": "https://stores.pandora.net/fr-fr/fr-hdf/amiens/bijoux-pandora-fr08603a77.html",
        "brand_wikidata": "Q2241604",
        "brand": "Pandora",
        "match_count": 1
    },
    {
        "osm_id": 10159221505,
        "osm_name": "Pandora",
        "osm_url": "https://www.osm.org/node/10159221505",
        "osm_business": "jewelry",
        "atp_city": "CAGNES SUR MER",
        "atp_address": "119, Avenue des Alpes",
        "osm_housenumber": null,
        "osm_street": null,
        "atp_phone": "+33 4 92 13 90 33",
        "osm_phone": null,
        "atp_opening_hours": "Mo-Sa 10:00-20:00",
        "osm_hours": "Mo-Sa 10:00-20:00; Su off",
        "atp_website": "https://stores.pandora.net/fr-06/cagnessurmer/bijoux-pandora-fr077a258c.html",
        "osm_website": null,
        "brand_wikidata": "Q2241604",
        "brand": "Pandora",
        "match_count": 1
    },
    {
        "osm_id": 10212299982,
        "osm_name": "Pandora",
        "osm_url": "https://www.osm.org/node/10212299982",
        "osm_business": "jewelry",
        "atp_city": "ALBI",
        "atp_address": "30 Rue Mari\u00e8s",
        "osm_housenumber": "30",
        "osm_street": "Rue Mari\u00e8s",
        "atp_phone": "+33 5 63 83 04 49",
        "osm_phone": "+33 5 63 83 04 49",
        "atp_opening_hours": "Tu-Sa 10:00-19:00",
        "osm_hours": null,
        "atp_website": "https://stores.pandora.net/fr-occ/albi/bijoux-pandora-fr4d55dcc8.html",
        "osm_website": null,
        "brand_wikidata": "Q2241604",
        "brand": "Pandora",
        "match_count": 1
    },
    {
        "osm_id": 10271129968,
        "osm_name": "Pandora",
        "osm_url": "https://www.osm.org/node/10271129968",
        "osm_business": "jewelry",
        "atp_city": "Rouen",
        "atp_address": "71 rue du gros horloge",
        "osm_housenumber": null,
        "osm_street": null,
        "atp_phone": "+33 2 35 15 14 73",
        "osm_phone": null,
        "atp_opening_hours": "Mo 12:00-19:00; Tu-Sa 10:00-19:00",
        "osm_hours": "Mo-Sa 10:00-19:00",
        "atp_website": "https://stores.pandora.net/fr-76/rouen/bijoux-pandora-fr27e9698d.html",
        "osm_website": null,
        "brand_wikidata": "Q2241604",
        "brand": "Pandora",
        "match_count": 1
    },
    {
        "osm_id": 10807328909,
        "osm_name": "Pandora",
        "osm_url": "https://www.osm.org/node/10807328909",
        "osm_business": "jewelry",
        "atp_city": "BOULOGNE-BILLANCOURT",
        "atp_address": "CENTRE COMMERCIAL LES PASSAGE 5 RUE TONY GARNIER",
        "osm_housenumber": null,
        "osm_street": null,
        "atp_phone": "+33 1 46 66 00 79",
        "osm_phone": null,
        "atp_opening_hours": "Mo-Sa 10:00-20:00; Su 11:00-19:00",
        "osm_hours": null,
        "atp_website": "https://stores.pandora.net/fr-idf/boulogne-billancourt/bijoux-pandora-fr946121c8.html",
        "osm_website": null,
        "brand_wikidata": "Q2241604",
        "brand": "Pandora",
        "match_count": 1
    },
    {
        "osm_id": 11011590575,
        "osm_name": "Pandora",
        "osm_url": "https://www.osm.org/node/11011590575",
        "osm_business": "jewelry",
        "atp_city": "LA ROCHELLE",
        "atp_address": "2 RUE DU TEMPLE",
        "osm_housenumber": null,
        "osm_street": null,
        "atp_phone": "+33 5 46 07 98 10",
        "osm_phone": null,
        "atp_opening_hours": "Mo-Sa 10:00-19:00",
        "osm_hours": "Tu-Sa 10:00-19:00; Mo 14:00-19:00",
        "atp_website": "https://stores.pandora.net/fr-naq/larochelle/bijoux-pandora-fr13ac3e8f.html",
        "osm_website": null,
        "brand_wikidata": "Q2241604",
        "brand": "Pandora",
        "match_count": 1
    },
    {
        "osm_id": 11099591050,
        "osm_name": "Pandora",
        "osm_url": "https://www.osm.org/node/11099591050",
        "osm_business": "jewelry",
        "atp_city": "Le Chesnay",
        "atp_address": "C. Cial. Parly 2, ave Charles de Gaulle",
        "osm_housenumber": "2",
        "osm_street": "Avenue Charles de Gaulle",
        "atp_phone": "+33 9 66 84 73 62",
        "osm_phone": null,
        "atp_opening_hours": "Mo-Sa 10:00-20:30; Su 11:00-19:00",
        "osm_hours": null,
        "atp_website": "https://stores.pandora.net/fr-78/lechesnay/bijoux-pandora-fr2ff9bae6.html",
        "osm_website": null,
        "brand_wikidata": "Q2241604",
        "brand": "Pandora",
        "match_count": 1
    },
    {
        "osm_id": 11361758442,
        "osm_name": "Pandora",
        "osm_url": "https://www.osm.org/node/11361758442",
        "osm_business": "jewelry",
        "atp_city": "ANGLET",
        "atp_address": "C. CIAL BAB2 - AVENUE JEAN LEON LAPORTE",
        "osm_housenumber": null,
        "osm_street": "Avenue Jean-L\u00e9on Laporte",
        "atp_phone": "+33 9 61 60 86 83",
        "osm_phone": "+33961608683",
        "atp_opening_hours": "Mo-Sa 09:30-20:00",
        "osm_hours": "Mo-Su 09:30-20:00",
        "atp_website": "https://stores.pandora.net/fr-64/anglet/bijoux-pandora-fr6c85db0b.html",
        "osm_website": null,
        "brand_wikidata": "Q2241604",
        "brand": "Pandora",
        "match_count": 1
    },
    {
        "osm_id": 11532146117,
        "osm_name": "Pandora",
        "osm_url": "https://www.osm.org/node/11532146117",
        "osm_business": "jewelry",
        "atp_city": "Tourville La Riviere",
        "atp_address": "2 avenue Gustave Picard",
        "osm_housenumber": null,
        "osm_street": null,
        "atp_phone": "+33 2 35 76 24 48",
        "osm_phone": null,
        "atp_opening_hours": "Mo-Th 10:00-20:00; Fr-Sa 09:30-20:00",
        "osm_hours": null,
        "atp_website": "https://stores.pandora.net/fr-76/tourvillelariviere/bijoux-pandora-fre8048150.html",
        "osm_website": null,
        "brand_wikidata": "Q2241604",
        "brand": "Pandora",
        "match_count": 1
    },
    {
        "osm_id": 11573570979,
        "osm_name": "Pandora",
        "osm_url": "https://www.osm.org/node/11573570979",
        "osm_business": "jewelry",
        "atp_city": "METZ",
        "atp_address": "6 RUE DES CLERCS",
        "osm_housenumber": null,
        "osm_street": null,
        "atp_phone": "+33 9 67 13 22 88",
        "osm_phone": null,
        "atp_opening_hours": "Mo-Sa 10:00-19:00",
        "osm_hours": null,
        "atp_website": "https://stores.pandora.net/fr-ges/metz/bijoux-pandora-fre79ec654.html",
        "osm_website": null,
        "brand_wikidata": "Q2241604",
        "brand": "Pandora",
        "match_count": 1
    },
    {
        "osm_id": 124905497,
        "osm_name": "Pandora",
        "osm_url": "https://www.osm.org/way/124905497",
        "osm_business": "jewelry",
        "atp_city": "Le Pontet",
        "atp_address": "C. Cial. Avignon Nord, 533 Av Louis Braille",
        "osm_housenumber": null,
        "osm_street": null,
        "atp_phone": "+33 4 90 27 95 45",
        "osm_phone": null,
        "atp_opening_hours": "Mo-Sa 09:30-20:30",
        "osm_hours": null,
        "atp_website": "https://stores.pandora.net/fr-pac/lepontet/bijoux-pandora-fr054ed988.html",
        "osm_website": null,
        "brand_wikidata": "Q2241604",
        "brand": "Pandora",
        "match_count": 1
    },
    {
        "osm_id": 219092777,
        "osm_name": "Pandora",
        "osm_url": "https://www.osm.org/way/219092777",
        "osm_business": "jewelry",
        "atp_city": "THIONVILLE",
        "atp_address": "Rue du Maillet",
        "osm_housenumber": null,
        "osm_street": null,
        "atp_phone": "+33 3 82 59 57 04",
        "osm_phone": null,
        "atp_opening_hours": "Mo-Sa 09:00-20:00",
        "osm_hours": null,
        "atp_website": "https://stores.pandora.net/fr-57/thionville/bijoux-pandora-fr22eacb2e.html",
        "osm_website": null,
        "brand_wikidata": "Q2241604",
        "brand": "Pandora",
        "match_count": 1
    },
    {
        "osm_id": 268150573,
        "osm_name": "Pandora",
        "osm_url": "https://www.osm.org/way/268150573",
        "osm_business": "jewelry",
        "atp_city": "VELIZY-VILLACOUBLAY",
        "atp_address": "C.CIAL VELIZY 2 - 2 AVENUE DE L, EUROPE - NIVEAU 0",
        "osm_housenumber": null,
        "osm_street": null,
        "atp_phone": "+33 9 67 42 95 43",
        "osm_phone": null,
        "atp_opening_hours": "Mo-Sa 10:00-21:00; Su 10:00-19:00",
        "osm_hours": null,
        "atp_website": "https://stores.pandora.net/fr-idf/velizy-villacoublay/bijoux-pandora-fr97cf1b76.html",
        "osm_website": null,
        "brand_wikidata": "Q2241604",
        "brand": "Pandora",
        "match_count": 1
    },
    {
        "osm_id": 333433783,
        "osm_name": "Pandora",
        "osm_url": "https://www.osm.org/way/333433783",
        "osm_business": "jewelry",
        "atp_city": "PARIS",
        "atp_address": "1 cour du Havre",
        "osm_housenumber": null,
        "osm_street": null,
        "atp_phone": "+33 1 49 24 95 62",
        "osm_phone": null,
        "atp_opening_hours": "Mo-Fr 07:30-20:00; Sa 09:00-20:00; Su 10:00-19:00",
        "osm_hours": "Mo-Fr 07:30-20:00; Sa 09:00-20:00; Sa 10:00-19:00",
        "atp_website": "https://stores.pandora.net/fr-75/paris/bijoux-pandora-fr92766818.html",
        "osm_website": null,
        "brand_wikidata": "Q2241604",
        "brand": "Pandora",
        "match_count": 1
    },
    {
        "osm_id": 364534837,
        "osm_name": "Pandora",
        "osm_url": "https://www.osm.org/way/364534837",
        "osm_business": "jewelry",
        "atp_city": "VENETTE",
        "atp_address": "CENTRE COMMERCIAL CARREFOUR 6, Avenue de l\u2019Europe",
        "osm_housenumber": "6",
        "osm_street": "Avenue de l'Europe",
        "atp_phone": "+33 9 71 44 97 59",
        "osm_phone": "+33 9 71 44 97 59",
        "atp_opening_hours": "Mo-Sa 09:30-19:30",
        "osm_hours": "Mo-Sa 09:30-19:30; Su off",
        "atp_website": "https://stores.pandora.net/fr-60/venette/bijoux-pandora-frabb0919c.html",
        "osm_website": null,
        "brand_wikidata": "Q2241604",
        "brand": "Pandora",
        "match_count": 1
    },
    {
        "osm_id": 455394656,
        "osm_name": "Pandora",
        "osm_url": "https://www.osm.org/way/455394656",
        "osm_business": "jewelry",
        "atp_city": "CLERMONT FERRAND",
        "atp_address": "C.CIAL JAUDE - 18 RUE D, ALLAGNAT",
        "osm_housenumber": null,
        "osm_street": null,
        "atp_phone": "+33 9 67 31 43 48",
        "osm_phone": null,
        "atp_opening_hours": "Mo-Sa 10:00-19:00",
        "osm_hours": "Mo-Sa 10:00-19:00",
        "atp_website": "https://stores.pandora.net/fr-ara/clermontferrand/bijoux-pandora-frc8a25a78.html",
        "osm_website": null,
        "brand_wikidata": "Q2241604",
        "brand": "Pandora",
        "match_count": 1
    },
    {
        "osm_id": 512915170,
        "osm_name": "Pandora",
        "osm_url": "https://www.osm.org/way/512915170",
        "osm_business": "jewelry",
        "atp_city": "GRENOBLE",
        "atp_address": "55, Grand Place",
        "osm_housenumber": "50",
        "osm_street": "Avenue de la Chartreuse",
        "atp_phone": "+33 4 76 29 01 58",
        "osm_phone": "+33 9 67 72 01 58",
        "atp_opening_hours": "Mo-Sa 10:00-20:00",
        "osm_hours": "Mo-Sa 09:30-20:00",
        "atp_website": "https://stores.pandora.net/fr-38/grenoble/bijoux-pandora-fr056113d8.html",
        "osm_website": "https://grand-place.klepierre.fr/boutiques-restaurants/pandora",
        "brand_wikidata": "Q2241604",
        "brand": "Pandora",
        "match_count": 1
    },
    {
        "osm_id": 888651755,
        "osm_name": "Pandora",
        "osm_url": "https://www.osm.org/way/888651755",
        "osm_business": "jewelry",
        "atp_city": "Pau",
        "atp_address": "C.Cial Leclerc, Avenue Louis Sallenave",
        "osm_housenumber": null,
        "osm_street": null,
        "atp_phone": "+33 5 59 61 15 70",
        "osm_phone": null,
        "atp_opening_hours": "Mo-Sa 09:00-19:30",
        "osm_hours": null,
        "atp_website": "https://stores.pandora.net/fr-64/pau/bijoux-pandora-fre92764d1.html",
        "osm_website": null,
        "brand_wikidata": "Q2241604",
        "brand": "Pandora",
        "match_count": 1
    },
    {
        "osm_id": 973602037,
        "osm_name": "Pandora",
        "osm_url": "https://www.osm.org/way/973602037",
        "osm_business": "jewelry",
        "atp_city": "BESANCON",
        "atp_address": "C.CIAL CHATEAUFARINE - ROUTE DE DOLE",
        "osm_housenumber": null,
        "osm_street": null,
        "atp_phone": "+33 3 81 55 11 08",
        "osm_phone": null,
        "atp_opening_hours": "Mo-Tu 09:30-19:30; We 09:30-19:00; Th-Sa 09:30-19:30",
        "osm_hours": null,
        "atp_website": "https://stores.pandora.net/fr-bfc/besancon/bijoux-pandora-fr8d379f10.html",
        "osm_website": null,
        "brand_wikidata": "Q2241604",
        "brand": "Pandora",
        "match_count": 1
    },
    {
        "osm_id": 981811274,
        "osm_name": "Pandora",
        "osm_url": "https://www.osm.org/way/981811274",
        "osm_business": "jewelry",
        "atp_city": "THIAIS",
        "atp_address": "CENTRE COMMERCIAL BELLE-EPINE - 740, Belle-Epine",
        "osm_housenumber": null,
        "osm_street": null,
        "atp_phone": "+33 1 41 93 91 85",
        "osm_phone": "+33 1 46 87 15 88",
        "atp_opening_hours": "Mo 10:00-20:00; Tu-Fr 10:00-20:30; Sa 10:00-20:00; Su 11:00-19:00",
        "osm_hours": "Mo 10:00-20:00; Tu-Fr 10:00-21:00; Sa 10:00-20:00",
        "atp_website": "https://stores.pandora.net/fr-94/thiais/bijoux-pandora-frfdf43fe8.html",
        "osm_website": "https://fr.pandora.net/fr/Stores?StoreID=thiais-fr66d1f667",
        "brand_wikidata": "Q2241604",
        "brand": "Pandora",
        "match_count": 1
    },
    {
        "osm_id": 1018254195,
        "osm_name": "Pandora",
        "osm_url": "https://www.osm.org/way/1018254195",
        "osm_business": "jewelry",
        "atp_city": "SAINT-PAUL-LES-DAX",
        "atp_address": "CENTRE COMMERCIAL GRAND MAIL Boulevard Saint-Vincent-de-Paul",
        "osm_housenumber": null,
        "osm_street": null,
        "atp_phone": "+33 9 63 60 18 43",
        "osm_phone": null,
        "atp_opening_hours": "Mo-Sa 09:30-20:00",
        "osm_hours": null,
        "atp_website": "https://stores.pandora.net/fr-40/saint-paul-les-dax/bijoux-pandora-fr39315a46.html",
        "osm_website": null,
        "brand_wikidata": "Q2241604",
        "brand": "Pandora",
        "match_count": 1
    },
    {
        "osm_id": 1049251381,
        "osm_name": "Pandora",
        "osm_url": "https://www.osm.org/way/1049251381",
        "osm_business": "jewelry",
        "atp_city": "Bordeaux",
        "atp_address": "Centre commercial Bordeaux Lac, Avenue des 40 Journaux",
        "osm_housenumber": null,
        "osm_street": null,
        "atp_phone": "+33 9 62 57 11 03",
        "osm_phone": null,
        "atp_opening_hours": "Mo-Sa 09:30-20:00",
        "osm_hours": null,
        "atp_website": "https://stores.pandora.net/fr-33/bordeaux/bijoux-pandora-fre5c2fea5.html",
        "osm_website": null,
        "brand_wikidata": "Q2241604",
        "brand": "Pandora",
        "match_count": 1
    },
    {
        "osm_id": 1050974547,
        "osm_name": "Pandora",
        "osm_url": "https://www.osm.org/way/1050974547",
        "osm_business": "jewelry",
        "atp_city": "ENGLOS",
        "atp_address": "CC ENGLOS - 352 route nationale Auchan Hypermarch\u00e9 Englos",
        "osm_housenumber": null,
        "osm_street": null,
        "atp_phone": null,
        "osm_phone": null,
        "atp_opening_hours": "Mo-Sa 09:30-20:00",
        "osm_hours": null,
        "atp_website": "https://stores.pandora.net/fr-59/englos/bijoux-pandora-fr52843451.html",
        "osm_website": null,
        "brand_wikidata": "Q2241604",
        "brand": "Pandora",
        "match_count": 1
    },
    {
        "osm_id": 1097805917,
        "osm_name": "Pandora",
        "osm_url": "https://www.osm.org/way/1097805917",
        "osm_business": "jewelry",
        "atp_city": "Lanester",
        "atp_address": "78 avenue Ambroise Croizat",
        "osm_housenumber": null,
        "osm_street": null,
        "atp_phone": "+33 9 63 56 45 27",
        "osm_phone": null,
        "atp_opening_hours": "Mo-Sa 09:30-19:30",
        "osm_hours": "Mo-Sa 09:30-20:00",
        "atp_website": "https://stores.pandora.net/fr-56/lanester/bijoux-pandora-frd6422fba.html",
        "osm_website": "https://www.pandora.net/",
        "brand_wikidata": "Q2241604",
        "brand": "Pandora",
        "match_count": 1
    }
]