[
    {
        "osm_id": 590450983,
        "osm_name": "Petit Bateau",
        "osm_url": "https://www.osm.org/node/590450983",
        "osm_business": "clothes",
        "atp_city": "Nimes",
        "atp_address": "15 Rue Du G\u00e9n\u00e9ral Perrier",
        "osm_housenumber": "15",
        "osm_street": "Rue du G\u00e9n\u00e9ral Perrier",
        "atp_phone": "+33 4 66 27 05 53",
        "osm_phone": "+33 4 66 27 05 53",
        "atp_opening_hours": null,
        "osm_hours": "Mo-Sa 10:00-19:00",
        "atp_website": "https://stores.petit-bateau.com/france/nimes/15-rue-du-general-perrier",
        "osm_website": "www.stores.petitbateau.com",
        "brand_wikidata": "Q3377090",
        "brand": "Petit Bateau",
        "match_count": 1
    },
    {
        "osm_id": 669075521,
        "osm_name": "Petit Bateau",
        "osm_url": "https://www.osm.org/node/669075521",
        "osm_business": "clothes",
        "atp_city": "Paris",
        "atp_address": "323 Rue Vaugirard",
        "osm_housenumber": null,
        "osm_street": null,
        "atp_phone": "+33 1 44 19 89 81",
        "osm_phone": null,
        "atp_opening_hours": "Mo-Sa 10:00-19:00; Su 11:00-18:00",
        "osm_hours": "Mo-Sa 10:00-19:00",
        "atp_website": "https://stores.petit-bateau.com/france/paris/323-rue-vaugirard",
        "osm_website": null,
        "brand_wikidata": "Q3377090",
        "brand": "Petit Bateau",
        "match_count": 1
    },
    {
        "osm_id": 725563658,
        "osm_name": "Petit Bateau",
        "osm_url": "https://www.osm.org/node/725563658",
        "osm_business": "clothes",
        "atp_city": "Royan",
        "atp_address": "3 Rue Jules Verne",
        "osm_housenumber": null,
        "osm_street": null,
        "atp_phone": "+33 5 46 02 21 24",
        "osm_phone": null,
        "atp_opening_hours": null,
        "osm_hours": null,
        "atp_website": "https://stores.petit-bateau.com/france/royan/3-rue-jules-verne",
        "osm_website": null,
        "brand_wikidata": "Q3377090",
        "brand": "Petit Bateau",
        "match_count": 1
    },
    {
        "osm_id": 826015292,
        "osm_name": "Petit Bateau",
        "osm_url": "https://www.osm.org/node/826015292",
        "osm_business": "clothes",
        "atp_city": "Boulogne Billancourt",
        "atp_address": "157 Avenue Jean Jaur\u00e8s",
        "osm_housenumber": null,
        "osm_street": null,
        "atp_phone": "+33 1 55 60 93 78",
        "osm_phone": null,
        "atp_opening_hours": "Mo-Sa 10:00-19:00; Su 10:00-18:00",
        "osm_hours": null,
        "atp_website": "https://stores.petit-bateau.com/france/boulogne-billancourt/157-avenue-jean-jaures",
        "osm_website": null,
        "brand_wikidata": "Q3377090",
        "brand": "Petit Bateau",
        "match_count": 1
    },
    {
        "osm_id": 1311986393,
        "osm_name": "Petit Bateau",
        "osm_url": "https://www.osm.org/node/1311986393",
        "osm_business": "clothes",
        "atp_city": "Orl\u00e9ans",
        "atp_address": "12 Rue De La R\u00e9publique",
        "osm_housenumber": "12",
        "osm_street": "Rue de la R\u00e9publique",
        "atp_phone": "+33 2 38 53 50 55",
        "osm_phone": "+33 2 38 53 50 55",
        "atp_opening_hours": "Mo 14:30-19:00; Tu-Sa 10:00-19:00; Su closed",
        "osm_hours": "Mo-Sa 10:00-19:00",
        "atp_website": "https://stores.petit-bateau.com/france/orleans/12-rue-de-la-republique",
        "osm_website": "https://stores.petit-bateau.com/fr/france/orleans/12-rue-de-la-republique",
        "brand_wikidata": "Q3377090",
        "brand": "Petit Bateau",
        "match_count": 1
    },
    {
        "osm_id": 1522685118,
        "osm_name": "Petit Bateau",
        "osm_url": "https://www.osm.org/node/1522685118",
        "osm_business": "clothes",
        "atp_city": "Chamb\u00e9ry",
        "atp_address": "231 Place Saint-L\u00e9ger",
        "osm_housenumber": null,
        "osm_street": null,
        "atp_phone": "+33 4 79 33 28 37",
        "osm_phone": null,
        "atp_opening_hours": "Mo closed; Tu-Sa 10:00-19:00; Su closed",
        "osm_hours": "Mo 14:00-19:00; Tu-Sa 10:00-19:00",
        "atp_website": "https://stores.petit-bateau.com/france/chambery/231-place-saint-leger",
        "osm_website": null,
        "brand_wikidata": "Q3377090",
        "brand": "Petit Bateau",
        "match_count": 1
    },
    {
        "osm_id": 1673435258,
        "osm_name": "Petit Bateau",
        "osm_url": "https://www.osm.org/node/1673435258",
        "osm_business": "clothes",
        "atp_city": "Montpellier",
        "atp_address": "Rue Georges Melies Centre Commercial Odysseum",
        "osm_housenumber": null,
        "osm_street": null,
        "atp_phone": "+33 4 67 83 31 63",
        "osm_phone": null,
        "atp_opening_hours": "Mo-Sa 10:00-20:00; Su 10:00-19:00",
        "osm_hours": null,
        "atp_website": "https://stores.petit-bateau.com/france/montpellier/rue-georges-melies",
        "osm_website": null,
        "brand_wikidata": "Q3377090",
        "brand": "Petit Bateau",
        "match_count": 1
    },
    {
        "osm_id": 2021449617,
        "osm_name": "Petit Bateau",
        "osm_url": "https://www.osm.org/node/2021449617",
        "osm_business": "clothes",
        "atp_city": "Avignon",
        "atp_address": "28 Rue Joseph Vernet",
        "osm_housenumber": null,
        "osm_street": null,
        "atp_phone": "+33 4 90 85 59 03",
        "osm_phone": null,
        "atp_opening_hours": "Mo-Sa 10:00-19:00; Su closed",
        "osm_hours": "Tu-Sa 10:00-19:00; Mo 14:00-19:00",
        "atp_website": "https://stores.petit-bateau.com/france/avignon/28-rue-joseph-vernet",
        "osm_website": null,
        "brand_wikidata": "Q3377090",
        "brand": "Petit Bateau",
        "match_count": 1
    },
    {
        "osm_id": 2028150740,
        "osm_name": "Petit Bateau",
        "osm_url": "https://www.osm.org/node/2028150740",
        "osm_business": "clothes",
        "atp_city": "Quimper",
        "atp_address": "57 Rue K\u00e9r\u00e9on",
        "osm_housenumber": "57",
        "osm_street": "Rue K\u00e9r\u00e9on",
        "atp_phone": "+33 2 98 64 35 00",
        "osm_phone": null,
        "atp_opening_hours": "Mo 14:00-19:00; Tu-Sa 10:00-19:00; Su closed",
        "osm_hours": null,
        "atp_website": "https://stores.petit-bateau.com/france/quimper/57-rue-kereon",
        "osm_website": null,
        "brand_wikidata": "Q3377090",
        "brand": "Petit Bateau",
        "match_count": 1
    },
    {
        "osm_id": 2124501038,
        "osm_name": "Petit Bateau",
        "osm_url": "https://www.osm.org/node/2124501038",
        "osm_business": "clothes",
        "atp_city": "Le Mans",
        "atp_address": "7 Rue de la Perle",
        "osm_housenumber": null,
        "osm_street": null,
        "atp_phone": "+33 2 43 28 13 47",
        "osm_phone": null,
        "atp_opening_hours": null,
        "osm_hours": null,
        "atp_website": "https://stores.petit-bateau.com/france/le-mans/7-rue-de-la-perle",
        "osm_website": null,
        "brand_wikidata": "Q3377090",
        "brand": "Petit Bateau",
        "match_count": 1
    },
    {
        "osm_id": 2394033102,
        "osm_name": "Petit Bateau",
        "osm_url": "https://www.osm.org/node/2394033102",
        "osm_business": "clothes",
        "atp_city": "Pont-Sainte-Marie",
        "atp_address": "27 Voie Du Bois Mac Arthur Glen",
        "osm_housenumber": null,
        "osm_street": null,
        "atp_phone": "+33 3 25 80 21 10",
        "osm_phone": null,
        "atp_opening_hours": "Mo-Fr 09:30-19:30; Sa 09:00-20:00; Su 10:00-19:00",
        "osm_hours": null,
        "atp_website": "https://stores.petit-bateau.com/france/pont-sainte-marie/27-voie-du-bois",
        "osm_website": null,
        "brand_wikidata": "Q3377090",
        "brand": "Petit Bateau",
        "match_count": 1
    },
    {
        "osm_id": 2405943819,
        "osm_name": "Petit Bateau",
        "osm_url": "https://www.osm.org/node/2405943819",
        "osm_business": "clothes",
        "atp_city": "Vincennes",
        "atp_address": "21-23 Rue Du Midi",
        "osm_housenumber": null,
        "osm_street": null,
        "atp_phone": "+33 1 58 64 33 28",
        "osm_phone": null,
        "atp_opening_hours": "Mo-Sa 10:00-19:00; Su closed",
        "osm_hours": "Mo-Sa 10:00-19:00",
        "atp_website": "https://stores.petit-bateau.com/france/vincennes/21-23-rue-du-midi",
        "osm_website": null,
        "brand_wikidata": "Q3377090",
        "brand": "Petit Bateau",
        "match_count": 1
    },
    {
        "osm_id": 2463356574,
        "osm_name": "Petit Bateau",
        "osm_url": "https://www.osm.org/node/2463356574",
        "osm_business": "clothes",
        "atp_city": "Toulouse",
        "atp_address": "26 Rue Saint-Antoine Du T",
        "osm_housenumber": null,
        "osm_street": null,
        "atp_phone": "+33 5 61 23 53 99",
        "osm_phone": null,
        "atp_opening_hours": "Mo-Sa 10:00-19:00; Su closed",
        "osm_hours": "Mo-Sa 10:00-19:00",
        "atp_website": "https://stores.petit-bateau.com/france/toulouse/26-rue-saint-antoine-du-t",
        "osm_website": "https://www.petit-bateau.fr",
        "brand_wikidata": "Q3377090",
        "brand": "Petit Bateau",
        "match_count": 1
    },
    {
        "osm_id": 2479786469,
        "osm_name": "Petit Bateau",
        "osm_url": "https://www.osm.org/node/2479786469",
        "osm_business": "clothes",
        "atp_city": "Versailles",
        "atp_address": "42 Rue De La Paroisse",
        "osm_housenumber": "42",
        "osm_street": "Rue de la Paroisse",
        "atp_phone": "+33 1 30 21 67 94",
        "osm_phone": null,
        "atp_opening_hours": "Mo 11:00-19:00; Tu-Sa 10:00-19:00; Su 10:00-13:00",
        "osm_hours": "Mo 11:00-19:00; Tu-Sa 10:00-19:00; Su 10:00-13:00",
        "atp_website": "https://stores.petit-bateau.com/france/versailles/42-rue-de-la-paroisse",
        "osm_website": null,
        "brand_wikidata": "Q3377090",
        "brand": "Petit Bateau",
        "match_count": 1
    },
    {
        "osm_id": 2655913299,
        "osm_name": "Petit Bateau",
        "osm_url": "https://www.osm.org/node/2655913299",
        "osm_business": "clothes",
        "atp_city": "Paris",
        "atp_address": "13 Rue Tronchet",
        "osm_housenumber": null,
        "osm_street": null,
        "atp_phone": "+33 1 42 65 26 26",
        "osm_phone": null,
        "atp_opening_hours": "Mo-Sa 10:00-19:00; Su 11:00-18:30",
        "osm_hours": "Mo-Sa 10:00-19:30",
        "atp_website": "https://stores.petit-bateau.com/france/paris/13-rue-tronchet",
        "osm_website": null,
        "brand_wikidata": "Q3377090",
        "brand": "Petit Bateau",
        "match_count": 1
    },
    {
        "osm_id": 2657674393,
        "osm_name": "Petit Bateau",
        "osm_url": "https://www.osm.org/node/2657674393",
        "osm_business": "clothes",
        "atp_city": "Paris",
        "atp_address": "67 Rue Du Faubourg Saint Antoine",
        "osm_housenumber": "65",
        "osm_street": "Rue du Faubourg Saint-Antoine",
        "atp_phone": "+33 1 40 19 93 49",
        "osm_phone": null,
        "atp_opening_hours": "Mo-Sa 10:00-19:00; Su closed",
        "osm_hours": null,
        "atp_website": "https://stores.petit-bateau.com/france/paris/67-rue-du-faubourg-saint-antoine",
        "osm_website": null,
        "brand_wikidata": "Q3377090",
        "brand": "Petit Bateau",
        "match_count": 1
    },
    {
        "osm_id": 3050587076,
        "osm_name": "Petit Bateau",
        "osm_url": "https://www.osm.org/node/3050587076",
        "osm_business": "clothes",
        "atp_city": "Cannes",
        "atp_address": "50 Rue D'Antibes",
        "osm_housenumber": "50",
        "osm_street": "Rue d'Antibes",
        "atp_phone": "+33 4 93 38 05 82",
        "osm_phone": null,
        "atp_opening_hours": "Mo-Sa 10:00-19:00; Su 10:00-18:00",
        "osm_hours": "Mo-Sa 10:00-19:00",
        "atp_website": "https://stores.petit-bateau.com/france/cannes/50-rue-d'antibes",
        "osm_website": null,
        "brand_wikidata": "Q3377090",
        "brand": "Petit Bateau",
        "match_count": 1
    },
    {
        "osm_id": 3282330168,
        "osm_name": "Petit Bateau",
        "osm_url": "https://www.osm.org/node/3282330168",
        "osm_business": "clothes",
        "atp_city": "Paris",
        "atp_address": "16 Avenue Du G\u00e9n\u00e9ral Leclerc",
        "osm_housenumber": null,
        "osm_street": null,
        "atp_phone": "+33 1 43 22 15 79",
        "osm_phone": null,
        "atp_opening_hours": "Mo-Sa 10:00-19:00; Su closed",
        "osm_hours": "Mo-Sa 10:00-19:00",
        "atp_website": "https://stores.petit-bateau.com/france/paris/16-avenue-du-general-leclerc",
        "osm_website": "https://www.petit-bateau.fr/",
        "brand_wikidata": "Q3377090",
        "brand": "Petit Bateau",
        "match_count": 1
    },
    {
        "osm_id": 3292148842,
        "osm_name": "Petit Bateau",
        "osm_url": "https://www.osm.org/node/3292148842",
        "osm_business": "clothes",
        "atp_city": "Mulhouse",
        "atp_address": "Cour Des Mar\u00e9chaux CC Cour Des Mar\u00e9chaux",
        "osm_housenumber": null,
        "osm_street": null,
        "atp_phone": "+33 3 89 45 89 79",
        "osm_phone": null,
        "atp_opening_hours": "Mo-Sa 10:00-19:00; Su closed",
        "osm_hours": null,
        "atp_website": "https://stores.petit-bateau.com/france/mulhouse/cour-des-marechaux",
        "osm_website": null,
        "brand_wikidata": "Q3377090",
        "brand": "Petit Bateau",
        "match_count": 1
    },
    {
        "osm_id": 3500564864,
        "osm_name": "Petit Bateau",
        "osm_url": "https://www.osm.org/node/3500564864",
        "osm_business": "clothes",
        "atp_city": "Saint Raphael",
        "atp_address": "85 Rue Jean Aicard",
        "osm_housenumber": "85",
        "osm_street": "Rue Jean Aicard",
        "atp_phone": "+33 4 94 53 96 55",
        "osm_phone": "+33 4 94 53 96 55",
        "atp_opening_hours": null,
        "osm_hours": "Mo 14:30-19:00; Tu-Sa 10:00-12:30, 14:30-19:00",
        "atp_website": "https://stores.petit-bateau.com/france/saint-raphael/85-rue-jean-aicard",
        "osm_website": "http://www.petit-bateau.fr/s/boutique/713-petit-bateau-saint-raphael-macafoja.html",
        "brand_wikidata": "Q3377090",
        "brand": "Petit Bateau",
        "match_count": 1
    },
    {
        "osm_id": 3532312696,
        "osm_name": "Petit Bateau",
        "osm_url": "https://www.osm.org/node/3532312696",
        "osm_business": "clothes",
        "atp_city": "Neuilly",
        "atp_address": "37 Rue De Sablonville",
        "osm_housenumber": null,
        "osm_street": null,
        "atp_phone": "+33 1 47 45 45 75",
        "osm_phone": null,
        "atp_opening_hours": "Mo-Sa 10:00-19:00; Su closed",
        "osm_hours": null,
        "atp_website": "https://stores.petit-bateau.com/france/neuilly/37-rue-de-sablonville",
        "osm_website": null,
        "brand_wikidata": "Q3377090",
        "brand": "Petit Bateau",
        "match_count": 1
    },
    {
        "osm_id": 3623464905,
        "osm_name": "Petit Bateau",
        "osm_url": "https://www.osm.org/node/3623464905",
        "osm_business": "clothes",
        "atp_city": "Rueil-Malmaison",
        "atp_address": "3 Rue Paul Vaillant-Couturier",
        "osm_housenumber": null,
        "osm_street": null,
        "atp_phone": "+33 1 47 49 60 78",
        "osm_phone": null,
        "atp_opening_hours": "Mo closed; Tu-Sa 10:00-19:00; Su closed",
        "osm_hours": null,
        "atp_website": "https://stores.petit-bateau.com/france/rueil-malmaison/3-rue-paul-vaillant-couturier",
        "osm_website": null,
        "brand_wikidata": "Q3377090",
        "brand": "Petit Bateau",
        "match_count": 1
    },
    {
        "osm_id": 3657479126,
        "osm_name": "Petit Bateau",
        "osm_url": "https://www.osm.org/node/3657479126",
        "osm_business": "clothes",
        "atp_city": "Montpellier",
        "atp_address": "20 Rue De La Loge",
        "osm_housenumber": null,
        "osm_street": null,
        "atp_phone": "+33 4 67 60 37 09",
        "osm_phone": null,
        "atp_opening_hours": "Mo-Sa 10:00-19:00; Su closed",
        "osm_hours": "Mo-Sa 10:00-19:00",
        "atp_website": "https://stores.petit-bateau.com/france/montpellier/20-rue-de-la-loge",
        "osm_website": null,
        "brand_wikidata": "Q3377090",
        "brand": "Petit Bateau",
        "match_count": 1
    },
    {
        "osm_id": 3861108159,
        "osm_name": "Petit Bateau",
        "osm_url": "https://www.osm.org/node/3861108159",
        "osm_business": "clothes",
        "atp_city": "Caen",
        "atp_address": "86 Rue Saint Pierre",
        "osm_housenumber": "86",
        "osm_street": "Rue Saint-Pierre",
        "atp_phone": "+33 2 31 86 89 79",
        "osm_phone": null,
        "atp_opening_hours": "Mo 11:00-19:00; Tu-Sa 10:00-19:00; Su closed",
        "osm_hours": "Tu-Sa 10:00-19:00; Mo 11:00-19:00; Su off",
        "atp_website": "https://stores.petit-bateau.com/france/caen/86-rue-saint-pierre",
        "osm_website": null,
        "brand_wikidata": "Q3377090",
        "brand": "Petit Bateau",
        "match_count": 1
    },
    {
        "osm_id": 3874851620,
        "osm_name": "Petit Bateau",
        "osm_url": "https://www.osm.org/node/3874851620",
        "osm_business": "clothes",
        "atp_city": "Paris",
        "atp_address": "116 Avenue Des Champs Elys\u00e9es",
        "osm_housenumber": null,
        "osm_street": null,
        "atp_phone": "+33 1 40 74 02 03",
        "osm_phone": null,
        "atp_opening_hours": "Mo-Sa 10:00-20:30; Su 11:00-19:00",
        "osm_hours": null,
        "atp_website": "https://stores.petit-bateau.com/france/paris/116-avenue-des-champs-elysees",
        "osm_website": null,
        "brand_wikidata": "Q3377090",
        "brand": "Petit Bateau",
        "match_count": 1
    },
    {
        "osm_id": 3969434866,
        "osm_name": "Petit Bateau",
        "osm_url": "https://www.osm.org/node/3969434866",
        "osm_business": "clothes",
        "atp_city": "Lorient",
        "atp_address": "42 Rue Du Port",
        "osm_housenumber": null,
        "osm_street": null,
        "atp_phone": "+33 2 97 21 97 67",
        "osm_phone": null,
        "atp_opening_hours": null,
        "osm_hours": null,
        "atp_website": "https://stores.petit-bateau.com/france/lorient/42-rue-du-port",
        "osm_website": null,
        "brand_wikidata": "Q3377090",
        "brand": "Petit Bateau",
        "match_count": 1
    },
    {
        "osm_id": 3985476644,
        "osm_name": "Petit Bateau",
        "osm_url": "https://www.osm.org/node/3985476644",
        "osm_business": "clothes",
        "atp_city": "Les Sables D'Olonne",
        "atp_address": "47 Rue Des Halles",
        "osm_housenumber": null,
        "osm_street": null,
        "atp_phone": "+33 2 51 20 86 02",
        "osm_phone": null,
        "atp_opening_hours": null,
        "osm_hours": null,
        "atp_website": "https://stores.petit-bateau.com/france/les-sables-d'olonne/47-rue-des-halles",
        "osm_website": null,
        "brand_wikidata": "Q3377090",
        "brand": "Petit Bateau",
        "match_count": 1
    },
    {
        "osm_id": 3995016072,
        "osm_name": "Petit Bateau",
        "osm_url": "https://www.osm.org/node/3995016072",
        "osm_business": "clothes",
        "atp_city": "Rodez",
        "atp_address": "6 Place Charles De Gaulle",
        "osm_housenumber": null,
        "osm_street": null,
        "atp_phone": "+33 5 65 68 19 83",
        "osm_phone": null,
        "atp_opening_hours": null,
        "osm_hours": null,
        "atp_website": "https://stores.petit-bateau.com/france/rodez/6-place-charles-de-gaulle",
        "osm_website": null,
        "brand_wikidata": "Q3377090",
        "brand": "Petit Bateau",
        "match_count": 1
    },
    {
        "osm_id": 4056375882,
        "osm_name": "Petit Bateau",
        "osm_url": "https://www.osm.org/node/4056375882",
        "osm_business": "clothes",
        "atp_city": "Saint Etienne",
        "atp_address": "8 Rue Alsace Lorraine",
        "osm_housenumber": null,
        "osm_street": null,
        "atp_phone": "+33 4 77 47 00 61",
        "osm_phone": null,
        "atp_opening_hours": null,
        "osm_hours": null,
        "atp_website": "https://stores.petit-bateau.com/france/saint-etienne/8-rue-alsace-lorraine",
        "osm_website": null,
        "brand_wikidata": "Q3377090",
        "brand": "Petit Bateau",
        "match_count": 1
    },
    {
        "osm_id": 4535342795,
        "osm_name": "Petit Bateau",
        "osm_url": "https://www.osm.org/node/4535342795",
        "osm_business": "clothes",
        "atp_city": "Paris",
        "atp_address": "55 Rue Du Commerce",
        "osm_housenumber": "55",
        "osm_street": "Rue du Commerce",
        "atp_phone": "+33 1 45 77 88 00",
        "osm_phone": null,
        "atp_opening_hours": "Mo-Sa 10:00-19:00; Su closed",
        "osm_hours": "Mo-Sa 10:00-19:00",
        "atp_website": "https://stores.petit-bateau.com/france/paris/55-rue-du-commerce",
        "osm_website": null,
        "brand_wikidata": "Q3377090",
        "brand": "Petit Bateau",
        "match_count": 1
    },
    {
        "osm_id": 5001825474,
        "osm_name": "Petit Bateau",
        "osm_url": "https://www.osm.org/node/5001825474",
        "osm_business": "clothes",
        "atp_city": "Paris",
        "atp_address": "33 Rue Du Four",
        "osm_housenumber": null,
        "osm_street": null,
        "atp_phone": "+33 1 56 81 90 45",
        "osm_phone": null,
        "atp_opening_hours": "Mo-Sa 10:00-19:00; Su closed",
        "osm_hours": null,
        "atp_website": "https://stores.petit-bateau.com/france/paris/33-rue-du-four",
        "osm_website": null,
        "brand_wikidata": "Q3377090",
        "brand": "Petit Bateau",
        "match_count": 1
    },
    {
        "osm_id": 5128173400,
        "osm_name": "Petit Bateau",
        "osm_url": "https://www.osm.org/node/5128173400",
        "osm_business": "clothes",
        "atp_city": "Rennes",
        "atp_address": "2 Rue De La Motte Fablet",
        "osm_housenumber": null,
        "osm_street": null,
        "atp_phone": "+33 2 99 31 67 98",
        "osm_phone": null,
        "atp_opening_hours": "Mo 14:00-19:00; Tu-Sa 10:00-19:00; Su 11:00-18:00",
        "osm_hours": null,
        "atp_website": "https://stores.petit-bateau.com/france/rennes/2-rue-de-la-motte-fablet",
        "osm_website": null,
        "brand_wikidata": "Q3377090",
        "brand": "Petit Bateau",
        "match_count": 1
    },
    {
        "osm_id": 5486593776,
        "osm_name": "Petit Bateau",
        "osm_url": "https://www.osm.org/node/5486593776",
        "osm_business": "clothes",
        "atp_city": "Pau",
        "atp_address": "15 Rue Serviez",
        "osm_housenumber": "15",
        "osm_street": "Rue Serviez",
        "atp_phone": "+33 5 59 27 26 65",
        "osm_phone": "+33 5 59 27 26 65",
        "atp_opening_hours": "Mo 14:00-19:00; Tu-Sa 10:00-19:00; Su closed",
        "osm_hours": "Mo 14:00-19:00; Tu-Sa 10:00-19:00",
        "atp_website": "https://stores.petit-bateau.com/france/pau/15-rue-serviez",
        "osm_website": "https://stores.petit-bateau.com/fr/france/pau/15-rue-serviez",
        "brand_wikidata": "Q3377090",
        "brand": "Petit Bateau",
        "match_count": 1
    },
    {
        "osm_id": 5625407670,
        "osm_name": "Petit Bateau",
        "osm_url": "https://www.osm.org/node/5625407670",
        "osm_business": "clothes",
        "atp_city": "Lyon",
        "atp_address": "11 Avenue De Saxe",
        "osm_housenumber": null,
        "osm_street": null,
        "atp_phone": "+33 4 78 52 85 72",
        "osm_phone": "+33 4 78 52 85 72",
        "atp_opening_hours": "Mo-Sa 10:00-19:00; Su closed",
        "osm_hours": "Mo-Sa 10:00-19:00",
        "atp_website": "https://stores.petit-bateau.com/france/lyon/11-avenue-de-saxe",
        "osm_website": "https://www.petit-bateau.fr/s/boutique/056-petit-bateau-lyon-saxe.html",
        "brand_wikidata": "Q3377090",
        "brand": "Petit Bateau",
        "match_count": 1
    },
    {
        "osm_id": 5802319064,
        "osm_name": "Petit Bateau",
        "osm_url": "https://www.osm.org/node/5802319064",
        "osm_business": "clothes",
        "atp_city": "Reims",
        "atp_address": "28 Rue Condorcet",
        "osm_housenumber": "28",
        "osm_street": null,
        "atp_phone": "+33 3 26 86 84 72",
        "osm_phone": null,
        "atp_opening_hours": "Mo-Sa 10:00-19:00; Su closed",
        "osm_hours": null,
        "atp_website": "https://stores.petit-bateau.com/france/reims/28-rue-condorcet",
        "osm_website": null,
        "brand_wikidata": "Q3377090",
        "brand": "Petit Bateau",
        "match_count": 1
    },
    {
        "osm_id": 6300758525,
        "osm_name": "Petit Bateau",
        "osm_url": "https://www.osm.org/node/6300758525",
        "osm_business": "clothes",
        "atp_city": "Besan\u00e7on",
        "atp_address": "64 Grande Rue",
        "osm_housenumber": "64",
        "osm_street": "Grande Rue",
        "atp_phone": "+33 3 81 81 37 09",
        "osm_phone": "+33 3 81 81 37 09",
        "atp_opening_hours": "Mo-Sa 10:00-19:00; Su closed",
        "osm_hours": "Mo-Sa 10:00-19:00",
        "atp_website": "https://stores.petit-bateau.com/france/besancon/64-grande-rue",
        "osm_website": "https://stores.petit-bateau.com/fr/france/besancon/64-grande-rue",
        "brand_wikidata": "Q3377090",
        "brand": "Petit Bateau",
        "match_count": 1
    },
    {
        "osm_id": 6865904005,
        "osm_name": "Petit Bateau",
        "osm_url": "https://www.osm.org/node/6865904005",
        "osm_business": "clothes",
        "atp_city": "Aix En Provence",
        "atp_address": "8 Rue Des Chapeliers",
        "osm_housenumber": null,
        "osm_street": null,
        "atp_phone": "+33 4 42 26 66 42",
        "osm_phone": null,
        "atp_opening_hours": "Mo-Sa 10:00-19:00; Su closed",
        "osm_hours": null,
        "atp_website": "https://stores.petit-bateau.com/france/aix-en-provence/8-rue-des-chapeliers",
        "osm_website": null,
        "brand_wikidata": "Q3377090",
        "brand": "Petit Bateau",
        "match_count": 1
    },
    {
        "osm_id": 6952785723,
        "osm_name": "Petit Bateau",
        "osm_url": "https://www.osm.org/node/6952785723",
        "osm_business": "clothes",
        "atp_city": "Lyon",
        "atp_address": "98 Rue Edouard Herriot",
        "osm_housenumber": null,
        "osm_street": null,
        "atp_phone": "+33 4 78 37 30 40",
        "osm_phone": "+33478373040",
        "atp_opening_hours": "Mo-Sa 10:00-19:00; Su closed",
        "osm_hours": "Mo-Sa 10:00-19:00",
        "atp_website": "https://stores.petit-bateau.com/france/lyon/98-rue-edouard-herriot",
        "osm_website": "https://www.petit-bateau.fr/",
        "brand_wikidata": "Q3377090",
        "brand": "Petit Bateau",
        "match_count": 1
    },
    {
        "osm_id": 7208852384,
        "osm_name": "Petit Bateau",
        "osm_url": "https://www.osm.org/node/7208852384",
        "osm_business": "clothes",
        "atp_city": "Romans Sur Is\u00e8re",
        "atp_address": "60 Avenue Gambetta Marques Avenue - Lot N\u00b053",
        "osm_housenumber": null,
        "osm_street": null,
        "atp_phone": "+33 4 75 47 68 05",
        "osm_phone": null,
        "atp_opening_hours": "Mo-Sa 10:00-19:00; Su closed",
        "osm_hours": null,
        "atp_website": "https://stores.petit-bateau.com/france/romans-sur-isere/60-avenue-gambetta",
        "osm_website": null,
        "brand_wikidata": "Q3377090",
        "brand": "Petit Bateau",
        "match_count": 1
    },
    {
        "osm_id": 7442270825,
        "osm_name": "Petit Bateau",
        "osm_url": "https://www.osm.org/node/7442270825",
        "osm_business": "clothes",
        "atp_city": "Lille",
        "atp_address": "54 Rue De La Grande Chauss\u00e9e",
        "osm_housenumber": "54",
        "osm_street": "Rue de la Grande Chauss\u00e9e",
        "atp_phone": "+33 3 20 55 04 46",
        "osm_phone": "+33 3 20 55 04 46",
        "atp_opening_hours": "Mo-Sa 10:00-19:00; Su closed",
        "osm_hours": null,
        "atp_website": "https://stores.petit-bateau.com/france/lille/54-rue-de-la-grande-chaussee",
        "osm_website": "https://stores.petit-bateau.com/fr/france/lille/54-rue-de-la-grande-chaussee",
        "brand_wikidata": "Q3377090",
        "brand": "Petit Bateau",
        "match_count": 1
    },
    {
        "osm_id": 7578080213,
        "osm_name": "Petit Bateau",
        "osm_url": "https://www.osm.org/node/7578080213",
        "osm_business": "clothes",
        "atp_city": "Paris",
        "atp_address": "67 Rue De Levis",
        "osm_housenumber": "67",
        "osm_street": "Rue de L\u00e9vis",
        "atp_phone": "+33 1 43 80 01 36",
        "osm_phone": null,
        "atp_opening_hours": "Mo-Sa 10:00-19:00; Su 11:00-18:00",
        "osm_hours": "Mo-Sa 11:00-19:00",
        "atp_website": "https://stores.petit-bateau.com/france/paris/67-rue-de-levis",
        "osm_website": "https://stores.petit-bateau.com/fr/france/paris/67-rue-de-levis",
        "brand_wikidata": "Q3377090",
        "brand": "Petit Bateau",
        "match_count": 1
    },
    {
        "osm_id": 7769992011,
        "osm_name": "Petit Bateau",
        "osm_url": "https://www.osm.org/node/7769992011",
        "osm_business": "clothes",
        "atp_city": "Arcachon",
        "atp_address": "8 Cours Lamarque",
        "osm_housenumber": null,
        "osm_street": null,
        "atp_phone": "+33 5 56 22 52 24",
        "osm_phone": null,
        "atp_opening_hours": null,
        "osm_hours": "Mo-Sa 10:00-12:30,14:30-19:00",
        "atp_website": "https://stores.petit-bateau.com/france/arcachon/8-cours-lamarque",
        "osm_website": null,
        "brand_wikidata": "Q3377090",
        "brand": "Petit Bateau",
        "match_count": 1
    },
    {
        "osm_id": 7803558584,
        "osm_name": "Petit Bateau",
        "osm_url": "https://www.osm.org/node/7803558584",
        "osm_business": "clothes",
        "atp_city": "Nailloux",
        "atp_address": "Lieu-Dit \u00abLe Gril \u00bb Nailloux Fashion Village",
        "osm_housenumber": null,
        "osm_street": null,
        "atp_phone": "+33 5 61 06 17 53",
        "osm_phone": "+33 5 61 06 17 53",
        "atp_opening_hours": "Mo-Su 10:00-20:00",
        "osm_hours": "Mo-Sa 10:00-19:00",
        "atp_website": "https://stores.petit-bateau.com/france/nailloux/lieu-dit-\u00able-gril-\u00bb",
        "osm_website": "https://www.naillouxoutlet.com/fr/boutique/petit-bateau.php",
        "brand_wikidata": "Q3377090",
        "brand": "Petit Bateau",
        "match_count": 1
    },
    {
        "osm_id": 7904062285,
        "osm_name": "Petit Bateau",
        "osm_url": "https://www.osm.org/node/7904062285",
        "osm_business": "clothes",
        "atp_city": "Paris",
        "atp_address": "6, Rue Des Francs Bourgeois",
        "osm_housenumber": null,
        "osm_street": null,
        "atp_phone": "+33 1 40 24 00 02",
        "osm_phone": null,
        "atp_opening_hours": "Mo-Sa 10:00-19:30; Su 10:00-19:00",
        "osm_hours": "Mo-Sa 10:00-19:30; Su 10:00-19:00",
        "atp_website": "https://stores.petit-bateau.com/france/paris/6,-rue-des-francs-bourgeois",
        "osm_website": null,
        "brand_wikidata": "Q3377090",
        "brand": "Petit Bateau",
        "match_count": 1
    },
    {
        "osm_id": 8142199416,
        "osm_name": "Petit Bateau",
        "osm_url": "https://www.osm.org/node/8142199416",
        "osm_business": "clothes",
        "atp_city": "Etrembieres",
        "atp_address": "21 Chemin Industrie CC Shopping Etrembi\u00e8res",
        "osm_housenumber": "21",
        "osm_street": "Rue de l'Industrie",
        "atp_phone": "+33 4 50 37 42 48",
        "osm_phone": "+33 4 50 37 42 48",
        "atp_opening_hours": "Mo-Fr 09:30-20:00; Sa 09:00-20:00; Su 09:30-19:00",
        "osm_hours": "Mo-Fr 09:30-20:00; Sa 09:00-20:00; Su 10:00-19:00",
        "atp_website": "https://stores.petit-bateau.com/france/etrembieres/21-chemin-industrie",
        "osm_website": "https://stores.petit-bateau.com/fr/france/etrembieres/21-chemin-industrie",
        "brand_wikidata": "Q3377090",
        "brand": "Petit Bateau",
        "match_count": 1
    },
    {
        "osm_id": 8372031214,
        "osm_name": "Petit Bateau",
        "osm_url": "https://www.osm.org/node/8372031214",
        "osm_business": "clothes",
        "atp_city": "Paris",
        "atp_address": "50 Rue Des Abbesses",
        "osm_housenumber": "50",
        "osm_street": "Rue des Abbesses",
        "atp_phone": "+33 1 42 52 81 76",
        "osm_phone": null,
        "atp_opening_hours": "Mo-Sa 10:00-19:00; Su 11:00-19:00",
        "osm_hours": null,
        "atp_website": "https://stores.petit-bateau.com/france/paris/50-rue-des-abbesses",
        "osm_website": null,
        "brand_wikidata": "Q3377090",
        "brand": "Petit Bateau",
        "match_count": 1
    },
    {
        "osm_id": 8378997722,
        "osm_name": "Petit Bateau",
        "osm_url": "https://www.osm.org/node/8378997722",
        "osm_business": "clothes",
        "atp_city": "La S\u00e9guini\u00e8re",
        "atp_address": "Z.I. De La M\u00e9nardi\u00e8re, Rue Du Bocage Marques Avenue - Lot N\u00b07",
        "osm_housenumber": null,
        "osm_street": null,
        "atp_phone": "+33 2 41 75 00 16",
        "osm_phone": null,
        "atp_opening_hours": "Mo-Su 10:00-19:00",
        "osm_hours": "Mo-Sa 10:00-19:00",
        "atp_website": "https://stores.petit-bateau.com/france/la-seguiniere/z.i.-de-la-menardiere,-rue-du-bocage",
        "osm_website": null,
        "brand_wikidata": "Q3377090",
        "brand": "Petit Bateau",
        "match_count": 1
    },
    {
        "osm_id": 8488778844,
        "osm_name": "Petit Bateau",
        "osm_url": "https://www.osm.org/node/8488778844",
        "osm_business": "clothes",
        "atp_city": "Albi",
        "atp_address": "15 Rue Sainte C\u00e9cile",
        "osm_housenumber": "15",
        "osm_street": "Rue Sainte-C\u00e9cile",
        "atp_phone": "+33 5 63 38 14 84",
        "osm_phone": "+33 5 63 38 14 84",
        "atp_opening_hours": null,
        "osm_hours": "Tu-Sa 10:00-19:00; Mo 14:00-19:00",
        "atp_website": "https://stores.petit-bateau.com/france/albi/15-rue-sainte-cecile",
        "osm_website": "https://stores.petit-bateau.com/fr/france/albi/15-rue-sainte-cecile",
        "brand_wikidata": "Q3377090",
        "brand": "Petit Bateau",
        "match_count": 1
    },
    {
        "osm_id": 8561566428,
        "osm_name": "Petit Bateau",
        "osm_url": "https://www.osm.org/node/8561566428",
        "osm_business": "clothes",
        "atp_city": "Brest",
        "atp_address": "93 Rue De Siam",
        "osm_housenumber": null,
        "osm_street": null,
        "atp_phone": "+33 2 98 43 62 75",
        "osm_phone": null,
        "atp_opening_hours": "Mo-Sa 10:00-19:00; Su closed",
        "osm_hours": null,
        "atp_website": "https://stores.petit-bateau.com/france/brest/93-rue-de-siam",
        "osm_website": null,
        "brand_wikidata": "Q3377090",
        "brand": "Petit Bateau",
        "match_count": 1
    },
    {
        "osm_id": 8648707332,
        "osm_name": "Petit Bateau",
        "osm_url": "https://www.osm.org/node/8648707332",
        "osm_business": "clothes",
        "atp_city": "Lyon",
        "atp_address": "41 Grande Rue De La Croix Rousse",
        "osm_housenumber": null,
        "osm_street": null,
        "atp_phone": "+33 4 78 39 90 71",
        "osm_phone": null,
        "atp_opening_hours": "Mo 14:00-19:00; Tu-Sa 10:00-19:00; Su closed",
        "osm_hours": "Mo 14:00-19:00; Tu-Sa 10:00-19:00",
        "atp_website": "https://stores.petit-bateau.com/france/lyon/41-grande-rue-de-la-croix-rousse",
        "osm_website": null,
        "brand_wikidata": "Q3377090",
        "brand": "Petit Bateau",
        "match_count": 1
    },
    {
        "osm_id": 8847681885,
        "osm_name": "Petit Bateau",
        "osm_url": "https://www.osm.org/node/8847681885",
        "osm_business": "clothes",
        "atp_city": "Bourges",
        "atp_address": "54 Rue Mirebeau",
        "osm_housenumber": null,
        "osm_street": null,
        "atp_phone": "+33 2 48 24 05 33",
        "osm_phone": null,
        "atp_opening_hours": "Mo closed; Tu-Sa 10:00-19:00; Su closed",
        "osm_hours": null,
        "atp_website": "https://stores.petit-bateau.com/france/bourges/54-rue-mirebeau",
        "osm_website": null,
        "brand_wikidata": "Q3377090",
        "brand": "Petit Bateau",
        "match_count": 1
    },
    {
        "osm_id": 9023258452,
        "osm_name": "Petit Bateau",
        "osm_url": "https://www.osm.org/node/9023258452",
        "osm_business": "clothes",
        "atp_city": "Strasbourg",
        "atp_address": "40 Rue Vieux March\u00e9 Aux Poissons",
        "osm_housenumber": null,
        "osm_street": null,
        "atp_phone": "+33 3 88 32 01 37",
        "osm_phone": null,
        "atp_opening_hours": "Mo 14:00-19:00; Tu-Sa 10:00-19:00; Su 11:00-18:00",
        "osm_hours": "Mo 14:00-19:00; Tu-Sa 10:00-19:00",
        "atp_website": "https://stores.petit-bateau.com/france/strasbourg/40-rue-vieux-marche-aux-poissons",
        "osm_website": null,
        "brand_wikidata": "Q3377090",
        "brand": "Petit Bateau",
        "match_count": 1
    },
    {
        "osm_id": 9360296094,
        "osm_name": "Petit Bateau",
        "osm_url": "https://www.osm.org/node/9360296094",
        "osm_business": "clothes",
        "atp_city": "Deauville",
        "atp_address": "21 Place Morny",
        "osm_housenumber": null,
        "osm_street": null,
        "atp_phone": "+33 2 31 98 49 42",
        "osm_phone": null,
        "atp_opening_hours": "Mo-Su 10:00-19:00",
        "osm_hours": null,
        "atp_website": "https://stores.petit-bateau.com/france/deauville/21-place-morny",
        "osm_website": null,
        "brand_wikidata": "Q3377090",
        "brand": "Petit Bateau",
        "match_count": 1
    },
    {
        "osm_id": 9508449840,
        "osm_name": "Petit Bateau",
        "osm_url": "https://www.osm.org/node/9508449840",
        "osm_business": "clothes",
        "atp_city": "Cabries",
        "atp_address": "Chemin De La Grande Campagne Centre Commercial Avant Cap",
        "osm_housenumber": null,
        "osm_street": null,
        "atp_phone": "+33 4 42 34 27 85",
        "osm_phone": null,
        "atp_opening_hours": "Mo-Su 09:30-19:30",
        "osm_hours": null,
        "atp_website": "https://stores.petit-bateau.com/france/cabries/chemin-de-la-grande-campagne",
        "osm_website": null,
        "brand_wikidata": "Q3377090",
        "brand": "Petit Bateau",
        "match_count": 1
    },
    {
        "osm_id": 9752990180,
        "osm_name": "Petit Bateau",
        "osm_url": "https://www.osm.org/node/9752990180",
        "osm_business": "clothes",
        "atp_city": "Paris",
        "atp_address": "26 Rue Vavin",
        "osm_housenumber": null,
        "osm_street": null,
        "atp_phone": "+33 1 55 42 02 53",
        "osm_phone": null,
        "atp_opening_hours": "Mo-Sa 10:00-19:00; Su closed",
        "osm_hours": "Mo-Sa 10:00-19:00",
        "atp_website": "https://stores.petit-bateau.com/france/paris/26-rue-vavin",
        "osm_website": null,
        "brand_wikidata": "Q3377090",
        "brand": "Petit Bateau",
        "match_count": 1
    },
    {
        "osm_id": 9824611447,
        "osm_name": "Petit Bateau",
        "osm_url": "https://www.osm.org/node/9824611447",
        "osm_business": "clothes",
        "atp_city": "Roanne",
        "atp_address": "18 Place Du March\u00e9",
        "osm_housenumber": null,
        "osm_street": null,
        "atp_phone": "+33 4 77 67 81 18",
        "osm_phone": null,
        "atp_opening_hours": null,
        "osm_hours": null,
        "atp_website": "https://stores.petit-bateau.com/france/roanne/18-place-du-marche",
        "osm_website": null,
        "brand_wikidata": "Q3377090",
        "brand": "Petit Bateau",
        "match_count": 1
    },
    {
        "osm_id": 9831608883,
        "osm_name": "Petit Bateau",
        "osm_url": "https://www.osm.org/node/9831608883",
        "osm_business": "clothes",
        "atp_city": "Paris",
        "atp_address": "32-34 Rue Linois Centre Commercial Beaugrenelle",
        "osm_housenumber": null,
        "osm_street": null,
        "atp_phone": "+33 1 40 58 18 32",
        "osm_phone": null,
        "atp_opening_hours": "Mo-Sa 10:00-20:00; Su 11:00-20:00",
        "osm_hours": "Mo-Sa 10:00-20:30; Su 11:00-19:00",
        "atp_website": "https://stores.petit-bateau.com/france/paris/32-34-rue-linois",
        "osm_website": null,
        "brand_wikidata": "Q3377090",
        "brand": "Petit Bateau",
        "match_count": 1
    },
    {
        "osm_id": 10262444968,
        "osm_name": "Petit Bateau",
        "osm_url": "https://www.osm.org/node/10262444968",
        "osm_business": "clothes",
        "atp_city": "Nancy",
        "atp_address": "49 Rue Des Dominicains",
        "osm_housenumber": "49",
        "osm_street": null,
        "atp_phone": "+33 3 83 36 78 58",
        "osm_phone": "+33 3 83 36 78 58",
        "atp_opening_hours": "Mo-Sa 10:00-19:00; Su 14:00-18:30",
        "osm_hours": "Mo-Sa 10:00-19:00",
        "atp_website": "https://stores.petit-bateau.com/france/nancy/49-rue-des-dominicains",
        "osm_website": "https://stores.petit-bateau.com/fr/france/nancy/49-rue-des-dominicains",
        "brand_wikidata": "Q3377090",
        "brand": "Petit Bateau",
        "match_count": 1
    },
    {
        "osm_id": 10294141391,
        "osm_name": "Petit Bateau",
        "osm_url": "https://www.osm.org/node/10294141391",
        "osm_business": "clothes",
        "atp_city": "Limoges",
        "atp_address": "7 Rue Du Clocher",
        "osm_housenumber": null,
        "osm_street": null,
        "atp_phone": "+33 5 55 33 48 66",
        "osm_phone": null,
        "atp_opening_hours": null,
        "osm_hours": null,
        "atp_website": "https://stores.petit-bateau.com/france/limoges/7-rue-du-clocher",
        "osm_website": null,
        "brand_wikidata": "Q3377090",
        "brand": "Petit Bateau",
        "match_count": 1
    },
    {
        "osm_id": 11001122547,
        "osm_name": "Petit Bateau",
        "osm_url": "https://www.osm.org/node/11001122547",
        "osm_business": "clothes",
        "atp_city": "La Rochelle",
        "atp_address": "51 Rue Des Merciers",
        "osm_housenumber": null,
        "osm_street": null,
        "atp_phone": "+33 5 46 41 08 40",
        "osm_phone": null,
        "atp_opening_hours": "Mo 14:00-19:00; Tu-Sa 10:00-19:00; Su closed",
        "osm_hours": "Mo 14:00-19:00; Tu-Sa 10:00-19:00",
        "atp_website": "https://stores.petit-bateau.com/france/la-rochelle/51-rue-des-merciers",
        "osm_website": "https://stores.petit-bateau.com/fr/france/la-rochelle/51-rue-des-merciers",
        "brand_wikidata": "Q3377090",
        "brand": "Petit Bateau",
        "match_count": 1
    },
    {
        "osm_id": 11076867308,
        "osm_name": "Petit Bateau",
        "osm_url": "https://www.osm.org/node/11076867308",
        "osm_business": "clothes",
        "atp_city": "Brive La Gaillarde",
        "atp_address": "10, Rue Toulzac",
        "osm_housenumber": null,
        "osm_street": null,
        "atp_phone": "+33 5 55 17 07 74",
        "osm_phone": null,
        "atp_opening_hours": "Mo 14:00-19:00; Tu-Sa 10:00-19:00; Su closed",
        "osm_hours": null,
        "atp_website": "https://stores.petit-bateau.com/france/brive-la-gaillarde/10,-rue-toulzac",
        "osm_website": null,
        "brand_wikidata": "Q3377090",
        "brand": "Petit Bateau",
        "match_count": 1
    },
    {
        "osm_id": 11145961829,
        "osm_name": "Petit Bateau",
        "osm_url": "https://www.osm.org/node/11145961829",
        "osm_business": "clothes",
        "atp_city": "Salon De Provence",
        "atp_address": "107 Cours Gimon",
        "osm_housenumber": null,
        "osm_street": null,
        "atp_phone": "+33 4 42 48 56 95",
        "osm_phone": null,
        "atp_opening_hours": null,
        "osm_hours": "Tu-Sa 10:00-13:00,14:00-19:00",
        "atp_website": "https://stores.petit-bateau.com/france/salon-de-provence/107-cours-gimon",
        "osm_website": null,
        "brand_wikidata": "Q3377090",
        "brand": "Petit Bateau",
        "match_count": 1
    },
    {
        "osm_id": 11361758418,
        "osm_name": "Petit Bateau",
        "osm_url": "https://www.osm.org/node/11361758418",
        "osm_business": "clothes",
        "atp_city": "Anglet",
        "atp_address": "Avenue Jean L\u00e9on Laporte Centre Commercial Bab 2",
        "osm_housenumber": null,
        "osm_street": "Avenue Jean-L\u00e9on Laporte",
        "atp_phone": "+33 5 59 52 38 66",
        "osm_phone": "+33559523866",
        "atp_opening_hours": "Mo-Sa 09:30-20:00; Su closed",
        "osm_hours": "Mo-Sa 09:30-20:00",
        "atp_website": "https://stores.petit-bateau.com/france/anglet/avenue-jean-leon-laporte",
        "osm_website": null,
        "brand_wikidata": "Q3377090",
        "brand": "Petit Bateau",
        "match_count": 1
    },
    {
        "osm_id": 11415500915,
        "osm_name": "Petit Bateau",
        "osm_url": "https://www.osm.org/node/11415500915",
        "osm_business": "clothes",
        "atp_city": "Saint Jean De Luz",
        "atp_address": "15, Place Louis Xiv",
        "osm_housenumber": "15",
        "osm_street": "Rue Mazarin",
        "atp_phone": "+33 5 59 47 44 31",
        "osm_phone": "+33559474431",
        "atp_opening_hours": null,
        "osm_hours": "Mo-Su 10:00-19:00",
        "atp_website": "https://stores.petit-bateau.com/france/saint-jean-de-luz/15,-place-louis-xiv",
        "osm_website": "https://stores.petit-bateau.com/fr/france/saint-jean-de-luz/15,-place-louis-xiv",
        "brand_wikidata": "Q3377090",
        "brand": "Petit Bateau",
        "match_count": 1
    },
    {
        "osm_id": 11434797238,
        "osm_name": "Petit Bateau",
        "osm_url": "https://www.osm.org/node/11434797238",
        "osm_business": "clothes",
        "atp_city": "Tours",
        "atp_address": "44 Rue Nationale",
        "osm_housenumber": null,
        "osm_street": null,
        "atp_phone": "+33 2 47 66 48 25",
        "osm_phone": "+33 2 47 66 48 25",
        "atp_opening_hours": "Mo 14:00-19:00; Tu-Sa 10:00-19:00; Su closed",
        "osm_hours": null,
        "atp_website": "https://stores.petit-bateau.com/france/tours/44-rue-nationale",
        "osm_website": "https://stores.petit-bateau.com/fr/france/tours/44-rue-nationale",
        "brand_wikidata": "Q3377090",
        "brand": "Petit Bateau",
        "match_count": 1
    },
    {
        "osm_id": 11573678725,
        "osm_name": "Petit Bateau",
        "osm_url": "https://www.osm.org/node/11573678725",
        "osm_business": "clothes",
        "atp_city": "SAINT MANDE",
        "atp_address": "16-17 Avenue du G\u00e9n\u00e9ral de gaulle",
        "osm_housenumber": null,
        "osm_street": null,
        "atp_phone": "+33 1 58 64 33 28",
        "osm_phone": null,
        "atp_opening_hours": null,
        "osm_hours": null,
        "atp_website": "https://stores.petit-bateau.com/france/saint-mande/16-17-avenue-du-general-de-gaulle",
        "osm_website": null,
        "brand_wikidata": "Q3377090",
        "brand": "Petit Bateau",
        "match_count": 1
    },
    {
        "osm_id": 11697496767,
        "osm_name": "Petit Bateau",
        "osm_url": "https://www.osm.org/node/11697496767",
        "osm_business": "clothes",
        "atp_city": "Perpignan",
        "atp_address": "19 Rue Mailly",
        "osm_housenumber": null,
        "osm_street": null,
        "atp_phone": "+33 4 68 35 33 49",
        "osm_phone": null,
        "atp_opening_hours": "Mo 11:00-19:00; Tu-Su 10:00-19:00",
        "osm_hours": null,
        "atp_website": "https://stores.petit-bateau.com/france/perpignan/19-rue-mailly",
        "osm_website": null,
        "brand_wikidata": "Q3377090",
        "brand": "Petit Bateau",
        "match_count": 1
    },
    {
        "osm_id": 100807275,
        "osm_name": "Petit Bateau",
        "osm_url": "https://www.osm.org/way/100807275",
        "osm_business": "clothes",
        "atp_city": "Epinal",
        "atp_address": "7 Rue Leopold Bourg",
        "osm_housenumber": null,
        "osm_street": null,
        "atp_phone": "+33 3 29 35 12 05",
        "osm_phone": null,
        "atp_opening_hours": "Mo 14:00-19:00; Tu-Sa 10:00-19:00; Su closed",
        "osm_hours": null,
        "atp_website": "https://stores.petit-bateau.com/france/epinal/7-rue-leopold-bourg",
        "osm_website": null,
        "brand_wikidata": "Q3377090",
        "brand": "Petit Bateau",
        "match_count": 1
    },
    {
        "osm_id": 118644844,
        "osm_name": "Petit Bateau",
        "osm_url": "https://www.osm.org/way/118644844",
        "osm_business": "clothes",
        "atp_city": "Blois",
        "atp_address": "54 Rue Denis Papin",
        "osm_housenumber": "54",
        "osm_street": null,
        "atp_phone": "+33 2 54 58 90 35",
        "osm_phone": null,
        "atp_opening_hours": "Mo closed; Tu-Sa 10:00-19:00; Su closed",
        "osm_hours": null,
        "atp_website": "https://stores.petit-bateau.com/france/blois/54-rue-denis-papin",
        "osm_website": null,
        "brand_wikidata": "Q3377090",
        "brand": "Petit Bateau",
        "match_count": 1
    },
    {
        "osm_id": 145201935,
        "osm_name": "Petit Bateau",
        "osm_url": "https://www.osm.org/way/145201935",
        "osm_business": "clothes",
        "atp_city": "Vannes",
        "atp_address": "2 Rue Saint-Salomon",
        "osm_housenumber": null,
        "osm_street": null,
        "atp_phone": "+33 2 97 54 34 80",
        "osm_phone": null,
        "atp_opening_hours": "Mo 14:00-19:00; Tu-Sa 10:00-19:00; Su closed",
        "osm_hours": null,
        "atp_website": "https://stores.petit-bateau.com/france/vannes/2-rue-saint-salomon",
        "osm_website": null,
        "brand_wikidata": "Q3377090",
        "brand": "Petit Bateau",
        "match_count": 1
    },
    {
        "osm_id": 333437211,
        "osm_name": "Petit Bateau",
        "osm_url": "https://www.osm.org/way/333437211",
        "osm_business": "clothes",
        "atp_city": "Paris",
        "atp_address": "1 Cour Du Havre Espace Commercial St Lazare Paris",
        "osm_housenumber": null,
        "osm_street": null,
        "atp_phone": "+33 1 42 93 46 08",
        "osm_phone": "+331 42 93 46 08",
        "atp_opening_hours": "Mo-Fr 07:30-20:00; Sa 09:00-20:00; Su 10:00-19:00",
        "osm_hours": "Mo-Fr 07:30-20:00; Sa 09:00-20:00",
        "atp_website": "https://stores.petit-bateau.com/france/paris/1-cour-du-havre",
        "osm_website": "http://stlazareparis.com/boutiques/petit-bateau/",
        "brand_wikidata": "Q3377090",
        "brand": "Petit Bateau",
        "match_count": 1
    },
    {
        "osm_id": 364963618,
        "osm_name": "Petit Bateau",
        "osm_url": "https://www.osm.org/way/364963618",
        "osm_business": "clothes",
        "atp_city": "Paris",
        "atp_address": "Gare de Lyon - HALL 1 Place Louis Armand",
        "osm_housenumber": null,
        "osm_street": null,
        "atp_phone": "+33 1 43 45 84 01",
        "osm_phone": null,
        "atp_opening_hours": "Mo-Fr 08:30-19:00; Sa 11:00-18:00; Su closed",
        "osm_hours": "Mo-Fr 08:30-19:00; Sa 10:30-18:00",
        "atp_website": "https://stores.petit-bateau.com/france/paris/gare-de-lyon---hall-1",
        "osm_website": null,
        "brand_wikidata": "Q3377090",
        "brand": "Petit Bateau",
        "match_count": 1
    },
    {
        "osm_id": 379435626,
        "osm_name": "Petit Bateau",
        "osm_url": "https://www.osm.org/way/379435626",
        "osm_business": "clothes",
        "atp_city": "Rennes",
        "atp_address": "Rue Du Bosphore Centre Commercial Rennes Alma",
        "osm_housenumber": null,
        "osm_street": null,
        "atp_phone": "+33 2 99 53 12 75",
        "osm_phone": null,
        "atp_opening_hours": "Mo-Sa 09:30-20:00; Su closed",
        "osm_hours": null,
        "atp_website": "https://stores.petit-bateau.com/france/rennes/rue-du-bosphore",
        "osm_website": null,
        "brand_wikidata": "Q3377090",
        "brand": "Petit Bateau",
        "match_count": 1
    },
    {
        "osm_id": 386523757,
        "osm_name": "Petit Bateau",
        "osm_url": "https://www.osm.org/way/386523757",
        "osm_business": "clothes",
        "atp_city": "Lab\u00e8ge",
        "atp_address": "La Pyr\u00e9n\u00e9enne CC Lab\u00e8ge 2",
        "osm_housenumber": null,
        "osm_street": null,
        "atp_phone": "+33 5 62 24 38 03",
        "osm_phone": null,
        "atp_opening_hours": "Mo-Sa 09:30-20:00; Su closed",
        "osm_hours": null,
        "atp_website": "https://stores.petit-bateau.com/france/labege/la-pyreneenne",
        "osm_website": null,
        "brand_wikidata": "Q3377090",
        "brand": "Petit Bateau",
        "match_count": 1
    },
    {
        "osm_id": 399132178,
        "osm_name": "Petit Bateau",
        "osm_url": "https://www.osm.org/way/399132178",
        "osm_business": "clothes",
        "atp_city": "Puteaux",
        "atp_address": "15 Tunnel De Nanterre-La D\u00e9fense Centre Commercial Les Quatre Temps",
        "osm_housenumber": null,
        "osm_street": null,
        "atp_phone": "+33 1 47 44 92 58",
        "osm_phone": "+33 1 47 44 92 58",
        "atp_opening_hours": "Mo-Sa 10:00-20:30; Su 10:00-20:00",
        "osm_hours": "Mo-Sa 10:00-20:30; Su 10:00-20:00",
        "atp_website": "https://stores.petit-bateau.com/france/puteaux/15-tunnel-de-nanterre-la-defense",
        "osm_website": "https://stores.petit-bateau.com/fr/france/puteaux/15-tunnel-de-nanterre-la-defense",
        "brand_wikidata": "Q3377090",
        "brand": "Petit Bateau",
        "match_count": 1
    },
    {
        "osm_id": 529629727,
        "osm_name": "Petit Bateau",
        "osm_url": "https://www.osm.org/way/529629727",
        "osm_business": "clothes",
        "atp_city": "Aubergenville",
        "atp_address": "Route De Quarante Sous Centre Commercial Marque Avenue A13",
        "osm_housenumber": null,
        "osm_street": null,
        "atp_phone": "+33 1 34 74 62 60",
        "osm_phone": null,
        "atp_opening_hours": "Mo-Su 10:00-19:00",
        "osm_hours": null,
        "atp_website": "https://stores.petit-bateau.com/france/aubergenville/route-de-quarante-sous",
        "osm_website": null,
        "brand_wikidata": "Q3377090",
        "brand": "Petit Bateau",
        "match_count": 1
    },
    {
        "osm_id": 570068165,
        "osm_name": "Petit Bateau",
        "osm_url": "https://www.osm.org/way/570068165",
        "osm_business": "clothes",
        "atp_city": "Roppenheim",
        "atp_address": "4 Place De L'Europe The Style Outlets",
        "osm_housenumber": "1",
        "osm_street": "Route de l'Europe",
        "atp_phone": "+33 3 88 63 81 09",
        "osm_phone": "+33 388 638109",
        "atp_opening_hours": "Mo-Sa 10:00-19:00; Su closed",
        "osm_hours": null,
        "atp_website": "https://stores.petit-bateau.com/france/roppenheim/4-place-de-l'europe",
        "osm_website": "https://www.petit-bateau.fr/s/boutique/381-petit-bateau-roppenheim.html",
        "brand_wikidata": "Q3377090",
        "brand": "Petit Bateau",
        "match_count": 1
    },
    {
        "osm_id": 889285942,
        "osm_name": "Petit Bateau",
        "osm_url": "https://www.osm.org/way/889285942",
        "osm_business": "clothes",
        "atp_city": "Annecy",
        "atp_address": "65 Rue Carnot Centre Commercial Courier",
        "osm_housenumber": null,
        "osm_street": null,
        "atp_phone": "+33 4 50 67 89 40",
        "osm_phone": "+33 4 50 67 89 40",
        "atp_opening_hours": "Mo-Sa 09:30-19:30; Su closed",
        "osm_hours": "Mo-Sa 09:30-19:30",
        "atp_website": "https://stores.petit-bateau.com/france/annecy/65-rue-carnot",
        "osm_website": "https://stores.petit-bateau.com/fr/france/annecy/65-rue-carnot",
        "brand_wikidata": "Q3377090",
        "brand": "Petit Bateau",
        "match_count": 1
    },
    {
        "osm_id": 1148920349,
        "osm_name": "Petit Bateau",
        "osm_url": "https://www.osm.org/way/1148920349",
        "osm_business": "clothes",
        "atp_city": "Thoiry",
        "atp_address": "Zone Du Pr\u00e9 Jacquet CC Val Thoiry",
        "osm_housenumber": null,
        "osm_street": null,
        "atp_phone": "+33 4 50 20 61 97",
        "osm_phone": null,
        "atp_opening_hours": "Mo-Fr 09:30-20:00; Sa 09:00-20:00; Su 09:30-19:00",
        "osm_hours": "Mo-Fr 09:30-20:00; Sa 09:00-20:00",
        "atp_website": "https://stores.petit-bateau.com/france/thoiry/zone-du-pre-jacquet",
        "osm_website": null,
        "brand_wikidata": "Q3377090",
        "brand": "Petit Bateau",
        "match_count": 1
    },
    {
        "osm_id": 1289209637,
        "osm_name": "Petit Bateau",
        "osm_url": "https://www.osm.org/way/1289209637",
        "osm_business": "clothes",
        "atp_city": "Franconville",
        "atp_address": "395 Rue Du G\u00e9n\u00e9ral Leclerc",
        "osm_housenumber": null,
        "osm_street": null,
        "atp_phone": "+33 1 30 72 05 62",
        "osm_phone": null,
        "atp_opening_hours": "Mo-Sa 10:00-20:00; Su 10:00-19:00",
        "osm_hours": null,
        "atp_website": "https://stores.petit-bateau.com/france/franconville/395-rue-du-general-leclerc",
        "osm_website": null,
        "brand_wikidata": "Q3377090",
        "brand": "Petit Bateau",
        "match_count": 1
    }
]