<?xml version='1.0' encoding='UTF-8'?>
<osm version="0.6" generator="Overpass API 0.7.62.1 084b4234">
  <note>The data included in this document is from www.openstreetmap.org. The data is made available under ODbL.</note>
  <meta osm_base="2024-07-13T14:49:45Z" areas="2024-07-13T10:20:42Z" />
  <node id="367884819" lat="46.9030758" lon="6.3560067" version="5" timestamp="2023-01-06T22:53:16Z" changeset="130964857" uid="1566574" user="Antonin Del Fabbro">
    <tag k="alt_name" v="Lili et compagnie" />
    <tag k="brand" v="Petit Bateau" />
    <tag k="brand:wikidata" v="Q3377090" />
    <tag k="clothes" v="babies;children;women" />
    <tag k="contact:facebook" v="https://www.facebook.com/profile.php?id=100066394074695" />
    <tag k="contact:instagram" v="https://www.instagram.com/lilietcie.pontarlier/" />
    <tag k="name" v="Petit Bateau" />
    <tag k="old_name" v="Point cadres;Kidiliz" />
    <tag k="shop" v="clothes" />
  </node>
  <node id="590450983" lat="43.8385239" lon="4.3569831" version="5" timestamp="2021-11-18T09:25:04Z" changeset="113935301" uid="13981197" user="Direction Numérique Nimes">
    <tag k="addr:city" v="Nîmes" />
    <tag k="addr:housenumber" v="15" />
    <tag k="addr:postcode" v="30000" />
    <tag k="addr:street" v="Rue du Général Perrier" />
    <tag k="brand" v="Petit Bateau" />
    <tag k="brand:wikidata" v="Q3377090" />
    <tag k="brand:wikipedia" v="en:Petit Bateau" />
    <tag k="description" v="Vêtements, sous-vêtements et nuit de 0 à 18 ans" />
    <tag k="name" v="Petit Bateau" />
    <tag k="opening_hours" v="Mo-Sa 10:00-19:00" />
    <tag k="phone" v="+33 4 66 27 05 53" />
    <tag k="shop" v="clothes" />
    <tag k="website" v="www.stores.petitbateau.com" />
  </node>
  <node id="669075521" lat="48.8381491" lon="2.2983585" version="3" timestamp="2023-11-08T15:08:36Z" changeset="143785148" uid="2411188" user="fordprefectdeguilford" action="modify">
    <tag k="branch" v="Convention" />
    <tag k="brand" v="Petit Bateau" />
    <tag k="brand:wikidata" v="Q3377090" />
    <tag k="name" v="Petit Bateau" />
    <tag k="opening_hours" v="Mo-Sa 10:00-19:00" />
    <tag k="operator" v="Petit Bateau" />
    <tag k="shop" v="clothes" />
    <tag k="source" v="knowledge" />
    <tag k="phone" v="+33 1 44 19 89 81" />
    <tag k="website" v="https://stores.petit-bateau.com/france/paris/323-rue-vaugirard" />
  </node>
  <node id="725563658" lat="45.6218259" lon="-1.0313550" version="4" timestamp="2020-03-30T21:23:31Z" changeset="82844028" uid="23981" user="NaSH" action="modify">
    <tag k="brand" v="Petit Bateau" />
    <tag k="brand:wikidata" v="Q3377090" />
    <tag k="brand:wikipedia" v="en:Petit Bateau" />
    <tag k="name" v="Petit Bateau" />
    <tag k="shop" v="clothes" />
    <tag k="phone" v="+33 5 46 02 21 24" />
    <tag k="website" v="https://stores.petit-bateau.com/france/royan/3-rue-jules-verne" />
  </node>
  <node id="826015292" lat="48.8353802" lon="2.2426583" version="2" timestamp="2021-12-21T04:41:48Z" changeset="115189185" uid="53948" user="illogict" action="modify">
    <tag k="brand" v="Petit Bateau" />
    <tag k="brand:wikidata" v="Q3377090" />
    <tag k="brand:wikipedia" v="en:Petit Bateau" />
    <tag k="name" v="Petit Bateau" />
    <tag k="shop" v="clothes" />
    <tag k="source" v="survey" />
    <tag k="phone" v="+33 1 55 60 93 78" />
    <tag k="website" v="https://stores.petit-bateau.com/france/boulogne-billancourt/157-avenue-jean-jaures" />
    <tag k="opening_hours" v="Mo-Sa 10:00-19:00; Su 10:00-18:00" />
  </node>
  <node id="1311986393" lat="47.9035694" lon="1.9043260" version="6" timestamp="2024-03-10T15:29:42Z" changeset="148467615" uid="2141750" user="Eric Bie">
    <tag k="addr:city" v="Orléans" />
    <tag k="addr:housenumber" v="12" />
    <tag k="addr:postcode" v="45000" />
    <tag k="addr:street" v="Rue de la République" />
    <tag k="brand" v="Petit Bateau" />
    <tag k="brand:wikidata" v="Q3377090" />
    <tag k="brand:wikipedia" v="en:Petit Bateau" />
    <tag k="check_date" v="2024-03-10" />
    <tag k="clothes" v="babies;children;underwear" />
    <tag k="name" v="Petit Bateau" />
    <tag k="opening_hours" v="Mo-Sa 10:00-19:00" />
    <tag k="payment:cash" v="yes" />
    <tag k="payment:credit_cards" v="yes" />
    <tag k="payment:debit_cards" v="yes" />
    <tag k="phone" v="+33 2 38 53 50 55" />
    <tag k="ref:FR:SIRET" v="30529134600149" />
    <tag k="shop" v="clothes" />
    <tag k="website" v="https://stores.petit-bateau.com/fr/france/orleans/12-rue-de-la-republique" />
    <tag k="wheelchair" v="limited" />
  </node>
  <node id="1522685118" lat="45.5655351" lon="5.9198312" version="6" timestamp="2024-06-12T14:04:36Z" changeset="152588044" uid="14088292" user="PuffintonHost" action="modify">
    <tag k="brand" v="Petit Bateau" />
    <tag k="brand:wikidata" v="Q3377090" />
    <tag k="brand:wikipedia" v="en:Petit Bateau" />
    <tag k="check_date" v="2023-07-28" />
    <tag k="name" v="Petit Bateau" />
    <tag k="opening_hours" v="Mo 14:00-19:00; Tu-Sa 10:00-19:00" />
    <tag k="shop" v="clothes" />
    <tag k="phone" v="+33 4 79 33 28 37" />
    <tag k="website" v="https://stores.petit-bateau.com/france/chambery/231-place-saint-leger" />
  </node>
  <node id="1673435258" lat="43.6039098" lon="3.9215900" version="2" timestamp="2019-10-16T16:17:57Z" changeset="75792434" uid="115918" user="Timothy Smith" action="modify">
    <tag k="brand" v="Petit Bateau" />
    <tag k="brand:wikidata" v="Q3377090" />
    <tag k="brand:wikipedia" v="en:Petit Bateau" />
    <tag k="name" v="Petit Bateau" />
    <tag k="shop" v="clothes" />
    <tag k="phone" v="+33 4 67 83 31 63" />
    <tag k="website" v="https://stores.petit-bateau.com/france/montpellier/rue-georges-melies" />
    <tag k="opening_hours" v="Mo-Sa 10:00-20:00; Su 10:00-19:00" />
  </node>
  <node id="2021449617" lat="43.9491540" lon="4.8035129" version="12" timestamp="2024-04-26T11:45:57Z" changeset="150534904" uid="188930" user="JLZIMMERMANN" action="modify">
    <tag k="brand" v="Petit Bateau" />
    <tag k="brand:wikidata" v="Q3377090" />
    <tag k="check_date" v="2023-07-19" />
    <tag k="clothes" v="children" />
    <tag k="mapillary" v="156467873081131" />
    <tag k="name" v="Petit Bateau" />
    <tag k="opening_hours" v="Tu-Sa 10:00-19:00; Mo 14:00-19:00" />
    <tag k="shop" v="clothes" />
    <tag k="source" v="survey" />
    <tag k="survey:date" v="2024-04-26" />
    <tag k="wheelchair" v="yes" />
    <tag k="phone" v="+33 4 90 85 59 03" />
    <tag k="website" v="https://stores.petit-bateau.com/france/avignon/28-rue-joseph-vernet" />
  </node>
  <node id="2028150740" lat="47.9962018" lon="-4.1058100" version="5" timestamp="2019-08-20T20:58:35Z" changeset="73556239" uid="72653" user="ChRogel" action="modify">
    <tag k="addr:housenumber" v="57" />
    <tag k="addr:postcode" v="29000" />
    <tag k="addr:street" v="Rue Kéréon" />
    <tag k="brand" v="Petit Bateau" />
    <tag k="brand:wikidata" v="Q3377090" />
    <tag k="brand:wikipedia" v="en:Petit Bateau" />
    <tag k="name" v="Petit Bateau" />
    <tag k="shop" v="clothes" />
    <tag k="source" v="survey" />
    <tag k="phone" v="+33 2 98 64 35 00" />
    <tag k="website" v="https://stores.petit-bateau.com/france/quimper/57-rue-kereon" />
    <tag k="opening_hours" v="Mo 14:00-19:00; Tu-Sa 10:00-19:00; Su closed" />
  </node>
  <node id="2124501038" lat="48.0044762" lon="0.1978177" version="8" timestamp="2024-05-30T13:46:43Z" changeset="152036870" uid="492015" user="JÉT" action="modify">
    <tag k="brand" v="Petit Bateau" />
    <tag k="brand:wikidata" v="Q3377090" />
    <tag k="brand:wikipedia" v="en:Petit Bateau" />
    <tag k="name" v="Petit Bateau" />
    <tag k="shop" v="clothes" />
    <tag k="source" v="cadastre-dgi-fr source : Direction Générale des Impôts - Cadastre. Mise à jour : 2013" />
    <tag k="phone" v="+33 2 43 28 13 47" />
    <tag k="website" v="https://stores.petit-bateau.com/france/le-mans/7-rue-de-la-perle" />
  </node>
  <node id="2394033102" lat="48.3286682" lon="4.1063723" version="2" timestamp="2020-10-23T02:46:24Z" changeset="92924630" uid="343811" user="baptistemm" action="modify">
    <tag k="brand" v="Petit Bateau" />
    <tag k="brand:wikidata" v="Q3377090" />
    <tag k="brand:wikipedia" v="en:Petit Bateau" />
    <tag k="name" v="Petit Bateau" />
    <tag k="shop" v="clothes" />
    <tag k="source" v="survey" />
    <tag k="phone" v="+33 3 25 80 21 10" />
    <tag k="website" v="https://stores.petit-bateau.com/france/pont-sainte-marie/27-voie-du-bois" />
    <tag k="opening_hours" v="Mo-Fr 09:30-19:30; Sa 09:00-20:00; Su 10:00-19:00" />
  </node>
  <node id="2405943819" lat="48.8471139" lon="2.4362142" version="5" timestamp="2023-08-16T16:17:03Z" changeset="139972492" uid="8874984" user="anyroka" action="modify">
    <tag k="brand" v="Petit Bateau" />
    <tag k="brand:wikidata" v="Q3377090" />
    <tag k="brand:wikipedia" v="en:Petit Bateau" />
    <tag k="check_date" v="2023-08-16" />
    <tag k="name" v="Petit Bateau" />
    <tag k="opening_hours" v="Mo-Sa 10:00-19:00" />
    <tag k="shop" v="clothes" />
    <tag k="wheelchair" v="yes" />
    <tag k="phone" v="+33 1 58 64 33 28" />
    <tag k="website" v="https://stores.petit-bateau.com/france/vincennes/21-23-rue-du-midi" />
  </node>
  <node id="2432222107" lat="45.1895647" lon="5.7283327" version="5" timestamp="2023-04-29T12:41:57Z" changeset="135501340" uid="12951226" user="escribis">
    <tag k="brand" v="Petit Bateau" />
    <tag k="brand:wikidata" v="Q3377090" />
    <tag k="brand:wikipedia" v="en:Petit Bateau" />
    <tag k="check_date" v="2023-04-29" />
    <tag k="name" v="Petit Bateau" />
    <tag k="shop" v="clothes" />
    <tag k="source" v="survey" />
  </node>
  <node id="2463356574" lat="43.6041118" lon="1.4474608" version="4" timestamp="2023-11-23T12:56:50Z" changeset="144368522" uid="18815210" user="Eclaireur" action="modify">
    <tag k="brand" v="Petit Bateau" />
    <tag k="brand:wikidata" v="Q3377090" />
    <tag k="brand:wikipedia" v="en:Petit Bateau" />
    <tag k="check_date" v="2023-11-23" />
    <tag k="clothes" v="children" />
    <tag k="name" v="Petit Bateau" />
    <tag k="opening_hours" v="Mo-Sa 10:00-19:00" />
    <tag k="shop" v="clothes" />
    <tag k="source" v="survey" />
    <tag k="website" v="https://www.petit-bateau.fr" />
    <tag k="phone" v="+33 5 61 23 53 99" />
  </node>
  <node id="2479786469" lat="48.8073348" lon="2.1288685" version="4" timestamp="2022-08-30T13:16:03Z" changeset="125568930" uid="60669" user="Christian Perrier" action="modify">
    <tag k="addr:city" v="Versailles" />
    <tag k="addr:housenumber" v="42" />
    <tag k="addr:postcode" v="78000" />
    <tag k="addr:street" v="Rue de la Paroisse" />
    <tag k="brand" v="Petit Bateau" />
    <tag k="brand:wikidata" v="Q3377090" />
    <tag k="brand:wikipedia" v="en:Petit Bateau" />
    <tag k="name" v="Petit Bateau" />
    <tag k="opening_hours" v="Mo 11:00-19:00; Tu-Sa 10:00-19:00; Su 10:00-13:00" />
    <tag k="shop" v="clothes" />
    <tag k="wheelchair" v="no" />
    <tag k="phone" v="+33 1 30 21 67 94" />
    <tag k="website" v="https://stores.petit-bateau.com/france/versailles/42-rue-de-la-paroisse" />
  </node>
  <node id="2487030927" lat="47.4699579" lon="-0.5531723" version="4" timestamp="2024-04-29T17:32:17Z" changeset="150673200" uid="11566654" user="Sébastien Chopin">
    <tag k="brand" v="Petit Bateau" />
    <tag k="brand:wikidata" v="Q3377090" />
    <tag k="brand:wikipedia" v="en:Petit Bateau" />
    <tag k="name" v="Petit Bateau" />
    <tag k="opening_hours" v="Mo 14:00-19:00; Tu-Sa 10:00-19:00" />
    <tag k="shop" v="clothes" />
  </node>
  <node id="2655913299" lat="48.8717318" lon="2.3254550" version="6" timestamp="2023-04-08T14:38:59Z" changeset="134655584" uid="974272" user="baprischka" action="modify">
    <tag k="brand" v="Petit Bateau" />
    <tag k="brand:wikidata" v="Q3377090" />
    <tag k="brand:wikipedia" v="en:Petit Bateau" />
    <tag k="check_date" v="2023-04-08" />
    <tag k="name" v="Petit Bateau" />
    <tag k="opening_hours" v="Mo-Sa 10:00-19:30" />
    <tag k="shop" v="clothes" />
    <tag k="phone" v="+33 1 42 65 26 26" />
    <tag k="website" v="https://stores.petit-bateau.com/france/paris/13-rue-tronchet" />
  </node>
  <node id="2657674393" lat="48.8519162" lon="2.3741080" version="6" timestamp="2024-07-06T12:39:50Z" changeset="153622388" uid="974272" user="baprischka" action="modify">
    <tag k="addr:city" v="Paris" />
    <tag k="addr:housenumber" v="65" />
    <tag k="addr:postcode" v="75011" />
    <tag k="addr:street" v="Rue du Faubourg Saint-Antoine" />
    <tag k="brand" v="Petit Bateau" />
    <tag k="brand:wikidata" v="Q3377090" />
    <tag k="brand:wikipedia" v="en:Petit Bateau" />
    <tag k="check_date" v="2024-07-06" />
    <tag k="name" v="Petit Bateau" />
    <tag k="shop" v="clothes" />
    <tag k="source" v="survey" />
    <tag k="wheelchair" v="yes" />
    <tag k="phone" v="+33 1 40 19 93 49" />
    <tag k="website" v="https://stores.petit-bateau.com/france/paris/67-rue-du-faubourg-saint-antoine" />
    <tag k="opening_hours" v="Mo-Sa 10:00-19:00; Su closed" />
  </node>
  <node id="3050587076" lat="43.5524896" lon="7.0198945" version="5" timestamp="2022-09-24T12:11:47Z" changeset="126579374" uid="15489" user="vmeurisse" action="modify">
    <tag k="addr:housenumber" v="50" />
    <tag k="addr:street" v="Rue d'Antibes" />
    <tag k="brand" v="Petit Bateau" />
    <tag k="brand:wikidata" v="Q3377090" />
    <tag k="brand:wikipedia" v="en:Petit Bateau" />
    <tag k="name" v="Petit Bateau" />
    <tag k="opening_hours" v="Mo-Sa 10:00-19:00" />
    <tag k="shop" v="clothes" />
    <tag k="source" v="survey" />
    <tag k="phone" v="+33 4 93 38 05 82" />
    <tag k="website" v="https://stores.petit-bateau.com/france/cannes/50-rue-d'antibes" />
  </node>
  <node id="3282330168" lat="48.8326012" lon="2.3306507" version="8" timestamp="2024-06-01T10:39:03Z" changeset="152114967" uid="3834000" user="cartoleo" action="modify">
    <tag k="brand" v="Petit Bateau" />
    <tag k="brand:wikidata" v="Q3377090" />
    <tag k="brand:wikipedia" v="en:Petit Bateau" />
    <tag k="clothes" v="children" />
    <tag k="name" v="Petit Bateau" />
    <tag k="opening_hours" v="Mo-Sa 10:00-19:00" />
    <tag k="shop" v="clothes" />
    <tag k="website" v="https://www.petit-bateau.fr/" />
    <tag k="wheelchair" v="limited" />
    <tag k="phone" v="+33 1 43 22 15 79" />
  </node>
  <node id="3292148842" lat="47.7473076" lon="7.3380513" version="2" timestamp="2022-06-30T01:10:29Z" changeset="123023648" uid="5589" user="user_5589" action="modify">
    <tag k="brand" v="Petit Bateau" />
    <tag k="brand:wikidata" v="Q3377090" />
    <tag k="name" v="Petit Bateau" />
    <tag k="shop" v="clothes" />
    <tag k="phone" v="+33 3 89 45 89 79" />
    <tag k="website" v="https://stores.petit-bateau.com/france/mulhouse/cour-des-marechaux" />
    <tag k="opening_hours" v="Mo-Sa 10:00-19:00; Su closed" />
  </node>
  <node id="3500564864" lat="43.4226337" lon="6.7682941" version="4" timestamp="2022-05-13T09:19:56Z" changeset="120925096" uid="8874984" user="anyroka">
    <tag k="addr:city" v="Saint-Raphaël" />
    <tag k="addr:housenumber" v="85" />
    <tag k="addr:postcode" v="83700" />
    <tag k="addr:street" v="Rue Jean Aicard" />
    <tag k="brand" v="Petit Bateau" />
    <tag k="brand:wikidata" v="Q3377090" />
    <tag k="brand:wikipedia" v="fr:Petit Bateau" />
    <tag k="name" v="Petit Bateau" />
    <tag k="opening_hours" v="Mo 14:30-19:00; Tu-Sa 10:00-12:30, 14:30-19:00" />
    <tag k="phone" v="+33 4 94 53 96 55" />
    <tag k="shop" v="clothes" />
    <tag k="website" v="http://www.petit-bateau.fr/s/boutique/713-petit-bateau-saint-raphael-macafoja.html" />
  </node>
  <node id="3532312696" lat="48.8802118" lon="2.2769106" version="3" timestamp="2020-10-21T20:29:52Z" changeset="92853122" uid="343811" user="baptistemm" action="modify">
    <tag k="brand" v="Petit Bateau" />
    <tag k="brand:wikidata" v="Q3377090" />
    <tag k="brand:wikipedia" v="en:Petit Bateau" />
    <tag k="name" v="Petit Bateau" />
    <tag k="shop" v="clothes" />
    <tag k="source" v="survey" />
    <tag k="wheelchair" v="limited" />
    <tag k="phone" v="+33 1 47 45 45 75" />
    <tag k="website" v="https://stores.petit-bateau.com/france/neuilly/37-rue-de-sablonville" />
    <tag k="opening_hours" v="Mo-Sa 10:00-19:00; Su closed" />
  </node>
  <node id="3623464905" lat="48.8776418" lon="2.1821210" version="2" timestamp="2021-09-29T05:53:50Z" changeset="111847023" uid="1983103" user="Jorisbo" action="modify">
    <tag k="brand" v="Petit Bateau" />
    <tag k="brand:wikidata" v="Q3377090" />
    <tag k="brand:wikipedia" v="en:Petit Bateau" />
    <tag k="clothes" v="children" />
    <tag k="name" v="Petit Bateau" />
    <tag k="shop" v="clothes" />
    <tag k="phone" v="+33 1 47 49 60 78" />
    <tag k="website" v="https://stores.petit-bateau.com/france/rueil-malmaison/3-rue-paul-vaillant-couturier" />
    <tag k="opening_hours" v="Mo closed; Tu-Sa 10:00-19:00; Su closed" />
  </node>
  <node id="3657479126" lat="43.6094473" lon="3.8781092" version="6" timestamp="2023-10-27T13:49:21Z" changeset="143212715" uid="18738696" user="AntoElCrackito" action="modify">
    <tag k="brand" v="Petit Bateau" />
    <tag k="brand:wikidata" v="Q3377090" />
    <tag k="check_date:opening_hours" v="2023-08-03" />
    <tag k="name" v="Petit Bateau" />
    <tag k="opening_hours" v="Mo-Sa 10:00-19:00" />
    <tag k="shop" v="clothes" />
    <tag k="survey:date" v="28/5/2015" />
    <tag k="wheelchair" v="yes" />
    <tag k="phone" v="+33 4 67 60 37 09" />
    <tag k="website" v="https://stores.petit-bateau.com/france/montpellier/20-rue-de-la-loge" />
  </node>
  <node id="3861108159" lat="49.1828910" lon="-0.3648219" version="6" timestamp="2024-05-03T15:29:28Z" changeset="150843628" uid="14668744" user="karr4s" action="modify">
    <tag k="addr:city" v="Caen" />
    <tag k="addr:housenumber" v="86" />
    <tag k="addr:postcode" v="14000" />
    <tag k="addr:street" v="Rue Saint-Pierre" />
    <tag k="brand" v="Petit Bateau" />
    <tag k="brand:wikidata" v="Q3377090" />
    <tag k="brand:wikipedia" v="en:Petit Bateau" />
    <tag k="name" v="Petit Bateau" />
    <tag k="opening_hours" v="Tu-Sa 10:00-19:00; Mo 11:00-19:00; Su off" />
    <tag k="ref:FR:SIRET" v="30529134600644" />
    <tag k="shop" v="clothes" />
    <tag k="wheelchair" v="limited" />
    <tag k="phone" v="+33 2 31 86 89 79" />
    <tag k="website" v="https://stores.petit-bateau.com/france/caen/86-rue-saint-pierre" />
  </node>
  <node id="3874851620" lat="48.8722505" lon="2.3009963" version="3" timestamp="2023-12-14T14:22:52Z" changeset="145114512" uid="290680" user="wheelmap_visitor" action="modify">
    <tag k="brand" v="Petit Bateau" />
    <tag k="brand:wikidata" v="Q3377090" />
    <tag k="brand:wikipedia" v="en:Petit Bateau" />
    <tag k="name" v="Petit Bateau" />
    <tag k="shop" v="clothes" />
    <tag k="source" v="survey 2015" />
    <tag k="wheelchair" v="yes" />
    <tag k="phone" v="+33 1 40 74 02 03" />
    <tag k="website" v="https://stores.petit-bateau.com/france/paris/116-avenue-des-champs-elysees" />
    <tag k="opening_hours" v="Mo-Sa 10:00-20:30; Su 11:00-19:00" />
  </node>
  <node id="3969434866" lat="47.7475447" lon="-3.3610760" version="3" timestamp="2020-03-29T20:08:24Z" changeset="82792666" uid="392288" user="Kalepom" action="modify">
    <tag k="brand" v="Petit Bateau" />
    <tag k="brand:wikidata" v="Q3377090" />
    <tag k="brand:wikipedia" v="en:Petit Bateau" />
    <tag k="clothes" v="children" />
    <tag k="name" v="Petit Bateau" />
    <tag k="shop" v="clothes" />
    <tag k="phone" v="+33 2 97 21 97 67" />
    <tag k="website" v="https://stores.petit-bateau.com/france/lorient/42-rue-du-port" />
  </node>
  <node id="3985476644" lat="46.4957492" lon="-1.7850143" version="2" timestamp="2020-10-19T10:30:07Z" changeset="92700656" uid="343811" user="baptistemm" action="modify">
    <tag k="brand" v="Petit Bateau" />
    <tag k="brand:wikidata" v="Q3377090" />
    <tag k="brand:wikipedia" v="en:Petit Bateau" />
    <tag k="name" v="Petit Bateau" />
    <tag k="shop" v="clothes" />
    <tag k="phone" v="+33 2 51 20 86 02" />
    <tag k="website" v="https://stores.petit-bateau.com/france/les-sables-d'olonne/47-rue-des-halles" />
  </node>
  <node id="3995016072" lat="44.3496843" lon="2.5750174" version="3" timestamp="2019-12-29T21:28:47Z" changeset="78990168" uid="6526371" user="Yves F" action="modify">
    <tag k="brand" v="Petit Bateau" />
    <tag k="brand:wikidata" v="Q3377090" />
    <tag k="brand:wikipedia" v="en:Petit Bateau" />
    <tag k="clothes" v="children;underwear" />
    <tag k="name" v="Petit Bateau" />
    <tag k="shop" v="clothes" />
    <tag k="phone" v="+33 5 65 68 19 83" />
    <tag k="website" v="https://stores.petit-bateau.com/france/rodez/6-place-charles-de-gaulle" />
  </node>
  <node id="4056375882" lat="45.4372229" lon="4.3884137" version="4" timestamp="2024-04-21T17:16:32Z" changeset="150311738" uid="224440" user="Syl" action="modify">
    <tag k="brand" v="Petit Bateau" />
    <tag k="brand:wikidata" v="Q3377090" />
    <tag k="brand:wikipedia" v="en:Petit Bateau" />
    <tag k="check_date" v="2023-09-29" />
    <tag k="clothes" v="children" />
    <tag k="name" v="Petit Bateau" />
    <tag k="ref:FR:SIRET" v="30529134601311" />
    <tag k="shop" v="clothes" />
    <tag k="phone" v="+33 4 77 47 00 61" />
    <tag k="website" v="https://stores.petit-bateau.com/france/saint-etienne/8-rue-alsace-lorraine" />
  </node>
  <node id="4521167834" lat="47.3203249" lon="5.0389190" version="2" timestamp="2019-07-03T23:08:43Z" changeset="71877696" uid="3068618" user="Loïc Maing">
    <tag k="brand" v="Petit Bateau" />
    <tag k="brand:wikidata" v="Q3377090" />
    <tag k="brand:wikipedia" v="en:Petit Bateau" />
    <tag k="name" v="Petit Bateau" />
    <tag k="shop" v="clothes" />
  </node>
  <node id="4535342795" lat="48.8462881" lon="2.2953980" version="5" timestamp="2023-05-20T12:41:32Z" changeset="136335836" uid="2411188" user="fordprefectdeguilford" action="modify">
    <tag k="brand" v="Petit Bateau" />
    <tag k="brand:wikidata" v="Q3377090" />
    <tag k="brand:wikipedia" v="en:Petit Bateau" />
    <tag k="contact:city" v="Paris" />
    <tag k="contact:housenumber" v="55" />
    <tag k="contact:postcode" v="75015" />
    <tag k="contact:street" v="Rue du Commerce" />
    <tag k="name" v="Petit Bateau" />
    <tag k="opening_hours" v="Mo-Sa 10:00-19:00" />
    <tag k="shop" v="clothes" />
    <tag k="wheelchair" v="yes" />
    <tag k="phone" v="+33 1 45 77 88 00" />
    <tag k="website" v="https://stores.petit-bateau.com/france/paris/55-rue-du-commerce" />
  </node>
  <node id="4888153758" lat="46.2048888" lon="5.2265337" version="2" timestamp="2019-05-14T16:24:03Z" changeset="70243485" uid="502891" user="chabe01">
    <tag k="brand" v="Petit Bateau" />
    <tag k="brand:wikidata" v="Q3377090" />
    <tag k="brand:wikipedia" v="en:Petit Bateau" />
    <tag k="name" v="Petit Bateau" />
    <tag k="ref:FR:SIRET" v="30529134601295" />
    <tag k="shop" v="clothes" />
    <tag k="source" v="Base Sirene - 2017" />
  </node>
  <node id="4947093322" lat="45.7787585" lon="3.0828377" version="4" timestamp="2023-07-13T13:35:31Z" changeset="138457640" uid="290680" user="wheelmap_visitor">
    <tag k="brand" v="Petit Bateau" />
    <tag k="brand:wikidata" v="Q3377090" />
    <tag k="brand:wikipedia" v="en:Petit Bateau" />
    <tag k="name" v="Petit Bateau" />
    <tag k="opening_hours" v="Mo-Sa 10:00-19:00" />
    <tag k="shop" v="clothes" />
    <tag k="wheelchair" v="limited" />
  </node>
  <node id="5001825474" lat="48.8525669" lon="2.3333168" version="3" timestamp="2023-09-28T16:35:51Z" changeset="141872539" uid="11291363" user="u4Dy46Xe" action="modify">
    <tag k="brand" v="Petit Bateau" />
    <tag k="brand:wikidata" v="Q3377090" />
    <tag k="brand:wikipedia" v="en:Petit Bateau" />
    <tag k="check_date" v="2023-09-27" />
    <tag k="name" v="Petit Bateau" />
    <tag k="shop" v="clothes" />
    <tag k="phone" v="+33 1 56 81 90 45" />
    <tag k="website" v="https://stores.petit-bateau.com/france/paris/33-rue-du-four" />
    <tag k="opening_hours" v="Mo-Sa 10:00-19:00; Su closed" />
  </node>
  <node id="5016893721" lat="49.1176382" lon="6.1743202" version="3" timestamp="2019-12-16T17:19:08Z" changeset="78485245" uid="2248307" user="Pols12">
    <tag k="addr:housenumber" v="8" />
    <tag k="addr:postcode" v="57000" />
    <tag k="addr:street" v="Rue des Clercs" />
    <tag k="brand" v="Petit Bateau" />
    <tag k="brand:wikidata" v="Q3377090" />
    <tag k="brand:wikipedia" v="en:Petit Bateau" />
    <tag k="name" v="Petit Bateau" />
    <tag k="name:fr" v="Petit Bateau" />
    <tag k="opening_hours" v="Mo-Sa 10:00-19:00" />
    <tag k="phone" v="+33 3 87 78 79 02" />
    <tag k="shop" v="clothes" />
    <tag k="website" v="https://www.petit-bateau.fr/" />
  </node>
  <node id="5128173400" lat="48.1137751" lon="-1.6792825" version="3" timestamp="2022-04-15T16:33:37Z" changeset="119757884" uid="1424448" user="nlehuby" action="modify">
    <tag k="brand" v="Petit Bateau" />
    <tag k="brand:wikidata" v="Q3377090" />
    <tag k="brand:wikipedia" v="en:Petit Bateau" />
    <tag k="clothes" v="children" />
    <tag k="name" v="Petit Bateau" />
    <tag k="ref:FR:SIRET" v="30529134601501" />
    <tag k="shop" v="clothes" />
    <tag k="phone" v="+33 2 99 31 67 98" />
    <tag k="website" v="https://stores.petit-bateau.com/france/rennes/2-rue-de-la-motte-fablet" />
    <tag k="opening_hours" v="Mo 14:00-19:00; Tu-Sa 10:00-19:00; Su 11:00-18:00" />
  </node>
  <node id="5486593776" lat="43.2971045" lon="-0.3693047" version="6" timestamp="2024-02-14T01:17:00Z" changeset="147431535" uid="10409573" user="ErnestoLaPomme">
    <tag k="brand" v="Petit Bateau" />
    <tag k="brand:wikidata" v="Q3377090" />
    <tag k="brand:wikipedia" v="fr:Petit Bateau" />
    <tag k="clothes" v="children;women;men;babies" />
    <tag k="contact:city" v="Pau" />
    <tag k="contact:housenumber" v="15" />
    <tag k="contact:phone" v="+33 5 59 27 26 65" />
    <tag k="contact:postcode" v="64000" />
    <tag k="contact:street" v="Rue Serviez" />
    <tag k="contact:website" v="https://stores.petit-bateau.com/fr/france/pau/15-rue-serviez" />
    <tag k="name" v="Petit Bateau" />
    <tag k="opening_hours" v="Mo 14:00-19:00; Tu-Sa 10:00-19:00" />
    <tag k="ref:FR:NAF" v="47.71Z" />
    <tag k="ref:FR:SIRET" v="30529134600669" />
    <tag k="shop" v="clothes" />
  </node>
  <node id="5625407670" lat="45.7674690" lon="4.8443411" version="4" timestamp="2020-06-13T15:26:23Z" changeset="86599657" uid="46239" user="MatthieuMartin">
    <tag k="brand" v="Petit Bateau" />
    <tag k="brand:wikidata" v="Q3377090" />
    <tag k="brand:wikipedia" v="fr:Petit Bateau" />
    <tag k="clothes" v="children;underwear;babies;women" />
    <tag k="name" v="Petit Bateau" />
    <tag k="opening_hours" v="Mo-Sa 10:00-19:00" />
    <tag k="phone" v="+33 4 78 52 85 72" />
    <tag k="ref:FR:SIRET" v="30529134600628" />
    <tag k="shop" v="clothes" />
    <tag k="website" v="https://www.petit-bateau.fr/s/boutique/056-petit-bateau-lyon-saxe.html" />
  </node>
  <node id="5802319064" lat="49.2544707" lon="4.0282682" version="6" timestamp="2024-07-13T08:10:28Z" changeset="153882582" uid="332493" user="bazgal" action="modify">
    <tag k="addr:housenumber" v="28" />
    <tag k="brand" v="Petit Bateau" />
    <tag k="brand:wikidata" v="Q3377090" />
    <tag k="brand:wikipedia" v="en:Petit Bateau" />
    <tag k="check_date" v="2024-07-12" />
    <tag k="name" v="Petit Bateau" />
    <tag k="shop" v="clothes" />
    <tag k="source" v="survey" />
    <tag k="phone" v="+33 3 26 86 84 72" />
    <tag k="website" v="https://stores.petit-bateau.com/france/reims/28-rue-condorcet" />
    <tag k="opening_hours" v="Mo-Sa 10:00-19:00; Su closed" />
  </node>
  <node id="6111873606" lat="47.2146365" lon="-1.5569354" version="4" timestamp="2023-07-07T18:16:57Z" changeset="138239623" uid="19584012" user="Ilias_0_0_">
    <tag k="brand" v="Petit Bateau" />
    <tag k="brand:wikidata" v="Q3377090" />
    <tag k="brand:wikipedia" v="en:Petit Bateau" />
    <tag k="check_date" v="2023-07-07" />
    <tag k="clothes" v="children;babies;women;men" />
    <tag k="name" v="Petit Bateau" />
    <tag k="opening_hours" v="Mo 14:00-19:00; Tu-Sa 10:00-19:00" />
    <tag k="phone" v="+33 2 40 89 13 53" />
    <tag k="shop" v="clothes" />
    <tag k="website" v="https://www.petit-bateau.fr" />
    <tag k="wheelchair" v="yes" />
  </node>
  <node id="6300758525" lat="47.2373196" lon="6.0246704" version="5" timestamp="2024-04-22T13:53:24Z" changeset="150348469" uid="21170125" user="Arthur Gyt">
    <tag k="addr:city" v="Besançon" />
    <tag k="addr:housenumber" v="64" />
    <tag k="addr:postcode" v="25000" />
    <tag k="addr:street" v="Grande Rue" />
    <tag k="brand" v="Petit Bateau" />
    <tag k="brand:wikidata" v="Q3377090" />
    <tag k="brand:wikipedia" v="en:Petit Bateau" />
    <tag k="name" v="Petit Bateau" />
    <tag k="opening_hours" v="Mo-Sa 10:00-19:00" />
    <tag k="phone" v="+33 3 81 81 37 09" />
    <tag k="shop" v="clothes" />
    <tag k="website" v="https://stores.petit-bateau.com/fr/france/besancon/64-grande-rue" />
    <tag k="wheelchair" v="yes" />
  </node>
  <node id="6851649706" lat="44.8409973" lon="-0.5771203" version="2" timestamp="2023-04-26T09:13:03Z" changeset="135375233" uid="16518693" user="Barbell4116">
    <tag k="brand" v="Petit Bateau" />
    <tag k="brand:wikidata" v="Q3377090" />
    <tag k="brand:wikipedia" v="en:Petit Bateau" />
    <tag k="name" v="Petit Bateau" />
    <tag k="opening_hours" v="Mo-Su 10:00-19:00" />
    <tag k="shop" v="clothes" />
  </node>
  <node id="6865904005" lat="43.5284732" lon="5.4492422" version="2" timestamp="2024-04-19T08:04:59Z" changeset="150209685" uid="10834057" user="astest" action="modify">
    <tag k="brand" v="Petit Bateau" />
    <tag k="brand:wikidata" v="Q3377090" />
    <tag k="brand:wikipedia" v="en:Petit Bateau" />
    <tag k="check_date" v="2024-04-19" />
    <tag k="name" v="Petit Bateau" />
    <tag k="shop" v="clothes" />
    <tag k="phone" v="+33 4 42 26 66 42" />
    <tag k="website" v="https://stores.petit-bateau.com/france/aix-en-provence/8-rue-des-chapeliers" />
    <tag k="opening_hours" v="Mo-Sa 10:00-19:00; Su closed" />
  </node>
  <node id="6952785723" lat="45.7590345" lon="4.8337958" version="6" timestamp="2024-02-05T19:02:28Z" changeset="147105835" uid="17767741" user="olimago">
    <tag k="brand" v="Petit Bateau" />
    <tag k="brand:wikidata" v="Q3377090" />
    <tag k="brand:wikipedia" v="en:Petit Bateau" />
    <tag k="check_date:opening_hours" v="2024-02-05" />
    <tag k="clothes" v="children;babies" />
    <tag k="contact:facebook" v="petitbateau" />
    <tag k="contact:instagram" v="petitbateau" />
    <tag k="name" v="Petit Bateau" />
    <tag k="opening_hours" v="Mo-Sa 10:00-19:00" />
    <tag k="phone" v="+33478373040" />
    <tag k="ref:FR:SIRET" v="30529134601139" />
    <tag k="shop" v="clothes" />
    <tag k="survey:date" v="2023-08-17" />
    <tag k="website" v="https://www.petit-bateau.fr/" />
  </node>
  <node id="7208852384" lat="45.0470208" lon="5.0575215" version="1" timestamp="2020-02-13T16:26:17Z" changeset="80967120" uid="2092304" user="ma~" action="modify">
    <tag k="brand" v="Petit Bateau" />
    <tag k="brand:wikidata" v="Q3377090" />
    <tag k="brand:wikipedia" v="en:Petit Bateau" />
    <tag k="name" v="Petit Bateau" />
    <tag k="shop" v="clothes" />
    <tag k="phone" v="+33 4 75 47 68 05" />
    <tag k="website" v="https://stores.petit-bateau.com/france/romans-sur-isere/60-avenue-gambetta" />
    <tag k="opening_hours" v="Mo-Sa 10:00-19:00; Su closed" />
  </node>
  <node id="7442270825" lat="50.6393618" lon="3.0640504" version="2" timestamp="2021-12-17T20:37:25Z" changeset="115071338" uid="172867" user="AmiFritz" action="modify">
    <tag k="brand" v="Petit Bateau" />
    <tag k="brand:wikidata" v="Q3377090" />
    <tag k="brand:wikipedia" v="en:Petit Bateau" />
    <tag k="contact:city" v="Lille" />
    <tag k="contact:housenumber" v="54" />
    <tag k="contact:phone" v="+33 3 20 55 04 46" />
    <tag k="contact:postcode" v="59800" />
    <tag k="contact:street" v="Rue de la Grande Chaussée" />
    <tag k="contact:website" v="https://stores.petit-bateau.com/fr/france/lille/54-rue-de-la-grande-chaussee" />
    <tag k="name" v="Petit Bateau" />
    <tag k="shop" v="clothes" />
    <tag k="opening_hours" v="Mo-Sa 10:00-19:00; Su closed" />
  </node>
  <node id="7578080213" lat="48.8840996" lon="2.3128859" version="3" timestamp="2023-08-20T15:41:08Z" changeset="140139598" uid="3834000" user="cartoleo" action="modify">
    <tag k="brand" v="Petit Bateau" />
    <tag k="brand:wikidata" v="Q3377090" />
    <tag k="brand:wikipedia" v="en:Petit Bateau" />
    <tag k="clothes" v="children;women;babies" />
    <tag k="contact:city" v="Paris" />
    <tag k="contact:housenumber" v="67" />
    <tag k="contact:postcode" v="75017" />
    <tag k="contact:street" v="Rue de Lévis" />
    <tag k="contact:website" v="https://stores.petit-bateau.com/fr/france/paris/67-rue-de-levis" />
    <tag k="name" v="Petit Bateau" />
    <tag k="opening_hours" v="Mo-Sa 11:00-19:00" />
    <tag k="shop" v="clothes" />
    <tag k="wheelchair" v="yes" />
    <tag k="phone" v="+33 1 43 80 01 36" />
  </node>
  <node id="7769992011" lat="44.6608780" lon="-1.1690320" version="2" timestamp="2022-05-28T09:37:10Z" changeset="121608782" uid="1925577" user="robertodelavega" action="modify">
    <tag k="brand" v="Petit Bateau" />
    <tag k="brand:wikidata" v="Q3377090" />
    <tag k="brand:wikipedia" v="en:Petit Bateau" />
    <tag k="clothes" v="children" />
    <tag k="name" v="Petit Bateau" />
    <tag k="opening_hours" v="Mo-Sa 10:00-12:30,14:30-19:00" />
    <tag k="shop" v="clothes" />
    <tag k="phone" v="+33 5 56 22 52 24" />
    <tag k="website" v="https://stores.petit-bateau.com/france/arcachon/8-cours-lamarque" />
  </node>
  <node id="7803558584" lat="43.3856903" lon="1.6103543" version="3" timestamp="2022-04-03T21:00:05Z" changeset="119278666" uid="7976959" user="glacasa">
    <tag k="brand" v="Petit Bateau" />
    <tag k="brand:wikidata" v="Q3377090" />
    <tag k="brand:wikipedia" v="en:Petit Bateau" />
    <tag k="level" v="1" />
    <tag k="name" v="Petit Bateau" />
    <tag k="opening_hours" v="Mo-Sa 10:00-19:00" />
    <tag k="phone" v="+33 5 61 06 17 53" />
    <tag k="shop" v="clothes" />
    <tag k="website" v="https://www.naillouxoutlet.com/fr/boutique/petit-bateau.php" />
  </node>
  <node id="7904062285" lat="48.8566145" lon="2.3640237" version="4" timestamp="2024-05-11T14:35:23Z" changeset="151189384" uid="2824184" user="cm-t" action="modify">
    <tag k="brand" v="Petit Bateau" />
    <tag k="brand:wikidata" v="Q3377090" />
    <tag k="brand:wikipedia" v="en:Petit Bateau" />
    <tag k="clothes" v="children" />
    <tag k="name" v="Petit Bateau" />
    <tag k="opening_hours" v="Mo-Sa 10:00-19:30; Su 10:00-19:00" />
    <tag k="shop" v="clothes" />
    <tag k="survey:date" v="2020-09-14" />
    <tag k="phone" v="+33 1 40 24 00 02" />
    <tag k="website" v="https://stores.petit-bateau.com/france/paris/6,-rue-des-francs-bourgeois" />
  </node>
  <node id="8002700025" lat="44.5593994" lon="6.0807035" version="1" timestamp="2020-10-13T09:04:31Z" changeset="92402404" uid="4331089" user="Arno0405">
    <tag k="addr:city" v="Gap" />
    <tag k="addr:postcode" v="05000" />
    <tag k="addr:street" v="Rue Carnot" />
    <tag k="brand" v="Petit Bateau" />
    <tag k="brand:wikidata" v="Q3377090" />
    <tag k="brand:wikipedia" v="en:Petit Bateau" />
    <tag k="name" v="Petit Bateau" />
    <tag k="shop" v="clothes" />
  </node>
  <node id="8142199416" lat="46.1812210" lon="6.2319864" version="6" timestamp="2023-11-04T16:19:41Z" changeset="143620876" uid="14857" user="cpot">
    <tag k="addr:city" v="Étrembières" />
    <tag k="addr:housenumber" v="21" />
    <tag k="addr:postcode" v="74100" />
    <tag k="addr:street" v="Rue de l'Industrie" />
    <tag k="brand" v="Petit Bateau" />
    <tag k="brand:wikidata" v="Q3377090" />
    <tag k="brand:wikipedia" v="fr:Petit Bateau" />
    <tag k="clothes" v="children" />
    <tag k="contact:phone" v="+33 4 50 37 42 48" />
    <tag k="contact:website" v="https://stores.petit-bateau.com/fr/france/etrembieres/21-chemin-industrie" />
    <tag k="level" v="2" />
    <tag k="name" v="Petit Bateau" />
    <tag k="official_name" v="Petit Bateau Etrembieres" />
    <tag k="opening_hours" v="Mo-Fr 09:30-20:00; Sa 09:00-20:00; Su 10:00-19:00" />
    <tag k="ref:FR:NAF" v="4771Z" />
    <tag k="ref:FR:SIRET" v="30529134601022" />
    <tag k="shop" v="clothes" />
    <tag k="start_date" v="2002-05-15" />
    <tag k="wheelchair" v="yes" />
  </node>
  <node id="8372031214" lat="48.8855930" lon="2.3358042" version="1" timestamp="2021-01-28T14:25:28Z" changeset="98302710" uid="12557697" user="lele_33_33" action="modify">
    <tag k="addr:city" v="Paris" />
    <tag k="addr:housenumber" v="50" />
    <tag k="addr:postcode" v="75018" />
    <tag k="addr:street" v="Rue des Abbesses" />
    <tag k="brand" v="Petit Bateau" />
    <tag k="brand:wikidata" v="Q3377090" />
    <tag k="brand:wikipedia" v="en:Petit Bateau" />
    <tag k="name" v="Petit Bateau" />
    <tag k="shop" v="clothes" />
    <tag k="phone" v="+33 1 42 52 81 76" />
    <tag k="website" v="https://stores.petit-bateau.com/france/paris/50-rue-des-abbesses" />
    <tag k="opening_hours" v="Mo-Sa 10:00-19:00; Su 11:00-19:00" />
  </node>
  <node id="8378997722" lat="47.0550858" lon="-0.9401916" version="3" timestamp="2023-11-03T15:18:02Z" changeset="143579485" uid="377836" user="lologuil" action="modify">
    <tag k="brand" v="Petit Bateau" />
    <tag k="brand:wikidata" v="Q3377090" />
    <tag k="brand:wikipedia" v="en:Petit Bateau" />
    <tag k="name" v="Petit Bateau" />
    <tag k="opening_hours" v="Mo-Sa 10:00-19:00" />
    <tag k="shop" v="clothes" />
    <tag k="phone" v="+33 2 41 75 00 16" />
    <tag k="website" v="https://stores.petit-bateau.com/france/la-seguiniere/z.i.-de-la-menardiere,-rue-du-bocage" />
  </node>
  <node id="8488778844" lat="43.9275351" lon="2.1443601" version="6" timestamp="2024-01-12T15:38:25Z" changeset="146186000" uid="17706399" user="Julien - Office de Tourisme Albi">
    <tag k="addr:city" v="Albi" />
    <tag k="addr:housenumber" v="15" />
    <tag k="addr:postcode" v="81000" />
    <tag k="addr:street" v="Rue Sainte-Cécile" />
    <tag k="brand" v="Petit Bateau" />
    <tag k="brand:wikidata" v="Q3377090" />
    <tag k="clothes" v="children" />
    <tag k="name" v="Petit Bateau" />
    <tag k="opening_hours" v="Tu-Sa 10:00-19:00; Mo 14:00-19:00" />
    <tag k="phone" v="+33 5 63 38 14 84" />
    <tag k="shop" v="clothes" />
    <tag k="website" v="https://stores.petit-bateau.com/fr/france/albi/15-rue-sainte-cecile" />
  </node>
  <node id="8543550918" lat="49.2895215" lon="-0.1157788" version="5" timestamp="2024-05-30T14:37:48Z" changeset="152039308" uid="1253584" user="Camille Jeannin">
    <tag k="brand" v="Petit Bateau" />
    <tag k="brand:wikidata" v="Q3377090" />
    <tag k="name" v="Petit Bateau" />
    <tag k="shop" v="clothes" />
    <tag k="survey:date" v="2024-03-31" />
  </node>
  <node id="8561566428" lat="48.3888432" lon="-4.4878139" version="2" timestamp="2022-07-22T19:56:57Z" changeset="123954314" uid="3690222" user="Guixovitch" action="modify">
    <tag k="brand" v="Petit Bateau" />
    <tag k="brand:wikidata" v="Q3377090" />
    <tag k="name" v="Petit Bateau" />
    <tag k="shop" v="clothes" />
    <tag k="phone" v="+33 2 98 43 62 75" />
    <tag k="website" v="https://stores.petit-bateau.com/france/brest/93-rue-de-siam" />
    <tag k="opening_hours" v="Mo-Sa 10:00-19:00; Su closed" />
  </node>
  <node id="8648707332" lat="45.7783123" lon="4.8321534" version="3" timestamp="2023-11-21T12:47:57Z" changeset="144285841" uid="18448573" user="lperret" action="modify">
    <tag k="brand" v="Petit Bateau" />
    <tag k="brand:wikidata" v="Q3377090" />
    <tag k="brand:wikipedia" v="en:Petit Bateau" />
    <tag k="check_date" v="2023-06-21" />
    <tag k="name" v="Petit Bateau" />
    <tag k="opening_hours" v="Mo 14:00-19:00; Tu-Sa 10:00-19:00" />
    <tag k="shop" v="clothes" />
    <tag k="phone" v="+33 4 78 39 90 71" />
    <tag k="website" v="https://stores.petit-bateau.com/france/lyon/41-grande-rue-de-la-croix-rousse" />
  </node>
  <node id="8847681885" lat="47.0864097" lon="2.3961813" version="2" timestamp="2022-02-19T20:00:21Z" changeset="117617601" uid="1257159" user="Jean-Pierre Rondeau" action="modify">
    <tag k="brand" v="Petit Bateau" />
    <tag k="brand:wikidata" v="Q3377090" />
    <tag k="brand:wikipedia" v="en:Petit Bateau" />
    <tag k="name" v="Petit Bateau" />
    <tag k="shop" v="clothes" />
    <tag k="phone" v="+33 2 48 24 05 33" />
    <tag k="website" v="https://stores.petit-bateau.com/france/bourges/54-rue-mirebeau" />
    <tag k="opening_hours" v="Mo closed; Tu-Sa 10:00-19:00; Su closed" />
  </node>
  <node id="9023258452" lat="48.5807518" lon="7.7495464" version="3" timestamp="2023-12-19T08:56:47Z" changeset="145282112" uid="290680" user="wheelmap_visitor" action="modify">
    <tag k="brand" v="Petit Bateau" />
    <tag k="brand:wikidata" v="Q3377090" />
    <tag k="brand:wikipedia" v="en:Petit Bateau" />
    <tag k="name" v="Petit Bateau" />
    <tag k="opening_hours" v="Mo 14:00-19:00; Tu-Sa 10:00-19:00" />
    <tag k="shop" v="clothes" />
    <tag k="wheelchair" v="limited" />
    <tag k="phone" v="+33 3 88 32 01 37" />
    <tag k="website" v="https://stores.petit-bateau.com/france/strasbourg/40-rue-vieux-marche-aux-poissons" />
  </node>
  <node id="9360296094" lat="49.3595445" lon="0.0768275" version="2" timestamp="2023-03-15T07:33:56Z" changeset="133697249" uid="414659" user="Max-Kritic" action="modify">
    <tag k="brand" v="Petit Bateau" />
    <tag k="brand:wikidata" v="Q3377090" />
    <tag k="name" v="Petit Bateau" />
    <tag k="shop" v="clothes" />
    <tag k="phone" v="+33 2 31 98 49 42" />
    <tag k="website" v="https://stores.petit-bateau.com/france/deauville/21-place-morny" />
    <tag k="opening_hours" v="Mo-Su 10:00-19:00" />
  </node>
  <node id="9508449840" lat="43.4200085" lon="5.3611004" version="1" timestamp="2022-02-15T18:40:16Z" changeset="117447486" uid="10569470" user="Romainluc" action="modify">
    <tag k="brand" v="Petit Bateau" />
    <tag k="brand:wikidata" v="Q3377090" />
    <tag k="brand:wikipedia" v="en:Petit Bateau" />
    <tag k="name" v="Petit Bateau" />
    <tag k="shop" v="clothes" />
    <tag k="phone" v="+33 4 42 34 27 85" />
    <tag k="website" v="https://stores.petit-bateau.com/france/cabries/chemin-de-la-grande-campagne" />
    <tag k="opening_hours" v="Mo-Su 09:30-19:30" />
  </node>
  <node id="9610321057" lat="48.8644384" lon="2.3454469" version="3" timestamp="2024-01-06T11:16:36Z" changeset="145952363" uid="14373797" user="PiGi75002">
    <tag k="brand" v="Petit Bateau" />
    <tag k="brand:wikidata" v="Q3377090" />
    <tag k="brand:wikipedia" v="en:Petit Bateau" />
    <tag k="clothes" v="children" />
    <tag k="name" v="Petit Bateau" />
    <tag k="shop" v="clothes" />
    <tag k="wheelchair" v="yes" />
  </node>
  <node id="9752990180" lat="48.8437364" lon="2.3300802" version="2" timestamp="2022-06-26T17:02:16Z" changeset="122875073" uid="15094172" user="chl-osm" action="modify">
    <tag k="brand" v="Petit Bateau" />
    <tag k="brand:wikidata" v="Q3377090" />
    <tag k="brand:wikipedia" v="en:Petit Bateau" />
    <tag k="name" v="Petit Bateau" />
    <tag k="opening_hours" v="Mo-Sa 10:00-19:00" />
    <tag k="shop" v="clothes" />
    <tag k="phone" v="+33 1 55 42 02 53" />
    <tag k="website" v="https://stores.petit-bateau.com/france/paris/26-rue-vavin" />
  </node>
  <node id="9824611447" lat="46.0362976" lon="4.0713432" version="1" timestamp="2022-06-17T07:47:55Z" changeset="122495430" uid="191786" user="Alexandre148025" action="modify">
    <tag k="brand" v="Petit Bateau" />
    <tag k="brand:wikidata" v="Q3377090" />
    <tag k="name" v="Petit Bateau" />
    <tag k="shop" v="clothes" />
    <tag k="phone" v="+33 4 77 67 81 18" />
    <tag k="website" v="https://stores.petit-bateau.com/france/roanne/18-place-du-marche" />
  </node>
  <node id="9831608883" lat="48.8477126" lon="2.2837817" version="2" timestamp="2022-07-09T09:31:27Z" changeset="123392885" uid="4774522" user="Cyril5C" action="modify">
    <tag k="brand" v="Petit Bateau" />
    <tag k="brand:wikidata" v="Q3377090" />
    <tag k="name" v="Petit Bateau" />
    <tag k="opening_hours" v="Mo-Sa 10:00-20:30; Su 11:00-19:00" />
    <tag k="shop" v="clothes" />
    <tag k="phone" v="+33 1 40 58 18 32" />
    <tag k="website" v="https://stores.petit-bateau.com/france/paris/32-34-rue-linois" />
  </node>
  <node id="10016054576" lat="50.2903178" lon="2.7725874" version="1" timestamp="2022-09-11T15:15:49Z" changeset="126053495" uid="6668732" user="LeKalmar">
    <tag k="addr:full" v="9 Rue Saint-Aubert, 62000 Arras" />
    <tag k="brand" v="Petit Bateau" />
    <tag k="brand:wikidata" v="Q3377090" />
    <tag k="brand:wikipedia" v="en:Petit Bateau" />
    <tag k="name" v="Petit Bateau" />
    <tag k="shop" v="clothes" />
    <tag k="source" v="cadastre-dgi-fr source : Direction Générale des Impôts - Cadastre. Mise à jour : 2011" />
    <tag k="wheelchair" v="yes" />
  </node>
  <node id="10262444968" lat="48.6916183" lon="6.1838256" version="2" timestamp="2022-12-14T15:36:04Z" changeset="130080827" uid="337375" user="Rom1">
    <tag k="addr:housenumber" v="49" />
    <tag k="brand" v="Petit Bateau" />
    <tag k="brand:wikidata" v="Q3377090" />
    <tag k="brand:wikipedia" v="fr:Petit Bateau" />
    <tag k="name" v="Petit Bateau" />
    <tag k="opening_hours" v="Mo-Sa 10:00-19:00" />
    <tag k="phone" v="+33 3 83 36 78 58" />
    <tag k="shop" v="clothes" />
    <tag k="source" v="GrandNancy" />
    <tag k="website" v="https://stores.petit-bateau.com/fr/france/nancy/49-rue-des-dominicains" />
  </node>
  <node id="10294141391" lat="45.8309369" lon="1.2588150" version="1" timestamp="2022-12-29T22:13:51Z" changeset="130664955" uid="11671592" user="m-ezd" action="modify">
    <tag k="brand" v="Petit Bateau" />
    <tag k="brand:wikidata" v="Q3377090" />
    <tag k="name" v="Petit Bateau" />
    <tag k="ref:FR:SIRET" v="30529134600495" />
    <tag k="shop" v="clothes" />
    <tag k="source" v="INSEE - 2022-12" />
    <tag k="phone" v="+33 5 55 33 48 66" />
    <tag k="website" v="https://stores.petit-bateau.com/france/limoges/7-rue-du-clocher" />
  </node>
  <node id="10589718001" lat="48.8378544" lon="2.4881668" version="1" timestamp="2023-01-28T20:26:01Z" changeset="131820980" uid="502891" user="chabe01">
    <tag k="brand" v="Petit Bateau" />
    <tag k="brand:wikidata" v="Q3377090" />
    <tag k="name" v="Petit Bateau" />
    <tag k="shop" v="clothes" />
  </node>
  <node id="11001122547" lat="46.1610047" lon="-1.1501174" version="4" timestamp="2023-11-08T14:24:04Z" changeset="143783196" uid="16291142" user="Lisapple" action="modify">
    <tag k="brand" v="Petit Bateau" />
    <tag k="brand:wikidata" v="Q3377090" />
    <tag k="name" v="Petit Bateau" />
    <tag k="opening_hours" v="Mo 14:00-19:00; Tu-Sa 10:00-19:00" />
    <tag k="shop" v="clothes" />
    <tag k="website" v="https://stores.petit-bateau.com/fr/france/la-rochelle/51-rue-des-merciers" />
    <tag k="wheelchair" v="yes" />
    <tag k="phone" v="+33 5 46 41 08 40" />
  </node>
  <node id="11076867308" lat="45.1602858" lon="1.5329470" version="2" timestamp="2023-07-30T15:41:51Z" changeset="139215177" uid="1556219" user="tbo47" action="modify">
    <tag k="brand" v="Petit Bateau" />
    <tag k="brand:wikidata" v="Q3377090" />
    <tag k="name" v="Petit Bateau" />
    <tag k="shop" v="clothes" />
    <tag k="phone" v="+33 5 55 17 07 74" />
    <tag k="website" v="https://stores.petit-bateau.com/france/brive-la-gaillarde/10,-rue-toulzac" />
    <tag k="opening_hours" v="Mo 14:00-19:00; Tu-Sa 10:00-19:00; Su closed" />
  </node>
  <node id="11145961829" lat="43.6394127" lon="5.0991745" version="2" timestamp="2023-09-13T19:49:57Z" changeset="141227709" uid="16961018" user="PierreDuMatin" action="modify">
    <tag k="brand" v="Petit Bateau" />
    <tag k="brand:wikidata" v="Q3377090" />
    <tag k="name" v="Petit Bateau" />
    <tag k="opening_hours" v="Tu-Sa 10:00-13:00,14:00-19:00" />
    <tag k="shop" v="clothes" />
    <tag k="phone" v="+33 4 42 48 56 95" />
    <tag k="website" v="https://stores.petit-bateau.com/france/salon-de-provence/107-cours-gimon" />
  </node>
  <node id="11361758418" lat="43.4887642" lon="-1.4980325" version="1" timestamp="2023-11-19T12:55:49Z" changeset="144206940" uid="20096652" user="Davidos64" action="modify">
    <tag k="addr:city" v="Anglet" />
    <tag k="addr:postcode" v="64600" />
    <tag k="addr:street" v="Avenue Jean-Léon Laporte" />
    <tag k="brand" v="Petit Bateau" />
    <tag k="brand:wikidata" v="Q3377090" />
    <tag k="name" v="Petit Bateau" />
    <tag k="opening_hours" v="Mo-Sa 09:30-20:00" />
    <tag k="payment:cards" v="yes" />
    <tag k="payment:credit_cards" v="yes" />
    <tag k="phone" v="+33559523866" />
    <tag k="shop" v="clothes" />
    <tag k="wheelchair" v="yes" />
    <tag k="website" v="https://stores.petit-bateau.com/france/anglet/avenue-jean-leon-laporte" />
  </node>
  <node id="11415500915" lat="43.3875363" lon="-1.6635161" version="1" timestamp="2023-12-13T19:52:48Z" changeset="145087773" uid="20096652" user="Davidos64">
    <tag k="addr:city" v="Saint-Jean-de-Luz" />
    <tag k="addr:housenumber" v="15" />
    <tag k="addr:postcode" v="64500" />
    <tag k="addr:street" v="Rue Mazarin" />
    <tag k="brand" v="Petit Bateau" />
    <tag k="brand:wikidata" v="Q3377090" />
    <tag k="name" v="Petit Bateau" />
    <tag k="opening_hours" v="Mo-Su 10:00-19:00" />
    <tag k="payment:cards" v="yes" />
    <tag k="payment:credit_cards" v="yes" />
    <tag k="payment:telephone_cards" v="yes" />
    <tag k="phone" v="+33559474431" />
    <tag k="shop" v="clothes" />
    <tag k="website" v="https://stores.petit-bateau.com/fr/france/saint-jean-de-luz/15,-place-louis-xiv" />
    <tag k="wheelchair" v="yes" />
  </node>
  <node id="11434797238" lat="47.3942597" lon="0.6874287" version="1" timestamp="2023-12-20T12:14:37Z" changeset="145328807" uid="209796" user="LudovicG" action="modify">
    <tag k="brand" v="Petit Bateau" />
    <tag k="brand:website" v="https://www.petit-bateau.fr" />
    <tag k="brand:wikidata" v="Q3377090" />
    <tag k="contact:phone" v="+33 2 47 66 48 25" />
    <tag k="contact:website" v="https://stores.petit-bateau.com/fr/france/tours/44-rue-nationale" />
    <tag k="name" v="Petit Bateau" />
    <tag k="shop" v="clothes" />
    <tag k="opening_hours" v="Mo 14:00-19:00; Tu-Sa 10:00-19:00; Su closed" />
  </node>
  <node id="11573678725" lat="48.8449864" lon="2.4174069" version="1" timestamp="2024-01-31T17:05:35Z" changeset="146913185" uid="1598001" user="OsmIdf" action="modify">
    <tag k="brand" v="Petit Bateau" />
    <tag k="brand:wikidata" v="Q3377090" />
    <tag k="name" v="Petit Bateau" />
    <tag k="shop" v="clothes" />
    <tag k="phone" v="+33 1 58 64 33 28" />
    <tag k="website" v="https://stores.petit-bateau.com/france/saint-mande/16-17-avenue-du-general-de-gaulle" />
  </node>
  <node id="11697496767" lat="42.6982115" lon="2.8930872" version="1" timestamp="2024-03-06T13:54:58Z" changeset="148296454" uid="2275619" user="Perin" action="modify">
    <tag k="brand" v="Petit Bateau" />
    <tag k="brand:wikidata" v="Q3377090" />
    <tag k="name" v="Petit Bateau" />
    <tag k="shop" v="clothes" />
    <tag k="phone" v="+33 4 68 35 33 49" />
    <tag k="website" v="https://stores.petit-bateau.com/france/perpignan/19-rue-mailly" />
    <tag k="opening_hours" v="Mo 11:00-19:00; Tu-Su 10:00-19:00" />
  </node>
  <way id="90986152" version="3" timestamp="2020-11-16T22:24:15Z" changeset="94230508" uid="12182966" user="bn_10000">
    <nd ref="1056480158" />
    <nd ref="1056382852" />
    <nd ref="1056373428" />
    <nd ref="1056376384" />
    <nd ref="1056421780" />
    <nd ref="1056377240" />
    <nd ref="1056480158" />
    <tag k="brand" v="Petit Bateau" />
    <tag k="brand:wikidata" v="Q3377090" />
    <tag k="brand:wikipedia" v="en:Petit Bateau" />
    <tag k="building" v="yes" />
    <tag k="name" v="Petit Bateau" />
    <tag k="shop" v="clothes" />
    <tag k="source" v="cadastre-dgi-fr source : Direction Générale des Impôts - Cadastre. Mise à jour : 2010" />
  </way>
  <way id="100807275" version="3" timestamp="2023-07-16T08:33:18Z" changeset="138567559" uid="8241440" user="Jean-Baptiste CHARRON" action="modify">
    <nd ref="1164845691" />
    <nd ref="1163704205" />
    <nd ref="1164792055" />
    <nd ref="1164938146" />
    <nd ref="1164845691" />
    <tag k="brand" v="Petit Bateau" />
    <tag k="brand:wikidata" v="Q3377090" />
    <tag k="building" v="yes" />
    <tag k="name" v="Petit Bateau" />
    <tag k="shop" v="clothes" />
    <tag k="source" v="extraction vectorielle v1 cadastre-dgi-fr source : Direction Générale des Impôts - Cadas. Mise à jour : 2010" />
    <tag k="phone" v="+33 3 29 35 12 05" />
    <tag k="website" v="https://stores.petit-bateau.com/france/epinal/7-rue-leopold-bourg" />
    <tag k="opening_hours" v="Mo 14:00-19:00; Tu-Sa 10:00-19:00; Su closed" />
  </way>
  <way id="118644844" version="9" timestamp="2024-05-15T14:27:58Z" changeset="151364207" uid="14238921" user="AurélienQ" action="modify">
    <nd ref="1333965314" />
    <nd ref="1333965366" />
    <nd ref="1333965385" />
    <nd ref="1333965380" />
    <nd ref="1333965395" />
    <nd ref="1333965403" />
    <nd ref="1333965312" />
    <nd ref="1333965314" />
    <tag k="addr:city" v="Blois" />
    <tag k="addr:housenumber" v="54" />
    <tag k="addr:postcode" v="41000" />
    <tag k="brand" v="Petit Bateau" />
    <tag k="brand:wikidata" v="Q3377090" />
    <tag k="brand:wikipedia" v="en:Petit Bateau" />
    <tag k="building" v="yes" />
    <tag k="check_date" v="2024-05-15" />
    <tag k="name" v="Petit Bateau" />
    <tag k="shop" v="clothes" />
    <tag k="source" v="cadastre-dgi-fr source : Direction Générale des Impôts - Cadastre. Mise à jour : 2011" />
    <tag k="phone" v="+33 2 54 58 90 35" />
    <tag k="website" v="https://stores.petit-bateau.com/france/blois/54-rue-denis-papin" />
    <tag k="opening_hours" v="Mo closed; Tu-Sa 10:00-19:00; Su closed" />
  </way>
  <way id="145201935" version="2" timestamp="2021-10-28T21:18:07Z" changeset="113098693" uid="10232116" user="Patrick78" action="modify">
    <nd ref="1586276017" />
    <nd ref="1586276291" />
    <nd ref="1586277526" />
    <nd ref="1586277803" />
    <nd ref="1586278116" />
    <nd ref="1586278201" />
    <nd ref="1586277653" />
    <nd ref="1586277448" />
    <nd ref="1586276017" />
    <tag k="brand" v="Petit Bateau" />
    <tag k="brand:wikidata" v="Q3377090" />
    <tag k="brand:wikipedia" v="en:Petit Bateau" />
    <tag k="building" v="yes" />
    <tag k="name" v="Petit Bateau" />
    <tag k="shop" v="clothes" />
    <tag k="source" v="cadastre-dgi-fr source : Direction Générale des Impôts - Cadastre. Mise à jour : 2012" />
    <tag k="phone" v="+33 2 97 54 34 80" />
    <tag k="website" v="https://stores.petit-bateau.com/france/vannes/2-rue-saint-salomon" />
    <tag k="opening_hours" v="Mo 14:00-19:00; Tu-Sa 10:00-19:00; Su closed" />
  </way>
  <way id="272478746" version="3" timestamp="2020-10-04T16:43:22Z" changeset="91939513" uid="160521" user="François2">
    <nd ref="2773941541" />
    <nd ref="2773941729" />
    <nd ref="2773941726" />
    <nd ref="2773941495" />
    <nd ref="2773941541" />
    <tag k="brand" v="Petit Bateau" />
    <tag k="brand:wikidata" v="Q3377090" />
    <tag k="brand:wikipedia" v="en:Petit Bateau" />
    <tag k="clothes" v="babies;children" />
    <tag k="indoor" v="room" />
    <tag k="level" v="1" />
    <tag k="name" v="Petit Bateau" />
    <tag k="opening_hours" v="Mo 10:00-20:00; Tu-Fr 10:00-21:00; Sa 10:00-20:00" />
    <tag k="room" v="shop" />
    <tag k="shop" v="clothes" />
  </way>
  <way id="333437211" version="7" timestamp="2019-09-27T08:12:38Z" changeset="74994996" uid="5426135" user="Carto'Cité">
    <nd ref="3405488111" />
    <nd ref="4040554850" />
    <nd ref="3405488107" />
    <nd ref="4039990046" />
    <nd ref="3405488109" />
    <nd ref="3405488117" />
    <nd ref="3405488114" />
    <nd ref="3405488111" />
    <tag k="brand" v="Petit Bateau" />
    <tag k="brand:wikidata" v="Q3377090" />
    <tag k="brand:wikipedia" v="en:Petit Bateau" />
    <tag k="indoor" v="room" />
    <tag k="level" v="0" />
    <tag k="name" v="Petit Bateau" />
    <tag k="opening_hours" v="Mo-Fr 07:30-20:00; Sa 09:00-20:00" />
    <tag k="phone" v="+331 42 93 46 08" />
    <tag k="shop" v="clothes" />
    <tag k="website" v="http://stlazareparis.com/boutiques/petit-bateau/" />
    <tag k="wheelchair" v="yes" />
  </way>
  <way id="364963618" version="11" timestamp="2023-03-28T15:40:23Z" changeset="134225918" uid="5426135" user="Carto'Cité" action="modify">
    <nd ref="3163720368" />
    <nd ref="3689953073" />
    <nd ref="3163720369" />
    <nd ref="3163720367" />
    <nd ref="3689905098" />
    <nd ref="4107740123" />
    <nd ref="3689904896" />
    <nd ref="3689904895" />
    <nd ref="4300096614" />
    <nd ref="3163720368" />
    <tag k="brand" v="Petit Bateau" />
    <tag k="brand:wikidata" v="Q3377090" />
    <tag k="brand:wikipedia" v="en:Petit Bateau" />
    <tag k="indoor" v="room" />
    <tag k="level" v="0" />
    <tag k="name" v="Petit Bateau" />
    <tag k="opening_hours" v="Mo-Fr 08:30-19:00; Sa 10:30-18:00" />
    <tag k="shop" v="clothes" />
    <tag k="source:room" v="plan archi" />
    <tag k="phone" v="+33 1 43 45 84 01" />
    <tag k="website" v="https://stores.petit-bateau.com/france/paris/gare-de-lyon---hall-1" />
  </way>
  <way id="379435626" version="9" timestamp="2022-07-13T08:12:10Z" changeset="123550880" uid="1424448" user="nlehuby" action="modify">
    <nd ref="3827339706" />
    <nd ref="3827339680" />
    <nd ref="3827341151" />
    <nd ref="3827341147" />
    <nd ref="3827341120" />
    <nd ref="7813629813" />
    <nd ref="3827341122" />
    <nd ref="3827339709" />
    <nd ref="3827339706" />
    <tag k="brand" v="Petit Bateau" />
    <tag k="brand:wikidata" v="Q3377090" />
    <tag k="brand:wikipedia" v="en:Petit Bateau" />
    <tag k="clothes" v="children" />
    <tag k="indoor" v="room" />
    <tag k="level" v="0" />
    <tag k="name" v="Petit Bateau" />
    <tag k="opening_hours:signed" v="no" />
    <tag k="ref:FR:SIRET" v="30529134601576" />
    <tag k="room" v="shop" />
    <tag k="shop" v="clothes" />
    <tag k="wheelchair" v="yes" />
    <tag k="phone" v="+33 2 99 53 12 75" />
    <tag k="website" v="https://stores.petit-bateau.com/france/rennes/rue-du-bosphore" />
    <tag k="opening_hours" v="Mo-Sa 09:30-20:00; Su closed" />
  </way>
  <way id="386523757" version="3" timestamp="2023-09-04T07:24:22Z" changeset="140789505" uid="10333054" user="yahn_f" action="modify">
    <nd ref="3898665055" />
    <nd ref="3898667861" />
    <nd ref="3898665054" />
    <nd ref="3898665048" />
    <nd ref="3898665049" />
    <nd ref="3898665052" />
    <nd ref="3898665055" />
    <tag k="brand" v="Petit Bateau" />
    <tag k="brand:wikidata" v="Q3377090" />
    <tag k="brand:wikipedia" v="en:Petit Bateau" />
    <tag k="check_date" v="2023-09-04" />
    <tag k="indoor" v="room" />
    <tag k="level" v="0" />
    <tag k="name" v="Petit Bateau" />
    <tag k="shop" v="clothes" />
    <tag k="phone" v="+33 5 62 24 38 03" />
    <tag k="website" v="https://stores.petit-bateau.com/france/labege/la-pyreneenne" />
    <tag k="opening_hours" v="Mo-Sa 09:30-20:00; Su closed" />
  </way>
  <way id="399132178" version="4" timestamp="2021-08-15T21:36:06Z" changeset="109716568" uid="2678738" user="fgouget">
    <nd ref="4018751120" />
    <nd ref="4018688100" />
    <nd ref="4018751119" />
    <nd ref="4018650200" />
    <nd ref="4018751112" />
    <nd ref="4018751108" />
    <nd ref="4018688101" />
    <nd ref="4006468994" />
    <nd ref="4018751120" />
    <tag k="brand" v="Petit Bateau" />
    <tag k="brand:wikidata" v="Q3377090" />
    <tag k="brand:wikipedia" v="en:Petit Bateau" />
    <tag k="clothes" v="children" />
    <tag k="level" v="1" />
    <tag k="name" v="Petit Bateau" />
    <tag k="opening_hours" v="Mo-Sa 10:00-20:30; Su 10:00-20:00" />
    <tag k="phone" v="+33 1 47 44 92 58" />
    <tag k="shop" v="clothes" />
    <tag k="website" v="https://stores.petit-bateau.com/fr/france/puteaux/15-tunnel-de-nanterre-la-defense" />
  </way>
  <way id="439786628" version="3" timestamp="2022-07-13T08:12:20Z" changeset="123550886" uid="1424448" user="nlehuby">
    <nd ref="4374683725" />
    <nd ref="4374683717" />
    <nd ref="4374683709" />
    <nd ref="4374683718" />
    <nd ref="4374683725" />
    <tag k="brand" v="Petit Bateau" />
    <tag k="brand:wikidata" v="Q3377090" />
    <tag k="brand:wikipedia" v="en:Petit Bateau" />
    <tag k="clothes" v="children" />
    <tag k="indoor" v="room" />
    <tag k="level" v="0" />
    <tag k="name" v="Petit Bateau Pacé" />
    <tag k="room" v="shop" />
    <tag k="shop" v="clothes" />
  </way>
  <way id="529629727" version="4" timestamp="2022-03-13T18:34:36Z" changeset="118441551" uid="10232116" user="Patrick78" action="modify">
    <nd ref="5147982972" />
    <nd ref="5147982971" />
    <nd ref="5147982967" />
    <nd ref="5147982962" />
    <nd ref="5147982965" />
    <nd ref="5147982960" />
    <nd ref="5147982959" />
    <nd ref="5144623228" />
    <nd ref="5147982972" />
    <tag k="brand" v="Petit Bateau" />
    <tag k="brand:wikidata" v="Q3377090" />
    <tag k="brand:wikipedia" v="en:Petit Bateau" />
    <tag k="building" v="commercial" />
    <tag k="name" v="Petit Bateau" />
    <tag k="shop" v="clothes" />
    <tag k="phone" v="+33 1 34 74 62 60" />
    <tag k="website" v="https://stores.petit-bateau.com/france/aubergenville/route-de-quarante-sous" />
    <tag k="opening_hours" v="Mo-Su 10:00-19:00" />
  </way>
  <way id="570068165" version="4" timestamp="2023-12-19T16:22:50Z" changeset="145298334" uid="3251783" user="merlin8282" action="modify">
    <nd ref="5481212353" />
    <nd ref="5481212354" />
    <nd ref="5481212352" />
    <nd ref="5481212351" />
    <nd ref="5481212353" />
    <tag k="addr:city" v="Roppenheim" />
    <tag k="addr:housenumber" v="1" />
    <tag k="addr:postcode" v="67480" />
    <tag k="addr:street" v="Route de l'Europe" />
    <tag k="brand" v="Petit Bateau" />
    <tag k="brand:wikidata" v="Q3377090" />
    <tag k="check_date" v="2023-12-19" />
    <tag k="clothes" v="children" />
    <tag k="name" v="Petit Bateau" />
    <tag k="phone" v="+33 388 638109" />
    <tag k="shop" v="clothes" />
    <tag k="website" v="https://www.petit-bateau.fr/s/boutique/381-petit-bateau-roppenheim.html" />
    <tag k="wheelchair" v="yes" />
    <tag k="opening_hours" v="Mo-Sa 10:00-19:00; Su closed" />
  </way>
  <way id="889285942" version="2" timestamp="2023-01-06T10:59:12Z" changeset="130942150" uid="160521" user="François2">
    <nd ref="8267378256" />
    <nd ref="8267378240" />
    <nd ref="8267378386" />
    <nd ref="8267378387" />
    <nd ref="8267378388" />
    <nd ref="8267378389" />
    <nd ref="8267378390" />
    <nd ref="8267378391" />
    <nd ref="8267378079" />
    <nd ref="8267378078" />
    <nd ref="8267378250" />
    <nd ref="8267378251" />
    <nd ref="8267378252" />
    <nd ref="8267378253" />
    <nd ref="8267378254" />
    <nd ref="8267378255" />
    <nd ref="8267378256" />
    <tag k="access" v="yes" />
    <tag k="brand" v="Petit Bateau" />
    <tag k="brand:wikidata" v="Q3377090" />
    <tag k="indoor" v="room" />
    <tag k="level" v="0" />
    <tag k="name" v="Petit Bateau" />
    <tag k="opening_hours" v="Mo-Sa 09:30-19:30" />
    <tag k="phone" v="+33 4 50 67 89 40" />
    <tag k="ref:FR:SIRET" v="30529134601170" />
    <tag k="shop" v="clothes" />
    <tag k="website" v="https://stores.petit-bateau.com/fr/france/annecy/65-rue-carnot" />
  </way>
  <way id="1069872757" version="3" timestamp="2023-11-07T18:13:51Z" changeset="143748253" uid="9451067" user="b-jazz-bot">
    <nd ref="9819409612" />
    <nd ref="9819409613" />
    <nd ref="9819409614" />
    <nd ref="9819409609" />
    <nd ref="9819409612" />
    <tag k="brand" v="Petit Bateau" />
    <tag k="brand:wikidata" v="Q3377090" />
    <tag k="indoor" v="room" />
    <tag k="level" v="1" />
    <tag k="name" v="Petit Bateau" />
    <tag k="opening_hours" v="Mo-Sa 09:30-20:00" />
    <tag k="phone" v="+33 4 37 23 54 45" />
    <tag k="shop" v="clothes" />
    <tag k="website" v="https://www.petit-bateau.com/" />
  </way>
  <way id="1148920349" version="2" timestamp="2023-04-24T16:07:44Z" changeset="135308855" uid="14987453" user="Johan LFS" action="modify">
    <nd ref="10689007915" />
    <nd ref="10689007906" />
    <nd ref="10688983303" />
    <nd ref="10689007924" />
    <nd ref="1247792355" />
    <nd ref="10689007915" />
    <tag k="brand" v="Petit Bateau" />
    <tag k="brand:wikidata" v="Q3377090" />
    <tag k="brand:wikipedia" v="en:Petit Bateau" />
    <tag k="building" v="yes" />
    <tag k="name" v="Petit Bateau" />
    <tag k="opening_hours" v="Mo-Fr 09:30-20:00; Sa 09:00-20:00" />
    <tag k="shop" v="clothes" />
    <tag k="phone" v="+33 4 50 20 61 97" />
    <tag k="website" v="https://stores.petit-bateau.com/france/thoiry/zone-du-pre-jacquet" />
  </way>
  <way id="1289209637" version="2" timestamp="2024-06-04T18:29:24Z" changeset="152256356" uid="7474211" user="Archytekt" action="modify">
    <nd ref="11954586919" />
    <nd ref="11954586918" />
    <nd ref="11954586917" />
    <nd ref="11954586916" />
    <nd ref="11954586915" />
    <nd ref="11954586920" />
    <nd ref="11954586919" />
    <tag k="brand" v="Petit Bateau" />
    <tag k="brand:wikidata" v="Q3377090" />
    <tag k="indoor" v="room" />
    <tag k="level" v="0" />
    <tag k="name" v="Petit Bateau" />
    <tag k="shop" v="clothes" />
    <tag k="phone" v="+33 1 30 72 05 62" />
    <tag k="website" v="https://stores.petit-bateau.com/france/franconville/395-rue-du-general-leclerc" />
    <tag k="opening_hours" v="Mo-Sa 10:00-20:00; Su 10:00-19:00" />
  </way>
  <node id="1586276017" lat="47.6577270" lon="-2.7580630" version="1" timestamp="2012-01-11T21:47:38Z" changeset="10364386" uid="214436" user="PanierAvide" />
  <node id="1586276291" lat="47.6577720" lon="-2.7580030" version="1" timestamp="2012-01-11T21:47:58Z" changeset="10364386" uid="214436" user="PanierAvide" />
  <node id="1586277448" lat="47.6578740" lon="-2.7582410" version="1" timestamp="2012-01-11T21:48:35Z" changeset="10364386" uid="214436" user="PanierAvide" />
  <node id="1586277526" lat="47.6578810" lon="-2.7581360" version="1" timestamp="2012-01-11T21:48:37Z" changeset="10364386" uid="214436" user="PanierAvide" />
  <node id="1586277653" lat="47.6578890" lon="-2.7582580" version="1" timestamp="2012-01-11T21:48:41Z" changeset="10364386" uid="214436" user="PanierAvide" />
  <node id="1586277803" lat="47.6579030" lon="-2.7581080" version="1" timestamp="2012-01-11T21:48:46Z" changeset="10364386" uid="214436" user="PanierAvide" />
  <node id="1586278116" lat="47.6579360" lon="-2.7581560" version="1" timestamp="2012-01-11T21:48:58Z" changeset="10364386" uid="214436" user="PanierAvide" />
  <node id="1586278201" lat="47.6579440" lon="-2.7581730" version="1" timestamp="2012-01-11T21:49:01Z" changeset="10364386" uid="214436" user="PanierAvide" />
  <node id="3827339680" lat="48.0828086" lon="-1.6799079" version="1" timestamp="2015-11-09T19:34:52Z" changeset="35200397" uid="214436" user="PanierAvide" />
  <node id="3827339706" lat="48.0828765" lon="-1.6799055" version="1" timestamp="2015-11-09T19:34:52Z" changeset="35200397" uid="214436" user="PanierAvide" />
  <node id="3827339709" lat="48.0828778" lon="-1.6799857" version="1" timestamp="2015-11-09T19:34:53Z" changeset="35200397" uid="214436" user="PanierAvide" />
  <node id="3827341120" lat="48.0827151" lon="-1.6798383" version="1" timestamp="2015-11-09T19:34:50Z" changeset="35200397" uid="214436" user="PanierAvide" />
  <node id="3827341122" lat="48.0827169" lon="-1.6799898" version="1" timestamp="2015-11-09T19:34:50Z" changeset="35200397" uid="214436" user="PanierAvide" />
  <node id="3827341147" lat="48.0827685" lon="-1.6798364" version="1" timestamp="2015-11-09T19:34:51Z" changeset="35200397" uid="214436" user="PanierAvide" />
  <node id="3827341151" lat="48.0827696" lon="-1.6799092" version="1" timestamp="2015-11-09T19:34:51Z" changeset="35200397" uid="214436" user="PanierAvide" />
  <node id="7813629813" lat="48.0827165" lon="-1.6799557" version="1" timestamp="2020-08-14T18:08:19Z" changeset="89424750" uid="224440" user="Syl" />
  <node id="4374683709" lat="48.1382251" lon="-1.7670741" version="1" timestamp="2016-08-29T19:42:39Z" changeset="41786385" uid="214436" user="PanierAvide" />
  <node id="4374683717" lat="48.1382704" lon="-1.7672726" version="1" timestamp="2016-08-29T19:42:39Z" changeset="41786385" uid="214436" user="PanierAvide" />
  <node id="4374683718" lat="48.1382934" lon="-1.7670386" version="1" timestamp="2016-08-29T19:42:39Z" changeset="41786385" uid="214436" user="PanierAvide" />
  <node id="4374683725" lat="48.1383394" lon="-1.7672373" version="1" timestamp="2016-08-29T19:42:39Z" changeset="41786385" uid="214436" user="PanierAvide" />
  <node id="3898665048" lat="43.5489432" lon="1.5090689" version="1" timestamp="2015-12-18T17:48:22Z" changeset="36032693" uid="1816335" user="SoulReaper" />
  <node id="3898665049" lat="43.5489535" lon="1.5089737" version="1" timestamp="2015-12-18T17:48:22Z" changeset="36032693" uid="1816335" user="SoulReaper" />
  <node id="3898665052" lat="43.5489699" lon="1.5089765" version="1" timestamp="2015-12-18T17:48:22Z" changeset="36032693" uid="1816335" user="SoulReaper" />
  <node id="3898665054" lat="43.5489876" lon="1.5091528" version="1" timestamp="2015-12-18T17:48:22Z" changeset="36032693" uid="1816335" user="SoulReaper" />
  <node id="3898665055" lat="43.5489952" lon="1.5089529" version="1" timestamp="2015-12-18T17:48:22Z" changeset="36032693" uid="1816335" user="SoulReaper" />
  <node id="3898667861" lat="43.5490608" lon="1.5090765" version="1" timestamp="2015-12-18T17:48:22Z" changeset="36032693" uid="1816335" user="SoulReaper" />
  <node id="9819409609" lat="45.7619619" lon="4.8558623" version="1" timestamp="2022-06-15T09:03:13Z" changeset="122407047" uid="12391080" user="Mevesscarto" />
  <node id="9819409612" lat="45.7619808" lon="4.8560798" version="1" timestamp="2022-06-15T09:03:13Z" changeset="122407047" uid="12391080" user="Mevesscarto" />
  <node id="9819409613" lat="45.7619181" lon="4.8560910" version="1" timestamp="2022-06-15T09:03:13Z" changeset="122407047" uid="12391080" user="Mevesscarto" />
  <node id="9819409614" lat="45.7618991" lon="4.8558736" version="1" timestamp="2022-06-15T09:03:13Z" changeset="122407047" uid="12391080" user="Mevesscarto" />
  <node id="8267378078" lat="45.9043105" lon="6.1231150" version="1" timestamp="2020-12-28T16:41:16Z" changeset="96549180" uid="270456" user="pyrog" />
  <node id="8267378079" lat="45.9043344" lon="6.1231291" version="1" timestamp="2020-12-28T16:41:16Z" changeset="96549180" uid="270456" user="pyrog" />
  <node id="8267378240" lat="45.9043619" lon="6.1229065" version="1" timestamp="2020-12-28T16:41:16Z" changeset="96549180" uid="270456" user="pyrog" />
  <node id="8267378250" lat="45.9042911" lon="6.1231036" version="1" timestamp="2020-12-28T16:41:16Z" changeset="96549180" uid="270456" user="pyrog" />
  <node id="8267378251" lat="45.9043229" lon="6.1229923" version="1" timestamp="2020-12-28T16:41:16Z" changeset="96549180" uid="270456" user="pyrog" />
  <node id="8267378252" lat="45.9043116" lon="6.1229297" version="1" timestamp="2020-12-28T16:41:16Z" changeset="96549180" uid="270456" user="pyrog" />
  <node id="8267378253" lat="45.9043284" lon="6.1229235" version="1" timestamp="2020-12-28T16:41:16Z" changeset="96549180" uid="270456" user="pyrog" />
  <node id="8267378254" lat="45.9043212" lon="6.1228835" version="1" timestamp="2020-12-28T16:41:16Z" changeset="96549180" uid="270456" user="pyrog" />
  <node id="8267378255" lat="45.9043836" lon="6.1228602" version="1" timestamp="2020-12-28T16:41:16Z" changeset="96549180" uid="270456" user="pyrog" />
  <node id="8267378256" lat="45.9043901" lon="6.1228958" version="1" timestamp="2020-12-28T16:41:16Z" changeset="96549180" uid="270456" user="pyrog" />
  <node id="8267378386" lat="45.9043797" lon="6.1230032" version="1" timestamp="2020-12-28T16:41:16Z" changeset="96549180" uid="270456" user="pyrog" />
  <node id="8267378387" lat="45.9043823" lon="6.1230171" version="1" timestamp="2020-12-28T16:41:16Z" changeset="96549180" uid="270456" user="pyrog" />
  <node id="8267378388" lat="45.9043653" lon="6.1230235" version="1" timestamp="2020-12-28T16:41:16Z" changeset="96549180" uid="270456" user="pyrog" />
  <node id="8267378389" lat="45.9043588" lon="6.1230371" version="1" timestamp="2020-12-28T16:41:16Z" changeset="96549180" uid="270456" user="pyrog" />
  <node id="8267378390" lat="45.9043668" lon="6.1230821" version="1" timestamp="2020-12-28T16:41:16Z" changeset="96549180" uid="270456" user="pyrog" />
  <node id="8267378391" lat="45.9043510" lon="6.1231409" version="1" timestamp="2020-12-28T16:41:16Z" changeset="96549180" uid="270456" user="pyrog" />
  <node id="1247792355" lat="46.2283188" lon="5.9935188" version="3" timestamp="2023-02-23T18:18:46Z" changeset="132938474" uid="14987453" user="Johan LFS" />
  <node id="10688983303" lat="46.2284884" lon="5.9932499" version="1" timestamp="2023-02-23T18:18:46Z" changeset="132938474" uid="14987453" user="Johan LFS" />
  <node id="10689007906" lat="46.2285319" lon="5.9933078" version="1" timestamp="2023-02-23T18:18:46Z" changeset="132938474" uid="14987453" user="Johan LFS" />
  <node id="10689007915" lat="46.2283670" lon="5.9935814" version="1" timestamp="2023-02-23T18:18:46Z" changeset="132938474" uid="14987453" user="Johan LFS" />
  <node id="10689007924" lat="46.2283945" lon="5.9934008" version="1" timestamp="2023-02-23T18:18:46Z" changeset="132938474" uid="14987453" user="Johan LFS" />
  <node id="1333965312" lat="47.5873490" lon="1.3329800" version="1" timestamp="2011-06-21T20:48:53Z" changeset="8508631" uid="456113" user="eric_G" />
  <node id="1333965314" lat="47.5872250" lon="1.3330590" version="1" timestamp="2011-06-21T20:48:53Z" changeset="8508631" uid="456113" user="eric_G" />
  <node id="1333965366" lat="47.5872020" lon="1.3330700" version="1" timestamp="2011-06-21T20:48:54Z" changeset="8508631" uid="456113" user="eric_G" />
  <node id="1333965380" lat="47.5871910" lon="1.3330920" version="1" timestamp="2011-06-21T20:48:54Z" changeset="8508631" uid="456113" user="eric_G" />
  <node id="1333965385" lat="47.5872050" lon="1.3330840" version="1" timestamp="2011-06-21T20:48:55Z" changeset="8508631" uid="456113" user="eric_G" />
  <node id="1333965395" lat="47.5872060" lon="1.3331520" version="1" timestamp="2011-06-21T20:48:55Z" changeset="8508631" uid="456113" user="eric_G" />
  <node id="1333965403" lat="47.5873670" lon="1.3330600" version="1" timestamp="2011-06-21T20:48:55Z" changeset="8508631" uid="456113" user="eric_G" />
  <node id="5144623228" lat="48.9667708" lon="1.8595552" version="1" timestamp="2017-10-03T08:41:09Z" changeset="52588417" uid="13796" user="Aubanel" />
  <node id="5147982959" lat="48.9668284" lon="1.8598082" version="1" timestamp="2017-10-04T16:27:54Z" changeset="52630214" uid="13796" user="Aubanel" />
  <node id="5147982960" lat="48.9667094" lon="1.8598764" version="1" timestamp="2017-10-04T16:27:54Z" changeset="52630214" uid="13796" user="Aubanel" />
  <node id="5147982962" lat="48.9666200" lon="1.8597920" version="1" timestamp="2017-10-04T16:27:54Z" changeset="52630214" uid="13796" user="Aubanel" />
  <node id="5147982965" lat="48.9666820" lon="1.8597483" version="1" timestamp="2017-10-04T16:27:54Z" changeset="52630214" uid="13796" user="Aubanel" />
  <node id="5147982967" lat="48.9665813" lon="1.8597402" version="1" timestamp="2017-10-04T16:27:54Z" changeset="52630214" uid="13796" user="Aubanel" />
  <node id="5147982971" lat="48.9665806" lon="1.8596365" version="1" timestamp="2017-10-04T16:27:54Z" changeset="52630214" uid="13796" user="Aubanel" />
  <node id="5147982972" lat="48.9667637" lon="1.8595300" version="1" timestamp="2017-10-04T16:27:54Z" changeset="52630214" uid="13796" user="Aubanel" />
  <node id="2773941495" lat="48.7562649" lon="2.3719173" version="1" timestamp="2014-04-06T21:16:29Z" changeset="21541238" uid="1779584" user="dhuyp" />
  <node id="2773941541" lat="48.7562714" lon="2.3721270" version="1" timestamp="2014-04-06T21:16:29Z" changeset="21541238" uid="1779584" user="dhuyp" />
  <node id="2773941726" lat="48.7563246" lon="2.3719131" version="1" timestamp="2014-04-06T21:16:31Z" changeset="21541238" uid="1779584" user="dhuyp" />
  <node id="2773941729" lat="48.7563311" lon="2.3721228" version="1" timestamp="2014-04-06T21:16:31Z" changeset="21541238" uid="1779584" user="dhuyp" />
  <node id="3405488107" lat="48.8761149" lon="2.3258805" version="4" timestamp="2016-03-09T14:23:20Z" changeset="37709266" uid="1908665" user="naomap" />
  <node id="3405488109" lat="48.8761516" lon="2.3258610" version="3" timestamp="2016-03-09T14:23:20Z" changeset="37709266" uid="1908665" user="naomap" />
  <node id="3405488111" lat="48.8761936" lon="2.3257099" version="6" timestamp="2016-03-09T14:23:20Z" changeset="37709266" uid="1908665" user="naomap" />
  <node id="3405488114" lat="48.8762055" lon="2.3258086" version="6" timestamp="2019-09-26T09:03:18Z" changeset="74945973" uid="5426135" user="Carto'Cité">
    <tag k="door" v="yes" />
    <tag k="level" v="0" />
  </node>
  <node id="3405488117" lat="48.8762096" lon="2.3258451" version="6" timestamp="2016-03-09T14:23:20Z" changeset="37709266" uid="1908665" user="naomap" />
  <node id="4039990046" lat="48.8761527" lon="2.3258702" version="3" timestamp="2016-03-09T14:23:20Z" changeset="37709266" uid="1908665" user="naomap" />
  <node id="4040554850" lat="48.8760956" lon="2.3257371" version="3" timestamp="2016-03-07T15:18:17Z" changeset="37667922" uid="1908665" user="naomap" />
  <node id="3163720367" lat="48.8450585" lon="2.3739429" version="4" timestamp="2015-08-10T17:25:17Z" changeset="33245204" uid="188930" user="JLZIMMERMANN" />
  <node id="3163720368" lat="48.8449991" lon="2.3738681" version="3" timestamp="2015-08-10T17:25:17Z" changeset="33245204" uid="188930" user="JLZIMMERMANN" />
  <node id="3163720369" lat="48.8450853" lon="2.3738931" version="3" timestamp="2019-09-03T13:40:53Z" changeset="74042262" uid="439947" user="StephaneP" />
  <node id="3689904895" lat="48.8449644" lon="2.3739305" version="1" timestamp="2015-08-10T17:25:08Z" changeset="33245204" uid="188930" user="JLZIMMERMANN" />
  <node id="3689904896" lat="48.8450378" lon="2.3740213" version="1" timestamp="2015-08-10T17:25:08Z" changeset="33245204" uid="188930" user="JLZIMMERMANN" />
  <node id="3689905098" lat="48.8450719" lon="2.3739592" version="1" timestamp="2015-08-10T17:25:08Z" changeset="33245204" uid="188930" user="JLZIMMERMANN" />
  <node id="3689953073" lat="48.8450329" lon="2.3738774" version="3" timestamp="2023-03-28T15:40:23Z" changeset="134225918" uid="5426135" user="Carto'Cité">
    <tag k="description" v="Entrée &quot;Brioche Dorée&quot;" />
    <tag k="door" v="sliding" />
    <tag k="entrance" v="main" />
    <tag k="indoor" v="yes" />
    <tag k="level" v="0" />
    <tag k="source" v="plan archi" />
    <tag k="wheelchair" v="yes" />
  </node>
  <node id="4107740123" lat="48.8450632" lon="2.3739751" version="1" timestamp="2016-04-08T13:44:31Z" changeset="38406219" uid="1908665" user="naomap" />
  <node id="4300096614" lat="48.8449933" lon="2.3738785" version="2" timestamp="2019-09-03T13:40:53Z" changeset="74042262" uid="439947" user="StephaneP" />
  <node id="4006468994" lat="48.8905232" lon="2.2372799" version="3" timestamp="2016-02-18T22:04:54Z" changeset="37298370" uid="1779584" user="dhuyp" />
  <node id="4018650200" lat="48.8904792" lon="2.2371812" version="1" timestamp="2016-02-21T23:12:32Z" changeset="37356956" uid="1779584" user="dhuyp" />
  <node id="4018688100" lat="48.8905088" lon="2.2372266" version="1" timestamp="2016-02-21T23:12:33Z" changeset="37356956" uid="1779584" user="dhuyp" />
  <node id="4018688101" lat="48.8905110" lon="2.2373188" version="2" timestamp="2018-09-28T11:49:18Z" changeset="63006382" uid="412560" user="Meersbrook" />
  <node id="4018751108" lat="48.8903136" lon="2.2371729" version="2" timestamp="2018-09-28T11:49:18Z" changeset="63006382" uid="412560" user="Meersbrook" />
  <node id="4018751112" lat="48.8903427" lon="2.2370798" version="1" timestamp="2016-02-21T23:12:28Z" changeset="37356956" uid="1779584" user="dhuyp" />
  <node id="4018751119" lat="48.8904747" lon="2.2371998" version="1" timestamp="2016-02-21T23:12:32Z" changeset="37356956" uid="1779584" user="dhuyp" />
  <node id="4018751120" lat="48.8905340" lon="2.2372463" version="1" timestamp="2016-02-21T23:12:33Z" changeset="37356956" uid="1779584" user="dhuyp" />
  <node id="11954586915" lat="48.9885878" lon="2.2067159" version="1" timestamp="2024-06-03T20:57:39Z" changeset="152217182" uid="7474211" user="Archytekt" />
  <node id="11954586916" lat="48.9886458" lon="2.2067772" version="1" timestamp="2024-06-03T20:57:39Z" changeset="152217182" uid="7474211" user="Archytekt" />
  <node id="11954586917" lat="48.9886085" lon="2.2068591" version="1" timestamp="2024-06-03T20:57:39Z" changeset="152217182" uid="7474211" user="Archytekt" />
  <node id="11954586918" lat="48.9886596" lon="2.2069131" version="1" timestamp="2024-06-03T20:57:39Z" changeset="152217182" uid="7474211" user="Archytekt" />
  <node id="11954586919" lat="48.9885823" lon="2.2070789" version="1" timestamp="2024-06-03T20:57:39Z" changeset="152217182" uid="7474211" user="Archytekt" />
  <node id="11954586920" lat="48.9884736" lon="2.2069628" version="1" timestamp="2024-06-03T20:57:39Z" changeset="152217182" uid="7474211" user="Archytekt" />
  <node id="1163704205" lat="48.1755521" lon="6.4477389" version="1" timestamp="2011-02-20T17:03:33Z" changeset="7344917" uid="303028" user="Mattam" />
  <node id="1164792055" lat="48.1755190" lon="6.4478206" version="1" timestamp="2011-02-21T10:18:08Z" changeset="7352069" uid="303028" user="Mattam" />
  <node id="1164845691" lat="48.1756411" lon="6.4478811" version="1" timestamp="2011-02-21T10:54:51Z" changeset="7352069" uid="303028" user="Mattam" />
  <node id="1164938146" lat="48.1755943" lon="6.4479375" version="1" timestamp="2011-02-21T12:01:25Z" changeset="7352069" uid="303028" user="Mattam" />
  <node id="1056373428" lat="48.2740190" lon="4.0841850" version="1" timestamp="2010-12-22T10:22:52Z" changeset="6733847" uid="268455" user="nfrery" />
  <node id="1056376384" lat="48.2739620" lon="4.0842220" version="1" timestamp="2010-12-22T10:23:55Z" changeset="6733847" uid="268455" user="nfrery" />
  <node id="1056377240" lat="48.2738250" lon="4.0842610" version="1" timestamp="2010-12-22T10:24:31Z" changeset="6733847" uid="268455" user="nfrery" />
  <node id="1056382852" lat="48.2741190" lon="4.0844540" version="1" timestamp="2010-12-22T10:26:05Z" changeset="6733847" uid="268455" user="nfrery" />
  <node id="1056421780" lat="48.2739510" lon="4.0841810" version="1" timestamp="2010-12-22T10:36:39Z" changeset="6733847" uid="268455" user="nfrery" />
  <node id="1056480158" lat="48.2739560" lon="4.0845590" version="1" timestamp="2010-12-22T10:56:27Z" changeset="6733847" uid="268455" user="nfrery" />
  <node id="5481212351" lat="48.8365329" lon="8.0868029" version="1" timestamp="2018-03-15T20:28:04Z" changeset="57223691" uid="3232636" user="Karthoo" />
  <node id="5481212352" lat="48.8367803" lon="8.0869841" version="1" timestamp="2018-03-15T20:28:04Z" changeset="57223691" uid="3232636" user="Karthoo" />
  <node id="5481212353" lat="48.8365901" lon="8.0866233" version="1" timestamp="2018-03-15T20:28:04Z" changeset="57223691" uid="3232636" user="Karthoo" />
  <node id="5481212354" lat="48.8368372" lon="8.0868045" version="1" timestamp="2018-03-15T20:28:04Z" changeset="57223691" uid="3232636" user="Karthoo" />
</osm>
