[
    {
        "osm_id": 745788409,
        "osm_name": "Maison de la Literie",
        "osm_url": "https://www.osm.org/node/745788409",
        "osm_business": "bed",
        "atp_city": "Al\u00e8s",
        "atp_address": "151 avenue L\u00e9on Blum",
        "osm_housenumber": null,
        "osm_street": null,
        "atp_phone": "+33 4 66 30 84 81",
        "osm_phone": null,
        "atp_opening_hours": null,
        "osm_hours": null,
        "atp_website": "https://www.maisondelaliterie.fr/magasin/maison-de-la-literie-ales",
        "osm_website": null,
        "brand_wikidata": "Q80955776",
        "brand": "Maison de la Literie",
        "match_count": 1
    },
    {
        "osm_id": 1751131920,
        "osm_name": "Maison de la Literie",
        "osm_url": "https://www.osm.org/node/1751131920",
        "osm_business": "bed",
        "atp_city": "Perpignan",
        "atp_address": "Route d'Espagne, Lotissement Le Grand Ch\u00eane, Rte d'espagne",
        "osm_housenumber": null,
        "osm_street": null,
        "atp_phone": "+33 4 68 56 82 07",
        "osm_phone": null,
        "atp_opening_hours": null,
        "osm_hours": null,
        "atp_website": "https://www.maisondelaliterie.fr/magasin/maison-de-la-literie-perpignan",
        "osm_website": null,
        "brand_wikidata": "Q80955776",
        "brand": "Maison de la Literie",
        "match_count": 1
    },
    {
        "osm_id": 2012718348,
        "osm_name": "Maison de la Literie",
        "osm_url": "https://www.osm.org/node/2012718348",
        "osm_business": "bed",
        "atp_city": "Paris",
        "atp_address": "108 avenue Maine",
        "osm_housenumber": null,
        "osm_street": null,
        "atp_phone": "+33 1 43 20 28 58",
        "osm_phone": null,
        "atp_opening_hours": null,
        "osm_hours": null,
        "atp_website": "https://www.maisondelaliterie.fr/magasin/maison-de-la-literie-paris-maine",
        "osm_website": null,
        "brand_wikidata": "Q80955776",
        "brand": "Maison de la Literie",
        "match_count": 1
    },
    {
        "osm_id": 2129722993,
        "osm_name": "Maison de la Literie",
        "osm_url": "https://www.osm.org/node/2129722993",
        "osm_business": "bed",
        "atp_city": "Vand\u0153uvre-l\u00e8s-Nancy",
        "atp_address": "8 rue Roberval",
        "osm_housenumber": null,
        "osm_street": null,
        "atp_phone": "+33 3 83 53 98 99",
        "osm_phone": null,
        "atp_opening_hours": null,
        "osm_hours": null,
        "atp_website": "https://www.maisondelaliterie.fr/magasin/maison-de-la-literie-vandoeuvre-les-nancy",
        "osm_website": "https://www.maisondelaliterie.fr/magasins/maison-de-la-literie-vandoeuvre-les-nancy_192.html",
        "brand_wikidata": "Q80955776",
        "brand": "Maison de la Literie",
        "match_count": 1
    },
    {
        "osm_id": 2510299862,
        "osm_name": "Maison de la Literie",
        "osm_url": "https://www.osm.org/node/2510299862",
        "osm_business": "bed",
        "atp_city": "Cholet",
        "atp_address": "45 rue d'Anjou",
        "osm_housenumber": null,
        "osm_street": null,
        "atp_phone": "+33 2 41 71 22 94",
        "osm_phone": null,
        "atp_opening_hours": null,
        "osm_hours": null,
        "atp_website": "https://www.maisondelaliterie.fr/magasin/maison-de-la-literie-cholet",
        "osm_website": null,
        "brand_wikidata": "Q80955776",
        "brand": "Maison de la Literie",
        "match_count": 1
    },
    {
        "osm_id": 2915419497,
        "osm_name": "Maison de la Literie",
        "osm_url": "https://www.osm.org/node/2915419497",
        "osm_business": "bed",
        "atp_city": "Sainte-Genevi\u00e8ve-des-Bois",
        "atp_address": "36 avenue de l'Hurepoix",
        "osm_housenumber": null,
        "osm_street": null,
        "atp_phone": "+33 1 60 16 96 14",
        "osm_phone": null,
        "atp_opening_hours": null,
        "osm_hours": null,
        "atp_website": "https://www.maisondelaliterie.fr/magasin/maison-de-la-literie-ste-genevieve-des-bois",
        "osm_website": null,
        "brand_wikidata": "Q80955776",
        "brand": "Maison de la Literie",
        "match_count": 1
    },
    {
        "osm_id": 3030312533,
        "osm_name": "Maison de la Literie",
        "osm_url": "https://www.osm.org/node/3030312533",
        "osm_business": "bed",
        "atp_city": "Puygouzon",
        "atp_address": "2 rue Fran\u00e7ois Thermes",
        "osm_housenumber": "2",
        "osm_street": "Rue Fran\u00e7ois Thermes",
        "atp_phone": "+33 5 63 47 16 12",
        "osm_phone": null,
        "atp_opening_hours": null,
        "osm_hours": null,
        "atp_website": "https://www.maisondelaliterie.fr/magasin/maison-de-la-literie-albi-puygouzon",
        "osm_website": "http://maisondelaliterie.fr/index.php?controller=storedetail&store_id=150",
        "brand_wikidata": "Q80955776",
        "brand": "Maison de la Literie",
        "match_count": 1
    },
    {
        "osm_id": 3414615211,
        "osm_name": "Maison de la Literie",
        "osm_url": "https://www.osm.org/node/3414615211",
        "osm_business": "bed",
        "atp_city": "Essey-l\u00e8s-Nancy",
        "atp_address": "22 rue de Tarbes",
        "osm_housenumber": "22",
        "osm_street": null,
        "atp_phone": "+33 3 83 21 81 82",
        "osm_phone": "+33 3 83218182",
        "atp_opening_hours": null,
        "osm_hours": "Mo 14:00-19:00; Tu-Sa 10:00-12:00;14:00-19:00",
        "atp_website": "https://www.maisondelaliterie.fr/magasin/maison-de-la-literie-essey-les-nancy",
        "osm_website": "https://www.maisondelaliterie.fr/magasin/72-maison-de-la-literie-essey-les-nancy",
        "brand_wikidata": "Q80955776",
        "brand": "Maison de la Literie",
        "match_count": 1
    },
    {
        "osm_id": 3673568025,
        "osm_name": "Maison de la Literie",
        "osm_url": "https://www.osm.org/node/3673568025",
        "osm_business": "bed",
        "atp_city": "Aurillac",
        "atp_address": "3 boulevard de Verdun",
        "osm_housenumber": null,
        "osm_street": null,
        "atp_phone": "+33 4 71 45 63 68",
        "osm_phone": null,
        "atp_opening_hours": null,
        "osm_hours": null,
        "atp_website": "https://www.maisondelaliterie.fr/magasin/maison-de-la-literie-aurillac",
        "osm_website": null,
        "brand_wikidata": "Q80955776",
        "brand": "Maison de la Literie",
        "match_count": 1
    },
    {
        "osm_id": 4187386982,
        "osm_name": "Maison de la Literie",
        "osm_url": "https://www.osm.org/node/4187386982",
        "osm_business": "bed",
        "atp_city": "Beaucouz\u00e9",
        "atp_address": "L'Atoll",
        "osm_housenumber": null,
        "osm_street": null,
        "atp_phone": "+33 2 41 36 09 09",
        "osm_phone": null,
        "atp_opening_hours": null,
        "osm_hours": "Mo-Sa 10:00-20:00",
        "atp_website": "https://www.maisondelaliterie.fr/magasin/maison-de-la-literie-beaucouze",
        "osm_website": null,
        "brand_wikidata": "Q80955776",
        "brand": "Maison de la Literie",
        "match_count": 1
    },
    {
        "osm_id": 4231482937,
        "osm_name": "Maison de la Literie",
        "osm_url": "https://www.osm.org/node/4231482937",
        "osm_business": "bed",
        "atp_city": "Saint-Jean-de-V\u00e9das",
        "atp_address": "690 Avenue de la Condamine",
        "osm_housenumber": "690",
        "osm_street": "Avenue de la Condamine",
        "atp_phone": "+33 4 67 27 20 65",
        "osm_phone": "+33 4 67 27 20 65",
        "atp_opening_hours": null,
        "osm_hours": "Mo-Sa 10:00-12:00,14:00-19:00",
        "atp_website": "https://www.maisondelaliterie.fr/magasin/maison-de-la-literie-st-jean-de-vedas",
        "osm_website": "https://www.maisondelaliterie.fr",
        "brand_wikidata": "Q80955776",
        "brand": "Maison de la Literie",
        "match_count": 1
    },
    {
        "osm_id": 4577365854,
        "osm_name": "Maison de la Literie",
        "osm_url": "https://www.osm.org/node/4577365854",
        "osm_business": "bed",
        "atp_city": "Saint-Germain-du-Puy",
        "atp_address": "RN 151 - Route de la Charit\u00e9",
        "osm_housenumber": null,
        "osm_street": null,
        "atp_phone": "+33 2 48 65 94 11",
        "osm_phone": null,
        "atp_opening_hours": null,
        "osm_hours": null,
        "atp_website": "https://www.maisondelaliterie.fr/magasin/maison-de-la-literie-st-germain-du-puy",
        "osm_website": null,
        "brand_wikidata": "Q80955776",
        "brand": "Maison de la Literie",
        "match_count": 1
    },
    {
        "osm_id": 4793657423,
        "osm_name": "Maison de la Literie",
        "osm_url": "https://www.osm.org/node/4793657423",
        "osm_business": "bed",
        "atp_city": "Anglet",
        "atp_address": "Boulevard du BAB",
        "osm_housenumber": null,
        "osm_street": null,
        "atp_phone": "+33 5 59 03 40 51",
        "osm_phone": null,
        "atp_opening_hours": null,
        "osm_hours": null,
        "atp_website": "https://www.maisondelaliterie.fr/magasin/maison-de-la-literie-bayonne-anglet-biarritz",
        "osm_website": null,
        "brand_wikidata": "Q80955776",
        "brand": "Maison de la Literie",
        "match_count": 1
    },
    {
        "osm_id": 5109474434,
        "osm_name": "Maison de la Literie",
        "osm_url": "https://www.osm.org/node/5109474434",
        "osm_business": "bed",
        "atp_city": "Saint-Etienne-de-Saint-Geoirs",
        "atp_address": "2 chemin de la Pierre",
        "osm_housenumber": null,
        "osm_street": null,
        "atp_phone": "+33 4 76 55 35 86",
        "osm_phone": null,
        "atp_opening_hours": null,
        "osm_hours": null,
        "atp_website": "https://www.maisondelaliterie.fr/magasin/mdl-canapes-convertibles-st-etienne-de-saint-geoirs",
        "osm_website": "gitem.fr",
        "brand_wikidata": "Q80955776",
        "brand": "Maison de la Literie",
        "match_count": 1
    },
    {
        "osm_id": 5255410512,
        "osm_name": "Maison de la Literie",
        "osm_url": "https://www.osm.org/node/5255410512",
        "osm_business": "bed",
        "atp_city": "Portet-sur-Garonne",
        "atp_address": "70 route d'Espagne",
        "osm_housenumber": null,
        "osm_street": null,
        "atp_phone": "+33 5 62 20 08 24",
        "osm_phone": null,
        "atp_opening_hours": null,
        "osm_hours": null,
        "atp_website": "https://www.maisondelaliterie.fr/magasin/maison-de-la-literie-toulouse-portet-sur-garonne",
        "osm_website": null,
        "brand_wikidata": "Q80955776",
        "brand": "Maison de la Literie",
        "match_count": 1
    },
    {
        "osm_id": 5262018415,
        "osm_name": "Maison de la Literie",
        "osm_url": "https://www.osm.org/node/5262018415",
        "osm_business": "bed",
        "atp_city": "Barentin",
        "atp_address": "1646 boulevard de Normandie",
        "osm_housenumber": null,
        "osm_street": null,
        "atp_phone": "+33 2 32 94 03 59",
        "osm_phone": null,
        "atp_opening_hours": null,
        "osm_hours": null,
        "atp_website": "https://www.maisondelaliterie.fr/magasin/maison-de-la-literie-rouen-barentin",
        "osm_website": null,
        "brand_wikidata": "Q80955776",
        "brand": "Maison de la Literie",
        "match_count": 1
    },
    {
        "osm_id": 5522239593,
        "osm_name": "Maison de la Literie",
        "osm_url": "https://www.osm.org/node/5522239593",
        "osm_business": "bed",
        "atp_city": "Rueil-Malmaison",
        "atp_address": "63 avenue de la Fouilleuse",
        "osm_housenumber": "63",
        "osm_street": null,
        "atp_phone": "+33 9 67 29 42 33",
        "osm_phone": "+33 9 67 29 42 33",
        "atp_opening_hours": null,
        "osm_hours": "Mo-Sa 10:00-19:00",
        "atp_website": "https://www.maisondelaliterie.fr/magasin/maison-de-la-literie-rueil-malmaison",
        "osm_website": "https://www.maisondelaliterie.fr/magasins/maison-de-la-literie-rueil-malmaison_232.html",
        "brand_wikidata": "Q80955776",
        "brand": "Maison de la Literie",
        "match_count": 1
    },
    {
        "osm_id": 5687442755,
        "osm_name": "Maison de la Literie",
        "osm_url": "https://www.osm.org/node/5687442755",
        "osm_business": "bed",
        "atp_city": "Challans",
        "atp_address": "2 rue Louis Jouvet",
        "osm_housenumber": null,
        "osm_street": null,
        "atp_phone": "+33 2 51 35 68 00",
        "osm_phone": null,
        "atp_opening_hours": null,
        "osm_hours": null,
        "atp_website": "https://www.maisondelaliterie.fr/magasin/maison-de-la-literie-challans",
        "osm_website": null,
        "brand_wikidata": "Q80955776",
        "brand": "Maison de la Literie",
        "match_count": 1
    },
    {
        "osm_id": 6126210633,
        "osm_name": "Maison de la Literie",
        "osm_url": "https://www.osm.org/node/6126210633",
        "osm_business": "bed",
        "atp_city": "Lescar",
        "atp_address": "rue Flandres Dunkerque",
        "osm_housenumber": null,
        "osm_street": null,
        "atp_phone": "+33 5 47 41 90 91",
        "osm_phone": "+33 5 47 41 90 91",
        "atp_opening_hours": null,
        "osm_hours": "Mo-Sa 10:00-12:00, 14:00-19:00",
        "atp_website": "https://www.maisondelaliterie.fr/magasin/maison-de-la-literie-lescar",
        "osm_website": "https://www.maisondelaliterie.fr/magasins/maison-de-la-literie-lescar_258.html",
        "brand_wikidata": "Q80955776",
        "brand": "Maison de la Literie",
        "match_count": 1
    },
    {
        "osm_id": 6310052221,
        "osm_name": "Maison de la Literie",
        "osm_url": "https://www.osm.org/node/6310052221",
        "osm_business": "bed",
        "atp_city": "Sorgues",
        "atp_address": "rue Marcel Pagnol",
        "osm_housenumber": null,
        "osm_street": null,
        "atp_phone": "+33 4 90 32 98 03",
        "osm_phone": null,
        "atp_opening_hours": null,
        "osm_hours": null,
        "atp_website": "https://www.maisondelaliterie.fr/magasin/maison-de-la-literie-sorgues",
        "osm_website": null,
        "brand_wikidata": "Q80955776",
        "brand": "Maison de la Literie",
        "match_count": 1
    },
    {
        "osm_id": 6624762174,
        "osm_name": "Maison de la Literie",
        "osm_url": "https://www.osm.org/node/6624762174",
        "osm_business": "bed",
        "atp_city": "Sainte-Genevi\u00e8ve-des-Bois",
        "atp_address": "5 avenue du bout du Plessis",
        "osm_housenumber": null,
        "osm_street": null,
        "atp_phone": "+33 1 60 16 94 49",
        "osm_phone": null,
        "atp_opening_hours": null,
        "osm_hours": null,
        "atp_website": "https://www.maisondelaliterie.fr/magasin/maison-de-la-literie-ste-genevieve-des-bois",
        "osm_website": null,
        "brand_wikidata": "Q80955776",
        "brand": "Maison de la Literie",
        "match_count": 1
    },
    {
        "osm_id": 6635287789,
        "osm_name": "Maison de la Literie",
        "osm_url": "https://www.osm.org/node/6635287789",
        "osm_business": "bed",
        "atp_city": "Saint-Herblain",
        "atp_address": "209 route de Vannes",
        "osm_housenumber": null,
        "osm_street": null,
        "atp_phone": "+33 2 40 76 75 47",
        "osm_phone": null,
        "atp_opening_hours": null,
        "osm_hours": null,
        "atp_website": "https://www.maisondelaliterie.fr/magasin/maison-de-la-literie-nantes-st-herblain",
        "osm_website": null,
        "brand_wikidata": "Q80955776",
        "brand": "Maison de la Literie",
        "match_count": 1
    },
    {
        "osm_id": 6643209913,
        "osm_name": "Maison de la Literie",
        "osm_url": "https://www.osm.org/node/6643209913",
        "osm_business": "bed",
        "atp_city": "Arles",
        "atp_address": "3 rue Sagne",
        "osm_housenumber": null,
        "osm_street": null,
        "atp_phone": "+33 4 90 93 53 11",
        "osm_phone": null,
        "atp_opening_hours": null,
        "osm_hours": null,
        "atp_website": "https://www.maisondelaliterie.fr/magasin/maison-de-la-literie-arles",
        "osm_website": null,
        "brand_wikidata": "Q80955776",
        "brand": "Maison de la Literie",
        "match_count": 1
    },
    {
        "osm_id": 6719980091,
        "osm_name": "Maison de la Literie",
        "osm_url": "https://www.osm.org/node/6719980091",
        "osm_business": "bed",
        "atp_city": "Hy\u00e8res",
        "atp_address": "4 avenue Ambroise Thomas",
        "osm_housenumber": "4",
        "osm_street": "Avenue Ambroise Thomas",
        "atp_phone": "+33 4 94 20 40 75",
        "osm_phone": "+33 4 94 20 40 75",
        "atp_opening_hours": null,
        "osm_hours": "Mo-Sa 09:30-12:30, 14:30-19:00",
        "atp_website": "https://www.maisondelaliterie.fr/magasin/maison-de-la-literie-hyeres",
        "osm_website": "https://www.maisondelaliterie.fr/magasin/276-maison-de-la-literie-hyeres+",
        "brand_wikidata": "Q80955776",
        "brand": "Maison de la Literie",
        "match_count": 1
    },
    {
        "osm_id": 6954489059,
        "osm_name": "Maison de la Literie",
        "osm_url": "https://www.osm.org/node/6954489059",
        "osm_business": "bed",
        "atp_city": "Saint-Aun\u00e8s",
        "atp_address": "10 rue du Basilic",
        "osm_housenumber": "10",
        "osm_street": "Rue du Basilic",
        "atp_phone": "+33 9 51 15 87 40",
        "osm_phone": "+33 9 51 15 87 40",
        "atp_opening_hours": null,
        "osm_hours": "Mo-Sa 10:00-12:00,14:00-19:00",
        "atp_website": "https://www.maisondelaliterie.fr/magasin/maison-de-la-literie-saint-aunes",
        "osm_website": "https://www.maisondelaliterie.fr/magasin/284-maison-de-la-literie-saint-aunes",
        "brand_wikidata": "Q80955776",
        "brand": "Maison de la Literie",
        "match_count": 1
    },
    {
        "osm_id": 7119396561,
        "osm_name": "Maison de la Literie",
        "osm_url": "https://www.osm.org/node/7119396561",
        "osm_business": "bed",
        "atp_city": "Colomiers",
        "atp_address": "16 bis avenue Andr\u00e9-Marie Amp\u00e8re",
        "osm_housenumber": null,
        "osm_street": null,
        "atp_phone": "+33 5 61 78 02 74",
        "osm_phone": null,
        "atp_opening_hours": null,
        "osm_hours": null,
        "atp_website": "https://www.maisondelaliterie.fr/magasin/maison-de-la-literie-toulouse-colomiers",
        "osm_website": null,
        "brand_wikidata": "Q80955776",
        "brand": "Maison de la Literie",
        "match_count": 1
    },
    {
        "osm_id": 7241039085,
        "osm_name": "Maison de la Literie",
        "osm_url": "https://www.osm.org/node/7241039085",
        "osm_business": "bed",
        "atp_city": "Quimper",
        "atp_address": "173 route de Brest",
        "osm_housenumber": null,
        "osm_street": null,
        "atp_phone": "+33 2 98 95 65 59",
        "osm_phone": null,
        "atp_opening_hours": null,
        "osm_hours": null,
        "atp_website": "https://www.maisondelaliterie.fr/magasin/maison-de-la-literie-quimper",
        "osm_website": null,
        "brand_wikidata": "Q80955776",
        "brand": "Maison de la Literie",
        "match_count": 1
    },
    {
        "osm_id": 7343429540,
        "osm_name": "Maison de la Literie",
        "osm_url": "https://www.osm.org/node/7343429540",
        "osm_business": "bed",
        "atp_city": "Gonesse",
        "atp_address": "15 rue de la Belle \u00c9toile",
        "osm_housenumber": null,
        "osm_street": null,
        "atp_phone": "+33 1 85 76 32 38",
        "osm_phone": null,
        "atp_opening_hours": null,
        "osm_hours": null,
        "atp_website": "https://www.maisondelaliterie.fr/magasin/maison-de-la-literie-gonesse",
        "osm_website": null,
        "brand_wikidata": "Q80955776",
        "brand": "Maison de la Literie",
        "match_count": 1
    },
    {
        "osm_id": 7464652821,
        "osm_name": "Maison de la Literie",
        "osm_url": "https://www.osm.org/node/7464652821",
        "osm_business": "bed",
        "atp_city": "Pontarlier",
        "atp_address": "70 rue Salins",
        "osm_housenumber": "70",
        "osm_street": "Rue de Salins",
        "atp_phone": "+33 3 81 46 94 21",
        "osm_phone": "+33 3 81 46 94 21",
        "atp_opening_hours": null,
        "osm_hours": "Mo 14:00-19:00; Tu-Fr 09:30-12:00,14:00-19:00; Sa 09:30-19:00",
        "atp_website": "https://www.maisondelaliterie.fr/magasin/maison-de-la-literie-pontarlier",
        "osm_website": "https://www.maisondelaliterie.fr/magasin/296-maison-de-la-literie-pontarlier",
        "brand_wikidata": "Q80955776",
        "brand": "Maison de la Literie",
        "match_count": 1
    },
    {
        "osm_id": 7651462748,
        "osm_name": "Maison de la Literie",
        "osm_url": "https://www.osm.org/node/7651462748",
        "osm_business": "bed",
        "atp_city": "Ollioules",
        "atp_address": "125 chemin de la Capellane",
        "osm_housenumber": "125",
        "osm_street": "Chemin de la Capellane",
        "atp_phone": "+33 4 94 41 83 95",
        "osm_phone": "+33 4 94 41 83 95",
        "atp_opening_hours": null,
        "osm_hours": "Mo-Sa 09:30-12:00,14:00-19:00",
        "atp_website": "https://www.maisondelaliterie.fr/magasin/maison-de-la-literie-ollioules",
        "osm_website": null,
        "brand_wikidata": "Q80955776",
        "brand": "Maison de la Literie",
        "match_count": 1
    },
    {
        "osm_id": 7726989403,
        "osm_name": "Maison de la Literie",
        "osm_url": "https://www.osm.org/node/7726989403",
        "osm_business": "bed",
        "atp_city": "Saint-Paul-l\u00e8s-Dax",
        "atp_address": "boulevard Saint-Vincent-de-Paul",
        "osm_housenumber": null,
        "osm_street": null,
        "atp_phone": "+33 5 58 70 65 27",
        "osm_phone": null,
        "atp_opening_hours": null,
        "osm_hours": null,
        "atp_website": "https://www.maisondelaliterie.fr/magasin/maison-de-la-literie-dax-st-paul-les-dax",
        "osm_website": null,
        "brand_wikidata": "Q80955776",
        "brand": "Maison de la Literie",
        "match_count": 1
    },
    {
        "osm_id": 8066742437,
        "osm_name": "Maison de la Literie",
        "osm_url": "https://www.osm.org/node/8066742437",
        "osm_business": "bed",
        "atp_city": "Cabestany",
        "atp_address": "1 rue Aristide Berg\u00e8s",
        "osm_housenumber": null,
        "osm_street": null,
        "atp_phone": "+33 4 68 50 83 13",
        "osm_phone": null,
        "atp_opening_hours": null,
        "osm_hours": null,
        "atp_website": "https://www.maisondelaliterie.fr/magasin/maison-de-la-literie-cabestany",
        "osm_website": "https://www.maisondelaliterie.fr/magasin/52-maison-de-la-literie-cabestany",
        "brand_wikidata": "Q80955776",
        "brand": "Maison de la Literie",
        "match_count": 1
    },
    {
        "osm_id": 8529701793,
        "osm_name": "Maison de la Literie",
        "osm_url": "https://www.osm.org/node/8529701793",
        "osm_business": "bed",
        "atp_city": "Claira",
        "atp_address": "Zone commerciale Les Arcades de Claira",
        "osm_housenumber": null,
        "osm_street": null,
        "atp_phone": "+33 4 68 66 90 38",
        "osm_phone": null,
        "atp_opening_hours": null,
        "osm_hours": null,
        "atp_website": "https://www.maisondelaliterie.fr/magasin/maison-de-la-literie-claira",
        "osm_website": "https://www.maisondelaliterie.fr/magasin/64-maison-de-la-literie-claira",
        "brand_wikidata": "Q80955776",
        "brand": "Maison de la Literie",
        "match_count": 1
    },
    {
        "osm_id": 8770411772,
        "osm_name": "Maison de la Literie",
        "osm_url": "https://www.osm.org/node/8770411772",
        "osm_business": "bed",
        "atp_city": "Idron",
        "atp_address": "38 route de Tarbes",
        "osm_housenumber": null,
        "osm_street": null,
        "atp_phone": "+33 5 24 98 34 77",
        "osm_phone": null,
        "atp_opening_hours": null,
        "osm_hours": null,
        "atp_website": "https://www.maisondelaliterie.fr/magasin/maison-de-la-literie-idron",
        "osm_website": null,
        "brand_wikidata": "Q80955776",
        "brand": "Maison de la Literie",
        "match_count": 1
    },
    {
        "osm_id": 8910774200,
        "osm_name": "Maison de la Literie",
        "osm_url": "https://www.osm.org/node/8910774200",
        "osm_business": "bed",
        "atp_city": "Saint-Parres-aux-Tertres",
        "atp_address": "Parc d'activit\u00e9s L'air des Moissons",
        "osm_housenumber": null,
        "osm_street": null,
        "atp_phone": "+33 3 25 81 79 64",
        "osm_phone": null,
        "atp_opening_hours": null,
        "osm_hours": null,
        "atp_website": "https://www.maisondelaliterie.fr/magasin/maison-de-la-literie-saint-parres-aux-tertres",
        "osm_website": null,
        "brand_wikidata": "Q80955776",
        "brand": "Maison de la Literie",
        "match_count": 1
    },
    {
        "osm_id": 8933381560,
        "osm_name": "Maison de la Literie",
        "osm_url": "https://www.osm.org/node/8933381560",
        "osm_business": "bed",
        "atp_city": "Versailles",
        "atp_address": "106 rue de la Paroisse",
        "osm_housenumber": "106",
        "osm_street": "Rue de la Paroisse",
        "atp_phone": "+33 1 30 21 40 60",
        "osm_phone": null,
        "atp_opening_hours": null,
        "osm_hours": "Mo-Sa 10:00-19:00",
        "atp_website": "https://www.maisondelaliterie.fr/magasin/maison-de-la-literie-versailles",
        "osm_website": null,
        "brand_wikidata": "Q80955776",
        "brand": "Maison de la Literie",
        "match_count": 1
    },
    {
        "osm_id": 8941228142,
        "osm_name": "Maison de la Literie",
        "osm_url": "https://www.osm.org/node/8941228142",
        "osm_business": "bed",
        "atp_city": "Feytiat",
        "atp_address": "4 all\u00e9e Victor Baltard",
        "osm_housenumber": null,
        "osm_street": null,
        "atp_phone": "+33 5 55 06 11 47",
        "osm_phone": null,
        "atp_opening_hours": null,
        "osm_hours": null,
        "atp_website": "https://www.maisondelaliterie.fr/magasin/maison-de-la-literie-limoges-feytiat",
        "osm_website": null,
        "brand_wikidata": "Q80955776",
        "brand": "Maison de la Literie",
        "match_count": 1
    },
    {
        "osm_id": 9109582244,
        "osm_name": "Maison de la Literie",
        "osm_url": "https://www.osm.org/node/9109582244",
        "osm_business": "bed",
        "atp_city": "Chasseneuil-du-Poitou",
        "atp_address": "40 all\u00e9e du Haut Poitou",
        "osm_housenumber": null,
        "osm_street": null,
        "atp_phone": "+33 5 49 62 59 46",
        "osm_phone": null,
        "atp_opening_hours": null,
        "osm_hours": null,
        "atp_website": "https://www.maisondelaliterie.fr/magasin/maison-de-la-literie-chasseneuil-du-poitou",
        "osm_website": null,
        "brand_wikidata": "Q80955776",
        "brand": "Maison de la Literie",
        "match_count": 1
    },
    {
        "osm_id": 9214757850,
        "osm_name": "Maison de la Literie",
        "osm_url": "https://www.osm.org/node/9214757850",
        "osm_business": "bed",
        "atp_city": "Saint-Maximin",
        "atp_address": "314 rue de la R\u00e9volution Fran\u00e7aise",
        "osm_housenumber": "314",
        "osm_street": "Rue de la R\u00e9volution Fran\u00e7aise",
        "atp_phone": "+33 3 44 24 25 65",
        "osm_phone": "+33 3 44 24 25 65",
        "atp_opening_hours": null,
        "osm_hours": "Mo 14:00-19:00; Tu-Fr 10:00-12:00,14:00-19:00; Sa 10:00-19:00; Su off",
        "atp_website": "https://www.maisondelaliterie.fr/magasin/maison-de-la-literie-st-maximin",
        "osm_website": null,
        "brand_wikidata": "Q80955776",
        "brand": "Maison de la Literie",
        "match_count": 1
    },
    {
        "osm_id": 9296366196,
        "osm_name": "Maison de la Literie",
        "osm_url": "https://www.osm.org/node/9296366196",
        "osm_business": "bed",
        "atp_city": "Tours",
        "atp_address": "344 avenue Andr\u00e9 Maginot",
        "osm_housenumber": null,
        "osm_street": null,
        "atp_phone": "+33 2 47 54 08 12",
        "osm_phone": null,
        "atp_opening_hours": null,
        "osm_hours": "Mo 14:00-19:00; Tu-Sa 10:00-12:30, 14:00-19:00",
        "atp_website": "https://www.maisondelaliterie.fr/magasin/maison-de-la-literie-tours",
        "osm_website": null,
        "brand_wikidata": "Q80955776",
        "brand": "Maison de la Literie",
        "match_count": 1
    },
    {
        "osm_id": 9606136092,
        "osm_name": "Maison de la Literie",
        "osm_url": "https://www.osm.org/node/9606136092",
        "osm_business": "bed",
        "atp_city": "Orl\u00e9ans",
        "atp_address": "rue Anthelme Brillat Savarin",
        "osm_housenumber": "18",
        "osm_street": "Rue Anthelme Brillat-Savarin",
        "atp_phone": "+33 2 38 66 98 79",
        "osm_phone": "+33238669879",
        "atp_opening_hours": null,
        "osm_hours": "Mo 14:00-19:00; Tu-Sa 09:30-12:00,14:00-19:00",
        "atp_website": "https://www.maisondelaliterie.fr/magasin/maison-de-la-literie-orleans",
        "osm_website": "https://www.maisondelaliterie.fr/",
        "brand_wikidata": "Q80955776",
        "brand": "Maison de la Literie",
        "match_count": 1
    },
    {
        "osm_id": 10149106819,
        "osm_name": "Maison de la Literie",
        "osm_url": "https://www.osm.org/node/10149106819",
        "osm_business": "bed",
        "atp_city": "Apt",
        "atp_address": "482 avenue Victor Hugo",
        "osm_housenumber": null,
        "osm_street": null,
        "atp_phone": "+33 4 90 74 19 92",
        "osm_phone": null,
        "atp_opening_hours": null,
        "osm_hours": null,
        "atp_website": "https://www.maisondelaliterie.fr/magasin/maison-de-la-literie-apt",
        "osm_website": null,
        "brand_wikidata": "Q80955776",
        "brand": "Maison de la Literie",
        "match_count": 1
    },
    {
        "osm_id": 10175412355,
        "osm_name": "Maison de la Literie",
        "osm_url": "https://www.osm.org/node/10175412355",
        "osm_business": "bed",
        "atp_city": "Coulommiers",
        "atp_address": "7 rue de l'Aubetin",
        "osm_housenumber": null,
        "osm_street": null,
        "atp_phone": "+33 1 64 04 99 98",
        "osm_phone": null,
        "atp_opening_hours": null,
        "osm_hours": null,
        "atp_website": "https://www.maisondelaliterie.fr/magasin/maison-de-la-literie-coulommiers",
        "osm_website": "https://www.maisondelaliterie.fr/magasin/331-maison-de-la-literie-coulommiers",
        "brand_wikidata": "Q80955776",
        "brand": "Maison de la Literie",
        "match_count": 1
    },
    {
        "osm_id": 10691830951,
        "osm_name": "Maison de la Literie",
        "osm_url": "https://www.osm.org/node/10691830951",
        "osm_business": "bed",
        "atp_city": "Melun",
        "atp_address": "avenue du G\u00e9n\u00e9ral Patton",
        "osm_housenumber": null,
        "osm_street": null,
        "atp_phone": "+33 1 64 52 26 26",
        "osm_phone": null,
        "atp_opening_hours": null,
        "osm_hours": null,
        "atp_website": "https://www.maisondelaliterie.fr/magasin/maison-de-la-literie-melun",
        "osm_website": null,
        "brand_wikidata": "Q80955776",
        "brand": "Maison de la Literie",
        "match_count": 1
    },
    {
        "osm_id": 10926394766,
        "osm_name": "Maison de la Literie",
        "osm_url": "https://www.osm.org/node/10926394766",
        "osm_business": "bed",
        "atp_city": "Touques",
        "atp_address": "5 chemin du Marais",
        "osm_housenumber": null,
        "osm_street": null,
        "atp_phone": "+33 2 31 87 35 31",
        "osm_phone": null,
        "atp_opening_hours": null,
        "osm_hours": null,
        "atp_website": "https://www.maisondelaliterie.fr/magasin/maison-de-la-literie-touques",
        "osm_website": null,
        "brand_wikidata": "Q80955776",
        "brand": "Maison de la Literie",
        "match_count": 1
    },
    {
        "osm_id": 10946220819,
        "osm_name": "Maison de la Literie",
        "osm_url": "https://www.osm.org/node/10946220819",
        "osm_business": "bed",
        "atp_city": "Paris",
        "atp_address": "87 boulevard Raspail",
        "osm_housenumber": null,
        "osm_street": null,
        "atp_phone": "+33 1 42 22 10 01",
        "osm_phone": null,
        "atp_opening_hours": null,
        "osm_hours": null,
        "atp_website": "https://www.maisondelaliterie.fr/magasin/maison-de-la-literie-prestige-paris-raspail",
        "osm_website": null,
        "brand_wikidata": "Q80955776",
        "brand": "Maison de la Literie",
        "match_count": 1
    },
    {
        "osm_id": 11073174789,
        "osm_name": "Maison de la Literie",
        "osm_url": "https://www.osm.org/node/11073174789",
        "osm_business": "bed",
        "atp_city": "Puilboreau",
        "atp_address": "36 rue du 8 Mai",
        "osm_housenumber": null,
        "osm_street": null,
        "atp_phone": "+33 5 46 67 78 91",
        "osm_phone": null,
        "atp_opening_hours": null,
        "osm_hours": null,
        "atp_website": "https://www.maisondelaliterie.fr/magasin/maison-de-la-literie-la-rochelle-puilboreau",
        "osm_website": null,
        "brand_wikidata": "Q80955776",
        "brand": "Maison de la Literie",
        "match_count": 1
    },
    {
        "osm_id": 11257201973,
        "osm_name": "Maison de la Literie",
        "osm_url": "https://www.osm.org/node/11257201973",
        "osm_business": "bed",
        "atp_city": "Aix-en-Provence",
        "atp_address": "60 avenue Guillaume Du Vair",
        "osm_housenumber": null,
        "osm_street": null,
        "atp_phone": "+33 4 42 29 36 23",
        "osm_phone": null,
        "atp_opening_hours": null,
        "osm_hours": null,
        "atp_website": "https://www.maisondelaliterie.fr/magasin/maison-de-la-literie-aix-en-provence",
        "osm_website": null,
        "brand_wikidata": "Q80955776",
        "brand": "Maison de la Literie",
        "match_count": 1
    },
    {
        "osm_id": 11416791904,
        "osm_name": "Maison de la Literie",
        "osm_url": "https://www.osm.org/node/11416791904",
        "osm_business": "bed",
        "atp_city": "Tr\u00e9lissac",
        "atp_address": "avenue Michel Grandou",
        "osm_housenumber": null,
        "osm_street": null,
        "atp_phone": "+33 5 53 53 48 35",
        "osm_phone": null,
        "atp_opening_hours": null,
        "osm_hours": null,
        "atp_website": "https://www.maisondelaliterie.fr/magasin/maison-de-la-literie-perigueux-trelissac",
        "osm_website": null,
        "brand_wikidata": "Q80955776",
        "brand": "Maison de la Literie",
        "match_count": 1
    },
    {
        "osm_id": 11423711375,
        "osm_name": "Maison de la Literie",
        "osm_url": "https://www.osm.org/node/11423711375",
        "osm_business": "bed",
        "atp_city": "Tourville-la-Rivi\u00e8re",
        "atp_address": "ZAC du Clos aux Antes",
        "osm_housenumber": null,
        "osm_street": null,
        "atp_phone": "+33 2 35 87 64 12",
        "osm_phone": null,
        "atp_opening_hours": null,
        "osm_hours": null,
        "atp_website": "https://www.maisondelaliterie.fr/magasin/maison-de-la-literie-tourville-la-riviere",
        "osm_website": null,
        "brand_wikidata": "Q80955776",
        "brand": "Maison de la Literie",
        "match_count": 1
    },
    {
        "osm_id": 11455731870,
        "osm_name": "Maison de la Literie",
        "osm_url": "https://www.osm.org/node/11455731870",
        "osm_business": "bed",
        "atp_city": "Trignac",
        "atp_address": "IMPASSE DE LA BOSSELLE",
        "osm_housenumber": null,
        "osm_street": null,
        "atp_phone": "+33 2 40 88 30 94",
        "osm_phone": null,
        "atp_opening_hours": null,
        "osm_hours": null,
        "atp_website": "https://www.maisondelaliterie.fr/magasin/",
        "osm_website": null,
        "brand_wikidata": "Q80955776",
        "brand": "Maison de la Literie",
        "match_count": 1
    },
    {
        "osm_id": 11479075594,
        "osm_name": "Maison de la Literie",
        "osm_url": "https://www.osm.org/node/11479075594",
        "osm_business": "bed",
        "atp_city": "Barjouville",
        "atp_address": "29 rue des Pierres Missigault",
        "osm_housenumber": "29",
        "osm_street": "Rue des Pierres Missigault",
        "atp_phone": "+33 9 52 54 96 87",
        "osm_phone": "+33 9 52 54 96 87",
        "atp_opening_hours": null,
        "osm_hours": "Mo-Sa 10:00-19:00",
        "atp_website": "https://www.maisondelaliterie.fr/magasin/maison-de-la-literie-barjouville",
        "osm_website": "https://www.maisondelaliterie.fr/",
        "brand_wikidata": "Q80955776",
        "brand": "Maison de la Literie",
        "match_count": 1
    },
    {
        "osm_id": 11554559572,
        "osm_name": "Maison de la Literie",
        "osm_url": "https://www.osm.org/node/11554559572",
        "osm_business": "bed",
        "atp_city": "Orgeval",
        "atp_address": "route des Quarante Sous",
        "osm_housenumber": null,
        "osm_street": "Route de Quarante Sous",
        "atp_phone": "+33 1 39 08 00 28",
        "osm_phone": null,
        "atp_opening_hours": null,
        "osm_hours": null,
        "atp_website": "https://www.maisondelaliterie.fr/magasin/maison-de-la-literie-orgeval",
        "osm_website": null,
        "brand_wikidata": "Q80955776",
        "brand": "Maison de la Literie",
        "match_count": 1
    },
    {
        "osm_id": 11717078497,
        "osm_name": "Maison de la Literie",
        "osm_url": "https://www.osm.org/node/11717078497",
        "osm_business": "bed",
        "atp_city": "S\u00e9bazac-Concour\u00e8s",
        "atp_address": "P\u00f4le commercial Comtal Nord",
        "osm_housenumber": null,
        "osm_street": null,
        "atp_phone": "+33 5 65 70 75 04",
        "osm_phone": null,
        "atp_opening_hours": null,
        "osm_hours": null,
        "atp_website": "https://www.maisondelaliterie.fr/magasin/",
        "osm_website": null,
        "brand_wikidata": "Q80955776",
        "brand": "Maison de la Literie",
        "match_count": 1
    },
    {
        "osm_id": 62844744,
        "osm_name": "Maison de la Literie",
        "osm_url": "https://www.osm.org/way/62844744",
        "osm_business": "bed",
        "atp_city": "Aubi\u00e8re",
        "atp_address": "104 avenue de Cournon",
        "osm_housenumber": "104",
        "osm_street": "Avenue de Cournon",
        "atp_phone": "+33 4 73 28 27 10",
        "osm_phone": null,
        "atp_opening_hours": null,
        "osm_hours": null,
        "atp_website": "https://www.maisondelaliterie.fr/magasin/maison-de-la-literie-aubiere",
        "osm_website": null,
        "brand_wikidata": "Q80955776",
        "brand": "Maison de la Literie",
        "match_count": 1
    },
    {
        "osm_id": 63628094,
        "osm_name": "Maison de la Literie",
        "osm_url": "https://www.osm.org/way/63628094",
        "osm_business": "bed",
        "atp_city": "Malemort-sur-Corr\u00e8ze",
        "atp_address": "33 rue Alphonse Daudet",
        "osm_housenumber": null,
        "osm_street": null,
        "atp_phone": "+33 5 55 92 07 44",
        "osm_phone": null,
        "atp_opening_hours": null,
        "osm_hours": null,
        "atp_website": "https://www.maisondelaliterie.fr/magasin/maison-de-la-literie-malemort-sur-correze",
        "osm_website": null,
        "brand_wikidata": "Q80955776",
        "brand": "Maison de la Literie",
        "match_count": 1
    },
    {
        "osm_id": 68768815,
        "osm_name": "Maison de la Literie",
        "osm_url": "https://www.osm.org/way/68768815",
        "osm_business": "bed",
        "atp_city": "Chambray-l\u00e8s-Tours",
        "atp_address": "173 avenue Grand Sud",
        "osm_housenumber": null,
        "osm_street": null,
        "atp_phone": "+33 2 47 27 88 77",
        "osm_phone": null,
        "atp_opening_hours": null,
        "osm_hours": null,
        "atp_website": "https://www.maisondelaliterie.fr/magasin/maison-de-la-literie-tours-chambray",
        "osm_website": null,
        "brand_wikidata": "Q80955776",
        "brand": "Maison de la Literie",
        "match_count": 1
    },
    {
        "osm_id": 78528011,
        "osm_name": "Maison de la Literie",
        "osm_url": "https://www.osm.org/way/78528011",
        "osm_business": "bed",
        "atp_city": "Cr\u00e9teil",
        "atp_address": "1 avenue du Mar\u00e9chal Foch",
        "osm_housenumber": null,
        "osm_street": null,
        "atp_phone": "+33 1 43 77 62 12",
        "osm_phone": null,
        "atp_opening_hours": null,
        "osm_hours": null,
        "atp_website": "https://www.maisondelaliterie.fr/magasin/maison-de-la-literie-creteil",
        "osm_website": null,
        "brand_wikidata": "Q80955776",
        "brand": "Maison de la Literie",
        "match_count": 1
    },
    {
        "osm_id": 81669857,
        "osm_name": "Maison de la Literie",
        "osm_url": "https://www.osm.org/way/81669857",
        "osm_business": "bed",
        "atp_city": "Perpignan",
        "atp_address": "Route d'Espagne, Lotissement Le Grand Ch\u00eane, Rte d'espagne",
        "osm_housenumber": null,
        "osm_street": null,
        "atp_phone": "+33 4 68 56 82 07",
        "osm_phone": null,
        "atp_opening_hours": null,
        "osm_hours": null,
        "atp_website": "https://www.maisondelaliterie.fr/magasin/maison-de-la-literie-perpignan",
        "osm_website": null,
        "brand_wikidata": "Q80955776",
        "brand": "Maison de la Literie",
        "match_count": 1
    },
    {
        "osm_id": 86200001,
        "osm_name": "Maison de la Literie",
        "osm_url": "https://www.osm.org/way/86200001",
        "osm_business": "bed",
        "atp_city": "La Roche-sur-Yon",
        "atp_address": "rue des Flaneries",
        "osm_housenumber": null,
        "osm_street": null,
        "atp_phone": "+33 2 51 47 84 15",
        "osm_phone": null,
        "atp_opening_hours": null,
        "osm_hours": null,
        "atp_website": "https://www.maisondelaliterie.fr/magasin/maison-de-la-literie-la-roche-sur-yon",
        "osm_website": null,
        "brand_wikidata": "Q80955776",
        "brand": "Maison de la Literie",
        "match_count": 1
    },
    {
        "osm_id": 86266147,
        "osm_name": "Maison de la Literie",
        "osm_url": "https://www.osm.org/way/86266147",
        "osm_business": "bed",
        "atp_city": "Annemasse",
        "atp_address": "21 rue de la r\u00e9sistance",
        "osm_housenumber": "21",
        "osm_street": "Rue de la R\u00e9sistance",
        "atp_phone": "+33 4 50 38 68 13",
        "osm_phone": "+33 4 50 38 68 13",
        "atp_opening_hours": null,
        "osm_hours": "Mo-Fr 09:30-12:00, 14:00-19:00; Sa 09:30-19:00; Su off",
        "atp_website": "https://www.maisondelaliterie.fr/magasin/maison-de-la-literie-annemasse",
        "osm_website": "https://www.maisondelaliterie.fr/magasin/10-maison-de-la-literie-annemasse",
        "brand_wikidata": "Q80955776",
        "brand": "Maison de la Literie",
        "match_count": 1
    },
    {
        "osm_id": 95644951,
        "osm_name": "Maison de la Literie",
        "osm_url": "https://www.osm.org/way/95644951",
        "osm_business": "bed",
        "atp_city": "Amilly",
        "atp_address": "258 rue du Vernisson",
        "osm_housenumber": "258",
        "osm_street": "Rue du Vernisson",
        "atp_phone": "+33 2 38 89 38 46",
        "osm_phone": null,
        "atp_opening_hours": null,
        "osm_hours": "Mo 14:00-19:00; Tu-Sa 09:30-12:00, 14:00-19:00",
        "atp_website": "https://www.maisondelaliterie.fr/magasin/maison-de-la-literie-amilly",
        "osm_website": "http://www.maison-literie-amilly.fr/",
        "brand_wikidata": "Q80955776",
        "brand": "Maison de la Literie",
        "match_count": 1
    },
    {
        "osm_id": 106058498,
        "osm_name": "Maison de la Literie",
        "osm_url": "https://www.osm.org/way/106058498",
        "osm_business": "bed",
        "atp_city": "Beauvais",
        "atp_address": "22 avenue Montaigne",
        "osm_housenumber": null,
        "osm_street": null,
        "atp_phone": "+33 3 44 02 66 48",
        "osm_phone": "+33 3 44 02 66 48",
        "atp_opening_hours": null,
        "osm_hours": "Mo 14:00-19:00; Th-Fr 10:00-12:00, 14:00-19:00; Sa 10:00-19:00",
        "atp_website": "https://www.maisondelaliterie.fr/magasin/maison-de-la-literie-beauvais",
        "osm_website": "https://www.maisondelaliterie.fr/magasin/36-maison-de-la-literie-beauvais",
        "brand_wikidata": "Q80955776",
        "brand": "Maison de la Literie",
        "match_count": 1
    },
    {
        "osm_id": 122335238,
        "osm_name": "Maison de la Literie",
        "osm_url": "https://www.osm.org/way/122335238",
        "osm_business": "bed",
        "atp_city": "Tarbes",
        "atp_address": "5 route de Pau",
        "osm_housenumber": null,
        "osm_street": null,
        "atp_phone": "+33 5 62 34 42 06",
        "osm_phone": null,
        "atp_opening_hours": null,
        "osm_hours": null,
        "atp_website": "https://www.maisondelaliterie.fr/magasin/maison-de-la-literie-tarbes",
        "osm_website": null,
        "brand_wikidata": "Q80955776",
        "brand": "Maison de la Literie",
        "match_count": 1
    },
    {
        "osm_id": 133458239,
        "osm_name": "Maison de la Literie",
        "osm_url": "https://www.osm.org/way/133458239",
        "osm_business": "bed",
        "atp_city": "B\u00e9ziers",
        "atp_address": "25 rue de l'Olivette",
        "osm_housenumber": null,
        "osm_street": null,
        "atp_phone": "+33 4 67 76 23 43",
        "osm_phone": null,
        "atp_opening_hours": null,
        "osm_hours": null,
        "atp_website": "https://www.maisondelaliterie.fr/magasin/maison-de-la-literie-beziers",
        "osm_website": null,
        "brand_wikidata": "Q80955776",
        "brand": "Maison de la Literie",
        "match_count": 1
    },
    {
        "osm_id": 172355050,
        "osm_name": "Maison de la Literie",
        "osm_url": "https://www.osm.org/way/172355050",
        "osm_business": "bed",
        "atp_city": "Saint-Gervais-la-For\u00eat",
        "atp_address": "45 rue des Perri\u00e8res",
        "osm_housenumber": null,
        "osm_street": null,
        "atp_phone": "+33 2 54 43 58 22",
        "osm_phone": null,
        "atp_opening_hours": null,
        "osm_hours": null,
        "atp_website": "https://www.maisondelaliterie.fr/magasin/maison-de-la-literie-st-gervais-la-foret",
        "osm_website": null,
        "brand_wikidata": "Q80955776",
        "brand": "Maison de la Literie",
        "match_count": 1
    },
    {
        "osm_id": 175856511,
        "osm_name": "Maison de la Literie",
        "osm_url": "https://www.osm.org/way/175856511",
        "osm_business": "bed",
        "atp_city": "Blagnac",
        "atp_address": "15 all\u00e9e Emile Zola",
        "osm_housenumber": null,
        "osm_street": null,
        "atp_phone": "+33 5 32 09 99 23",
        "osm_phone": "+33 5 32 09 99 23",
        "atp_opening_hours": null,
        "osm_hours": "Mo 14:00-19:00; Tu-Fr 10:00-12:00, 14:00-19:00; Sa 10:00-19:00",
        "atp_website": "https://www.maisondelaliterie.fr/magasin/",
        "osm_website": "https://www.maisondelaliterie.fr/magasin/336-maison-de-la-literie-blagnac",
        "brand_wikidata": "Q80955776",
        "brand": "Maison de la Literie",
        "match_count": 1
    },
    {
        "osm_id": 304196010,
        "osm_name": "Maison de la Literie",
        "osm_url": "https://www.osm.org/way/304196010",
        "osm_business": "bed",
        "atp_city": "Mondeville",
        "atp_address": "20 rue Jacquard Mondevillage",
        "osm_housenumber": "20",
        "osm_street": "Rue Joseph Jacquard",
        "atp_phone": "+33 2 31 72 49 66",
        "osm_phone": "+33 2 31 72 49 66",
        "atp_opening_hours": null,
        "osm_hours": "Mo-Th 09:30-19:00; Fr,Sa 09:30-19:30",
        "atp_website": "https://www.maisondelaliterie.fr/magasin/maison-de-la-literie-mondeville",
        "osm_website": "https://www.maisondelaliterie.fr/",
        "brand_wikidata": "Q80955776",
        "brand": "Maison de la Literie",
        "match_count": 1
    },
    {
        "osm_id": 457008063,
        "osm_name": "Maison de la Literie",
        "osm_url": "https://www.osm.org/way/457008063",
        "osm_business": "bed",
        "atp_city": "P\u00e9rols",
        "atp_address": "13 ZAC Fenouillet",
        "osm_housenumber": null,
        "osm_street": "Avenue du Languedoc",
        "atp_phone": "+33 4 67 50 28 71",
        "osm_phone": "+334 67 50 28 71",
        "atp_opening_hours": null,
        "osm_hours": "Mo 14:00-19:00; Tu-Sa 10:00-12:00,14:00-19:00",
        "atp_website": "https://www.maisondelaliterie.fr/magasin/maison-de-la-literie-perols",
        "osm_website": "https://www.maisondelaliterie.fr/magasin/141-maison-de-la-literie-perols",
        "brand_wikidata": "Q80955776",
        "brand": "Maison de la Literie",
        "match_count": 1
    },
    {
        "osm_id": 474166658,
        "osm_name": "Maison de la Literie",
        "osm_url": "https://www.osm.org/way/474166658",
        "osm_business": "bed",
        "atp_city": "Montauban",
        "atp_address": "609 route du Nord",
        "osm_housenumber": null,
        "osm_street": null,
        "atp_phone": "+33 5 63 63 40 23",
        "osm_phone": null,
        "atp_opening_hours": null,
        "osm_hours": null,
        "atp_website": "https://www.maisondelaliterie.fr/magasin/maison-de-la-literie-montauban",
        "osm_website": null,
        "brand_wikidata": "Q80955776",
        "brand": "Maison de la Literie",
        "match_count": 1
    },
    {
        "osm_id": 684522406,
        "osm_name": "Maison de la Literie",
        "osm_url": "https://www.osm.org/way/684522406",
        "osm_business": "bed",
        "atp_city": "Saumur",
        "atp_address": "83 boulevard des Demoiselles",
        "osm_housenumber": null,
        "osm_street": "Boulevard des Demoiselles",
        "atp_phone": "+33 2 41 38 22 96",
        "osm_phone": null,
        "atp_opening_hours": null,
        "osm_hours": null,
        "atp_website": "https://www.maisondelaliterie.fr/magasin/maison-de-la-literie-saumur",
        "osm_website": null,
        "brand_wikidata": "Q80955776",
        "brand": "Maison de la Literie",
        "match_count": 1
    },
    {
        "osm_id": 842329760,
        "osm_name": "Maison de la Literie",
        "osm_url": "https://www.osm.org/way/842329760",
        "osm_business": "bed",
        "atp_city": "Auxerre",
        "atp_address": "35 avenue Jean Mermoz",
        "osm_housenumber": null,
        "osm_street": null,
        "atp_phone": "+33 9 67 85 63 48",
        "osm_phone": null,
        "atp_opening_hours": null,
        "osm_hours": null,
        "atp_website": "https://www.maisondelaliterie.fr/magasin/maison-de-la-literie-auxerre",
        "osm_website": null,
        "brand_wikidata": "Q80955776",
        "brand": "Maison de la Literie",
        "match_count": 1
    },
    {
        "osm_id": 850204732,
        "osm_name": "Maison de la Literie",
        "osm_url": "https://www.osm.org/way/850204732",
        "osm_business": "bed",
        "atp_city": "Estancarbon",
        "atp_address": "Boulevard des Landes",
        "osm_housenumber": null,
        "osm_street": null,
        "atp_phone": "+33 5 61 88 61 38",
        "osm_phone": null,
        "atp_opening_hours": null,
        "osm_hours": null,
        "atp_website": "https://www.maisondelaliterie.fr/magasin/maison-de-la-literie-estancarbon",
        "osm_website": null,
        "brand_wikidata": "Q80955776",
        "brand": "Maison de la Literie",
        "match_count": 1
    },
    {
        "osm_id": 951749774,
        "osm_name": "Maison de la Literie",
        "osm_url": "https://www.osm.org/way/951749774",
        "osm_business": "bed",
        "atp_city": "Charmeil",
        "atp_address": "route de Vichy",
        "osm_housenumber": null,
        "osm_street": "Route de Saint-Pour\u00e7ain",
        "atp_phone": "+33 4 70 32 49 11",
        "osm_phone": "+33470324911",
        "atp_opening_hours": null,
        "osm_hours": "Mo-Sa 09:00-12:00, 14:00-19:00",
        "atp_website": "https://www.maisondelaliterie.fr/magasin/maison-de-la-literie-charmeil",
        "osm_website": "https://www.maisondelaliterie.fr",
        "brand_wikidata": "Q80955776",
        "brand": "Maison de la Literie",
        "match_count": 1
    },
    {
        "osm_id": 983840199,
        "osm_name": "Maison de la Literie",
        "osm_url": "https://www.osm.org/way/983840199",
        "osm_business": "bed",
        "atp_city": "Bo\u00e9",
        "atp_address": "129 avenue de Bigorre",
        "osm_housenumber": null,
        "osm_street": null,
        "atp_phone": "+33 5 53 99 70 44",
        "osm_phone": null,
        "atp_opening_hours": null,
        "osm_hours": null,
        "atp_website": "https://www.maisondelaliterie.fr/magasin/",
        "osm_website": null,
        "brand_wikidata": "Q80955776",
        "brand": "Maison de la Literie",
        "match_count": 1
    },
    {
        "osm_id": 1043721984,
        "osm_name": "Maison de la Literie",
        "osm_url": "https://www.osm.org/way/1043721984",
        "osm_business": "bed",
        "atp_city": "Lorient",
        "atp_address": "1 rue Colonel le Barillec",
        "osm_housenumber": null,
        "osm_street": null,
        "atp_phone": "+33 2 97 37 75 96",
        "osm_phone": null,
        "atp_opening_hours": null,
        "osm_hours": null,
        "atp_website": "https://www.maisondelaliterie.fr/magasin/maison-de-la-literie-lorient",
        "osm_website": null,
        "brand_wikidata": "Q80955776",
        "brand": "Maison de la Literie",
        "match_count": 1
    },
    {
        "osm_id": 1118584407,
        "osm_name": "Maison de la Literie",
        "osm_url": "https://www.osm.org/way/1118584407",
        "osm_business": "bed",
        "atp_city": "Anthy-sur-L\u00e9man",
        "atp_address": "25 avenue Pr\u00e9 Robert Sud",
        "osm_housenumber": "25",
        "osm_street": "Avenue du Pr\u00e9 Robert Sud",
        "atp_phone": "+33 4 50 71 63 84",
        "osm_phone": "+33 4 50 71 63 84",
        "atp_opening_hours": null,
        "osm_hours": "Mo-Fr 09:30-12:00, 14:00-19:00; Sa 09:30-19:00; Su off",
        "atp_website": "https://www.maisondelaliterie.fr/magasin/maison-de-la-literie-anthy-sur-leman",
        "osm_website": "https://www.maisondelaliterie.fr/magasin/11-maison-de-la-literie-anthy-sur-leman",
        "brand_wikidata": "Q80955776",
        "brand": "Maison de la Literie",
        "match_count": 1
    }
]