<?xml version="1.0" encoding="UTF-8"?>
<osm version="0.6" generator="Overpass API 0.7.62.1 084b4234">
<note>The data included in this document is from www.openstreetmap.org. The data is made available under ODbL.</note>
<meta osm_base="2024-07-21T08:38:15Z" areas="2024-07-21T05:52:14Z"/>

  <node id="2402619353" lat="43.9804013" lon="4.8815175" version="4" timestamp="2024-07-14T18:00:31Z" changeset="153941726" uid="1159672" user="merylstreet">
    <tag k="brand" v="Cigusto"/>
    <tag k="brand:wikidata" v="Q120785690"/>
    <tag k="name" v="Cigusto"/>
    <tag k="old_name" v="The phone house"/>
    <tag k="old_shop" v="mobile_phone"/>
    <tag k="shop" v="e-cigarette"/>
    <tag k="source" v="survey 2014"/>
  </node>
  <node id="3261760616" lat="47.9041736" lon="1.9042214" version="5" timestamp="2024-07-07T08:49:25Z" changeset="153651628" uid="21677318" user="meryl_atpfr_bot">
    <tag k="addr:city" v="Orléans"/>
    <tag k="addr:housenumber" v="17"/>
    <tag k="addr:postcode" v="45000"/>
    <tag k="addr:street" v="Rue de la République"/>
    <tag k="brand" v="Cigusto"/>
    <tag k="brand:wikidata" v="Q120785690"/>
    <tag k="name" v="Cigusto"/>
    <tag k="opening_hours" v="Mo-Sa 09:30-19:30"/>
    <tag k="phone" v="+33 9 67 47 07 91"/>
    <tag k="ref:FR:SIRET" v="79801977400024"/>
    <tag k="shop" v="e-cigarette"/>
    <tag k="website" v="https://www.cigusto.com/magasins/magasin-cigarette-electronique-cigusto-orleans"/>
  </node>
  <node id="4033268589" lat="44.1206216" lon="4.8388575" version="12" timestamp="2024-07-14T18:00:31Z" changeset="153941726" uid="1159672" user="merylstreet">
    <tag k="addr:city" v="Orange"/>
    <tag k="addr:street" v="Route de Jonquières"/>
    <tag k="addr:street_1" v="C. cial Carrefour Orange Le Coudoulet"/>
    <tag k="brand" v="Cigusto"/>
    <tag k="brand:wikidata" v="Q120785690"/>
    <tag k="contact:phone" v="+33 4 90 34 25 87"/>
    <tag k="level" v="0"/>
    <tag k="mapillary" v="3988813057850697"/>
    <tag k="name" v="Cigusto"/>
    <tag k="postal_code" v="84100"/>
    <tag k="shop" v="e-cigarette"/>
    <tag k="source" v="survey"/>
    <tag k="survey:date" v="2023-06-24"/>
    <tag k="was:name" v="Julien d'Orcel"/>
    <tag k="was:shop" v="jewelry"/>
  </node>
  <node id="4039336476" lat="47.9602513" lon="1.8865714" version="9" timestamp="2024-07-07T08:49:25Z" changeset="153651628" uid="21677318" user="meryl_atpfr_bot">
    <tag k="addr:city" v="Saran"/>
    <tag k="addr:postcode" v="45770"/>
    <tag k="brand" v="Cigusto"/>
    <tag k="brand:wikidata" v="Q120785690"/>
    <tag k="email" v="cigusto.saran@cigusto.com"/>
    <tag k="name" v="Cigusto"/>
    <tag k="opening_hours" v="Mo-Sa 09:30-20:00"/>
    <tag k="operator" v="Cigusto"/>
    <tag k="phone" v="+33 2 38 68 33 87"/>
    <tag k="ref:FR:SIRET" v="79801977400743"/>
    <tag k="shop" v="e-cigarette"/>
    <tag k="source" v="survey"/>
    <tag k="website" v="https://www.cigusto.com/"/>
  </node>
  <node id="5266942215" lat="48.7057550" lon="2.2534230" version="2" timestamp="2024-07-14T18:00:31Z" changeset="153941726" uid="1159672" user="merylstreet">
    <tag k="brand" v="Cigusto"/>
    <tag k="brand:wikidata" v="Q120785690"/>
    <tag k="name" v="Cigusto"/>
    <tag k="shop" v="e-cigarette"/>
  </node>
  <node id="6136799464" lat="47.3898046" lon="0.6911356" version="6" timestamp="2024-07-14T18:00:31Z" changeset="153941726" uid="1159672" user="merylstreet">
    <tag k="brand" v="Cigusto"/>
    <tag k="brand:wikidata" v="Q120785690"/>
    <tag k="name" v="Cigusto"/>
    <tag k="opening_hours" v="We,Sa 09:00-17:00"/>
    <tag k="shop" v="e-cigarette"/>
  </node>
  <node id="7368559657" lat="43.6098653" lon="1.3930339" version="3" timestamp="2024-07-07T08:49:25Z" changeset="153651628" uid="21677318" user="meryl_atpfr_bot">
    <tag k="brand" v="Cigusto"/>
    <tag k="brand:wikidata" v="Q120785690"/>
    <tag k="name" v="Cigusto"/>
    <tag k="opening_hours" v="Mo-Sa 09:30-20:00"/>
    <tag k="phone" v="+33 5 34 60 56 28"/>
    <tag k="shop" v="e-cigarette"/>
    <tag k="website" v="https://www.cigusto.com/magasins/magasin-cigarette-electronique-cigusto-purpan"/>
  </node>
  <node id="8425760517" lat="48.1052035" lon="-1.7149661" version="3" timestamp="2024-07-14T18:00:31Z" changeset="153941726" uid="1159672" user="merylstreet">
    <tag k="brand" v="Cigusto"/>
    <tag k="brand:wikidata" v="Q120785690"/>
    <tag k="min_age" v="18"/>
    <tag k="name" v="Cigusto"/>
    <tag k="shop" v="e-cigarette"/>
  </node>
  <node id="8425790381" lat="48.1301304" lon="-1.6325101" version="3" timestamp="2024-07-14T18:00:31Z" changeset="153941726" uid="1159672" user="merylstreet">
    <tag k="addr:city" v="Rennes"/>
    <tag k="addr:postcode" v="35700"/>
    <tag k="addr:street" v="Allée Morvan Lebesque"/>
    <tag k="brand" v="Cigusto"/>
    <tag k="brand:wikidata" v="Q120785690"/>
    <tag k="min_age" v="18"/>
    <tag k="name" v="Cigusto"/>
    <tag k="shop" v="e-cigarette"/>
  </node>
  <node id="8425798343" lat="48.1126284" lon="-1.5911465" version="3" timestamp="2024-07-14T18:00:31Z" changeset="153941726" uid="1159672" user="merylstreet">
    <tag k="addr:city" v="Cesson-Sévigné"/>
    <tag k="addr:postcode" v="35510"/>
    <tag k="addr:street" v="Rue de la Rigourdière"/>
    <tag k="brand" v="Cigusto"/>
    <tag k="brand:wikidata" v="Q120785690"/>
    <tag k="min_age" v="18"/>
    <tag k="name" v="Cigusto"/>
    <tag k="ref:FR:SIRET" v="79801977400511"/>
    <tag k="shop" v="e-cigarette"/>
  </node>
  <node id="8428368458" lat="47.6681620" lon="-2.7937733" version="2" timestamp="2024-07-14T18:00:31Z" changeset="153941726" uid="1159672" user="merylstreet">
    <tag k="addr:city" v="Vannes"/>
    <tag k="addr:housenumber" v="15"/>
    <tag k="addr:postcode" v="56000"/>
    <tag k="addr:street" v="Rue Aristide Boucicaut"/>
    <tag k="brand" v="Cigusto"/>
    <tag k="brand:wikidata" v="Q120785690"/>
    <tag k="min_age" v="18"/>
    <tag k="name" v="Cigusto"/>
    <tag k="shop" v="e-cigarette"/>
  </node>
  <node id="8428442880" lat="47.3284818" lon="-2.4103450" version="2" timestamp="2024-07-14T18:00:31Z" changeset="153941726" uid="1159672" user="merylstreet">
    <tag k="brand" v="Cigusto"/>
    <tag k="brand:wikidata" v="Q120785690"/>
    <tag k="min_age" v="18"/>
    <tag k="name" v="Cigusto"/>
    <tag k="shop" v="e-cigarette"/>
  </node>
  <node id="8651981628" lat="48.7489744" lon="1.3450312" version="3" timestamp="2024-07-07T08:49:25Z" changeset="153651628" uid="21677318" user="meryl_atpfr_bot">
    <tag k="brand" v="Cigusto"/>
    <tag k="brand:wikidata" v="Q120785690"/>
    <tag k="name" v="Cigusto"/>
    <tag k="opening_hours" v="Mo-Sa 09:30-19:30"/>
    <tag k="phone" v="+33 2 37 15 27 21"/>
    <tag k="shop" v="e-cigarette"/>
    <tag k="website" v="https://www.cigusto.com/magasins/magasin-cigarette-electronique-cigusto-dreux"/>
  </node>
  <node id="9223263354" lat="48.7014926" lon="2.1045940" version="2" timestamp="2024-07-14T18:00:31Z" changeset="153941726" uid="1159672" user="merylstreet">
    <tag k="brand" v="Cigusto"/>
    <tag k="brand:wikidata" v="Q120785690"/>
    <tag k="name" v="Cigusto"/>
    <tag k="shop" v="e-cigarette"/>
  </node>
  <node id="9459119764" lat="46.5402101" lon="3.3433741" version="2" timestamp="2024-07-14T18:00:31Z" changeset="153941726" uid="1159672" user="merylstreet">
    <tag k="brand" v="Cigusto"/>
    <tag k="brand:wikidata" v="Q120785690"/>
    <tag k="name" v="Cigusto"/>
    <tag k="shop" v="e-cigarette"/>
  </node>
  <node id="9512961838" lat="47.2812344" lon="5.9934229" version="4" timestamp="2024-07-07T08:49:25Z" changeset="153651628" uid="21677318" user="meryl_atpfr_bot">
    <tag k="brand" v="Cigusto"/>
    <tag k="brand:wikidata" v="Q120785690"/>
    <tag k="name" v="Cigusto"/>
    <tag k="opening_hours" v="Mo-Sa 09:30-19:30"/>
    <tag k="phone" v="+33 3 81 63 69 84"/>
    <tag k="shop" v="e-cigarette"/>
    <tag k="website" v="https://www.cigusto.com/magasins/magasin-cigarette-electronique-cigusto-besancon-ecole-valentin"/>
  </node>
  <node id="9558307857" lat="49.1117572" lon="6.6943404" version="2" timestamp="2024-07-14T18:00:31Z" changeset="153941726" uid="1159672" user="merylstreet">
    <tag k="brand" v="Cigusto"/>
    <tag k="brand:wikidata" v="Q120785690"/>
    <tag k="name" v="Cigusto"/>
    <tag k="shop" v="e-cigarette"/>
  </node>
  <node id="10240787599" lat="43.4440950" lon="6.7035286" version="2" timestamp="2024-07-14T18:00:31Z" changeset="153941726" uid="1159672" user="merylstreet">
    <tag k="brand" v="Cigusto"/>
    <tag k="brand:wikidata" v="Q120785690"/>
    <tag k="name" v="Cigusto"/>
    <tag k="shop" v="e-cigarette"/>
  </node>
  <node id="10913370111" lat="46.1114263" lon="-1.1046436" version="2" timestamp="2024-07-14T18:00:31Z" changeset="153941726" uid="1159672" user="merylstreet">
    <tag k="brand" v="Cigusto"/>
    <tag k="brand:wikidata" v="Q120785690"/>
    <tag k="name" v="Cigusto"/>
    <tag k="shop" v="e-cigarette"/>
  </node>
  <node id="10915731627" lat="48.9092818" lon="2.0350489" version="2" timestamp="2024-07-14T18:00:31Z" changeset="153941726" uid="1159672" user="merylstreet">
    <tag k="addr:city" v="Chambourcy"/>
    <tag k="addr:postcode" v="78240"/>
    <tag k="addr:street" v="Route de Mantes"/>
    <tag k="brand" v="Cigusto"/>
    <tag k="brand:wikidata" v="Q120785690"/>
    <tag k="name" v="Cigusto"/>
    <tag k="opening_hours" v="Mo-Sa 09:30-20:00"/>
    <tag k="shop" v="e-cigarette"/>
  </node>
  <node id="11082168988" lat="47.9742696" lon="0.1567483" version="3" timestamp="2024-07-07T08:49:25Z" changeset="153651628" uid="21677318" user="meryl_atpfr_bot">
    <tag k="brand" v="Cigusto"/>
    <tag k="brand:wikidata" v="Q120785690"/>
    <tag k="name" v="Cigusto"/>
    <tag k="opening_hours" v="Mo-Fr 09:30-19:30; Sa 09:00-19:30"/>
    <tag k="phone" v="+33 2 43 52 67 58"/>
    <tag k="ref:FR:SIRET" v="82866117300025"/>
    <tag k="shop" v="e-cigarette"/>
    <tag k="website" v="https://www.cigusto.com/magasins/magasin-cigarette-electronique-cigusto-le-mans-allonnes"/>
  </node>
  <node id="11196230920" lat="43.3739002" lon="-1.6784734" version="2" timestamp="2024-07-07T08:49:25Z" changeset="153651628" uid="21677318" user="meryl_atpfr_bot">
    <tag k="addr:city" v="Urrugne"/>
    <tag k="addr:postcode" v="64122"/>
    <tag k="addr:street" v="RD 810"/>
    <tag k="brand" v="Cigusto"/>
    <tag k="brand:wikidata" v="Q120785690"/>
    <tag k="name" v="Cigusto"/>
    <tag k="opening_hours" v="Mo-Sa 09:30-19:30"/>
    <tag k="phone" v="+33559244566"/>
    <tag k="shop" v="e-cigarette"/>
    <tag k="website" v="https://www.cigusto.com/magasins/magasin-cigarette-electronique-cigusto-urrugne"/>
  </node>
  <node id="11198730668" lat="49.5068988" lon="0.2250992" version="2" timestamp="2024-07-14T18:00:31Z" changeset="153941726" uid="1159672" user="merylstreet">
    <tag k="brand" v="Cigusto"/>
    <tag k="brand:wikidata" v="Q120785690"/>
    <tag k="name" v="Cigusto"/>
    <tag k="note" v="emplacement approximatif"/>
    <tag k="shop" v="e-cigarette"/>
  </node>
  <node id="11269449789" lat="48.5269056" lon="7.4961129" version="2" timestamp="2024-07-14T18:00:31Z" changeset="153941726" uid="1159672" user="merylstreet">
    <tag k="brand" v="Cigusto"/>
    <tag k="brand:wikidata" v="Q120785690"/>
    <tag k="name" v="Cigusto"/>
    <tag k="shop" v="e-cigarette"/>
  </node>
  <node id="11306855057" lat="47.8428372" lon="1.9161828" version="4" timestamp="2024-07-07T08:49:25Z" changeset="153651628" uid="21677318" user="meryl_atpfr_bot">
    <tag k="addr:city" v="Olivet"/>
    <tag k="addr:postcode" v="45160"/>
    <tag k="brand" v="Cigusto"/>
    <tag k="brand:wikidata" v="Q120785690"/>
    <tag k="name" v="Cigusto"/>
    <tag k="opening_hours" v="Mo-Sa 09:30-20:00"/>
    <tag k="phone" v="+33 2 38 51 71 23"/>
    <tag k="shop" v="e-cigarette"/>
    <tag k="website" v="https://www.cigusto.com/magasins/magasin-cigarette-electronique-cigusto-olivet"/>
  </node>
  <node id="11418123706" lat="43.4056426" lon="-1.6266798" version="2" timestamp="2024-07-07T08:49:25Z" changeset="153651628" uid="21677318" user="meryl_atpfr_bot">
    <tag k="addr:city" v="Saint-Jean-de-Luz"/>
    <tag k="addr:housenumber" v="20"/>
    <tag k="addr:postcode" v="64500"/>
    <tag k="addr:street" v="Avenue de Jalday"/>
    <tag k="brand" v="Cigusto"/>
    <tag k="brand:wikidata" v="Q120785690"/>
    <tag k="name" v="Cigusto"/>
    <tag k="opening_hours" v="Mo-Sa 09:30-19:30"/>
    <tag k="payment:cards" v="yes"/>
    <tag k="payment:credit_cards" v="yes"/>
    <tag k="payment:telephone_cards" v="yes"/>
    <tag k="phone" v="+33559269529"/>
    <tag k="shop" v="e-cigarette"/>
    <tag k="website" v="https://www.cigusto.com/magasins/magasin-cigarette-electronique-cigusto-saint-jean-de-luz"/>
    <tag k="wheelchair" v="yes"/>
  </node>
  <node id="11449832205" lat="48.5952486" lon="1.6762092" version="1" timestamp="2023-12-24T17:41:10Z" changeset="145476139" uid="20096652" user="Davidos64">
    <tag k="addr:city" v="Hanches"/>
    <tag k="addr:postcode" v="28130"/>
    <tag k="addr:street" v="Route de Gallardon"/>
    <tag k="brand" v="Cigusto"/>
    <tag k="brand:wikidata" v="Q120785690"/>
    <tag k="name" v="Cigusto"/>
    <tag k="opening_hours" v="Mo-Sa 09:30-19:30"/>
    <tag k="payment:cards" v="yes"/>
    <tag k="payment:credit_cards" v="yes"/>
    <tag k="phone" v="+33237201855"/>
    <tag k="shop" v="e-cigarette"/>
    <tag k="website" v="https://www.cigusto.com/"/>
    <tag k="wheelchair" v="yes"/>
  </node>
  <node id="11893406500" lat="43.6450594" lon="1.3725672" version="2" timestamp="2024-07-14T18:00:31Z" changeset="153941726" uid="1159672" user="merylstreet">
    <tag k="brand" v="Cigusto"/>
    <tag k="brand:wikidata" v="Q120785690"/>
    <tag k="contact:phone" v="+33 5 61 61 22 41"/>
    <tag k="name" v="Cigusto"/>
    <tag k="shop" v="e-cigarette"/>
  </node>
  <node id="11930733250" lat="49.4164609" lon="0.2645828" version="3" timestamp="2024-07-14T18:00:31Z" changeset="153941726" uid="1159672" user="merylstreet">
    <tag k="addr:city" v="Honfleur"/>
    <tag k="brand" v="Cigusto"/>
    <tag k="brand:wikidata" v="Q120785690"/>
    <tag k="check_date" v="2024-05-25"/>
    <tag k="name" v="Cigusto"/>
    <tag k="shop" v="e-cigarette"/>
  </node>
  <node id="11984271738" lat="43.8184442" lon="4.3927809" version="2" timestamp="2024-07-07T08:49:25Z" changeset="153651628" uid="21677318" user="meryl_atpfr_bot">
    <tag k="brand" v="Cigusto"/>
    <tag k="brand:wikidata" v="Q120785690"/>
    <tag k="name" v="Cigusto"/>
    <tag k="opening_hours" v="Mo-Sa 09:30-19:30"/>
    <tag k="phone" v="+33 4 66 76 16 06"/>
    <tag k="shop" v="e-cigarette"/>
    <tag k="website" v="https://www.cigusto.com/magasins/magasin-cigarette-electronique-cigusto-nimes"/>
  </node>
  <way id="221951889" version="5" timestamp="2024-07-14T18:00:31Z" changeset="153941726" uid="1159672" user="merylstreet">
    <nd ref="2309263899"/>
    <nd ref="2309263896"/>
    <nd ref="2309263885"/>
    <nd ref="2309263889"/>
    <nd ref="2309263893"/>
    <nd ref="2309263899"/>
    <tag k="brand" v="Cigusto"/>
    <tag k="brand:wikidata" v="Q120785690"/>
    <tag k="indoor" v="room"/>
    <tag k="level" v="0"/>
    <tag k="name" v="Cigusto"/>
    <tag k="room" v="shop"/>
    <tag k="shop" v="e-cigarette"/>
    <tag k="survey:date" v="2024-07-12"/>
    <tag k="wheelchair" v="yes"/>
  </way>
  <way id="426898447" version="5" timestamp="2024-07-14T18:00:31Z" changeset="153941726" uid="1159672" user="merylstreet">
    <nd ref="788988856"/>
    <nd ref="4261509285"/>
    <nd ref="4261509279"/>
    <nd ref="4261509271"/>
    <nd ref="4261509270"/>
    <nd ref="788988856"/>
    <tag k="brand" v="Cigusto"/>
    <tag k="brand:wikidata" v="Q120785690"/>
    <tag k="indoor" v="room"/>
    <tag k="level" v="0"/>
    <tag k="name" v="Cigusto"/>
    <tag k="ref:FR:SIRET" v="79801977400487"/>
    <tag k="room" v="shop"/>
    <tag k="shop" v="e-cigarette"/>
  </way>
  <way id="607107559" version="2" timestamp="2023-11-11T17:25:41Z" changeset="143908713" uid="8536397" user="Antimuonium">
    <nd ref="5754360636"/>
    <nd ref="5754360634"/>
    <nd ref="5754360631"/>
    <nd ref="797383854"/>
    <nd ref="5754360635"/>
    <nd ref="5754360636"/>
    <tag k="addr:housenumber" v="1751"/>
    <tag k="addr:street" v="Avenue de Genève"/>
    <tag k="brand" v="Cigusto"/>
    <tag k="brand:wikidata" v="Q120785690"/>
    <tag k="email" v="cigusto.sallanches@cigusto.com"/>
    <tag k="indoor" v="room"/>
    <tag k="level" v="0"/>
    <tag k="name" v="Cigusto"/>
    <tag k="opening_hours" v="Mo-Sa 09:00-19:30"/>
    <tag k="phone" v="+33 4 50 78 11 35"/>
    <tag k="shop" v="e-cigarette"/>
    <tag k="website" v="https://www.cigusto.com/magasins/magasin-cigarette-electronique-cigusto-sallanches"/>
  </way>
  <way id="946952720" version="2" timestamp="2024-07-14T18:00:31Z" changeset="153941726" uid="1159672" user="merylstreet">
    <nd ref="8765508012"/>
    <nd ref="8765508013"/>
    <nd ref="8765508014"/>
    <nd ref="8765508015"/>
    <nd ref="8765508016"/>
    <nd ref="8765508012"/>
    <tag k="addr:city" v="Annecy"/>
    <tag k="addr:housenumber" v="134"/>
    <tag k="addr:postcode" v="74000"/>
    <tag k="addr:street" v="Avenue de Genève"/>
    <tag k="brand" v="Cigusto"/>
    <tag k="brand:wikidata" v="Q120785690"/>
    <tag k="building" v="commercial"/>
    <tag k="name" v="Cigusto"/>
    <tag k="shop" v="e-cigarette"/>
  </way>
  <way id="972547821" version="4" timestamp="2024-07-18T15:52:02Z" changeset="154108024" uid="21766430" user="Winterfeldt">
    <nd ref="9001199175"/>
    <nd ref="9001199174"/>
    <nd ref="9001199173"/>
    <nd ref="9001199172"/>
    <nd ref="9001199171"/>
    <nd ref="9001199175"/>
    <tag k="addr:city" v="Angers"/>
    <tag k="addr:postcode" v="49000"/>
    <tag k="addr:street" v="Centre commercial Grand Maine"/>
    <tag k="air_conditioning" v="yes"/>
    <tag k="brand" v="Cigusto"/>
    <tag k="brand:wikidata" v="Q120785690"/>
    <tag k="brand:wikipedia" v="fr:CIGUSTO"/>
    <tag k="building" v="yes"/>
    <tag k="contact:facebook" v="www.facebook.com/cigustoangers"/>
    <tag k="email" v="cigusto.angers@cigusto.com"/>
    <tag k="name" v="Cigusto"/>
    <tag k="opening_hours" v="Mo-Sa 09:30-20:00"/>
    <tag k="payment:cash" v="yes"/>
    <tag k="payment:contactless" v="yes"/>
    <tag k="payment:credit_cards" v="yes"/>
    <tag k="phone" v="+33 2 41 39 84 26"/>
    <tag k="shop" v="e-cigarette"/>
    <tag k="website" v="www.cigusto.com"/>
    <tag k="wheelchair" v="yes"/>
  </way>
  <way id="1009045308" version="2" timestamp="2024-07-14T18:00:31Z" changeset="153941726" uid="1159672" user="merylstreet">
    <nd ref="9310106293"/>
    <nd ref="826422526"/>
    <nd ref="9310106294"/>
    <nd ref="9310106293"/>
    <tag k="brand" v="Cigusto"/>
    <tag k="brand:wikidata" v="Q120785690"/>
    <tag k="indoor" v="room"/>
    <tag k="level" v="0"/>
    <tag k="name" v="Cigusto"/>
    <tag k="ref" v="31"/>
    <tag k="room" v="shop"/>
    <tag k="shop" v="e-cigarette"/>
    <tag k="source" v="https://www.centrecommercial-chambray2.fr/"/>
  </way>
  <way id="1043714541" version="3" timestamp="2023-10-20T17:30:22Z" changeset="142880741" uid="12391080" user="Mevesscarto">
    <nd ref="9605448388"/>
    <nd ref="9605448387"/>
    <nd ref="9605448389"/>
    <nd ref="9605448388"/>
    <tag k="brand" v="Cigusto"/>
    <tag k="brand:wikidata" v="Q120785690"/>
    <tag k="indoor" v="room"/>
    <tag k="level" v="0"/>
    <tag k="name" v="Cigusto"/>
    <tag k="opening_hours" v="Mo-Sa 09:30-19:30"/>
    <tag k="phone" v="+33474115466"/>
    <tag k="shop" v="e-cigarette"/>
    <tag k="website" v="https://www.cigusto.com/magasins"/>
  </way>
  <way id="1049619628" version="5" timestamp="2024-07-14T18:00:31Z" changeset="153941726" uid="1159672" user="merylstreet">
    <nd ref="9645860919"/>
    <nd ref="9645860623"/>
    <nd ref="9645860920"/>
    <nd ref="9645860724"/>
    <nd ref="9645860922"/>
    <nd ref="9645860919"/>
    <tag k="brand" v="Cigusto"/>
    <tag k="brand:wikidata" v="Q120785690"/>
    <tag k="indoor" v="room"/>
    <tag k="level" v="0"/>
    <tag k="name" v="Cigusto"/>
    <tag k="shop" v="e-cigarette"/>
  </way>
  <way id="1049885689" version="3" timestamp="2024-07-14T18:00:31Z" changeset="153941726" uid="1159672" user="merylstreet">
    <nd ref="9648203220"/>
    <nd ref="9648203522"/>
    <nd ref="9648203523"/>
    <nd ref="9648203524"/>
    <nd ref="9648203525"/>
    <nd ref="9648203526"/>
    <nd ref="9648203622"/>
    <nd ref="9648203623"/>
    <nd ref="9648203220"/>
    <tag k="brand" v="Cigusto"/>
    <tag k="brand:wikidata" v="Q120785690"/>
    <tag k="indoor" v="room"/>
    <tag k="level" v="0"/>
    <tag k="name" v="Cigusto"/>
    <tag k="shop" v="e-cigarette"/>
  </way>
  <way id="1302308339" version="1" timestamp="2024-07-18T15:51:55Z" changeset="154108021" uid="21766430" user="Winterfeldt">
    <nd ref="12061504143"/>
    <nd ref="12061504144"/>
    <nd ref="12061504145"/>
    <nd ref="1483393201"/>
    <nd ref="12061504143"/>
    <tag k="addr:city" v="LA FLECHE"/>
    <tag k="addr:postcode" v="72200"/>
    <tag k="brand" v="Cigusto"/>
    <tag k="brand:wikidata" v="Q120785690"/>
    <tag k="building" v="yes"/>
    <tag k="contact:facebook" v="facebook.com/cigustolafleche"/>
    <tag k="email" v="cigusto.lafleche@cigusto.com"/>
    <tag k="name" v="Cigusto"/>
    <tag k="opening_hours" v="Mo-Sa 09:30-19:30"/>
    <tag k="payment:cash" v="yes"/>
    <tag k="payment:contactless" v="yes"/>
    <tag k="payment:credit_cards" v="yes"/>
    <tag k="phone" v="+332 43 96 06 29"/>
    <tag k="shop" v="e-cigarette"/>
    <tag k="website" v="www.cigusto.com"/>
    <tag k="wheelchair" v="yes"/>
  </way>
  <node id="788988856" lat="48.1385760" lon="-1.6847761" version="3" timestamp="2016-03-14T14:03:21Z" changeset="37821531" uid="2063032" user="garner87"/>
  <node id="4261509270" lat="48.1385110" lon="-1.6847254" version="1" timestamp="2016-06-23T20:46:32Z" changeset="40244964" uid="214436" user="PanierAvide"/>
  <node id="4261509271" lat="48.1385186" lon="-1.6846871" version="1" timestamp="2016-06-23T20:46:33Z" changeset="40244964" uid="214436" user="PanierAvide"/>
  <node id="4261509279" lat="48.1385670" lon="-1.6847072" version="1" timestamp="2016-06-23T20:46:33Z" changeset="40244964" uid="214436" user="PanierAvide"/>
  <node id="4261509285" lat="48.1386039" lon="-1.6847445" version="1" timestamp="2016-06-23T20:46:33Z" changeset="40244964" uid="214436" user="PanierAvide"/>
  <node id="9001199171" lat="47.4680669" lon="-0.5948523" version="1" timestamp="2021-08-12T10:47:54Z" changeset="109566150" uid="50624" user="David Crochet"/>
  <node id="9001199172" lat="47.4680477" lon="-0.5948750" version="1" timestamp="2021-08-12T10:47:54Z" changeset="109566150" uid="50624" user="David Crochet"/>
  <node id="9001199173" lat="47.4679966" lon="-0.5947954" version="1" timestamp="2021-08-12T10:47:54Z" changeset="109566150" uid="50624" user="David Crochet"/>
  <node id="9001199174" lat="47.4680373" lon="-0.5947463" version="1" timestamp="2021-08-12T10:47:54Z" changeset="109566150" uid="50624" user="David Crochet"/>
  <node id="9001199175" lat="47.4681025" lon="-0.5948533" version="1" timestamp="2021-08-12T10:47:54Z" changeset="109566150" uid="50624" user="David Crochet"/>
  <node id="1483393201" lat="47.7027610" lon="-0.0558894" version="1" timestamp="2011-10-28T10:49:15Z" changeset="9675370" uid="539123" user="jlepage"/>
  <node id="12061504143" lat="47.7028104" lon="-0.0559496" version="1" timestamp="2024-07-18T15:51:55Z" changeset="154108021" uid="21766430" user="Winterfeldt"/>
  <node id="12061504144" lat="47.7027802" lon="-0.0560007" version="1" timestamp="2024-07-18T15:51:55Z" changeset="154108021" uid="21766430" user="Winterfeldt"/>
  <node id="12061504145" lat="47.7027387" lon="-0.0559399" version="1" timestamp="2024-07-18T15:51:55Z" changeset="154108021" uid="21766430" user="Winterfeldt"/>
  <node id="9605448387" lat="45.3416992" lon="4.8061036" version="1" timestamp="2022-03-25T11:45:20Z" changeset="118905985" uid="12391080" user="Mevesscarto"/>
  <node id="9605448388" lat="45.3417114" lon="4.8062865" version="1" timestamp="2022-03-25T11:45:20Z" changeset="118905985" uid="12391080" user="Mevesscarto"/>
  <node id="9605448389" lat="45.3415510" lon="4.8061239" version="1" timestamp="2022-03-25T11:45:20Z" changeset="118905985" uid="12391080" user="Mevesscarto"/>
  <node id="9645860623" lat="45.8038826" lon="4.8582000" version="1" timestamp="2022-04-06T14:18:51Z" changeset="119390003" uid="15438615" user="BoumbaClap"/>
  <node id="9645860724" lat="45.8038494" lon="4.8582450" version="1" timestamp="2022-04-06T14:18:51Z" changeset="119390003" uid="15438615" user="BoumbaClap"/>
  <node id="9645860919" lat="45.8038251" lon="4.8581035" version="1" timestamp="2022-04-06T14:18:51Z" changeset="119390003" uid="15438615" user="BoumbaClap"/>
  <node id="9645860920" lat="45.8038676" lon="4.8582202" version="1" timestamp="2022-04-06T14:18:51Z" changeset="119390003" uid="15438615" user="BoumbaClap"/>
  <node id="9645860922" lat="45.8037910" lon="4.8581484" version="1" timestamp="2022-04-06T14:18:51Z" changeset="119390003" uid="15438615" user="BoumbaClap"/>
  <node id="8765508012" lat="45.9245268" lon="6.1240444" version="1" timestamp="2021-05-25T16:55:29Z" changeset="105305874" uid="171323" user="dom74"/>
  <node id="8765508013" lat="45.9245268" lon="6.1242153" version="1" timestamp="2021-05-25T16:55:29Z" changeset="105305874" uid="171323" user="dom74"/>
  <node id="8765508014" lat="45.9244953" lon="6.1242148" version="1" timestamp="2021-05-25T16:55:29Z" changeset="105305874" uid="171323" user="dom74"/>
  <node id="8765508015" lat="45.9244777" lon="6.1241889" version="1" timestamp="2021-05-25T16:55:29Z" changeset="105305874" uid="171323" user="dom74"/>
  <node id="8765508016" lat="45.9244773" lon="6.1240446" version="1" timestamp="2021-05-25T16:55:29Z" changeset="105305874" uid="171323" user="dom74"/>
  <node id="797383854" lat="45.9520273" lon="6.6278467" version="2" timestamp="2018-07-11T16:23:26Z" changeset="60621978" uid="59288" user="sigmaster74"/>
  <node id="5754360631" lat="45.9520236" lon="6.6277996" version="2" timestamp="2018-07-11T16:23:27Z" changeset="60621978" uid="59288" user="sigmaster74"/>
  <node id="5754360634" lat="45.9520178" lon="6.6277231" version="2" timestamp="2018-07-11T16:23:27Z" changeset="60621978" uid="59288" user="sigmaster74"/>
  <node id="5754360635" lat="45.9520585" lon="6.6278417" version="2" timestamp="2018-07-11T16:23:27Z" changeset="60621978" uid="59288" user="sigmaster74"/>
  <node id="5754360636" lat="45.9520490" lon="6.6277182" version="2" timestamp="2018-07-11T16:23:27Z" changeset="60621978" uid="59288" user="sigmaster74"/>
  <node id="9310106293" lat="47.3386462" lon="0.7011627" version="1" timestamp="2021-12-04T08:16:35Z" changeset="114546991" uid="6862774" user="Kurondie"/>
  <node id="9310106294" lat="47.3385792" lon="0.7011981" version="1" timestamp="2021-12-04T08:16:35Z" changeset="114546991" uid="6862774" user="Kurondie"/>
  <node id="826422526" lat="47.3386033" lon="0.7013080" version="1" timestamp="2010-07-20T17:16:21Z" changeset="5272248" uid="97101" user="monsieur a"/>
  <node id="2309263885" lat="48.9277439" lon="2.1440523" version="1" timestamp="2013-05-18T07:15:59Z" changeset="16176353" uid="37548" user="Marcussacapuces91"/>
  <node id="2309263889" lat="48.9277630" lon="2.1439809" version="1" timestamp="2013-05-18T07:15:59Z" changeset="16176353" uid="37548" user="Marcussacapuces91"/>
  <node id="2309263893" lat="48.9278060" lon="2.1439174" version="1" timestamp="2013-05-18T07:15:59Z" changeset="16176353" uid="37548" user="Marcussacapuces91"/>
  <node id="2309263896" lat="48.9278354" lon="2.1440231" version="1" timestamp="2013-05-18T07:15:59Z" changeset="16176353" uid="37548" user="Marcussacapuces91"/>
  <node id="2309263899" lat="48.9278566" lon="2.1439919" version="1" timestamp="2013-05-18T07:15:59Z" changeset="16176353" uid="37548" user="Marcussacapuces91"/>
  <node id="9648203522" lat="48.5915790" lon="7.6957559" version="1" timestamp="2022-04-07T09:55:27Z" changeset="119421878" uid="15438615" user="BoumbaClap"/>
  <node id="9648203523" lat="48.5915905" lon="7.6956794" version="1" timestamp="2022-04-07T09:55:27Z" changeset="119421878" uid="15438615" user="BoumbaClap"/>
  <node id="9648203524" lat="48.5916340" lon="7.6956942" version="1" timestamp="2022-04-07T09:55:27Z" changeset="119421878" uid="15438615" user="BoumbaClap"/>
  <node id="9648203525" lat="48.5916357" lon="7.6956801" version="1" timestamp="2022-04-07T09:55:27Z" changeset="119421878" uid="15438615" user="BoumbaClap"/>
  <node id="9648203526" lat="48.5916770" lon="7.6956949" version="1" timestamp="2022-04-07T09:55:27Z" changeset="119421878" uid="15438615" user="BoumbaClap"/>
  <node id="9648203622" lat="48.5916788" lon="7.6956848" version="1" timestamp="2022-04-07T09:55:27Z" changeset="119421878" uid="15438615" user="BoumbaClap"/>
  <node id="9648203220" lat="48.5916875" lon="7.6957933" version="1" timestamp="2022-04-07T09:55:27Z" changeset="119421878" uid="15438615" user="BoumbaClap"/>
  <node id="9648203623" lat="48.5917019" lon="7.6956930" version="1" timestamp="2022-04-07T09:55:27Z" changeset="119421878" uid="15438615" user="BoumbaClap"/>

</osm>
