<?xml version="1.0" encoding="UTF-8"?>
<osm version="0.6" generator="Overpass API 0.7.62.1 084b4234">
<note>The data included in this document is from www.openstreetmap.org. The data is made available under ODbL.</note>
<meta osm_base="2024-06-24T07:38:45Z" areas="2024-06-24T02:42:27Z"/>

  <node id="1323319928" lat="48.6357045" lon="7.7269647" version="5" timestamp="2024-06-21T21:05:35Z" changeset="153008943" uid="289775" user="trial">
    <tag k="brand" v="Autour de Bébé"/>
    <tag k="brand:wikidata" v="Q117842411"/>
    <tag k="name" v="Autour de Bébé"/>
    <tag k="shop" v="baby_goods"/>
    <tag k="short_name" v="ADBB"/>
  </node>
  <node id="1755028650" lat="45.4792190" lon="4.3591797" version="4" timestamp="2024-06-21T21:06:41Z" changeset="153008979" uid="289775" user="trial">
    <tag k="brand" v="Autour de Bébé"/>
    <tag k="brand:wikidata" v="Q117842411"/>
    <tag k="name" v="Autour de Bébé"/>
    <tag k="old_name" v="Aubert"/>
    <tag k="shop" v="baby_goods"/>
    <tag k="short_name" v="ADBB"/>
  </node>
  <node id="3048673035" lat="43.4929961" lon="-1.4915675" version="8" timestamp="2024-06-21T20:42:54Z" changeset="153008368" uid="289775" user="trial">
    <tag k="brand" v="Autour de Bébé"/>
    <tag k="brand:wikidata" v="Q117842411"/>
    <tag k="name" v="Autour de Bébé"/>
    <tag k="opening_hours" v="Mo-Sa 10:00-13:00,14:00-19:00"/>
    <tag k="shop" v="baby_goods"/>
    <tag k="short_name" v="ADBB"/>
    <tag k="wheelchair" v="yes"/>
  </node>
  <node id="4187386972" lat="47.4834982" lon="-0.6262353" version="4" timestamp="2024-06-21T21:04:32Z" changeset="153008920" uid="289775" user="trial">
    <tag k="brand" v="Autour de Bébé"/>
    <tag k="brand:wikidata" v="Q117842411"/>
    <tag k="name" v="Autour de Bébé"/>
    <tag k="shop" v="baby_goods"/>
    <tag k="short_name" v="ADBB"/>
  </node>
  <node id="5531114941" lat="45.9534759" lon="6.6304765" version="3" timestamp="2024-06-21T21:04:58Z" changeset="153008928" uid="289775" user="trial">
    <tag k="brand" v="Autour de Bébé"/>
    <tag k="brand:wikidata" v="Q117842411"/>
    <tag k="name" v="Autour de Bébé"/>
    <tag k="shop" v="baby_goods"/>
    <tag k="short_name" v="ADBB"/>
  </node>
  <node id="5906673261" lat="45.0594619" lon="5.1019881" version="5" timestamp="2024-06-21T20:42:56Z" changeset="153008368" uid="289775" user="trial">
    <tag k="addr:housenumber" v="601"/>
    <tag k="addr:street" v="Allée Abbé Pierre"/>
    <tag k="brand" v="Autour de Bébé"/>
    <tag k="brand:wikidata" v="Q117842411"/>
    <tag k="name" v="Autour de Bébé"/>
    <tag k="shop" v="baby_goods"/>
    <tag k="short_name" v="ADBB"/>
  </node>
  <node id="6188719082" lat="48.2801356" lon="7.4574852" version="6" timestamp="2024-06-21T21:04:46Z" changeset="153008924" uid="289775" user="trial">
    <tag k="addr:housenumber" v="6"/>
    <tag k="addr:street" v="Rue de Waldkirch"/>
    <tag k="brand" v="Autour de Bébé"/>
    <tag k="brand:wikidata" v="Q117842411"/>
    <tag k="name" v="Autour de Bébé"/>
    <tag k="shop" v="baby_goods"/>
    <tag k="short_name" v="ADBB"/>
  </node>
  <node id="7024429733" lat="46.1394476" lon="3.4384619" version="4" timestamp="2024-06-21T21:05:22Z" changeset="153008940" uid="289775" user="trial">
    <tag k="brand" v="Autour de Bébé"/>
    <tag k="brand:wikidata" v="Q117842411"/>
    <tag k="clothes" v="babies;children"/>
    <tag k="name" v="Autour de Bébé"/>
    <tag k="opening_hours" v="Mo-Fr 09:00-12:00,14:00-19:00; Sa 09:00-19:00"/>
    <tag k="shop" v="baby_goods"/>
    <tag k="short_name" v="ADBB"/>
    <tag k="source" v="survey"/>
    <tag k="start_date" v="2019"/>
    <tag k="survey:date" v="2021-04-13"/>
    <tag k="wheelchair" v="yes"/>
  </node>
  <node id="7081438339" lat="43.2990098" lon="5.4794776" version="4" timestamp="2024-06-21T20:42:58Z" changeset="153008368" uid="289775" user="trial">
    <tag k="brand" v="Autour de Bébé"/>
    <tag k="brand:wikidata" v="Q117842411"/>
    <tag k="check_date" v="2024-01-26"/>
    <tag k="name" v="Autour de Bébé"/>
    <tag k="shop" v="baby_goods"/>
    <tag k="short_name" v="ADBB"/>
  </node>
  <node id="7231189662" lat="48.4267517" lon="-4.6141950" version="4" timestamp="2024-06-21T20:42:59Z" changeset="153008368" uid="289775" user="trial">
    <tag k="brand" v="Autour de Bébé"/>
    <tag k="brand:wikidata" v="Q117842411"/>
    <tag k="name" v="Autour de Bébé"/>
    <tag k="shop" v="baby_goods"/>
    <tag k="short_name" v="ADBB"/>
  </node>
  <node id="7301797789" lat="47.4948531" lon="6.8394033" version="4" timestamp="2024-06-21T20:42:59Z" changeset="153008368" uid="289775" user="trial">
    <tag k="brand" v="Autour de Bébé"/>
    <tag k="brand:wikidata" v="Q117842411"/>
    <tag k="name" v="Autour de Bébé"/>
    <tag k="shop" v="baby_goods"/>
    <tag k="short_name" v="ADBB"/>
  </node>
  <node id="7612819953" lat="41.5835647" lon="9.2659593" version="4" timestamp="2024-06-21T20:43:00Z" changeset="153008368" uid="289775" user="trial">
    <tag k="brand" v="Autour de Bébé"/>
    <tag k="brand:wikidata" v="Q117842411"/>
    <tag k="name" v="Autour de Bébé"/>
    <tag k="opening_hours" v="Mo-Sa 09:00-12:00,14:30-18:30"/>
    <tag k="phone" v="+33 4 95 22 41 45"/>
    <tag k="shop" v="baby_goods"/>
    <tag k="short_name" v="ADBB"/>
    <tag k="website" v="https://magasins.autourdebebe.com/fr/france-FR/354/adbb-autour-de-bebe-porto-vecchio/details"/>
  </node>
  <node id="8261162892" lat="47.7390046" lon="7.2839145" version="4" timestamp="2024-06-21T20:43:00Z" changeset="153008368" uid="289775" user="trial">
    <tag k="addr:housenumber" v="8"/>
    <tag k="addr:street" v="Jean Monnet"/>
    <tag k="brand" v="Autour de Bébé"/>
    <tag k="brand:wikidata" v="Q117842411"/>
    <tag k="check_date" v="2024-06-12"/>
    <tag k="name" v="Autour de Bébé"/>
    <tag k="opening_hours" v="Mo-Fr 09:00-12:00,14:00-19:00; Sa 09:00-18:30; Su off"/>
    <tag k="payment:cash" v="yes"/>
    <tag k="payment:credit_cards" v="yes"/>
    <tag k="payment:debit_cards" v="yes"/>
    <tag k="phone" v="+33 3 89 33 98 16"/>
    <tag k="shop" v="baby_goods"/>
    <tag k="short_name" v="ADBB"/>
    <tag k="website" v="https://magasins.autourdebebe.com/fr/france-FR/172/adbb-autour-de-bebe-morschwiller-le-bas/details"/>
    <tag k="wheelchair" v="yes"/>
  </node>
  <node id="8529701789" lat="42.7709785" lon="2.9172551" version="3" timestamp="2024-06-21T20:43:01Z" changeset="153008368" uid="289775" user="trial">
    <tag k="brand" v="Autour de Bébé"/>
    <tag k="brand:wikidata" v="Q117842411"/>
    <tag k="name" v="Autour de Bébé"/>
    <tag k="shop" v="baby_goods"/>
    <tag k="short_name" v="ADBB"/>
    <tag k="website" v="https://www.autourdebebe.com/magasin/347/adbb-autour-de-bebe-claira"/>
  </node>
  <node id="9106215158" lat="44.1197002" lon="4.8430147" version="3" timestamp="2024-06-21T20:43:01Z" changeset="153008368" uid="289775" user="trial">
    <tag k="addr:street" v="Rue d'Italie"/>
    <tag k="brand" v="Autour de Bébé"/>
    <tag k="brand:wikidata" v="Q117842411"/>
    <tag k="name" v="Autour de Bébé"/>
    <tag k="shop" v="baby_goods"/>
    <tag k="short_name" v="ADBB"/>
    <tag k="source" v="survey"/>
    <tag k="survey:date" v="2021-09-18"/>
  </node>
  <node id="9384315590" lat="45.3847115" lon="5.5789966" version="6" timestamp="2024-06-21T20:43:02Z" changeset="153008368" uid="289775" user="trial">
    <tag k="brand" v="Autour de Bébé"/>
    <tag k="brand:wikidata" v="Q117842411"/>
    <tag k="name" v="Autour de Bébé"/>
    <tag k="opening_hours" v="Mo-Th 10:00-12:30,14:00-19:00; Fr,Sa 10:00-19:00"/>
    <tag k="shop" v="baby_goods"/>
    <tag k="short_name" v="ADBB"/>
    <tag k="wheelchair" v="yes"/>
  </node>
  <node id="9625667494" lat="49.8694640" lon="2.3717416" version="6" timestamp="2024-06-21T20:43:02Z" changeset="153008368" uid="289775" user="trial">
    <tag k="addr:housenumber" v="8"/>
    <tag k="addr:postcode" v="80330"/>
    <tag k="addr:street" v="Avenue de l'Arc"/>
    <tag k="brand" v="Autour de Bébé"/>
    <tag k="brand:wikidata" v="Q117842411"/>
    <tag k="name" v="Autour de Bébé"/>
    <tag k="opening_hours" v="Mo-Fr 10:00-12:30,14:00-19:00; Sa 10:00-19:00"/>
    <tag k="phone" v="+33 3 22 45 00 07"/>
    <tag k="shop" v="baby_goods"/>
    <tag k="short_name" v="ADBB"/>
    <tag k="website" v="https://magasins.autourdebebe.com/fr/france-FR/269/adbb-autour-de-bebe-longueau/details"/>
  </node>
  <node id="10797359567" lat="43.3155593" lon="-0.4307024" version="3" timestamp="2024-06-21T20:43:03Z" changeset="153008368" uid="289775" user="trial">
    <tag k="brand" v="Autour de Bébé"/>
    <tag k="brand:wikidata" v="Q117842411"/>
    <tag k="name" v="Autour de Bébé"/>
    <tag k="shop" v="baby_goods"/>
    <tag k="short_name" v="ADBB"/>
  </node>
  <node id="10881993357" lat="44.8822662" lon="6.6242436" version="2" timestamp="2024-02-18T12:17:36Z" changeset="147606387" uid="20033850" user="Tag Upgrade Bot">
    <tag k="brand" v="Autour de Bébé"/>
    <tag k="brand:wikidata" v="Q117842411"/>
    <tag k="name" v="Autour de Bébé"/>
    <tag k="shop" v="baby_goods"/>
    <tag k="short_name" v="ADBB"/>
  </node>
  <node id="11065820593" lat="46.1736201" lon="-1.1201525" version="5" timestamp="2024-06-21T20:43:03Z" changeset="153008368" uid="289775" user="trial">
    <tag k="brand" v="Autour de Bébé"/>
    <tag k="brand:wikidata" v="Q117842411"/>
    <tag k="name" v="Autour de Bébé"/>
    <tag k="opening_hours" v="Mo-Fr 10:00-13:00,14:00-19:00; Sa 10:00-19:00"/>
    <tag k="phone" v="+33546508103"/>
    <tag k="shop" v="baby_goods"/>
    <tag k="short_name" v="ADBB"/>
    <tag k="website" v="https://magasins.autourdebebe.com/fr/france-FR/273/adbb-autour-de-bebe-la-rochelle/details"/>
    <tag k="wheelchair" v="yes"/>
  </node>
  <node id="11939133231" lat="50.6398340" lon="2.9690185" version="3" timestamp="2024-06-21T20:43:04Z" changeset="153008368" uid="289775" user="trial">
    <tag k="brand" v="Autour de Bébé"/>
    <tag k="brand:wikidata" v="Q117842411"/>
    <tag k="name" v="Autour de Bébé"/>
    <tag k="shop" v="baby_goods"/>
    <tag k="short_name" v="ADBB"/>
  </node>
  <way id="37141318" version="11" timestamp="2024-06-21T21:06:22Z" changeset="153008965" uid="289775" user="trial">
    <nd ref="1979319689"/>
    <nd ref="1979319690"/>
    <nd ref="432567435"/>
    <nd ref="432567439"/>
    <nd ref="1979319689"/>
    <tag k="addr:housenumber" v="11"/>
    <tag k="addr:street" v="Rue de Besançon"/>
    <tag k="alt_name" v="New Baby - Bébé Cash"/>
    <tag k="brand" v="Autour de Bébé"/>
    <tag k="brand:wikidata" v="Q117842411"/>
    <tag k="building" v="retail"/>
    <tag k="contact:facebook" v="https://www.facebook.com/Autour-De-B%C3%A9B%C3%A9-Adbb-B%C3%A9b%C3%A9-Cash-Pontarlier-Doubs-984071298321235/"/>
    <tag k="delivery" v="yes"/>
    <tag k="email" v="adbbdoubs@gmail.com"/>
    <tag k="name" v="Autour de Bébé"/>
    <tag k="opening_hours" v="Mo-Fr 09:30-12:00,14:00-19:00; Sa 09:30-19:30"/>
    <tag k="opening_hours:url" v="https://magasins.autourdebebe.com/fr/france-FR/114/adbb-autour-de-bebe-doubs/details"/>
    <tag k="phone" v="+33 3 81 46 64 05"/>
    <tag k="ref:FR:SIRET" v="38303521900039"/>
    <tag k="shop" v="baby_goods"/>
    <tag k="short_name" v="ADBB"/>
    <tag k="source" v="cadastre-dgi-fr source : Direction Générale des Impôts - Cadastre. Mise à jour : 2012"/>
    <tag k="website" v="https://bebe-pontarlier.com/"/>
    <tag k="wheelchair" v="yes"/>
  </way>
  <way id="62838614" version="8" timestamp="2024-06-21T21:06:05Z" changeset="153008960" uid="289775" user="trial">
    <nd ref="782387536"/>
    <nd ref="782465737"/>
    <nd ref="6779167306"/>
    <nd ref="782349596"/>
    <nd ref="782387536"/>
    <tag k="addr:housenumber" v="105"/>
    <tag k="addr:postcode" v="63170"/>
    <tag k="addr:street" v="Avenue de Cournon"/>
    <tag k="brand" v="Autour de Bébé"/>
    <tag k="brand:wikidata" v="Q117842411"/>
    <tag k="building" v="retail"/>
    <tag k="name" v="Autour de Bébé"/>
    <tag k="shop" v="baby_goods"/>
    <tag k="short_name" v="ADBB"/>
    <tag k="source" v="cadastre-dgi-fr source : Direction Générale des Impôts - Cadastre. Mise à jour : 2010"/>
  </way>
  <way id="67098456" version="14" timestamp="2024-06-21T20:43:06Z" changeset="153008368" uid="289775" user="trial">
    <nd ref="810546255"/>
    <nd ref="810453150"/>
    <nd ref="810560374"/>
    <nd ref="810422793"/>
    <nd ref="810515708"/>
    <nd ref="810549756"/>
    <nd ref="810436130"/>
    <nd ref="810477290"/>
    <nd ref="810499206"/>
    <nd ref="810547809"/>
    <nd ref="810486804"/>
    <nd ref="810433961"/>
    <nd ref="810546255"/>
    <tag k="addr:housenumber" v="57"/>
    <tag k="addr:street" v="Rue Gautier"/>
    <tag k="brand" v="Autour de Bébé"/>
    <tag k="brand:wikidata" v="Q117842411"/>
    <tag k="building" v="yes"/>
    <tag k="contact:facebook" v="https://www.facebook.com/Autour-de-b%C3%A9b%C3%A9-Saintes-768662819858776/"/>
    <tag k="name" v="Autour de Bébé"/>
    <tag k="phone" v="+33 5 46 74 67 05"/>
    <tag k="shop" v="baby_goods"/>
    <tag k="short_name" v="ADBB"/>
    <tag k="source" v="cadastre-dgi-fr source : Direction Générale des Impôts - Cadastre. Mise à jour : 2010"/>
  </way>
  <way id="72367210" version="7" timestamp="2024-06-21T21:07:16Z" changeset="153009001" uid="289775" user="trial">
    <nd ref="859465687"/>
    <nd ref="859505572"/>
    <nd ref="859457695"/>
    <nd ref="5893460284"/>
    <nd ref="859514666"/>
    <nd ref="859503807"/>
    <nd ref="859465687"/>
    <tag k="brand" v="Autour de Bébé"/>
    <tag k="brand:wikidata" v="Q117842411"/>
    <tag k="building" v="retail"/>
    <tag k="clothes" v="babies"/>
    <tag k="name" v="Autour de Bébé"/>
    <tag k="opening_hours:url" v="https://magasins.autourdebebe.com/fr/france-FR/114/adbb-autour-de-bebe-doubs/details"/>
    <tag k="shop" v="baby_goods"/>
    <tag k="short_name" v="ADBB"/>
    <tag k="source" v="extraction vectorielle v1 cadastre-dgi-fr source : Direction Générale des Impôts - Cadas. Mise à jour : 2010"/>
  </way>
  <way id="80119664" version="6" timestamp="2024-06-21T21:06:53Z" changeset="153008987" uid="289775" user="trial">
    <nd ref="934676234"/>
    <nd ref="934676351"/>
    <nd ref="934676219"/>
    <nd ref="934676196"/>
    <nd ref="934676303"/>
    <nd ref="934676267"/>
    <nd ref="934676348"/>
    <nd ref="934676200"/>
    <nd ref="934676234"/>
    <tag k="brand" v="Autour de Bébé"/>
    <tag k="brand:wikidata" v="Q117842411"/>
    <tag k="building" v="retail"/>
    <tag k="building:levels" v="1"/>
    <tag k="name" v="Autour de Bébé"/>
    <tag k="shop" v="baby_goods"/>
    <tag k="short_name" v="ADBB"/>
    <tag k="source" v="Bing"/>
  </way>
  <way id="81099316" version="7" timestamp="2024-06-21T20:43:08Z" changeset="153008368" uid="289775" user="trial">
    <nd ref="945154140"/>
    <nd ref="945155176"/>
    <nd ref="945153850"/>
    <nd ref="945155787"/>
    <nd ref="11018720110"/>
    <nd ref="11018717311"/>
    <nd ref="945154193"/>
    <nd ref="945155154"/>
    <nd ref="945156093"/>
    <nd ref="7023770256"/>
    <nd ref="945154322"/>
    <nd ref="945153648"/>
    <nd ref="11011673307"/>
    <nd ref="7023770255"/>
    <nd ref="945153558"/>
    <nd ref="11011673805"/>
    <nd ref="945153905"/>
    <nd ref="945154140"/>
    <tag k="addr:housenumber" v="18"/>
    <tag k="addr:street" v="Rue de Comboire"/>
    <tag k="brand" v="Autour de Bébé"/>
    <tag k="brand:wikidata" v="Q117842411"/>
    <tag k="building" v="retail"/>
    <tag k="contact:phone" v="+33 4 76 40 81 81"/>
    <tag k="name" v="Autour de Bébé"/>
    <tag k="opening_hours" v="Mo-Sa 09:30-18:00"/>
    <tag k="shop" v="baby_goods"/>
    <tag k="short_name" v="ADBB"/>
    <tag k="source" v="cadastre-dgi-fr source : Direction Générale des Impôts - Cadastre. Mise à jour : 2010"/>
    <tag k="website" v="https://magasins.autourdebebe.com/fr/france-FR/27/adbb-autour-de-bebe-echirolles/details"/>
  </way>
  <way id="83751882" version="8" timestamp="2024-06-21T20:43:09Z" changeset="153008368" uid="289775" user="trial">
    <nd ref="975009613"/>
    <nd ref="975437953"/>
    <nd ref="975280515"/>
    <nd ref="975226489"/>
    <nd ref="974800659"/>
    <nd ref="974745906"/>
    <nd ref="974967919"/>
    <nd ref="975009613"/>
    <tag k="brand" v="Autour de Bébé"/>
    <tag k="brand:wikidata" v="Q117842411"/>
    <tag k="building" v="yes"/>
    <tag k="name" v="Autour de Bébé"/>
    <tag k="shop" v="baby_goods"/>
    <tag k="short_name" v="ADBB"/>
    <tag k="source" v="cadastre-dgi-fr source : Direction Générale des Impôts - Cadastre. Mise à jour : 2010"/>
  </way>
  <way id="86583236" version="10" timestamp="2024-06-21T20:43:09Z" changeset="153008368" uid="289775" user="trial">
    <nd ref="1006622242"/>
    <nd ref="1006671449"/>
    <nd ref="1006655466"/>
    <nd ref="1006664974"/>
    <nd ref="1006670469"/>
    <nd ref="1006622242"/>
    <tag k="addr:housenumber" v="2"/>
    <tag k="addr:street" v="Rue Jules Romains"/>
    <tag k="brand" v="Autour de Bébé"/>
    <tag k="brand:wikidata" v="Q117842411"/>
    <tag k="building" v="yes"/>
    <tag k="name" v="Autour de Bébé"/>
    <tag k="opening_hours" v="Mo 14:00-19:00; Tu-Sa 09:30-12:00,14:00-19:00"/>
    <tag k="phone" v="+33 3 26 06 79 35"/>
    <tag k="shop" v="baby_goods"/>
    <tag k="short_name" v="ADBB"/>
    <tag k="source" v="extraction vectorielle v1 cadastre-dgi-fr source : Direction Générale des Impôts - Cadas. Mise à jour : 2010"/>
  </way>
  <way id="101285547" version="4" timestamp="2024-06-21T21:05:47Z" changeset="153008950" uid="289775" user="trial">
    <nd ref="1168412535"/>
    <nd ref="1168331324"/>
    <nd ref="1168281286"/>
    <nd ref="1168235414"/>
    <nd ref="1168227992"/>
    <nd ref="1168525567"/>
    <nd ref="1168345177"/>
    <nd ref="1168419924"/>
    <nd ref="1168412535"/>
    <tag k="brand" v="Autour de Bébé"/>
    <tag k="brand:wikidata" v="Q117842411"/>
    <tag k="building" v="yes"/>
    <tag k="name" v="Autour de Bébé"/>
    <tag k="shop" v="baby_goods"/>
    <tag k="short_name" v="ADBB"/>
    <tag k="source" v="cadastre-dgi-fr source : Direction Générale des Impôts - Cadastre. Mise à jour : 2011"/>
  </way>
  <way id="115373146" version="6" timestamp="2024-06-21T20:43:11Z" changeset="153008368" uid="289775" user="trial">
    <nd ref="1303792888"/>
    <nd ref="1303792891"/>
    <nd ref="1303792953"/>
    <nd ref="1303792960"/>
    <nd ref="2441943337"/>
    <nd ref="1303792888"/>
    <tag k="brand" v="Autour de Bébé"/>
    <tag k="brand:wikidata" v="Q117842411"/>
    <tag k="building" v="yes"/>
    <tag k="name" v="Autour de Bébé"/>
    <tag k="shop" v="baby_goods"/>
    <tag k="short_name" v="ADBB"/>
    <tag k="source" v="cadastre-dgi-fr source : Direction Générale des Impôts - Cadastre. Mise à jour : 2011"/>
  </way>
  <way id="121740728" version="7" timestamp="2024-06-21T20:43:11Z" changeset="153008368" uid="289775" user="trial">
    <nd ref="1361782176"/>
    <nd ref="1361782133"/>
    <nd ref="1361780881"/>
    <nd ref="1361780306"/>
    <nd ref="1361778961"/>
    <nd ref="1361778965"/>
    <nd ref="1361780222"/>
    <nd ref="1361780681"/>
    <nd ref="1361782176"/>
    <tag k="brand" v="Autour de Bébé"/>
    <tag k="brand:wikidata" v="Q117842411"/>
    <tag k="building" v="retail"/>
    <tag k="name" v="Autour de Bébé"/>
    <tag k="shop" v="baby_goods"/>
    <tag k="short_name" v="ADBB"/>
    <tag k="source" v="cadastre-dgi-fr source : Direction Générale des Impôts - Cadastre. Mise à jour : 2011"/>
  </way>
  <way id="325726019" version="5" timestamp="2024-06-21T20:43:12Z" changeset="153008368" uid="289775" user="trial">
    <nd ref="3323426967"/>
    <nd ref="3323426969"/>
    <nd ref="3323426968"/>
    <nd ref="3323426970"/>
    <nd ref="3323426965"/>
    <nd ref="3323426963"/>
    <nd ref="3323426964"/>
    <nd ref="3323426966"/>
    <nd ref="3323426967"/>
    <tag k="brand" v="Autour de Bébé"/>
    <tag k="brand:wikidata" v="Q117842411"/>
    <tag k="building" v="retail"/>
    <tag k="disused" v="clothes"/>
    <tag k="name" v="Autour de Bébé"/>
    <tag k="shop" v="baby_goods"/>
    <tag k="short_name" v="ADBB"/>
  </way>
  <way id="342963497" version="3" timestamp="2024-06-21T20:43:12Z" changeset="153008368" uid="289775" user="trial">
    <nd ref="3499031930"/>
    <nd ref="3499031933"/>
    <nd ref="3499031932"/>
    <nd ref="3499031929"/>
    <nd ref="3499031930"/>
    <tag k="brand" v="Autour de Bébé"/>
    <tag k="brand:wikidata" v="Q117842411"/>
    <tag k="building" v="yes"/>
    <tag k="name" v="Autour de Bébé"/>
    <tag k="shop" v="baby_goods"/>
    <tag k="short_name" v="ADBB"/>
  </way>
  <way id="465399965" version="5" timestamp="2024-06-21T20:43:13Z" changeset="153008368" uid="289775" user="trial">
    <nd ref="4603667945"/>
    <nd ref="4603667946"/>
    <nd ref="2070653035"/>
    <nd ref="2070653036"/>
    <nd ref="4603667945"/>
    <tag k="brand" v="Autour de Bébé"/>
    <tag k="brand:wikidata" v="Q117842411"/>
    <tag k="building" v="retail"/>
    <tag k="name" v="Autour de Bébé"/>
    <tag k="shop" v="baby_goods"/>
    <tag k="short_name" v="ADBB"/>
  </way>
  <way id="482735987" version="3" timestamp="2024-06-21T20:43:13Z" changeset="153008368" uid="289775" user="trial">
    <nd ref="4755345277"/>
    <nd ref="1348045789"/>
    <nd ref="1348048085"/>
    <nd ref="4755345281"/>
    <nd ref="4755345277"/>
    <tag k="brand" v="Autour de Bébé"/>
    <tag k="brand:wikidata" v="Q117842411"/>
    <tag k="building" v="retail"/>
    <tag k="name" v="Autour de Bébé"/>
    <tag k="shop" v="baby_goods"/>
    <tag k="short_name" v="ADBB"/>
    <tag k="source" v="cadastre-dgi-fr source : Direction Générale des Impôts - Cadastre. Mise à jour : 2011"/>
  </way>
  <way id="864486776" version="4" timestamp="2024-06-21T20:43:14Z" changeset="153008368" uid="289775" user="trial">
    <nd ref="8057328000"/>
    <nd ref="8057328002"/>
    <nd ref="826426527"/>
    <nd ref="826411549"/>
    <nd ref="8057328000"/>
    <tag k="brand" v="Autour de Bébé"/>
    <tag k="brand:wikidata" v="Q117842411"/>
    <tag k="building" v="yes"/>
    <tag k="check_date" v="2023-11-17"/>
    <tag k="name" v="Autour de Bébé"/>
    <tag k="shop" v="baby_goods"/>
    <tag k="short_name" v="ADBB"/>
    <tag k="source" v="extraction vectorielle v1 cadastre-dgi-fr source : Direction Générale des Impôts - Cadas. Mise à jour : 2010"/>
  </way>
  <node id="810422793" lat="45.7441009" lon="-0.6262852" version="1" timestamp="2010-07-10T19:28:00Z" changeset="5184856" uid="89861" user="xschaeffer"/>
  <node id="810433961" lat="45.7439950" lon="-0.6266035" version="1" timestamp="2010-07-10T19:37:02Z" changeset="5184856" uid="89861" user="xschaeffer"/>
  <node id="810436130" lat="45.7442488" lon="-0.6262874" version="1" timestamp="2010-07-10T19:38:42Z" changeset="5184856" uid="89861" user="xschaeffer"/>
  <node id="810453150" lat="45.7439768" lon="-0.6263300" version="1" timestamp="2010-07-10T19:44:37Z" changeset="5184856" uid="89861" user="xschaeffer"/>
  <node id="810477290" lat="45.7442237" lon="-0.6262943" version="1" timestamp="2010-07-10T19:58:20Z" changeset="5184856" uid="89861" user="xschaeffer"/>
  <node id="810486804" lat="45.7440408" lon="-0.6265872" version="1" timestamp="2010-07-10T20:07:38Z" changeset="5184856" uid="89861" user="xschaeffer"/>
  <node id="810499206" lat="45.7442561" lon="-0.6265091" version="2" timestamp="2013-06-06T23:54:35Z" changeset="16451295" uid="23981" user="NaSH"/>
  <node id="810515708" lat="45.7442171" lon="-0.6262448" version="1" timestamp="2010-07-10T20:17:53Z" changeset="5184856" uid="89861" user="xschaeffer"/>
  <node id="810546255" lat="45.7438571" lon="-0.6263760" version="1" timestamp="2010-07-10T20:28:40Z" changeset="5184856" uid="89861" user="xschaeffer"/>
  <node id="810547809" lat="45.7441392" lon="-0.6265524" version="1" timestamp="2010-07-10T20:30:21Z" changeset="5184856" uid="89861" user="xschaeffer"/>
  <node id="810549756" lat="45.7442427" lon="-0.6262413" version="1" timestamp="2010-07-10T20:32:20Z" changeset="5184856" uid="89861" user="xschaeffer"/>
  <node id="810560374" lat="45.7440918" lon="-0.6262888" version="1" timestamp="2010-07-10T20:41:42Z" changeset="5184856" uid="89861" user="xschaeffer"/>
  <node id="782349596" lat="45.7556078" lon="3.1463535" version="1" timestamp="2010-06-22T17:05:02Z" changeset="5052670" uid="143932" user="NicolasDumoulin"/>
  <node id="782387536" lat="45.7556038" lon="3.1466104" version="1" timestamp="2010-06-22T17:12:50Z" changeset="5052670" uid="143932" user="NicolasDumoulin"/>
  <node id="782465737" lat="45.7561502" lon="3.1466273" version="1" timestamp="2010-06-22T17:28:41Z" changeset="5052670" uid="143932" user="NicolasDumoulin"/>
  <node id="6779167306" lat="45.7561540" lon="3.1463704" version="2" timestamp="2023-11-03T08:29:10Z" changeset="143562912" uid="49047" user="vincent_95"/>
  <node id="974745906" lat="43.9226132" lon="4.8619982" version="4" timestamp="2019-11-16T21:45:42Z" changeset="77175988" uid="6231864" user="cabinetcourbi"/>
  <node id="974800659" lat="43.9224511" lon="4.8616922" version="3" timestamp="2019-11-16T21:45:42Z" changeset="77175988" uid="6231864" user="cabinetcourbi"/>
  <node id="974967919" lat="43.9226457" lon="4.8620596" version="3" timestamp="2019-11-16T21:45:42Z" changeset="77175988" uid="6231864" user="cabinetcourbi"/>
  <node id="975009613" lat="43.9228682" lon="4.8618337" version="3" timestamp="2019-11-16T21:45:42Z" changeset="77175988" uid="6231864" user="cabinetcourbi"/>
  <node id="975226489" lat="43.9227166" lon="4.8614223" version="3" timestamp="2019-11-16T21:45:42Z" changeset="77175988" uid="6231864" user="cabinetcourbi"/>
  <node id="975280515" lat="43.9227831" lon="4.8615478" version="3" timestamp="2019-11-16T21:45:42Z" changeset="77175988" uid="6231864" user="cabinetcourbi"/>
  <node id="975437953" lat="43.9227394" lon="4.8615917" version="3" timestamp="2019-11-16T21:45:42Z" changeset="77175988" uid="6231864" user="cabinetcourbi"/>
  <node id="1168227992" lat="43.4334738" lon="5.2630042" version="1" timestamp="2011-02-23T14:00:07Z" changeset="7372376" uid="16038" user="krysst"/>
  <node id="1168235414" lat="43.4335736" lon="5.2628521" version="1" timestamp="2011-02-23T14:04:15Z" changeset="7372376" uid="16038" user="krysst"/>
  <node id="1168281286" lat="43.4336605" lon="5.2628487" version="1" timestamp="2011-02-23T14:30:12Z" changeset="7372376" uid="16038" user="krysst"/>
  <node id="1168331324" lat="43.4336881" lon="5.2628125" version="1" timestamp="2011-02-23T15:07:03Z" changeset="7372376" uid="16038" user="krysst"/>
  <node id="1168345177" lat="43.4338741" lon="5.2630417" version="1" timestamp="2011-02-23T15:15:07Z" changeset="7372376" uid="16038" user="krysst"/>
  <node id="1168412535" lat="43.4337505" lon="5.2628889" version="1" timestamp="2011-02-23T15:52:15Z" changeset="7373354" uid="16038" user="krysst"/>
  <node id="1168419924" lat="43.4338022" lon="5.2629531" version="1" timestamp="2011-02-23T15:56:37Z" changeset="7373354" uid="16038" user="krysst"/>
  <node id="1168525567" lat="43.4336683" lon="5.2633002" version="1" timestamp="2011-02-23T17:15:19Z" changeset="7373354" uid="16038" user="krysst"/>
  <node id="945153558" lat="45.1460760" lon="5.6929850" version="1" timestamp="2010-10-11T14:35:30Z" changeset="6012229" uid="148831" user="chimel38"/>
  <node id="945153648" lat="45.1458329" lon="5.6931542" version="1" timestamp="2010-10-11T14:35:35Z" changeset="6012229" uid="148831" user="chimel38"/>
  <node id="945153850" lat="45.1459125" lon="5.6926666" version="1" timestamp="2010-10-11T14:35:48Z" changeset="6012229" uid="148831" user="chimel38"/>
  <node id="945153905" lat="45.1460977" lon="5.6928946" version="1" timestamp="2010-10-11T14:35:52Z" changeset="6012229" uid="148831" user="chimel38"/>
  <node id="945154140" lat="45.1460173" lon="5.6926658" version="1" timestamp="2010-10-11T14:36:02Z" changeset="6012229" uid="148831" user="chimel38"/>
  <node id="945154193" lat="45.1457164" lon="5.6928059" version="1" timestamp="2010-10-11T14:36:06Z" changeset="6012229" uid="148831" user="chimel38"/>
  <node id="945154322" lat="45.1457701" lon="5.6931266" version="1" timestamp="2010-10-11T14:36:21Z" changeset="6012229" uid="148831" user="chimel38"/>
  <node id="945155154" lat="45.1457100" lon="5.6928104" version="1" timestamp="2010-10-11T14:37:42Z" changeset="6012229" uid="148831" user="chimel38"/>
  <node id="945155176" lat="45.1459567" lon="5.6926380" version="1" timestamp="2010-10-11T14:37:44Z" changeset="6012229" uid="148831" user="chimel38"/>
  <node id="945155787" lat="45.1458193" lon="5.6927327" version="1" timestamp="2010-10-11T14:38:14Z" changeset="6012229" uid="148831" user="chimel38"/>
  <node id="945156093" lat="45.1456884" lon="5.6928997" version="1" timestamp="2010-10-11T14:38:23Z" changeset="6012229" uid="148831" user="chimel38"/>
  <node id="7023770255" lat="45.1460524" lon="5.6930014" version="1" timestamp="2019-12-01T15:58:08Z" changeset="77785196" uid="3341187" user="Pepilepioux"/>
  <node id="7023770256" lat="45.1457082" lon="5.6929546" version="1" timestamp="2019-12-01T15:58:08Z" changeset="77785196" uid="3341187" user="Pepilepioux"/>
  <node id="11011673307" lat="45.1459438" lon="5.6930771" version="2" timestamp="2023-11-18T10:20:55Z" changeset="144168332" uid="2353462" user="barnes38">
    <tag k="entrance" v="main"/>
  </node>
  <node id="11011673805" lat="45.1460867" lon="5.6929444" version="1" timestamp="2023-06-28T06:46:14Z" changeset="137863754" uid="2353462" user="barnes38"/>
  <node id="11018717311" lat="45.1457214" lon="5.6928024" version="1" timestamp="2023-07-01T20:47:41Z" changeset="138005481" uid="2353462" user="barnes38"/>
  <node id="11018720110" lat="45.1458129" lon="5.6927373" version="1" timestamp="2023-07-01T20:47:41Z" changeset="138005481" uid="2353462" user="barnes38"/>
  <node id="1348045789" lat="45.5869380" lon="5.2539280" version="1" timestamp="2011-07-03T15:38:49Z" changeset="8620255" uid="148831" user="chimel38"/>
  <node id="1348048085" lat="45.5871840" lon="5.2540920" version="1" timestamp="2011-07-03T15:39:59Z" changeset="8620255" uid="148831" user="chimel38"/>
  <node id="4755345277" lat="45.5870068" lon="5.2537186" version="1" timestamp="2017-03-25T21:00:57Z" changeset="47162563" uid="99151" user="quicky"/>
  <node id="4755345281" lat="45.5872513" lon="5.2538876" version="1" timestamp="2017-03-25T21:00:57Z" changeset="47162563" uid="99151" user="quicky"/>
  <node id="934676196" lat="46.1993086" lon="6.2645906" version="2" timestamp="2012-04-08T22:17:23Z" changeset="11231574" uid="74847" user="Marc Mongenet"/>
  <node id="934676219" lat="46.1993525" lon="6.2642753" version="2" timestamp="2012-04-08T22:17:23Z" changeset="11231574" uid="74847" user="Marc Mongenet"/>
  <node id="934676234" lat="46.1993994" lon="6.2642243" version="2" timestamp="2012-04-08T22:17:24Z" changeset="11231574" uid="74847" user="Marc Mongenet"/>
  <node id="934676267" lat="46.1993014" lon="6.2649147" version="2" timestamp="2012-04-08T22:17:24Z" changeset="11231574" uid="74847" user="Marc Mongenet"/>
  <node id="934676303" lat="46.1993451" lon="6.2646012" version="2" timestamp="2012-04-08T22:17:24Z" changeset="11231574" uid="74847" user="Marc Mongenet"/>
  <node id="934676348" lat="46.1995650" lon="6.2649913" version="2" timestamp="2012-04-08T22:17:24Z" changeset="11231574" uid="74847" user="Marc Mongenet"/>
  <node id="934676351" lat="46.1993908" lon="6.2642864" version="2" timestamp="2012-04-08T22:17:24Z" changeset="11231574" uid="74847" user="Marc Mongenet"/>
  <node id="934676200" lat="46.1996612" lon="6.2643005" version="2" timestamp="2012-04-08T22:17:23Z" changeset="11231574" uid="74847" user="Marc Mongenet"/>
  <node id="826411549" lat="47.3358930" lon="0.6999545" version="2" timestamp="2020-10-27T22:58:48Z" changeset="93146397" uid="9379687" user="Alban37"/>
  <node id="826426527" lat="47.3358816" lon="0.7008967" version="2" timestamp="2020-10-27T22:58:48Z" changeset="93146397" uid="9379687" user="Alban37"/>
  <node id="8057328000" lat="47.3358060" lon="0.6999549" version="1" timestamp="2020-10-27T22:58:48Z" changeset="93146397" uid="9379687" user="Alban37"/>
  <node id="8057328002" lat="47.3358082" lon="0.7008966" version="1" timestamp="2020-10-27T22:58:48Z" changeset="93146397" uid="9379687" user="Alban37"/>
  <node id="3499031929" lat="46.7748055" lon="1.6433126" version="2" timestamp="2024-06-21T18:44:37Z" changeset="153005124" uid="289775" user="trial"/>
  <node id="3499031930" lat="46.7749720" lon="1.6430372" version="2" timestamp="2023-02-17T16:14:14Z" changeset="132684583" uid="315271" user="peyot"/>
  <node id="3499031932" lat="46.7751584" lon="1.6436421" version="2" timestamp="2024-06-21T18:44:37Z" changeset="153005124" uid="289775" user="trial"/>
  <node id="3499031933" lat="46.7752791" lon="1.6434355" version="2" timestamp="2023-02-17T16:14:14Z" changeset="132684583" uid="315271" user="peyot"/>
  <node id="3323426963" lat="48.4339517" lon="0.0641460" version="3" timestamp="2024-06-21T18:19:19Z" changeset="153004231" uid="289775" user="trial"/>
  <node id="3323426964" lat="48.4340223" lon="0.0636661" version="2" timestamp="2024-06-21T18:19:19Z" changeset="153004231" uid="289775" user="trial"/>
  <node id="3323426965" lat="48.4340761" lon="0.0641879" version="3" timestamp="2024-06-21T18:19:19Z" changeset="153004231" uid="289775" user="trial"/>
  <node id="3323426966" lat="48.4340800" lon="0.0636853" version="2" timestamp="2024-06-21T18:19:19Z" changeset="153004231" uid="289775" user="trial"/>
  <node id="3323426967" lat="48.4341018" lon="0.0635374" version="2" timestamp="2024-06-21T18:19:19Z" changeset="153004231" uid="289775" user="trial"/>
  <node id="3323426968" lat="48.4341111" lon="0.0636924" version="2" timestamp="2024-06-21T18:19:19Z" changeset="153004231" uid="289775" user="trial"/>
  <node id="3323426969" lat="48.4341324" lon="0.0635486" version="2" timestamp="2024-06-21T18:19:19Z" changeset="153004231" uid="289775" user="trial"/>
  <node id="3323426970" lat="48.4341478" lon="0.0637047" version="2" timestamp="2024-06-21T18:19:19Z" changeset="153004231" uid="289775" user="trial"/>
  <node id="2070653036" lat="49.5299360" lon="0.9632872" version="3" timestamp="2017-01-12T12:46:38Z" changeset="45102916" uid="731323" user="popgun"/>
  <node id="4603667945" lat="49.5301647" lon="0.9633327" version="1" timestamp="2017-01-12T12:46:37Z" changeset="45102916" uid="731323" user="popgun"/>
  <node id="2070653035" lat="49.5298975" lon="0.9636783" version="3" timestamp="2017-01-12T12:46:38Z" changeset="45102916" uid="731323" user="popgun"/>
  <node id="4603667946" lat="49.5301225" lon="0.9637312" version="1" timestamp="2017-01-12T12:46:37Z" changeset="45102916" uid="731323" user="popgun"/>
  <node id="1303792888" lat="48.6208191" lon="2.3409758" version="2" timestamp="2013-09-01T21:50:16Z" changeset="17626296" uid="709289" user="Super-Map"/>
  <node id="1303792891" lat="48.6208490" lon="2.3405710" version="1" timestamp="2011-05-28T16:14:45Z" changeset="8272869" uid="37548" user="Marcussacapuces91"/>
  <node id="1303792953" lat="48.6206300" lon="2.3405310" version="1" timestamp="2011-05-28T16:14:47Z" changeset="8272869" uid="37548" user="Marcussacapuces91"/>
  <node id="1303792960" lat="48.6205970" lon="2.3409360" version="1" timestamp="2011-05-28T16:14:48Z" changeset="8272869" uid="37548" user="Marcussacapuces91"/>
  <node id="2441943337" lat="48.6206682" lon="2.3409492" version="1" timestamp="2013-09-01T21:49:11Z" changeset="17626296" uid="709289" user="Super-Map"/>
  <node id="1361778961" lat="47.3117540" lon="5.0964520" version="1" timestamp="2011-07-14T17:10:41Z" changeset="8723910" uid="375716" user="lpp37"/>
  <node id="1361778965" lat="47.3117560" lon="5.0965130" version="1" timestamp="2011-07-14T17:10:41Z" changeset="8723910" uid="375716" user="lpp37"/>
  <node id="1361780222" lat="47.3119090" lon="5.0967130" version="1" timestamp="2011-07-14T17:10:58Z" changeset="8723910" uid="375716" user="lpp37"/>
  <node id="1361780306" lat="47.3119240" lon="5.0961680" version="1" timestamp="2011-07-14T17:10:59Z" changeset="8723910" uid="375716" user="lpp37"/>
  <node id="1361780681" lat="47.3119580" lon="5.0967100" version="1" timestamp="2011-07-14T17:11:04Z" changeset="8723910" uid="375716" user="lpp37"/>
  <node id="1361780881" lat="47.3119730" lon="5.0961680" version="1" timestamp="2011-07-14T17:11:06Z" changeset="8723910" uid="375716" user="lpp37"/>
  <node id="1361782133" lat="47.3121220" lon="5.0963600" version="1" timestamp="2011-07-14T17:11:25Z" changeset="8723910" uid="375716" user="lpp37"/>
  <node id="1361782176" lat="47.3121270" lon="5.0964290" version="1" timestamp="2011-07-14T17:11:26Z" changeset="8723910" uid="375716" user="lpp37"/>
  <node id="432567435" lat="46.9237786" lon="6.3415516" version="3" timestamp="2014-01-12T08:35:29Z" changeset="19948254" uid="870861" user="botdidier2020"/>
  <node id="432567439" lat="46.9235565" lon="6.3417973" version="3" timestamp="2014-01-12T08:35:29Z" changeset="19948254" uid="870861" user="botdidier2020"/>
  <node id="1979319689" lat="46.9236878" lon="6.3420511" version="1" timestamp="2012-10-23T12:40:17Z" changeset="13604982" uid="13442" user="Damouns"/>
  <node id="1979319690" lat="46.9239101" lon="6.3418064" version="1" timestamp="2012-10-23T12:40:17Z" changeset="13604982" uid="13442" user="Damouns"/>
  <node id="859457695" lat="47.2142354" lon="5.9490851" version="3" timestamp="2011-11-04T19:15:00Z" changeset="9740853" uid="86289" user="Gustry"/>
  <node id="859465687" lat="47.2139240" lon="5.9489578" version="3" timestamp="2011-11-04T19:15:07Z" changeset="9740853" uid="86289" user="Gustry"/>
  <node id="859503807" lat="47.2140876" lon="5.9486750" version="2" timestamp="2011-11-04T19:15:17Z" changeset="9740853" uid="86289" user="Gustry"/>
  <node id="859505572" lat="47.2140208" lon="5.9492044" version="2" timestamp="2011-11-04T19:15:22Z" changeset="9740853" uid="86289" user="Gustry"/>
  <node id="859514666" lat="47.2141622" lon="5.9487784" version="2" timestamp="2011-11-04T19:15:38Z" changeset="9740853" uid="86289" user="Gustry"/>
  <node id="5893460284" lat="47.2142014" lon="5.9489233" version="3" timestamp="2022-10-09T17:02:15Z" changeset="127259080" uid="172867" user="AmiFritz">
    <tag k="addr:housenumber" v="3"/>
  </node>
  <node id="1006622242" lat="49.2127791" lon="4.0430489" version="1" timestamp="2010-11-27T07:22:47Z" changeset="6467304" uid="158090" user="MXS"/>
  <node id="1006670469" lat="49.2130065" lon="4.0432719" version="1" timestamp="2010-11-27T07:37:42Z" changeset="6467304" uid="158090" user="MXS"/>
  <node id="1006671449" lat="49.2125737" lon="4.0435354" version="1" timestamp="2010-11-27T07:38:03Z" changeset="6467304" uid="158090" user="MXS"/>
  <node id="1006655466" lat="49.2127560" lon="4.0437145" version="1" timestamp="2010-11-27T07:32:37Z" changeset="6467304" uid="158090" user="MXS"/>
  <node id="1006664974" lat="49.2128299" lon="4.0436904" version="1" timestamp="2010-11-27T07:35:44Z" changeset="6467304" uid="158090" user="MXS"/>

</osm>
