<?xml version='1.0' encoding='UTF-8'?>
<osm version="0.6" generator="Overpass API 0.7.62.1 084b4234">
  <note>The data included in this document is from www.openstreetmap.org. The data is made available under ODbL.</note>
  <meta osm_base="2024-07-21T08:41:14Z" areas="2024-07-21T05:52:14Z" />
  <node id="3917494661" lat="43.6215239" lon="3.9085881" version="4" timestamp="2024-07-14T17:34:43Z" changeset="153940703" uid="1159672" user="merylstreet">
    <tag k="brand" v="KPMG" />
    <tag k="brand:wikidata" v="Q493751" />
    <tag k="check_date" v="2024-05-30" />
    <tag k="name" v="KPMG" />
    <tag k="office" v="consulting" />
  </node>
  <node id="4837115296" lat="44.9044892" lon="4.9045090" version="3" timestamp="2024-07-14T17:34:43Z" changeset="153940703" uid="1159672" user="merylstreet" action="modify">
    <tag k="brand" v="KPMG" />
    <tag k="brand:wikidata" v="Q493751" />
    <tag k="name" v="KPMG" />
    <tag k="office" v="consulting" />
    <tag k="phone" v="+33 4 75 41 89 89" />
    <tag k="website" v="https://bureaux.kpmg.fr/fr/france-FR/385/kpmg-valence/details" />
    <tag k="opening_hours" v="Mo-Fr 08:30-12:00,13:30-17:00" />
  </node>
  <node id="4995129661" lat="45.9242453" lon="6.1653089" version="2" timestamp="2024-07-14T17:34:43Z" changeset="153940703" uid="1159672" user="merylstreet" action="modify">
    <tag k="brand" v="KPMG" />
    <tag k="brand:wikidata" v="Q493751" />
    <tag k="name" v="KPMG" />
    <tag k="office" v="consulting" />
    <tag k="phone" v="+33 4 50 64 00 82" />
    <tag k="website" v="https://bureaux.kpmg.fr/fr/france-FR/208/kpmg-annecy-le-vieux/details" />
    <tag k="opening_hours" v="Mo-Fr 08:30-12:00,14:00-17:30" />
  </node>
  <node id="5228555604" lat="48.0046150" lon="0.1963193" version="4" timestamp="2024-07-14T17:34:43Z" changeset="153940703" uid="1159672" user="merylstreet" action="modify">
    <tag k="addr:city" v="Le Mans" />
    <tag k="addr:housenumber" v="40 bis" />
    <tag k="addr:postcode" v="72000" />
    <tag k="addr:street" v="Place de la République" />
    <tag k="brand" v="KPMG" />
    <tag k="brand:wikidata" v="Q493751" />
    <tag k="name" v="KPMG" />
    <tag k="office" v="consulting" />
    <tag k="phone" v="+33 2 43 50 80 00" />
    <tag k="website" v="https://bureaux.kpmg.fr/fr/france-FR/288/kpmg-le-mans/details" />
    <tag k="opening_hours" v="Mo-Tu 09:00-18:15; We 08:45-18:00; Th 09:00-18:15; Fr 09:00-17:45" />
  </node>
  <node id="5939592003" lat="48.0123608" lon="6.6032427" version="7" timestamp="2024-07-14T17:34:43Z" changeset="153940703" uid="1159672" user="merylstreet">
    <tag k="brand" v="KPMG" />
    <tag k="brand:wikidata" v="Q493751" />
    <tag k="fax" v="+33 329 262 920" />
    <tag k="level" v="1" />
    <tag k="name" v="KPMG" />
    <tag k="office" v="consulting" />
    <tag k="phone" v="+33 329 262 926" />
    <tag k="website" v="https://home.kpmg/fr/fr/home/a-propos-de-kpmg/offices/remiremont-1.html" />
  </node>
  <node id="6524002157" lat="50.1014345" lon="1.8621837" version="2" timestamp="2024-07-14T17:34:43Z" changeset="153940703" uid="1159672" user="merylstreet" action="modify">
    <tag k="brand" v="KPMG" />
    <tag k="brand:wikidata" v="Q493751" />
    <tag k="description" v="Expertise comptable Commissaires aux comptes Conseils en organisation, gestion management" />
    <tag k="name" v="KPMG" />
    <tag k="office" v="consulting" />
    <tag k="phone" v="+33 3 22 99 90 00" />
    <tag k="website" v="https://bureaux.kpmg.fr/fr/france-FR/200/kpmg-abbeville/details" />
    <tag k="opening_hours" v="Mo-Th 08:00-18:00; Fr 08:00-17:00" />
  </node>
  <node id="6587366457" lat="46.4767988" lon="4.0052992" version="3" timestamp="2024-07-14T17:34:43Z" changeset="153940703" uid="1159672" user="merylstreet">
    <tag k="addr:city" v="Digoin" />
    <tag k="addr:housenumber" v="6" />
    <tag k="addr:postcode" v="71160" />
    <tag k="addr:street" v="Rue des Charmes" />
    <tag k="brand" v="KPMG" />
    <tag k="brand:wikidata" v="Q493751" />
    <tag k="name" v="KPMG" />
    <tag k="office" v="consulting" />
    <tag k="opening_hours" v="Mo-Fr 08:15-12:15, 14:00-18:00" />
    <tag k="phone" v="+33 3 85 88 55 80" />
    <tag k="website" v="https://home.kpmg/fr/fr/home/a-propos-de-kpmg/offices/digoin-1.html" />
  </node>
  <node id="6647584760" lat="48.1500112" lon="-1.6981729" version="2" timestamp="2024-07-14T17:34:43Z" changeset="153940703" uid="1159672" user="merylstreet">
    <tag k="addr:city" v="Saint-Grégoire" />
    <tag k="addr:postcode" v="35760" />
    <tag k="addr:street" v="Rue de la Terre Victoria" />
    <tag k="brand" v="KPMG" />
    <tag k="brand:wikidata" v="Q493751" />
    <tag k="name" v="KPMG" />
    <tag k="office" v="consulting" />
  </node>
  <node id="7235038349" lat="46.1953132" lon="5.2213410" version="2" timestamp="2024-07-14T17:34:43Z" changeset="153940703" uid="1159672" user="merylstreet" action="modify">
    <tag k="brand" v="KPMG" />
    <tag k="brand:wikidata" v="Q493751" />
    <tag k="name" v="KPMG" />
    <tag k="office" v="consulting" />
    <tag k="operator" v="Kpmg" />
    <tag k="phone" v="+33 4 74 50 31 80" />
    <tag k="website" v="https://bureaux.kpmg.fr/fr/france-FR/228/kpmg-bourg-en-bresse/details" />
    <tag k="opening_hours" v="Mo-Fr 08:30-12:00,13:30-17:00" />
  </node>
  <node id="7471324292" lat="48.6116700" lon="7.7145437" version="3" timestamp="2024-07-07T08:47:28Z" changeset="153651558" uid="21677318" user="meryl_atpfr_bot">
    <tag k="addr:housenumber" v="9" />
    <tag k="addr:postcode" v="67300" />
    <tag k="addr:street" v="Avenue de l'Europe" />
    <tag k="brand" v="KPMG" />
    <tag k="brand:wikidata" v="Q493751" />
    <tag k="brand:wikipedia" v="en:KPMG" />
    <tag k="name" v="KPMG" />
    <tag k="office" v="consulting" />
    <tag k="opening_hours" v="Mo-Fr 09:00-12:00,13:00-17:00" />
    <tag k="phone" v="03 88 18 23 00" />
    <tag k="website" v="https://bureaux.kpmg.fr/fr/france-FR/374/kpmg-schiltigheim-strasbourg/details" />
  </node>
  <node id="7862400801" lat="46.6651359" lon="-1.4142859" version="2" timestamp="2024-07-14T17:34:43Z" changeset="153940703" uid="1159672" user="merylstreet" action="modify">
    <tag k="brand" v="KPMG" />
    <tag k="brand:wikidata" v="Q493751" />
    <tag k="name" v="KPMG" />
    <tag k="office" v="consulting" />
    <tag k="phone" v="+33 2 51 09 83 00" />
    <tag k="website" v="https://bureaux.kpmg.fr/fr/france-FR/393/kpmg-la-roche-sur-yon/details" />
    <tag k="opening_hours" v="Mo-Fr 09:00-12:30,13:30-19:00" />
  </node>
  <node id="7997209127" lat="43.7194255" lon="-1.0521803" version="2" timestamp="2024-07-14T17:34:43Z" changeset="153940703" uid="1159672" user="merylstreet" action="modify">
    <tag k="brand" v="KPMG" />
    <tag k="brand:wikidata" v="Q493751" />
    <tag k="contact:housenumber" v="178" />
    <tag k="contact:street" v="Avenue Saint-Vincent de Paul" />
    <tag k="level" v="4" />
    <tag k="name" v="KPMG" />
    <tag k="office" v="consulting" />
    <tag k="opening_hours" v="Mo-Fr 09:00-12:30,14:00-17:30" />
    <tag k="operator" v="KPGM France" />
    <tag k="phone" v="+33 5 58 56 10 10" />
    <tag k="ref:FR:NAF" v="6920Z" />
    <tag k="ref:FR:SIRET" v="77572641707787" />
    <tag k="website" v="https://bureaux.kpmg.fr/fr/france-FR/257/kpmg-dax/details" />
  </node>
  <node id="8564199159" lat="46.1857228" lon="-1.1501768" version="2" timestamp="2024-07-14T17:34:43Z" changeset="153940703" uid="1159672" user="merylstreet" action="modify">
    <tag k="brand" v="KPMG" />
    <tag k="brand:wikidata" v="Q493751" />
    <tag k="name" v="KPMG" />
    <tag k="office" v="consulting" />
    <tag k="website" v="https://www.kpmg-pulse.fr/bureau-lagord/" />
    <tag k="phone" v="+33 5 16 19 43 44" />
    <tag k="opening_hours" v="Mo-Fr 08:30-18:00" />
  </node>
  <node id="8964262670" lat="47.4450524" lon="-0.5456793" version="3" timestamp="2024-07-14T17:34:43Z" changeset="153940703" uid="1159672" user="merylstreet">
    <tag k="brand" v="KPMG" />
    <tag k="brand:wikidata" v="Q493751" />
    <tag k="check_date" v="2024-07-07" />
    <tag k="name" v="KPMG" />
    <tag k="office" v="consulting" />
  </node>
  <node id="9141232640" lat="46.8371230" lon="-1.8827914" version="2" timestamp="2024-07-14T17:34:43Z" changeset="153940703" uid="1159672" user="merylstreet" action="modify">
    <tag k="brand" v="KPMG" />
    <tag k="brand:wikidata" v="Q493751" />
    <tag k="name" v="KPMG" />
    <tag k="office" v="consulting" />
    <tag k="phone" v="+33 2 51 49 34 47" />
    <tag k="website" v="https://bureaux.kpmg.fr/fr/france-FR/239/kpmg-challans/details" />
    <tag k="opening_hours" v="Mo-Fr 09:00-12:00,13:00-17:00" />
  </node>
  <node id="9188033164" lat="48.7515804" lon="-0.5877255" version="2" timestamp="2024-07-07T08:47:28Z" changeset="153651558" uid="21677318" user="meryl_atpfr_bot">
    <tag k="brand" v="KPMG" />
    <tag k="brand:wikidata" v="Q493751" />
    <tag k="brand:wikipedia" v="en:KPMG" />
    <tag k="name" v="KPMG" />
    <tag k="office" v="consulting" />
    <tag k="opening_hours" v="Mo-Fr 08:30-17:30" />
    <tag k="phone" v="+33 2 33 65 06 60" />
    <tag k="website" v="https://bureaux.kpmg.fr/fr/france-FR/280/kpmg-la-lande-patry-flers/details" />
  </node>
  <node id="9346508950" lat="46.1763239" lon="1.8749370" version="2" timestamp="2024-07-07T08:47:28Z" changeset="153651558" uid="21677318" user="meryl_atpfr_bot">
    <tag k="brand" v="KPMG" />
    <tag k="brand:wikidata" v="Q493751" />
    <tag k="brand:wikipedia" v="en:KPMG" />
    <tag k="name" v="KPMG" />
    <tag k="office" v="consulting" />
    <tag k="opening_hours" v="Mo-Th 09:00-12:00,14:00-17:00; Fr 09:00-12:00,14:00-16:30" />
    <tag k="phone" v="+33 5 55 52 08 55" />
    <tag k="website" v="https://bureaux.kpmg.fr/fr/france-FR/273/kpmg-gueret/details" />
  </node>
  <node id="10795466862" lat="49.4868505" lon="0.1300806" version="3" timestamp="2024-07-14T17:34:43Z" changeset="153940703" uid="1159672" user="merylstreet">
    <tag k="addr:city" v="Le Havre" />
    <tag k="addr:housenumber" v="46" />
    <tag k="addr:postcode" v="76600" />
    <tag k="addr:street" v="Rue Louis Eudier" />
    <tag k="brand" v="KPMG" />
    <tag k="brand:wikidata" v="Q493751" />
    <tag k="name" v="KPMG" />
    <tag k="office" v="consulting" />
    <tag k="opening_hours" v="Mo-Th 08:00-18:00; Fr 08:00-17:30" />
    <tag k="phone" v="+33 232747600" />
    <tag k="website" v="https://bureaux.kpmg.fr/fr" />
  </node>
  <node id="10861813052" lat="47.0445670" lon="2.3361697" version="2" timestamp="2024-07-14T17:34:43Z" changeset="153940703" uid="1159672" user="merylstreet" action="modify">
    <tag k="brand" v="KPMG" />
    <tag k="brand:wikidata" v="Q493751" />
    <tag k="name" v="KPMG" />
    <tag k="office" v="consulting" />
    <tag k="phone" v="+33 2 48 66 71 00" />
    <tag k="website" v="https://kpmg.com/xx/en/home/about/offices/bourges-cedex-1.html" />
  </node>
  <node id="10951924715" lat="45.7623727" lon="3.1377998" version="2" timestamp="2024-07-14T17:34:43Z" changeset="153940703" uid="1159672" user="merylstreet" action="modify">
    <tag k="addr:city" v="Clermont-Ferrand" />
    <tag k="addr:country" v="FR" />
    <tag k="addr:housenumber" v="6" />
    <tag k="addr:postcode" v="63000" />
    <tag k="addr:street" v="Rue Valentin Haüy" />
    <tag k="brand" v="KPMG" />
    <tag k="brand:wikidata" v="Q493751" />
    <tag k="name" v="KPMG" />
    <tag k="office" v="consulting" />
    <tag k="source" v="survey" />
    <tag k="survey:date" v="2023-06-01" />
    <tag k="wheelchair" v="yes" />
    <tag k="phone" v="+33 4 73 44 70 65" />
    <tag k="website" v="https://bureaux.kpmg.fr/fr/france-FR/249/kpmg-clermont-ferrand/details" />
    <tag k="opening_hours" v="Mo-Fr 09:00-12:00,14:00-17:00" />
  </node>
  <node id="11487008033" lat="43.9203036" lon="2.1136025" version="3" timestamp="2024-07-07T08:47:28Z" changeset="153651558" uid="21677318" user="meryl_atpfr_bot">
    <tag k="addr:city" v="Albi" />
    <tag k="addr:postcode" v="81000" />
    <tag k="addr:street" v="Rue des Portes d'Albi" />
    <tag k="brand" v="KPMG" />
    <tag k="brand:wikidata" v="Q493751" />
    <tag k="name" v="KPMG" />
    <tag k="office" v="consulting" />
    <tag k="opening_hours" v="Mo-Fr 08:30-12:00,14:00-17:30" />
    <tag k="phone" v="+33 5 63 48 75 10" />
    <tag k="website" v="https://bureaux.kpmg.fr/fr/france-FR/201/kpmg-albi/details" />
  </node>
  <node id="11983096613" lat="45.7428457" lon="-0.6648007" version="2" timestamp="2024-07-14T17:34:43Z" changeset="153940703" uid="1159672" user="merylstreet" action="modify">
    <tag k="brand" v="KPMG" />
    <tag k="brand:wikidata" v="Q493751" />
    <tag k="name" v="KPMG" />
    <tag k="office" v="consulting" />
    <tag k="phone" v="+33 5 46 74 29 91" />
    <tag k="website" v="https://bureaux.kpmg.fr/fr/france-FR/370/kpmg-saintes/details" />
    <tag k="opening_hours" v="Mo-Th 08:30-12:30,14:00-17:30; Fr 08:30-12:30,14:00-17:00" />
  </node>
  <way id="64954600" version="2" timestamp="2020-06-30T14:46:05Z" changeset="87354350" uid="8610655" user="jplumail">
    <nd ref="795759429" />
    <nd ref="795769905" />
    <nd ref="795798801" />
    <nd ref="795803935" />
    <nd ref="795759429" />
    <tag k="addr:housenumber" v="71" />
    <tag k="addr:street" v="Avenue Antoine de Saint-Exupéry" />
    <tag k="brand:wikidata" v="Q493751" />
    <tag k="building" v="yes" />
    <tag k="fax" v="+33 2 35 76 70 51" />
    <tag k="name" v="KPMG" />
    <tag k="office" v="consulting" />
    <tag k="phone" v="+33 2 35 52 68 60" />
    <tag k="source" v="cadastre-dgi-fr source : Direction Générale des Impôts - Cadastre. Mise à jour : 2010" />
    <tag k="website" v="https://home.kpmg/fr/fr/home/a-propos-de-kpmg/offices/bois-guillaume-cedex-1.html" />
  </way>
  <way id="82051098" version="3" timestamp="2024-07-14T17:34:43Z" changeset="153940703" uid="1159672" user="merylstreet" action="modify">
    <nd ref="955740110" />
    <nd ref="955749756" />
    <nd ref="955661560" />
    <nd ref="955674071" />
    <nd ref="955614086" />
    <nd ref="955761730" />
    <nd ref="955739030" />
    <nd ref="955745260" />
    <nd ref="955781823" />
    <nd ref="955645134" />
    <nd ref="955626631" />
    <nd ref="955735088" />
    <nd ref="955675340" />
    <nd ref="955638119" />
    <nd ref="955751042" />
    <nd ref="955740110" />
    <tag k="addr:city" v="Evreux" />
    <tag k="addr:housenumber" v="67" />
    <tag k="addr:postcode" v="27000" />
    <tag k="addr:street" v="Rue Pierre Tal-Coat" />
    <tag k="brand" v="KPMG" />
    <tag k="brand:wikidata" v="Q493751" />
    <tag k="building" v="yes" />
    <tag k="name" v="KPMG" />
    <tag k="office" v="consulting" />
    <tag k="source" v="extraction vectorielle v1 cadastre-dgi-fr source : Direction Générale des Impôts - Cadas. Mise à jour : 2010" />
    <tag k="phone" v="+33 2 32 28 19 60" />
    <tag k="website" v="https://bureaux.kpmg.fr/fr/france-FR/266/kpmg-evreux/details" />
    <tag k="opening_hours" v="Mo-Th 08:30-12:00,14:00-18:00; Fr 08:30-12:00,14:00-17:00" />
  </way>
  <way id="197762659" version="3" timestamp="2024-07-07T08:47:28Z" changeset="153651558" uid="21677318" user="meryl_atpfr_bot">
    <nd ref="2079608855" />
    <nd ref="2079608839" />
    <nd ref="2079608830" />
    <nd ref="2079608807" />
    <nd ref="2079608814" />
    <nd ref="2079608832" />
    <nd ref="2079608834" />
    <nd ref="2079608838" />
    <nd ref="2079608841" />
    <nd ref="2079608849" />
    <nd ref="2079608857" />
    <nd ref="2079608851" />
    <nd ref="2079608855" />
    <tag k="brand" v="KPMG" />
    <tag k="brand:wikidata" v="Q493751" />
    <tag k="building" v="yes" />
    <tag k="name" v="KPMG" />
    <tag k="office" v="consulting" />
    <tag k="opening_hours" v="Mo-Fr 08:30-12:00,13:30-17:30" />
    <tag k="phone" v="+33 2 33 50 07 76" />
    <tag k="source" v="cadastre-dgi-fr source : Direction Générale des Impôts - Cadastre. Mise à jour : 2012" />
    <tag k="website" v="https://bureaux.kpmg.fr/fr/france-FR/391/kpmg-yquelon-granville/details" />
  </way>
  <way id="323436396" version="3" timestamp="2024-07-14T17:34:43Z" changeset="153940703" uid="1159672" user="merylstreet" action="modify">
    <nd ref="3302299203" />
    <nd ref="3302299176" />
    <nd ref="3302299177" />
    <nd ref="3302299163" />
    <nd ref="3302299162" />
    <nd ref="3302299220" />
    <nd ref="3302299219" />
    <nd ref="3302299223" />
    <nd ref="3302299222" />
    <nd ref="3302299228" />
    <nd ref="3302299229" />
    <nd ref="3302299226" />
    <nd ref="3302299225" />
    <nd ref="3302299197" />
    <nd ref="3302299198" />
    <nd ref="3302299237" />
    <nd ref="3302299238" />
    <nd ref="3302299243" />
    <nd ref="3302299244" />
    <nd ref="3302299236" />
    <nd ref="3302299235" />
    <nd ref="3302299230" />
    <nd ref="3302299231" />
    <nd ref="3302299213" />
    <nd ref="3302299212" />
    <nd ref="3302299204" />
    <nd ref="3302299203" />
    <tag k="addr:housenumber" v="42" />
    <tag k="addr:street" v="Rue du Docteur Théodor Mathieu" />
    <tag k="brand" v="KPMG" />
    <tag k="brand:wikidata" v="Q493751" />
    <tag k="building" v="commercial" />
    <tag k="contact:website" v="http://localisation.kpmg.fr/bureaux/Rodez_191" />
    <tag k="layer" v="1" />
    <tag k="name" v="KPMG" />
    <tag k="office" v="consulting" />
    <tag k="source" v="cadastre-dgi-fr source : Direction Générale des Impôts - Cadastre. Mise à jour : 2015;survey 2014" />
    <tag k="phone" v="+33 5 65 77 21 60" />
    <tag k="opening_hours" v="Mo-Fr 08:30-12:00,13:30-17:30" />
  </way>
  <way id="729959643" version="5" timestamp="2023-02-24T15:15:22Z" changeset="132972601" uid="359208" user="Charles Foulon">
    <nd ref="6838106798" />
    <nd ref="6838106799" />
    <nd ref="6853461471" />
    <nd ref="7471529561" />
    <nd ref="6853461470" />
    <nd ref="6853461469" />
    <nd ref="6838106800" />
    <nd ref="7471529567" />
    <nd ref="10691036134" />
    <nd ref="10691036133" />
    <nd ref="6838106801" />
    <nd ref="7471529566" />
    <nd ref="7471529565" />
    <nd ref="7471529564" />
    <nd ref="10691036125" />
    <nd ref="10691036126" />
    <nd ref="10691036127" />
    <nd ref="10691036128" />
    <nd ref="10691036129" />
    <nd ref="10691036130" />
    <nd ref="10691036131" />
    <nd ref="10691036132" />
    <nd ref="10691036124" />
    <nd ref="7471529563" />
    <nd ref="7471529562" />
    <nd ref="6838106798" />
    <tag k="brand" v="KPMG" />
    <tag k="brand:wikidata" v="Q493751" />
    <tag k="brand:wikipedia" v="en:KPMG" />
    <tag k="building" v="yes" />
    <tag k="name" v="KPMG" />
    <tag k="office" v="consulting" />
  </way>
  <node id="2079608807" lat="48.8415760" lon="-1.5593090" version="1" timestamp="2012-12-23T10:20:48Z" changeset="14375951" uid="50624" user="David Crochet" />
  <node id="2079608814" lat="48.8416020" lon="-1.5591520" version="1" timestamp="2012-12-23T10:20:48Z" changeset="14375951" uid="50624" user="David Crochet" />
  <node id="2079608830" lat="48.8416730" lon="-1.5593470" version="1" timestamp="2012-12-23T10:20:49Z" changeset="14375951" uid="50624" user="David Crochet" />
  <node id="2079608832" lat="48.8416840" lon="-1.5591840" version="1" timestamp="2012-12-23T10:20:49Z" changeset="14375951" uid="50624" user="David Crochet" />
  <node id="2079608834" lat="48.8416860" lon="-1.5591570" version="1" timestamp="2012-12-23T10:20:49Z" changeset="14375951" uid="50624" user="David Crochet" />
  <node id="2079608838" lat="48.8417020" lon="-1.5591530" version="1" timestamp="2012-12-23T10:20:49Z" changeset="14375951" uid="50624" user="David Crochet" />
  <node id="2079608839" lat="48.8417050" lon="-1.5595130" version="1" timestamp="2012-12-23T10:20:49Z" changeset="14375951" uid="50624" user="David Crochet" />
  <node id="2079608841" lat="48.8417120" lon="-1.5591750" version="1" timestamp="2012-12-23T10:20:49Z" changeset="14375951" uid="50624" user="David Crochet" />
  <node id="2079608849" lat="48.8417730" lon="-1.5590800" version="1" timestamp="2012-12-23T10:20:49Z" changeset="14375951" uid="50624" user="David Crochet" />
  <node id="2079608851" lat="48.8417770" lon="-1.5593040" version="1" timestamp="2012-12-23T10:20:49Z" changeset="14375951" uid="50624" user="David Crochet" />
  <node id="2079608855" lat="48.8418070" lon="-1.5594690" version="1" timestamp="2012-12-23T10:20:49Z" changeset="14375951" uid="50624" user="David Crochet" />
  <node id="2079608857" lat="48.8418490" lon="-1.5591910" version="1" timestamp="2012-12-23T10:20:49Z" changeset="14375951" uid="50624" user="David Crochet" />
  <node id="3302299162" lat="44.3610595" lon="2.5640538" version="1" timestamp="2015-01-21T11:46:25Z" changeset="28304419" uid="318821" user="Yod4z" />
  <node id="3302299163" lat="44.3610598" lon="2.5636155" version="1" timestamp="2015-01-21T11:46:25Z" changeset="28304419" uid="318821" user="Yod4z" />
  <node id="3302299176" lat="44.3611059" lon="2.5635846" version="1" timestamp="2015-01-21T11:46:26Z" changeset="28304419" uid="318821" user="Yod4z" />
  <node id="3302299177" lat="44.3611059" lon="2.5636155" version="1" timestamp="2015-01-21T11:46:26Z" changeset="28304419" uid="318821" user="Yod4z" />
  <node id="3302299197" lat="44.3612205" lon="2.5639028" version="1" timestamp="2015-01-21T11:46:26Z" changeset="28304419" uid="318821" user="Yod4z" />
  <node id="3302299198" lat="44.3612206" lon="2.5637604" version="1" timestamp="2015-01-21T11:46:26Z" changeset="28304419" uid="318821" user="Yod4z" />
  <node id="3302299203" lat="44.3612373" lon="2.5635847" version="1" timestamp="2015-01-21T11:46:26Z" changeset="28304419" uid="318821" user="Yod4z" />
  <node id="3302299204" lat="44.3612373" lon="2.5636040" version="1" timestamp="2015-01-21T11:46:26Z" changeset="28304419" uid="318821" user="Yod4z" />
  <node id="3302299212" lat="44.3612625" lon="2.5636040" version="1" timestamp="2015-01-21T11:46:26Z" changeset="28304419" uid="318821" user="Yod4z" />
  <node id="3302299213" lat="44.3612625" lon="2.5636130" version="1" timestamp="2015-01-21T11:46:26Z" changeset="28304419" uid="318821" user="Yod4z" />
  <node id="3302299219" lat="44.3613079" lon="2.5640415" version="1" timestamp="2015-01-21T11:46:26Z" changeset="28304419" uid="318821" user="Yod4z" />
  <node id="3302299220" lat="44.3613079" lon="2.5640542" version="1" timestamp="2015-01-21T11:46:26Z" changeset="28304419" uid="318821" user="Yod4z" />
  <node id="3302299222" lat="44.3613260" lon="2.5640374" version="1" timestamp="2015-01-21T11:46:27Z" changeset="28304419" uid="318821" user="Yod4z" />
  <node id="3302299223" lat="44.3613260" lon="2.5640415" version="1" timestamp="2015-01-21T11:46:27Z" changeset="28304419" uid="318821" user="Yod4z" />
  <node id="3302299225" lat="44.3613372" lon="2.5639029" version="1" timestamp="2015-01-21T11:46:27Z" changeset="28304419" uid="318821" user="Yod4z" />
  <node id="3302299226" lat="44.3613372" lon="2.5639875" version="1" timestamp="2015-01-21T11:46:27Z" changeset="28304419" uid="318821" user="Yod4z" />
  <node id="3302299228" lat="44.3613613" lon="2.5640374" version="1" timestamp="2015-01-21T11:46:27Z" changeset="28304419" uid="318821" user="Yod4z" />
  <node id="3302299229" lat="44.3613614" lon="2.5639875" version="1" timestamp="2015-01-21T11:46:27Z" changeset="28304419" uid="318821" user="Yod4z" />
  <node id="3302299230" lat="44.3613663" lon="2.5635868" version="1" timestamp="2015-01-21T11:46:27Z" changeset="28304419" uid="318821" user="Yod4z" />
  <node id="3302299231" lat="44.3613663" lon="2.5636132" version="1" timestamp="2015-01-21T11:46:27Z" changeset="28304419" uid="318821" user="Yod4z" />
  <node id="3302299235" lat="44.3614165" lon="2.5635869" version="1" timestamp="2015-01-21T11:46:27Z" changeset="28304419" uid="318821" user="Yod4z" />
  <node id="3302299236" lat="44.3614165" lon="2.5636145" version="1" timestamp="2015-01-21T11:46:27Z" changeset="28304419" uid="318821" user="Yod4z" />
  <node id="3302299237" lat="44.3614183" lon="2.5637607" version="1" timestamp="2015-01-21T11:46:27Z" changeset="28304419" uid="318821" user="Yod4z" />
  <node id="3302299238" lat="44.3614184" lon="2.5636779" version="1" timestamp="2015-01-21T11:46:27Z" changeset="28304419" uid="318821" user="Yod4z" />
  <node id="3302299243" lat="44.3614578" lon="2.5636779" version="1" timestamp="2015-01-21T11:46:27Z" changeset="28304419" uid="318821" user="Yod4z" />
  <node id="3302299244" lat="44.3614579" lon="2.5636146" version="1" timestamp="2015-01-21T11:46:27Z" changeset="28304419" uid="318821" user="Yod4z" />
  <node id="955614086" lat="49.0055249" lon="1.1446420" version="1" timestamp="2010-10-18T06:05:03Z" changeset="6076321" uid="198366" user="chene" />
  <node id="955626631" lat="49.0054281" lon="1.1446919" version="1" timestamp="2010-10-18T06:17:07Z" changeset="6076321" uid="198366" user="chene" />
  <node id="955638119" lat="49.0054455" lon="1.1447281" version="1" timestamp="2010-10-18T06:26:56Z" changeset="6076321" uid="198366" user="chene" />
  <node id="955645134" lat="49.0054013" lon="1.1445731" version="1" timestamp="2010-10-18T06:33:28Z" changeset="6076321" uid="198366" user="chene" />
  <node id="955661560" lat="49.0055479" lon="1.1446677" version="1" timestamp="2010-10-18T06:52:03Z" changeset="6076321" uid="198366" user="chene" />
  <node id="955674071" lat="49.0055339" lon="1.1446751" version="1" timestamp="2010-10-18T07:04:05Z" changeset="6076321" uid="198366" user="chene" />
  <node id="955675340" lat="49.0054477" lon="1.1447178" version="1" timestamp="2010-10-18T07:05:39Z" changeset="6076321" uid="198366" user="chene" />
  <node id="955735088" lat="49.0054391" lon="1.1446861" version="1" timestamp="2010-10-18T08:07:44Z" changeset="6077607" uid="198366" user="chene" />
  <node id="955739030" lat="49.0055354" lon="1.1446028" version="1" timestamp="2010-10-18T08:12:54Z" changeset="6077607" uid="198366" user="chene" />
  <node id="955740110" lat="49.0054966" lon="1.1449502" version="1" timestamp="2010-10-18T08:14:14Z" changeset="6077607" uid="198366" user="chene" />
  <node id="955745260" lat="49.0055301" lon="1.1446085" version="1" timestamp="2010-10-18T08:20:55Z" changeset="6077607" uid="198366" user="chene" />
  <node id="955749756" lat="49.0056013" lon="1.1448925" version="1" timestamp="2010-10-18T08:26:10Z" changeset="6077607" uid="198366" user="chene" />
  <node id="955751042" lat="49.0054498" lon="1.1447551" version="1" timestamp="2010-10-18T08:27:33Z" changeset="6077607" uid="198366" user="chene" />
  <node id="955761730" lat="49.0055408" lon="1.1446285" version="1" timestamp="2010-10-18T08:34:02Z" changeset="6077607" uid="198366" user="chene" />
  <node id="955781823" lat="49.0055072" lon="1.1445147" version="1" timestamp="2010-10-18T08:53:10Z" changeset="6077607" uid="198366" user="chene" />
  <node id="795759429" lat="49.4777462" lon="1.1009811" version="1" timestamp="2010-06-29T12:23:45Z" changeset="5105477" uid="47355" user="s_Frantz" />
  <node id="795769905" lat="49.4776019" lon="1.1010770" version="1" timestamp="2010-06-29T12:30:00Z" changeset="5105477" uid="47355" user="s_Frantz" />
  <node id="795798801" lat="49.4777441" lon="1.1015804" version="1" timestamp="2010-06-29T12:45:30Z" changeset="5105477" uid="47355" user="s_Frantz" />
  <node id="795803935" lat="49.4778884" lon="1.1014845" version="1" timestamp="2010-06-29T12:48:05Z" changeset="5105706" uid="47355" user="s_Frantz" />
  <node id="6838106798" lat="50.6610284" lon="3.1094096" version="2" timestamp="2019-10-05T11:20:28Z" changeset="75315584" uid="666798" user="aurekosc" />
  <node id="6838106799" lat="50.6609346" lon="3.1091645" version="3" timestamp="2023-02-24T15:15:22Z" changeset="132972601" uid="359208" user="Charles Foulon" />
  <node id="6838106800" lat="50.6603325" lon="3.1095510" version="4" timestamp="2023-02-24T15:15:22Z" changeset="132972601" uid="359208" user="Charles Foulon" />
  <node id="6838106801" lat="50.6604939" lon="3.1099070" version="4" timestamp="2023-02-24T15:15:22Z" changeset="132972601" uid="359208" user="Charles Foulon" />
  <node id="6853461469" lat="50.6605730" lon="3.1093232" version="3" timestamp="2023-02-24T15:15:22Z" changeset="132972601" uid="359208" user="Charles Foulon" />
  <node id="6853461470" lat="50.6606408" lon="3.1094994" version="2" timestamp="2023-02-24T15:15:22Z" changeset="132972601" uid="359208" user="Charles Foulon" />
  <node id="6853461471" lat="50.6606943" lon="3.1093904" version="3" timestamp="2023-02-24T15:15:22Z" changeset="132972601" uid="359208" user="Charles Foulon" />
  <node id="7471529561" lat="50.6607108" lon="3.1094327" version="2" timestamp="2023-02-24T15:15:22Z" changeset="132972601" uid="359208" user="Charles Foulon" />
  <node id="7471529562" lat="50.6607857" lon="3.1096336" version="1" timestamp="2020-05-01T16:22:50Z" changeset="84481725" uid="666798" user="aurekosc" />
  <node id="7471529563" lat="50.6607648" lon="3.1095736" version="1" timestamp="2020-05-01T16:22:50Z" changeset="84481725" uid="666798" user="aurekosc" />
  <node id="7471529564" lat="50.6606946" lon="3.1096395" version="2" timestamp="2023-02-24T15:15:22Z" changeset="132972601" uid="359208" user="Charles Foulon" />
  <node id="7471529565" lat="50.6607182" lon="3.1096986" version="1" timestamp="2020-05-01T16:22:50Z" changeset="84481725" uid="666798" user="aurekosc" />
  <node id="7471529566" lat="50.6605068" lon="3.1099018" version="2" timestamp="2023-02-24T15:15:22Z" changeset="132972601" uid="359208" user="Charles Foulon" />
  <node id="7471529567" lat="50.6604595" lon="3.1098844" version="2" timestamp="2023-02-24T15:15:22Z" changeset="132972601" uid="359208" user="Charles Foulon" />
  <node id="10691036124" lat="50.6607411" lon="3.1095950" version="1" timestamp="2023-02-24T15:15:22Z" changeset="132972601" uid="359208" user="Charles Foulon" />
  <node id="10691036125" lat="50.6607183" lon="3.1096174" version="1" timestamp="2023-02-24T15:15:22Z" changeset="132972601" uid="359208" user="Charles Foulon" />
  <node id="10691036126" lat="50.6607212" lon="3.1096228" version="1" timestamp="2023-02-24T15:15:22Z" changeset="132972601" uid="359208" user="Charles Foulon" />
  <node id="10691036127" lat="50.6607258" lon="3.1096267" version="1" timestamp="2023-02-24T15:15:22Z" changeset="132972601" uid="359208" user="Charles Foulon" />
  <node id="10691036128" lat="50.6607308" lon="3.1096276" version="1" timestamp="2023-02-24T15:15:22Z" changeset="132972601" uid="359208" user="Charles Foulon" />
  <node id="10691036129" lat="50.6607358" lon="3.1096252" version="1" timestamp="2023-02-24T15:15:22Z" changeset="132972601" uid="359208" user="Charles Foulon" />
  <node id="10691036130" lat="50.6607406" lon="3.1096191" version="1" timestamp="2023-02-24T15:15:22Z" changeset="132972601" uid="359208" user="Charles Foulon" />
  <node id="10691036131" lat="50.6607430" lon="3.1096094" version="1" timestamp="2023-02-24T15:15:22Z" changeset="132972601" uid="359208" user="Charles Foulon" />
  <node id="10691036132" lat="50.6607429" lon="3.1096022" version="1" timestamp="2023-02-24T15:15:22Z" changeset="132972601" uid="359208" user="Charles Foulon" />
  <node id="10691036133" lat="50.6604816" lon="3.1099055" version="1" timestamp="2023-02-24T15:15:22Z" changeset="132972601" uid="359208" user="Charles Foulon" />
  <node id="10691036134" lat="50.6604722" lon="3.1099006" version="1" timestamp="2023-02-24T15:15:22Z" changeset="132972601" uid="359208" user="Charles Foulon" />
</osm>
