<?xml version='1.0' encoding='UTF-8'?>
<osm version="0.6" generator="Overpass API 0.7.62.1 084b4234">
  <note>The data included in this document is from www.openstreetmap.org. The data is made available under ODbL.</note>
  <meta osm_base="2024-07-14T15:06:50Z" areas="2024-07-14T10:52:45Z" />
  <node id="25178337" lat="49.6784837" lon="1.3383569" version="18" timestamp="2023-05-06T15:30:55Z" changeset="135781825" uid="11746909" user="EUMapper">
    <tag k="addr:postcode" v="76680" />
    <tag k="address" v="A 28 - direction Abbeville/Rouen, Aire de Maucomble" />
    <tag k="amenity" v="fuel" />
    <tag k="brand" v="Shell" />
    <tag k="brand:wikidata" v="Q110716465" />
    <tag k="brand:wikipedia" v="en:Royal Dutch Shell" />
    <tag k="fuel:diesel" v="yes" />
    <tag k="fuel:e10" v="yes" />
    <tag k="fuel:lpg" v="yes" />
    <tag k="fuel:octane_98" v="yes" />
    <tag k="name" v="Shell" />
    <tag k="opening_hours" v="24/7" />
    <tag k="operator" v="Shell" />
    <tag k="ref:FR:prix-carburants" v="76680003" />
    <tag k="shop" v="convenience" />
    <tag k="source" v="stations.gpl.online.fr" />
    <tag k="toilets" v="yes" />
  </node>
  <node id="25179220" lat="43.2996115" lon="5.4781685" version="9" timestamp="2022-09-23T16:09:55Z" changeset="126555263" uid="10564232" user="RedfishTheCat">
    <tag k="addr:city" v="Marseille" />
    <tag k="addr:postcode" v="13011" />
    <tag k="addr:street" v="Route des Trois Lucs à La Valentine" />
    <tag k="address" v="Route des Trois Lucs à La Valentine" />
    <tag k="amenity" v="fuel" />
    <tag k="brand" v="Shell" />
    <tag k="brand:wikidata" v="Q110716465" />
    <tag k="compressed_air" v="yes" />
    <tag k="fuel:diesel" v="yes" />
    <tag k="fuel:e10" v="yes" />
    <tag k="fuel:lpg" v="yes" />
    <tag k="fuel:octane_98" v="yes" />
    <tag k="hgv:lanes" v="yes" />
    <tag k="name" v="Shell" />
    <tag k="opening_hours" v="24/7" />
    <tag k="operator" v="Shell" />
    <tag k="ref:FR:prix-carburants" v="13011003" />
    <tag k="shop" v="convenience;gas" />
    <tag k="source" v="Ministère de l'Economie, de l'Industrie et du Numérique - 03/2020" />
  </node>
  <node id="25209430" lat="49.2446857" lon="3.9237957" version="10" timestamp="2022-11-13T16:34:30Z" changeset="128854608" uid="5589" user="user_5589">
    <tag k="addr:postcode" v="51390" />
    <tag k="address" v="A 4 - Direction Reims/Paris, Aire De Gueux" />
    <tag k="amenity" v="fuel" />
    <tag k="brand" v="Shell" />
    <tag k="brand:wikidata" v="Q110716465" />
    <tag k="brand:wikipedia" v="en:Royal Dutch Shell" />
    <tag k="compressed_air" v="yes" />
    <tag k="fuel:diesel" v="yes" />
    <tag k="fuel:e10" v="yes" />
    <tag k="fuel:lpg" v="yes" />
    <tag k="fuel:octane_98" v="yes" />
    <tag k="name" v="Shell" />
    <tag k="opening_hours" v="24/7" />
    <tag k="operator" v="Shell" />
    <tag k="ref:FR:prix-carburants" v="51390002" />
    <tag k="shop" v="convenience" />
    <tag k="source" v="stations.gpl.online.fr" />
    <tag k="toilets" v="yes" />
    <tag k="vending" v="fuel" />
    <tag k="vending_machine" v="fuel" />
  </node>
  <node id="25209544" lat="47.1856641" lon="5.3350407" version="15" timestamp="2022-03-01T19:36:15Z" changeset="117991930" uid="369869" user="Rommar">
    <tag k="addr:postcode" v="21130" />
    <tag k="address" v="A 39 - direction Dole/Dijon, Aire de Pont-Val-de-Saône" />
    <tag k="amenity" v="fuel" />
    <tag k="brand" v="Shell" />
    <tag k="brand:wikidata" v="Q110716465" />
    <tag k="brand:wikipedia" v="en:BP" />
    <tag k="compressed_air" v="yes" />
    <tag k="fuel:diesel" v="yes" />
    <tag k="fuel:e10" v="yes" />
    <tag k="fuel:lpg" v="yes" />
    <tag k="fuel:octane_98" v="yes" />
    <tag k="hgv:lanes" v="yes" />
    <tag k="name" v="Station BP" />
    <tag k="opening_hours" v="24/7" />
    <tag k="operator" v="Shell" />
    <tag k="ref:FR:prix-carburants" v="21130009" />
    <tag k="shop" v="convenience" />
    <tag k="source" v="Ministère de l'Economie, de l'Industrie et du Numérique - 03/2020" />
    <tag k="toilets" v="yes" />
  </node>
  <node id="25209960" lat="48.2644732" lon="2.7225936" version="18" timestamp="2023-10-19T18:56:26Z" changeset="142831541" uid="5359" user="user_5359">
    <tag k="addr:description" v="Aire de Darvault, direction Paris" />
    <tag k="addr:postcode" v="77140" />
    <tag k="amenity" v="fuel" />
    <tag k="brand" v="Shell" />
    <tag k="brand:wikidata" v="Q110716465" />
    <tag k="compressed_air" v="yes" />
    <tag k="fuel:diesel" v="yes" />
    <tag k="fuel:e10" v="yes" />
    <tag k="fuel:octane_98" v="yes" />
    <tag k="hgv:lanes" v="yes" />
    <tag k="name" v="Shell" />
    <tag k="opening_hours" v="24/7" />
    <tag k="operator" v="Shell" />
    <tag k="ref:FR:prix-carburants" v="77140012" />
    <tag k="source" v="stations.gpl.online.fr" />
    <tag k="toilets" v="yes" />
    <tag k="vending" v="fuel" />
    <tag k="vending_machine" v="fuel" />
  </node>
  <node id="25210225" lat="43.3589133" lon="3.3458326" version="19" timestamp="2024-06-26T21:10:04Z" changeset="153221221" uid="17767741" user="olimago">
    <tag k="addr:full" v="A 9 - direction Narbonne/Montpellier, Aire de Béziers-Montblanc Sud" />
    <tag k="addr:postcode" v="34290" />
    <tag k="amenity" v="fuel" />
    <tag k="brand" v="Shell" />
    <tag k="brand:wikidata" v="Q110716465" />
    <tag k="check_date" v="2024-06-24" />
    <tag k="compressed_air" v="yes" />
    <tag k="fuel:diesel" v="yes" />
    <tag k="fuel:e10" v="yes" />
    <tag k="fuel:lpg" v="yes" />
    <tag k="fuel:octane_98" v="yes" />
    <tag k="hgv:lanes" v="yes" />
    <tag k="name" v="Shell" />
    <tag k="opening_hours" v="24/7" />
    <tag k="operator" v="Shell" />
    <tag k="ref:FR:prix-carburants" v="34290007" />
    <tag k="shop" v="convenience" />
    <tag k="source" v="Ministère de l'Economie, de l'Industrie et du Numérique - 03/2020" />
    <tag k="toilets" v="yes" />
    <tag k="vending" v="fuel" />
    <tag k="vending_machine" v="fuel" />
  </node>
  <node id="25210301" lat="43.4962111" lon="5.2144679" version="10" timestamp="2022-06-15T14:17:02Z" changeset="122421301" uid="369869" user="Rommar">
    <tag k="addr:postcode" v="13340" />
    <tag k="address" v="N 113 - sens Salon-Vitrolles, La Tête Noire" />
    <tag k="amenity" v="fuel" />
    <tag k="brand" v="Shell" />
    <tag k="brand:wikidata" v="Q110716465" />
    <tag k="fuel:diesel" v="yes" />
    <tag k="hgv:lanes" v="yes" />
    <tag k="name" v="Shell" />
    <tag k="ref:FR:prix-carburants" v="13340005" />
    <tag k="source" v="Ministère de l'Economie, de l'Industrie et du Numérique - 03/2020" />
  </node>
  <node id="25210480" lat="47.3148969" lon="4.4959198" version="14" timestamp="2022-12-13T09:33:07Z" changeset="130028299" uid="8874984" user="anyroka">
    <tag k="addr:postcode" v="21320" />
    <tag k="address" v="A 6 - direction Paris/Lyon, Aire du Chien Blanc" />
    <tag k="amenity" v="fuel" />
    <tag k="brand" v="Shell" />
    <tag k="brand:wikidata" v="Q110716465" />
    <tag k="brand:wikipedia" v="en:Royal Dutch Shell" />
    <tag k="compressed_air" v="yes" />
    <tag k="fuel:diesel" v="yes" />
    <tag k="fuel:e10" v="yes" />
    <tag k="fuel:lpg" v="yes" />
    <tag k="fuel:octane_98" v="yes" />
    <tag k="hgv:lanes" v="yes" />
    <tag k="name" v="Shell" />
    <tag k="opening_hours" v="24/7" />
    <tag k="operator" v="Shell" />
    <tag k="ref:FR:prix-carburants" v="21350002" />
    <tag k="shop" v="convenience" />
    <tag k="source" v="Ministère de l'Economie, de l'Industrie et du Numérique - 03/2020" />
    <tag k="toilets" v="yes" />
    <tag k="vending" v="fuel" />
    <tag k="vending_machine" v="fuel" />
  </node>
  <node id="25211077" lat="46.2043299" lon="1.3859852" version="9" timestamp="2022-06-15T13:16:21Z" changeset="122418672" uid="369869" user="Rommar">
    <tag k="addr:full" v="N 145 - Direction Guéret, 14, Rue De La Croisière - St-Maurice" />
    <tag k="addr:postcode" v="23300" />
    <tag k="amenity" v="fuel" />
    <tag k="brand" v="Shell" />
    <tag k="brand:wikidata" v="Q110716465" />
    <tag k="fuel:diesel" v="yes" />
    <tag k="hgv:lanes" v="yes" />
    <tag k="name" v="Shell" />
    <tag k="operator" v="Shell" />
    <tag k="ref:FR:prix-carburants" v="23300010" />
    <tag k="source" v="stations.gpl.online.fr" />
  </node>
  <node id="25211630" lat="48.0270320" lon="-0.3434208" version="16" timestamp="2023-06-14T18:17:51Z" changeset="137340216" uid="224440" user="Syl">
    <tag k="amenity" v="fuel" />
    <tag k="brand" v="Shell" />
    <tag k="brand:wikidata" v="Q110716465" />
    <tag k="brand:wikipedia" v="en:Royal Dutch Shell" />
    <tag k="compressed_air" v="yes" />
    <tag k="fuel:diesel" v="yes" />
    <tag k="fuel:e10" v="yes" />
    <tag k="fuel:octane_98" v="yes" />
    <tag k="hgv:lanes" v="yes" />
    <tag k="name" v="Shell" />
    <tag k="opening_hours" v="24/7" />
    <tag k="ref:FR:prix-carburants" v="53270002" />
    <tag k="source" v="Ministère de l'Economie, de l'Industrie et du Numérique - 03/2020" />
    <tag k="toilets" v="yes" />
  </node>
  <node id="25211677" lat="48.9956774" lon="2.6490806" version="8" timestamp="2022-06-15T13:28:46Z" changeset="122419209" uid="369869" user="Rommar">
    <tag k="access:motorcar" v="no" />
    <tag k="addr:postcode" v="77290" />
    <tag k="address" v="D 212 - Direction Roissy - N 2," />
    <tag k="amenity" v="fuel" />
    <tag k="brand" v="Shell" />
    <tag k="brand:wikidata" v="Q110716465" />
    <tag k="fuel:diesel" v="yes" />
    <tag k="fuel:lpg" v="no" />
    <tag k="hgv:lanes" v="yes" />
    <tag k="is_in" v="COMPANS" />
    <tag k="name" v="Shell" />
    <tag k="operator" v="Shell" />
    <tag k="ref:FR:prix-carburants" v="77290003" />
    <tag k="source" v="stations.gpl.online.fr" />
  </node>
  <node id="25213313" lat="47.6661031" lon="1.3875246" version="16" timestamp="2023-08-01T17:19:19Z" changeset="139310674" uid="5359" user="user_5359" action="modify">
    <tag k="addr:full" v="A 10 - Direction Orléans/Tours, Aire De Blois-Villerbon" />
    <tag k="addr:postcode" v="41000" />
    <tag k="amenity" v="fuel" />
    <tag k="brand" v="Shell" />
    <tag k="brand:wikidata" v="Q110716465" />
    <tag k="brand:wikipedia" v="fr:Shell (entreprise)" />
    <tag k="compressed_air" v="yes" />
    <tag k="fuel:diesel" v="yes" />
    <tag k="fuel:e10" v="yes" />
    <tag k="fuel:octane_98" v="yes" />
    <tag k="hgv:lanes" v="yes" />
    <tag k="name" v="Shell" />
    <tag k="opening_hours" v="24/7" />
    <tag k="operator" v="Shell" />
    <tag k="ref:FR:prix-carburants" v="41000005" />
    <tag k="shop" v="convenience" />
    <tag k="source" v="https://find.shell.com/fr/fuel/10029136-blois-villerbon-a10" />
    <tag k="toilets" v="yes" />
    <tag k="vending" v="fuel" />
    <tag k="vending_machine" v="fuel" />
    <tag k="phone" v="+33 2 54 46 82 83" />
    <tag k="website" v="https://find.shell.com/fr/fuel/10029136-blois-villerbon-a10" />
  </node>
  <node id="25213344" lat="48.7919370" lon="1.6343138" version="14" timestamp="2022-02-20T02:17:21Z" changeset="117624223" uid="5133247" user="nishboow">
    <tag k="addr:postcode" v="78550" />
    <tag k="address" v="N 12 - Direction Paris, Aire De La Prairie" />
    <tag k="amenity" v="fuel" />
    <tag k="brand" v="Shell" />
    <tag k="brand:wikidata" v="Q110716465" />
    <tag k="compressed_air" v="yes" />
    <tag k="fuel:diesel" v="yes" />
    <tag k="fuel:e10" v="yes" />
    <tag k="fuel:e85" v="yes" />
    <tag k="fuel:lpg" v="yes" />
    <tag k="fuel:octane_98" v="yes" />
    <tag k="hgv:lanes" v="yes" />
    <tag k="name" v="Shell" />
    <tag k="opening_hours" v="24/7" />
    <tag k="operator" v="Shell" />
    <tag k="ref:FR:prix-carburants" v="78550005" />
    <tag k="shop" v="convenience" />
    <tag k="source" v="stations.gpl.online.fr" />
    <tag k="toilets" v="yes" />
    <tag k="vending" v="fuel" />
    <tag k="vending_machine" v="fuel" />
  </node>
  <node id="25213906" lat="45.6127371" lon="-0.6036868" version="19" timestamp="2023-07-02T22:40:05Z" changeset="138040911" uid="1988610" user="Conlinp">
    <tag k="addr:postcode" v="17800" />
    <tag k="address" v="A 10 - direction Paris/Bordeaux, Aire de Saint-Léger Ouest" />
    <tag k="amenity" v="fuel" />
    <tag k="brand" v="Shell" />
    <tag k="brand:wikidata" v="Q110716465" />
    <tag k="changing_table" v="yes" />
    <tag k="compressed_air" v="yes" />
    <tag k="fuel:GTL_diesel" v="yes" />
    <tag k="fuel:HGV_diesel" v="yes" />
    <tag k="fuel:diesel" v="yes" />
    <tag k="fuel:e10" v="yes" />
    <tag k="fuel:lpg" v="yes" />
    <tag k="fuel:octane_98" v="yes" />
    <tag k="hgv:lanes" v="yes" />
    <tag k="name" v="Shell" />
    <tag k="opening_hours" v="24/7" />
    <tag k="operator" v="Shell" />
    <tag k="ref:FR:prix-carburants" v="17800005" />
    <tag k="shop" v="convenience" />
    <tag k="source" v="stations.gpl.online.fr" />
    <tag k="toilets" v="yes" />
    <tag k="toilets:wheelchair" v="yes" />
    <tag k="vending" v="fuel" />
    <tag k="vending_machine" v="fuel" />
    <tag k="wheelchair" v="yes" />
  </node>
  <node id="25213982" lat="48.7709948" lon="2.2276827" version="10" timestamp="2022-09-02T05:13:32Z" changeset="125679416" uid="53948" user="illogict">
    <tag k="addr:city" v="Vélizy-Villacoublay" />
    <tag k="addr:postcode" v="78140" />
    <tag k="address" v="N 118 - Direction Province, Val De Grâce" />
    <tag k="amenity" v="fuel" />
    <tag k="brand" v="Shell" />
    <tag k="brand:wikidata" v="Q110716465" />
    <tag k="compressed_air" v="yes" />
    <tag k="fuel:diesel" v="yes" />
    <tag k="fuel:e10" v="yes" />
    <tag k="fuel:octane_98" v="yes" />
    <tag k="hgv:lanes" v="yes" />
    <tag k="name" v="Station Shell" />
    <tag k="opening_hours" v="24/7" />
    <tag k="operator" v="Shell" />
    <tag k="ref:FR:prix-carburants" v="78140009" />
    <tag k="shop" v="convenience" />
    <tag k="source" v="Ministère de l'Economie, de l'Industrie et du Numérique - 03/2020" />
    <tag k="toilets" v="yes" />
  </node>
  <node id="25214550" lat="46.0636903" lon="6.4105061" version="17" timestamp="2024-01-09T22:45:40Z" changeset="146083053" uid="6296343" user="BaboucheVerte">
    <tag k="addr:description" v="A40 - direction Annemasse/Chamonix, Aire de Pontchy" />
    <tag k="addr:postcode" v="74130" />
    <tag k="amenity" v="fuel" />
    <tag k="brand" v="Shell" />
    <tag k="brand:wikidata" v="Q110716465" />
    <tag k="brand:wikipedia" v="en:Royal Dutch Shell" />
    <tag k="compressed_air" v="yes" />
    <tag k="fuel:diesel" v="yes" />
    <tag k="fuel:e10" v="yes" />
    <tag k="fuel:octane_98" v="yes" />
    <tag k="hgv:lanes" v="yes" />
    <tag k="name" v="Shell" />
    <tag k="opening_hours" v="24/7" />
    <tag k="operator" v="Shell" />
    <tag k="ref:FR:prix-carburants" v="74130004" />
    <tag k="shop" v="convenience" />
    <tag k="source" v="stations.gpl.online.fr" />
    <tag k="toilets" v="yes" />
    <tag k="vending" v="fuel" />
    <tag k="vending_machine" v="fuel" />
  </node>
  <node id="309654919" lat="48.8475898" lon="2.3031985" version="10" timestamp="2022-05-16T11:28:15Z" changeset="121048784" uid="53948" user="illogict">
    <tag k="amenity" v="fuel" />
    <tag k="brand" v="Shell" />
    <tag k="brand:wikidata" v="Q110716465" />
    <tag k="brand:wikipedia" v="en:Royal Dutch Shell" />
    <tag k="compressed_air" v="yes" />
    <tag k="fuel:diesel" v="yes" />
    <tag k="fuel:octane_98" v="yes" />
    <tag k="name" v="Shell" />
    <tag k="opening_hours" v="24/7" />
    <tag k="operator" v="Shell" />
    <tag k="ref:FR:prix-carburants" v="75015024" />
    <tag k="shop" v="convenience;gas" />
    <tag k="source" v="Ministère de l'Economie, de l'Industrie et du Numérique - 03/2020" />
    <tag k="toilets" v="yes" />
    <tag k="wheelchair" v="yes" />
  </node>
  <node id="915444650" lat="46.5063581" lon="3.3617397" version="3" timestamp="2022-06-15T13:46:27Z" changeset="122420053" uid="369869" user="Rommar" action="modify">
    <tag k="amenity" v="fuel" />
    <tag k="brand" v="Shell" />
    <tag k="brand:wikidata" v="Q110716465" />
    <tag k="fuel:diesel" v="yes" />
    <tag k="hgv:lanes" v="yes" />
    <tag k="name" v="Shell" />
    <tag k="ref:FR:prix-carburants" v="3400005" />
    <tag k="shop" v="convenience" />
    <tag k="website" v="https://store.totalenergies.fr/en_EN/NF910109" />
  </node>
  <node id="955211223" lat="48.8635857" lon="2.2722338" version="3" timestamp="2022-05-21T08:38:17Z" changeset="121272345" uid="53948" user="illogict">
    <tag k="amenity" v="fuel" />
    <tag k="brand" v="Shell" />
    <tag k="brand:wikidata" v="Q110716465" />
    <tag k="compressed_air" v="yes" />
    <tag k="fuel:diesel" v="yes" />
    <tag k="fuel:e10" v="yes" />
    <tag k="fuel:octane_98" v="yes" />
    <tag k="name" v="Shell" />
    <tag k="opening_hours" v="24/7" />
    <tag k="operator" v="shell" />
    <tag k="ref:FR:prix-carburants" v="75016006" />
    <tag k="shop" v="convenience" />
    <tag k="source" v="cadastre-dgi-fr source : Direction Générale des Impôts - Cadastre. Mise à jour : 2010" />
    <tag k="toilets" v="yes" />
  </node>
  <node id="1244327997" lat="45.8434346" lon="5.0695780" version="15" timestamp="2023-11-22T08:13:18Z" changeset="144315082" uid="224440" user="Syl">
    <tag k="amenity" v="fuel" />
    <tag k="brand" v="Shell" />
    <tag k="brand:wikidata" v="Q110716465" />
    <tag k="brand:wikipedia" v="en:Royal Dutch Shell" />
    <tag k="compressed_air" v="yes" />
    <tag k="fuel:diesel" v="yes" />
    <tag k="fuel:e10" v="yes" />
    <tag k="fuel:octane_98" v="yes" />
    <tag k="hgv:lanes" v="yes" />
    <tag k="name" v="Shell" />
    <tag k="opening_hours" v="24/7" />
    <tag k="operator" v="Shell" />
    <tag k="ref:FR:prix-carburants" v="1120007" />
    <tag k="source" v="Ministère de l'Economie, de l'Industrie et du Numérique - 03/2020" />
    <tag k="toilets" v="yes" />
  </node>
  <node id="1713994988" lat="45.1970417" lon="6.6235904" version="13" timestamp="2023-01-20T14:28:49Z" changeset="131510719" uid="10511559" user="pouillof">
    <tag k="amenity" v="fuel" />
    <tag k="brand" v="Shell" />
    <tag k="brand:wikidata" v="Q110716465" />
    <tag k="compressed_air" v="yes" />
    <tag k="fuel:diesel" v="yes" />
    <tag k="fuel:octane_98" v="yes" />
    <tag k="hgv:lanes" v="yes" />
    <tag k="name" v="Shell" />
    <tag k="operator" v="Shell" />
    <tag k="ref:FR:prix-carburants" v="73500006" />
    <tag k="shop" v="convenience" />
    <tag k="source" v="Ministère de l'Economie, de l'Industrie et du Numérique - 03/2020" />
    <tag k="toilets" v="yes" />
    <tag k="vending" v="fuel" />
    <tag k="vending_machine" v="fuel" />
  </node>
  <node id="1958160846" lat="45.5822599" lon="4.7916768" version="3" timestamp="2022-06-15T13:56:51Z" changeset="122420487" uid="369869" user="Rommar">
    <tag k="amenity" v="fuel" />
    <tag k="brand" v="Shell" />
    <tag k="brand:wikidata" v="Q110716465" />
    <tag k="fuel:diesel" v="yes" />
    <tag k="hgv:lanes" v="yes" />
    <tag k="name" v="Shell" />
    <tag k="ref:FR:prix-carburants" v="38670002" />
  </node>
  <node id="3255554772" lat="47.0487412" lon="5.4292218" version="2" timestamp="2022-06-15T13:43:42Z" changeset="122419922" uid="369869" user="Rommar">
    <tag k="amenity" v="fuel" />
    <tag k="brand" v="Shell" />
    <tag k="brand:wikidata" v="Q110716465" />
    <tag k="compressed_air" v="yes" />
    <tag k="fuel:diesel" v="yes" />
    <tag k="hgv:lanes" v="yes" />
    <tag k="name" v="Shell" />
    <tag k="opening_hours" v="24/7" />
    <tag k="ref:FR:prix-carburants" v="39500007" />
    <tag k="shop" v="convenience" />
    <tag k="source" v="Ministère de l'Economie, de l'Industrie et du Numérique - 15/09/2014" />
    <tag k="toilets" v="yes" />
  </node>
  <node id="3275258210" lat="47.9489203" lon="1.8439416" version="2" timestamp="2022-06-15T13:18:03Z" changeset="122418729" uid="369869" user="Rommar">
    <tag k="amenity" v="fuel" />
    <tag k="brand" v="Shell" />
    <tag k="brand:wikidata" v="Q110716465" />
    <tag k="fuel:diesel" v="yes" />
    <tag k="hgv:lanes" v="yes" />
    <tag k="name" v="Shell" />
    <tag k="ref:FR:prix-carburants" v="45770003" />
  </node>
  <node id="4416314467" lat="50.5812097" lon="3.1113095" version="21" timestamp="2023-03-08T01:28:55Z" changeset="133424280" uid="10104660" user="nairo5913">
    <tag k="addr:city" v="Lesquin" />
    <tag k="addr:country" v="FR" />
    <tag k="addr:housenumber" v="103" />
    <tag k="addr:postcode" v="59810" />
    <tag k="addr:street" v="Rue du Pic Au Vent" />
    <tag k="amenity" v="fuel" />
    <tag k="brand" v="Shell" />
    <tag k="brand:wikidata" v="Q110716465" />
    <tag k="brand:wikipedia" v="en:Royal Dutch Shell" />
    <tag k="compressed_air" v="yes" />
    <tag k="fuel:diesel" v="yes" />
    <tag k="hgv:lanes" v="yes" />
    <tag k="name" v="Shell" />
    <tag k="ref:FR:prix-carburants" v="59817002" />
    <tag k="shop" v="convenience;gas" />
    <tag k="source" v="Ministère de l'Economie, de l'Industrie et du Numérique - 03/2020" />
    <tag k="toilets" v="yes" />
    <tag k="vending" v="fuel" />
    <tag k="vending_machine" v="fuel" />
  </node>
  <node id="4550712152" lat="47.7759264" lon="7.3785327" version="5" timestamp="2022-03-02T10:28:12Z" changeset="118013334" uid="369869" user="Rommar">
    <tag k="amenity" v="fuel" />
    <tag k="brand" v="Shell" />
    <tag k="brand:wikidata" v="Q110716465" />
    <tag k="compressed_air" v="yes" />
    <tag k="fuel:diesel" v="yes" />
    <tag k="fuel:octane_98" v="yes" />
    <tag k="hgv:lanes" v="yes" />
    <tag k="name" v="Shell" />
    <tag k="operator" v="Real Sarl" />
    <tag k="ref:FR:prix-carburants" v="68390002" />
    <tag k="shop" v="convenience" />
    <tag k="source" v="Ministère de l'Economie, de l'Industrie et du Numérique - 03/2020" />
    <tag k="toilets" v="yes" />
    <tag k="vending" v="fuel" />
    <tag k="vending_machine" v="fuel" />
  </node>
  <node id="4657147359" lat="50.5718893" lon="2.3810272" version="7" timestamp="2024-06-07T05:06:05Z" changeset="152357381" uid="414659" user="Max-Kritic" action="modify">
    <tag k="amenity" v="fuel" />
    <tag k="brand" v="Shell" />
    <tag k="brand:wikidata" v="Q110716465" />
    <tag k="compressed_air" v="yes" />
    <tag k="fuel:diesel" v="yes" />
    <tag k="fuel:e10" v="yes" />
    <tag k="fuel:octane_98" v="yes" />
    <tag k="hgv:lanes" v="yes" />
    <tag k="name" v="Shell" />
    <tag k="opening_hours" v="24/7" />
    <tag k="ref:FR:prix-carburants" v="62120012" />
    <tag k="shop" v="convenience" />
    <tag k="source" v="Ministère de l'Economie, de l'Industrie et du Numérique - 03/2020" />
    <tag k="toilets" v="yes" />
    <tag k="phone" v="+33 3 21 02 19 03" />
    <tag k="website" v="https://find.shell.com/fr/fuel/10029559-saint-hilaire-a26" />
  </node>
  <node id="4716445178" lat="44.5151693" lon="4.7803492" version="5" timestamp="2022-12-01T06:59:43Z" changeset="129588549" uid="878284" user="Benoît Prieur">
    <tag k="addr:postcode" v="26780" />
    <tag k="address" v="A 7 - Direction Lyon/Marseille, Aire De Montélimar Ouest" />
    <tag k="amenity" v="fuel" />
    <tag k="brand" v="Shell" />
    <tag k="brand:wikidata" v="Q110716465" />
    <tag k="compressed_air" v="yes" />
    <tag k="fuel:diesel" v="yes" />
    <tag k="fuel:e10" v="yes" />
    <tag k="fuel:lpg" v="yes" />
    <tag k="fuel:octane_98" v="yes" />
    <tag k="hgv:lanes" v="yes" />
    <tag k="name" v="Station Shell Aire de Montélimar" />
    <tag k="opening_hours" v="24/7" />
    <tag k="operator" v="Total" />
    <tag k="ref:FR:prix-carburants" v="26780002" />
    <tag k="shop" v="convenience" />
    <tag k="source" v="stations.gpl.online.fr" />
    <tag k="toilets" v="yes" />
    <tag k="vending" v="fuel" />
    <tag k="vending_machine" v="fuel" />
  </node>
  <node id="4716445184" lat="44.5164296" lon="4.7850967" version="3" timestamp="2022-12-01T06:59:43Z" changeset="129588549" uid="878284" user="Benoît Prieur">
    <tag k="amenity" v="fuel" />
    <tag k="brand" v="Shell" />
    <tag k="brand:wikidata" v="Q110716465" />
    <tag k="name" v="Shell" />
    <tag k="operator" v="Shell" />
  </node>
  <node id="4815478863" lat="45.3595125" lon="1.9371965" version="5" timestamp="2023-09-26T19:25:41Z" changeset="141789072" uid="1988610" user="Conlinp">
    <tag k="amenity" v="fuel" />
    <tag k="brand" v="Shell" />
    <tag k="brand:wikidata" v="Q110716465" />
    <tag k="compressed_air" v="yes" />
    <tag k="fuel:diesel" v="yes" />
    <tag k="fuel:e10" v="yes" />
    <tag k="fuel:lpg" v="yes" />
    <tag k="fuel:octane_98" v="yes" />
    <tag k="hgv:lanes" v="yes" />
    <tag k="name" v="Shell" />
    <tag k="opening_hours" v="24/7" />
    <tag k="operator" v="Shell" />
    <tag k="ref:FR:prix-carburants" v="19800002" />
    <tag k="shop" v="convenience" />
    <tag k="source" v="Ministère de l'Economie, de l'Industrie et du Numérique - 22/10/2016" />
    <tag k="toilets" v="yes" />
    <tag k="vending" v="fuel" />
    <tag k="vending_machine" v="fuel" />
  </node>
  <node id="4900054422" lat="50.2272091" lon="3.0653733" version="9" timestamp="2023-04-16T05:37:28Z" changeset="134961670" uid="414659" user="Max-Kritic">
    <tag k="addr:street" v="Aire de Rumaucourt" />
    <tag k="amenity" v="fuel" />
    <tag k="brand" v="Shell" />
    <tag k="brand:wikidata" v="Q110716465" />
    <tag k="brand:wikipedia" v="en:Royal Dutch Shell" />
    <tag k="compressed_air" v="yes" />
    <tag k="fuel:diesel" v="yes" />
    <tag k="fuel:e10" v="yes" />
    <tag k="fuel:octane_98" v="yes" />
    <tag k="hgv:lanes" v="yes" />
    <tag k="name" v="Shell" />
    <tag k="opening_hours" v="24/7" />
    <tag k="ref:FR:prix-carburants" v="62860006" />
    <tag k="shop" v="convenience" />
    <tag k="source" v="Ministère de l'Economie, de l'Industrie et du Numérique - 03/2020" />
  </node>
  <node id="4983346686" lat="48.4108190" lon="4.1427026" version="3" timestamp="2023-12-29T13:10:47Z" changeset="145660862" uid="19823194" user="unknwow_user">
    <tag k="amenity" v="fuel" />
    <tag k="brand" v="Shell" />
    <tag k="brand:wikidata" v="Q110716465" />
    <tag k="compressed_air" v="yes" />
    <tag k="fuel:diesel" v="yes" />
    <tag k="fuel:e10" v="yes" />
    <tag k="name" v="Shell" />
    <tag k="opening_hours" v="24/7" />
    <tag k="operator" v="Shell" />
    <tag k="ref:FR:prix-carburants" v="10150003" />
    <tag k="self_service" v="yes" />
    <tag k="source" v="Ministère de l'Economie, de l'Industrie et du Numérique - 22/10/2016" />
    <tag k="toilets" v="yes" />
    <tag k="vending" v="fuel" />
    <tag k="vending_machine" v="fuel" />
  </node>
  <node id="5056468391" lat="45.8434935" lon="5.0697946" version="4" timestamp="2022-10-11T14:40:35Z" changeset="127364215" uid="878284" user="Benoît Prieur" action="modify">
    <tag k="brand" v="Shell Select" />
    <tag k="brand:wikidata" v="Q110716465" />
    <tag k="name" v="Shell Select" />
    <tag k="sells:tobacco" v="yes" />
    <tag k="shop" v="convenience" />
    <tag k="phone" v="+33 4 78 06 36 26" />
    <tag k="website" v="https://find.shell.com/fr/fuel/11795214-dagneux-a42" />
    <tag k="opening_hours" v="24/7" />
  </node>
  <node id="7105939016" lat="48.4671639" lon="1.5797916" version="2" timestamp="2022-05-26T21:52:52Z" changeset="121547199" uid="224440" user="Syl">
    <tag k="brand" v="Shell Select" />
    <tag k="brand:wikidata" v="Q110716465" />
    <tag k="name" v="Shell Select" />
    <tag k="shop" v="convenience" />
  </node>
  <node id="7256964636" lat="46.4204346" lon="4.8644623" version="2" timestamp="2024-03-30T18:08:42Z" changeset="149363159" uid="1795336" user="homer__simpsons" action="modify">
    <tag k="brand" v="Shell" />
    <tag k="brand:wikidata" v="Q110716465" />
    <tag k="name" v="Shell" />
    <tag k="shop" v="convenience" />
    <tag k="strapline" v="Go Well" />
    <tag k="phone" v="+33 3 73 83 96 94" />
    <tag k="website" v="https://find.shell.com/fr/fuel/10029970-saint-albain-a6" />
    <tag k="opening_hours" v="24/7" />
  </node>
  <node id="7383883748" lat="48.2645483" lon="2.7222222" version="2" timestamp="2022-04-06T14:30:12Z" changeset="119390532" uid="8874984" user="anyroka">
    <tag k="brand" v="Shell Select" />
    <tag k="brand:wikidata" v="Q110716465" />
    <tag k="name" v="Shell Select" />
    <tag k="shop" v="convenience" />
  </node>
  <node id="7383887441" lat="48.2646219" lon="2.7205378" version="2" timestamp="2023-10-18T11:01:42Z" changeset="142757267" uid="392288" user="Kalepom">
    <tag k="advertising" v="totem" />
    <tag k="animated" v="digital_prices" />
    <tag k="brand" v="Shell" />
    <tag k="brand:wikidata" v="Q110716465" />
    <tag k="land_property" v="private" />
    <tag k="legal_type:FR" v="enseigne" />
    <tag k="luminous" v="yes" />
    <tag k="luminous:colour" v="red" />
    <tag k="visibility" v="area" />
  </node>
  <node id="7383887443" lat="48.2624458" lon="2.7242379" version="2" timestamp="2023-10-18T11:01:42Z" changeset="142757267" uid="392288" user="Kalepom">
    <tag k="advertising" v="totem" />
    <tag k="animated" v="digital_prices" />
    <tag k="brand" v="Shell" />
    <tag k="brand:wikidata" v="Q110716465" />
    <tag k="land_property" v="private" />
    <tag k="legal_type:FR" v="enseigne" />
    <tag k="luminous" v="yes" />
    <tag k="luminous:colour" v="red" />
    <tag k="visibility" v="area" />
  </node>
  <node id="7383931980" lat="48.2632939" lon="2.7215275" version="2" timestamp="2022-05-11T08:02:41Z" changeset="120826227" uid="8874984" user="anyroka">
    <tag k="brand" v="Shell Select" />
    <tag k="brand:wikidata" v="Q110716465" />
    <tag k="name" v="Shell Select" />
    <tag k="shop" v="convenience" />
  </node>
  <node id="7398979129" lat="48.2635485" lon="2.7213245" version="3" timestamp="2023-10-18T11:01:42Z" changeset="142757267" uid="392288" user="Kalepom">
    <tag k="amenity" v="fuel" />
    <tag k="brand" v="Shell" />
    <tag k="brand:wikidata" v="Q110716465" />
    <tag k="compressed_air" v="yes" />
    <tag k="fuel:diesel" v="yes" />
    <tag k="fuel:e10" v="yes" />
    <tag k="fuel:octane_98" v="yes" />
    <tag k="hgv:lanes" v="yes" />
    <tag k="name" v="Shell" />
    <tag k="ref:FR:prix-carburants" v="77140010" />
    <tag k="source" v="Ministère de l'Economie, de l'Industrie et du Numérique - 03/2020" />
    <tag k="toilets" v="yes" />
    <tag k="vending" v="fuel" />
    <tag k="vending_machine" v="fuel" />
  </node>
  <node id="9819910273" lat="50.9252608" lon="1.8502691" version="1" timestamp="2022-06-15T13:34:38Z" changeset="122419473" uid="369869" user="Rommar">
    <tag k="amenity" v="fuel" />
    <tag k="brand" v="Shell" />
    <tag k="brand:wikidata" v="Q110716465" />
    <tag k="fuel:diesel" v="yes" />
    <tag k="hgv:lanes" v="yes" />
    <tag k="name" v="Shell" />
    <tag k="ref:FR:prix-carburants" v="62231001" />
  </node>
  <node id="9819935149" lat="48.6562935" lon="7.7561854" version="1" timestamp="2022-06-15T13:41:17Z" changeset="122419788" uid="369869" user="Rommar">
    <tag k="amenity" v="fuel" />
    <tag k="brand" v="Shell" />
    <tag k="brand:wikidata" v="Q110716465" />
    <tag k="fuel:diesel" v="yes" />
    <tag k="hgv:lanes" v="yes" />
    <tag k="name" v="Shell" />
    <tag k="ref:FR:prix-carburants" v="67116003" />
  </node>
  <node id="9819963193" lat="46.4645678" lon="4.0790113" version="1" timestamp="2022-06-15T13:45:02Z" changeset="122419989" uid="369869" user="Rommar">
    <tag k="amenity" v="fuel" />
    <tag k="brand" v="Shell" />
    <tag k="brand:wikidata" v="Q110716465" />
    <tag k="fuel:diesel" v="yes" />
    <tag k="hgv:lanes" v="yes" />
    <tag k="name" v="Shell" />
    <tag k="ref:FR:prix-carburants" v="71600011" />
  </node>
  <node id="9894571611" lat="49.1811266" lon="-0.4578792" version="1" timestamp="2022-07-18T07:11:54Z" changeset="123747091" uid="50624" user="David Crochet">
    <tag k="aeroway" v="fuel" />
    <tag k="brand" v="Shell" />
    <tag k="brand:wikidata" v="Q110716465" />
    <tag k="fuel:100LL" v="yes" />
    <tag k="name" v="Shell" />
    <tag k="shop" v="no" />
  </node>
  <node id="9894571612" lat="49.1810883" lon="-0.4577942" version="1" timestamp="2022-07-18T07:11:54Z" changeset="123747091" uid="50624" user="David Crochet">
    <tag k="aeroway" v="fuel" />
    <tag k="brand" v="Shell" />
    <tag k="brand:wikidata" v="Q110716465" />
    <tag k="fuel:JetA1" v="yes" />
    <tag k="name" v="Shell" />
    <tag k="shop" v="no" />
  </node>
  <node id="10040328883" lat="49.2330660" lon="4.0812711" version="1" timestamp="2022-09-20T19:54:25Z" changeset="126437446" uid="392288" user="Kalepom">
    <tag k="advertising" v="totem" />
    <tag k="animated" v="no" />
    <tag k="brand" v="Shell" />
    <tag k="brand:wikidata" v="Q110716465" />
    <tag k="land_property" v="private" />
    <tag k="legal_type:FR" v="enseigne" />
    <tag k="luminous" v="no" />
    <tag k="message" v="commercial" />
    <tag k="sides" v="2" />
    <tag k="visibility" v="area" />
  </node>
  <node id="10092292034" lat="45.8435533" lon="5.0703947" version="2" timestamp="2023-11-22T08:13:18Z" changeset="144315082" uid="224440" user="Syl">
    <tag k="amenity" v="fuel" />
    <tag k="brand" v="Shell" />
    <tag k="brand:wikidata" v="Q110716465" />
    <tag k="brand:wikipedia" v="en:Royal Dutch Shell" />
    <tag k="compressed_air" v="yes" />
    <tag k="fuel:diesel" v="yes" />
    <tag k="fuel:e10" v="yes" />
    <tag k="fuel:octane_98" v="yes" />
    <tag k="hgv:lanes" v="yes" />
    <tag k="name" v="Shell" />
    <tag k="opening_hours" v="24/7" />
    <tag k="operator" v="Shell" />
    <tag k="ref:FR:prix-carburants" v="1120007" />
    <tag k="source" v="Ministère de l'Economie, de l'Industrie et du Numérique - 03/2020" />
    <tag k="toilets" v="yes" />
  </node>
  <node id="10916612009" lat="43.5920243" lon="7.0362057" version="2" timestamp="2023-11-30T15:41:13Z" changeset="144629553" uid="2362150" user="Anonix35" action="modify">
    <tag k="amenity" v="fuel" />
    <tag k="brand" v="Shell" />
    <tag k="brand:wikidata" v="Q110716465" />
    <tag k="brand:wikipedia" v="en:Royal Dutch Shell" />
    <tag k="capacity" v="8" />
    <tag k="compressed_air" v="yes" />
    <tag k="fuel:adblue" v="yes" />
    <tag k="fuel:diesel" v="yes" />
    <tag k="fuel:e10" v="yes" />
    <tag k="fuel:octane_98" v="yes" />
    <tag k="fuel:v-power_diesel" v="yes" />
    <tag k="hgv:lanes" v="yes" />
    <tag k="name" v="Shell" />
    <tag k="opening_hours" v="24/7" />
    <tag k="ref:FR:prix-carburants" v="6250006" />
    <tag k="shop" v="convenience" />
    <tag k="source" v="Ministère de l'Economie, de l'Industrie et du Numérique - 03/2020" />
    <tag k="vending" v="fuel" />
    <tag k="vending_machine" v="fuel" />
    <tag k="wheelchair" v="yes" />
    <tag k="wikimedia_commons" v="File:Aire des Breguières Nord - station-essence (novembre 2021).jpg" />
    <tag k="phone" v="+33 4 93 94 51 85" />
    <tag k="website" v="https://find.shell.com/fr/fuel/10029177-shell-mougins-aut-a-8" />
  </node>
  <node id="11056598072" lat="44.6459400" lon="-0.4337263" version="1" timestamp="2023-07-20T11:42:27Z" changeset="138760546" uid="4372540" user="Linkid">
    <tag k="brand" v="Shell Select" />
    <tag k="brand:wikidata" v="Q110716465" />
    <tag k="name" v="Shell Select" />
    <tag k="shop" v="convenience" />
  </node>
  <node id="11478835923" lat="45.8925615" lon="-0.6034852" version="1" timestamp="2024-01-02T13:29:03Z" changeset="145798135" uid="4372540" user="Linkid">
    <tag k="branch" v="Select" />
    <tag k="brand" v="Shell Select" />
    <tag k="brand:wikidata" v="Q110716465" />
    <tag k="name" v="Shell Select" />
    <tag k="shop" v="convenience" />
  </node>
  <node id="11533516144" lat="47.9333595" lon="1.9169955" version="2" timestamp="2024-05-06T17:04:17Z" changeset="150975137" uid="981517" user="LaurentB45">
    <tag k="addr:city" v="Fleury-les-Aubrais" />
    <tag k="addr:housenumber" v="198" />
    <tag k="addr:postcode" v="45400" />
    <tag k="addr:street" v="Rue Marcellin Berthelot" />
    <tag k="amenity" v="fuel" />
    <tag k="brand" v="Shell" />
    <tag k="brand:wikidata" v="Q110716465" />
    <tag k="compressed_air" v="yes" />
    <tag k="name" v="Shell" />
    <tag k="ref:FR:SIRET" v="78013017514688" />
  </node>
  <node id="11687281720" lat="49.2427698" lon="3.9190754" version="1" timestamp="2024-03-03T07:26:36Z" changeset="148155214" uid="19823194" user="unknwow_user" action="modify">
    <tag k="addr:postcode" v="51390" />
    <tag k="address" v="A 4 - Direction Paris/Reims, Aire De Vrigny" />
    <tag k="amenity" v="fuel" />
    <tag k="brand" v="Shell" />
    <tag k="brand:wikidata" v="Q110716465" />
    <tag k="compressed_air" v="yes" />
    <tag k="fuel:diesel" v="yes" />
    <tag k="fuel:e10" v="yes" />
    <tag k="fuel:lpg" v="yes" />
    <tag k="fuel:octane_98" v="yes" />
    <tag k="hgv:lanes" v="yes" />
    <tag k="name" v="Station Shell" />
    <tag k="opening_hours" v="24/7" />
    <tag k="operator" v="Shell" />
    <tag k="ref:FR:prix-carburants" v="51390001" />
    <tag k="shop" v="convenience" />
    <tag k="toilets" v="yes" />
    <tag k="vending" v="fuel" />
    <tag k="vending_machine" v="fuel" />
    <tag k="phone" v="+33 9 71 49 43 65" />
    <tag k="website" v="https://find.shell.com/fr/fuel/10029171-vrigny-a4" />
  </node>
  <way id="41905532" version="8" timestamp="2022-06-15T13:39:23Z" changeset="122419698" uid="369869" user="Rommar">
    <nd ref="518733156" />
    <nd ref="518733158" />
    <nd ref="518733160" />
    <nd ref="518733162" />
    <nd ref="518733171" />
    <nd ref="518733172" />
    <nd ref="3997430330" />
    <nd ref="518733156" />
    <tag k="amenity" v="fuel" />
    <tag k="brand" v="Shell" />
    <tag k="brand:wikidata" v="Q110716465" />
    <tag k="compressed_air" v="yes" />
    <tag k="fuel:diesel" v="yes" />
    <tag k="hgv:lanes" v="yes" />
    <tag k="name" v="Shell" />
    <tag k="opening_hours" v="24/7" />
    <tag k="operator" v="Shell" />
    <tag k="ref:FR:prix-carburants" v="51100057" />
    <tag k="shop" v="convenience;gas" />
    <tag k="source" v="Ministère de l'Economie, de l'Industrie et du Numérique - 03/2020" />
    <tag k="toilets" v="yes" />
  </way>
  <way id="88929726" version="8" timestamp="2024-04-21T15:40:52Z" changeset="150308092" uid="18550651" user="H@rrah" action="modify">
    <nd ref="1032153271" />
    <nd ref="1032152298" />
    <nd ref="1032153444" />
    <nd ref="1032153437" />
    <nd ref="1032153271" />
    <tag k="addr:postcode" v="36330" />
    <tag k="address" v="A 20 - Direction Limoges/Vierzon, Aire Du Val De L'Indre" />
    <tag k="amenity" v="fuel" />
    <tag k="brand" v="Shell" />
    <tag k="brand:wikidata" v="Q110716465" />
    <tag k="building" v="roof" />
    <tag k="compressed_air" v="yes" />
    <tag k="fuel:diesel" v="yes" />
    <tag k="fuel:e10" v="yes" />
    <tag k="fuel:lpg" v="yes" />
    <tag k="fuel:octane_98" v="yes" />
    <tag k="hgv:lanes" v="yes" />
    <tag k="is_in" v="A-20" />
    <tag k="name" v="Station Shell" />
    <tag k="opening_hours" v="24/7" />
    <tag k="operator" v="Shell" />
    <tag k="ref:FR:prix-carburants" v="36330001" />
    <tag k="shop" v="convenience" />
    <tag k="source" v="stations.gpl.online.fr" />
    <tag k="toilets" v="yes" />
    <tag k="vending" v="fuel" />
    <tag k="vending_machine" v="fuel" />
    <tag k="wheelchair" v="yes" />
    <tag k="phone" v="+33 2 54 36 74 15" />
    <tag k="website" v="https://find.shell.com/fr/fuel/10029346-velles-val-de-l-indre-a20" />
  </way>
  <way id="320031593" version="10" timestamp="2022-02-17T16:22:06Z" changeset="117528922" uid="369869" user="Rommar">
    <nd ref="3265363076" />
    <nd ref="3265363059" />
    <nd ref="3265363130" />
    <nd ref="3265363142" />
    <nd ref="3265363076" />
    <tag k="addr:postcode" v="52100" />
    <tag k="address" v="N 4 - Direction Paris, Route De Vitry" />
    <tag k="amenity" v="fuel" />
    <tag k="brand" v="Shell" />
    <tag k="brand:wikidata" v="Q110716465" />
    <tag k="brand:wikipedia" v="en:Royal Dutch Shell" />
    <tag k="building" v="yes" />
    <tag k="compressed_air" v="yes" />
    <tag k="fuel:diesel" v="yes" />
    <tag k="hgv:lanes" v="yes" />
    <tag k="layer" v="1" />
    <tag k="name" v="Shell" />
    <tag k="opening_hours" v="24/7" />
    <tag k="operator" v="Shell" />
    <tag k="ref:FR:prix-carburants" v="52100018" />
    <tag k="shop" v="convenience" />
    <tag k="source" v="Ministère de l'Economie, de l'Industrie et du Numérique - 03/2020" />
    <tag k="toilets" v="yes" />
    <tag k="vending" v="fuel" />
    <tag k="vending_machine" v="fuel" />
    <tag k="wall" v="no" />
  </way>
  <way id="322289271" version="10" timestamp="2024-06-22T03:52:46Z" changeset="153014416" uid="711265" user="irasesu" action="modify">
    <nd ref="3290558068" />
    <nd ref="7178585421" />
    <nd ref="3290558062" />
    <nd ref="3290558063" />
    <nd ref="7178585420" />
    <nd ref="3290558077" />
    <nd ref="3290558068" />
    <tag k="addr:description" v="A 11 - direction Angers/Le Mans, Aire de Parcé-sur-Sarthe Est" />
    <tag k="addr:postcode" v="72300" />
    <tag k="amenity" v="fuel" />
    <tag k="brand" v="Shell" />
    <tag k="brand:wikidata" v="Q110716465" />
    <tag k="building" v="roof" />
    <tag k="compressed_air" v="yes" />
    <tag k="description" v="Station Shell" />
    <tag k="fuel:diesel" v="yes" />
    <tag k="fuel:e10" v="yes" />
    <tag k="fuel:lpg" v="yes" />
    <tag k="fuel:octane_98" v="yes" />
    <tag k="name" v="Shell" />
    <tag k="opening_hours" v="24/7" />
    <tag k="operator" v="Shell" />
    <tag k="ref:FR:prix-carburants" v="72300004" />
    <tag k="shop" v="convenience" />
    <tag k="source" v="Ministère de l'Economie, de l'Industrie et du Numérique - 08/04/2018" />
    <tag k="toilets" v="yes" />
    <tag k="wall" v="no" />
    <tag k="phone" v="+33 2 43 92 17 53" />
    <tag k="website" v="https://find.shell.com/fr/fuel/10028876-parce-sarthe-est-a11" />
  </way>
  <way id="640521283" version="9" timestamp="2024-06-22T10:56:50Z" changeset="153024383" uid="67515" user="threefoursixninefour">
    <nd ref="24933082" />
    <nd ref="6034013558" />
    <nd ref="12000515665" />
    <nd ref="6034013556" />
    <nd ref="6034013566" />
    <nd ref="6034013555" />
    <nd ref="6034013563" />
    <nd ref="6034013564" />
    <nd ref="6034013559" />
    <nd ref="12000515666" />
    <nd ref="6034013560" />
    <nd ref="6034013557" />
    <nd ref="24933082" />
    <tag k="amenity" v="fuel" />
    <tag k="brand" v="Shell" />
    <tag k="brand:wikidata" v="Q110716465" />
    <tag k="building" v="roof" />
    <tag k="compressed_air" v="yes" />
    <tag k="fuel:diesel" v="yes" />
    <tag k="fuel:e10" v="yes" />
    <tag k="fuel:lpg" v="yes" />
    <tag k="fuel:octane_98" v="yes" />
    <tag k="name" v="Aire du Mont de Nizy" />
    <tag k="opening_hours" v="24/7" />
    <tag k="operator" v="Shell" />
    <tag k="postal_code" v="02190" />
    <tag k="ref:FR:prix-carburants" v="2190005" />
    <tag k="source" v="Ministère de l'Economie, de l'Industrie et du Numérique - 22/10/2016" />
  </way>
  <way id="1014462413" version="3" timestamp="2024-07-03T18:16:37Z" changeset="153514222" uid="11746909" user="EUMapper">
    <nd ref="9359345578" />
    <nd ref="9359345575" />
    <nd ref="9359345576" />
    <nd ref="9359345577" />
    <nd ref="9359345578" />
    <tag k="amenity" v="fuel" />
    <tag k="brand" v="Shell" />
    <tag k="brand:wikidata" v="Q110716465" />
    <tag k="brand:wikipedia" v="en:Royal Dutch Shell" />
    <tag k="compressed_air" v="yes" />
    <tag k="name" v="Shell" />
  </way>
  <way id="1154072665" version="3" timestamp="2024-01-02T13:29:03Z" changeset="145798135" uid="4372540" user="Linkid">
    <nd ref="10733213025" />
    <nd ref="10733213026" />
    <nd ref="10733213027" />
    <nd ref="10733213028" />
    <nd ref="10733213025" />
    <tag k="amenity" v="fuel" />
    <tag k="brand" v="Shell" />
    <tag k="brand:wikidata" v="Q110716465" />
    <tag k="building" v="roof" />
    <tag k="compressed_air" v="yes" />
    <tag k="fuel:diesel" v="yes" />
    <tag k="fuel:e10" v="yes" />
    <tag k="fuel:octane_92" v="no" />
    <tag k="fuel:octane_98" v="yes" />
    <tag k="hgv:lanes" v="yes" />
    <tag k="layer" v="1" />
    <tag k="name" v="Shell" />
    <tag k="opening_hours" v="24/7" />
    <tag k="operator" v="shell" />
    <tag k="ref:FR:prix-carburants" v="17350001" />
    <tag k="source" v="Ministère de l'Economie, de l'Industrie et du Numérique - 08/04/2018" />
  </way>
  <node id="10733213025" lat="45.8924981" lon="-0.6038800" version="1" timestamp="2023-03-13T16:53:25Z" changeset="133633495" uid="213513" user="ThomR" />
  <node id="10733213026" lat="45.8924559" lon="-0.6039638" version="1" timestamp="2023-03-13T16:53:25Z" changeset="133633495" uid="213513" user="ThomR" />
  <node id="10733213027" lat="45.8922344" lon="-0.6037358" version="1" timestamp="2023-03-13T16:53:25Z" changeset="133633495" uid="213513" user="ThomR" />
  <node id="10733213028" lat="45.8922769" lon="-0.6036520" version="1" timestamp="2023-03-13T16:53:25Z" changeset="133633495" uid="213513" user="ThomR" />
  <node id="3290558062" lat="47.8031925" lon="-0.1676253" version="2" timestamp="2017-02-05T14:44:33Z" changeset="45830866" uid="237926" user="midlandsdave" />
  <node id="3290558063" lat="47.8032595" lon="-0.1675253" version="2" timestamp="2017-02-05T14:44:33Z" changeset="45830866" uid="237926" user="midlandsdave" />
  <node id="3290558068" lat="47.8034065" lon="-0.1679413" version="2" timestamp="2017-02-05T14:44:33Z" changeset="45830866" uid="237926" user="midlandsdave" />
  <node id="3290558077" lat="47.8034735" lon="-0.1678413" version="2" timestamp="2017-02-05T14:44:33Z" changeset="45830866" uid="237926" user="midlandsdave" />
  <node id="7178585420" lat="47.8033227" lon="-0.1676187" version="1" timestamp="2020-02-02T07:57:14Z" changeset="80427683" uid="439947" user="StephaneP" />
  <node id="7178585421" lat="47.8032512" lon="-0.1677119" version="1" timestamp="2020-02-02T07:57:14Z" changeset="80427683" uid="439947" user="StephaneP" />
  <node id="1032152298" lat="46.7230051" lon="1.6039313" version="2" timestamp="2013-03-13T13:57:46Z" changeset="15352003" uid="11068" user="windu2b" />
  <node id="1032153271" lat="46.7229201" lon="1.6038327" version="2" timestamp="2013-03-13T13:57:46Z" changeset="15352003" uid="11068" user="windu2b" />
  <node id="1032153437" lat="46.7231174" lon="1.6034707" version="2" timestamp="2013-03-13T13:57:46Z" changeset="15352003" uid="11068" user="windu2b" />
  <node id="1032153444" lat="46.7232024" lon="1.6035693" version="2" timestamp="2013-03-13T13:57:46Z" changeset="15352003" uid="11068" user="windu2b" />
  <node id="9359345575" lat="48.4685113" lon="1.5799597" version="2" timestamp="2022-06-07T06:48:53Z" changeset="122054454" uid="224440" user="Syl" />
  <node id="9359345576" lat="48.4685316" lon="1.5801999" version="2" timestamp="2022-06-07T06:48:53Z" changeset="122054454" uid="224440" user="Syl" />
  <node id="9359345577" lat="48.4686919" lon="1.5801691" version="2" timestamp="2022-06-07T06:48:53Z" changeset="122054454" uid="224440" user="Syl" />
  <node id="9359345578" lat="48.4686716" lon="1.5799288" version="2" timestamp="2022-06-07T06:48:53Z" changeset="122054454" uid="224440" user="Syl" />
  <node id="3265363059" lat="48.6423275" lon="4.9026081" version="2" timestamp="2020-02-06T12:24:12Z" changeset="80641012" uid="702608" user="Clemclar" />
  <node id="3265363076" lat="48.6423725" lon="4.9025221" version="2" timestamp="2020-02-06T12:24:12Z" changeset="80641012" uid="702608" user="Clemclar" />
  <node id="3265363130" lat="48.6425525" lon="4.9028521" version="2" timestamp="2020-02-06T12:24:12Z" changeset="80641012" uid="702608" user="Clemclar" />
  <node id="3265363142" lat="48.6425945" lon="4.9027671" version="2" timestamp="2020-02-06T12:24:12Z" changeset="80641012" uid="702608" user="Clemclar" />
  <node id="518733156" lat="49.2331972" lon="4.0809296" version="3" timestamp="2018-10-13T09:58:27Z" changeset="63480900" uid="172867" user="AmiFritz" />
  <node id="518733158" lat="49.2329385" lon="4.0807706" version="3" timestamp="2018-10-13T09:58:27Z" changeset="63480900" uid="172867" user="AmiFritz" />
  <node id="518733160" lat="49.2327412" lon="4.0808778" version="3" timestamp="2018-10-13T09:58:27Z" changeset="63480900" uid="172867" user="AmiFritz" />
  <node id="518733162" lat="49.2323971" lon="4.0820104" version="3" timestamp="2018-10-13T09:58:27Z" changeset="63480900" uid="172867" user="AmiFritz" />
  <node id="518733171" lat="49.2327696" lon="4.0822737" version="3" timestamp="2018-10-13T09:58:27Z" changeset="63480900" uid="172867" user="AmiFritz" />
  <node id="518733172" lat="49.2328831" lon="4.0819506" version="3" timestamp="2018-10-13T09:58:27Z" changeset="63480900" uid="172867" user="AmiFritz" />
  <node id="3997430330" lat="49.2331660" lon="4.0810312" version="1" timestamp="2016-02-09T13:20:28Z" changeset="37101348" uid="191786" user="Alexandre148025" />
  <node id="24933082" lat="49.4506035" lon="3.9242876" version="14" timestamp="2024-06-22T10:56:50Z" changeset="153024383" uid="67515" user="threefoursixninefour" />
  <node id="6034013555" lat="49.4505692" lon="3.9247945" version="5" timestamp="2024-06-22T10:56:50Z" changeset="153024383" uid="67515" user="threefoursixninefour" />
  <node id="6034013556" lat="49.4505844" lon="3.9245696" version="5" timestamp="2024-06-22T10:56:50Z" changeset="153024383" uid="67515" user="threefoursixninefour" />
  <node id="6034013557" lat="49.4505234" lon="3.9242748" version="5" timestamp="2024-06-22T10:56:50Z" changeset="153024383" uid="67515" user="threefoursixninefour" />
  <node id="6034013558" lat="49.4505972" lon="3.9243811" version="5" timestamp="2024-06-22T10:56:50Z" changeset="153024383" uid="67515" user="threefoursixninefour" />
  <node id="6034013559" lat="49.4505043" lon="3.9245567" version="5" timestamp="2024-06-22T10:56:50Z" changeset="153024383" uid="67515" user="threefoursixninefour" />
  <node id="6034013560" lat="49.4505184" lon="3.9243479" version="5" timestamp="2024-06-22T10:56:50Z" changeset="153024383" uid="67515" user="threefoursixninefour" />
  <node id="6034013563" lat="49.4504891" lon="3.9247817" version="5" timestamp="2024-06-22T10:56:50Z" changeset="153024383" uid="67515" user="threefoursixninefour" />
  <node id="6034013564" lat="49.4504942" lon="3.9247068" version="5" timestamp="2024-06-22T10:56:50Z" changeset="153024383" uid="67515" user="threefoursixninefour" />
  <node id="6034013566" lat="49.4505754" lon="3.9247034" version="5" timestamp="2024-06-22T10:56:50Z" changeset="153024383" uid="67515" user="threefoursixninefour" />
  <node id="12000515665" lat="49.4505925" lon="3.9244496" version="1" timestamp="2024-06-22T10:56:50Z" changeset="153024383" uid="67515" user="threefoursixninefour" />
  <node id="12000515666" lat="49.4505123" lon="3.9244387" version="1" timestamp="2024-06-22T10:56:50Z" changeset="153024383" uid="67515" user="threefoursixninefour" />
</osm>
