<?xml version="1.0" encoding="UTF-8"?>
<osm version="0.6" generator="Overpass API 0.7.62.1 084b4234">
<note>The data included in this document is from www.openstreetmap.org. The data is made available under ODbL.</note>
<meta osm_base="2024-07-08T10:01:38Z" areas="2024-07-08T08:54:45Z"/>

  <node id="473678008" lat="48.5852878" lon="7.7439248" version="13" timestamp="2024-02-13T13:15:27Z" changeset="147408847" uid="290680" user="wheelmap_visitor">
    <tag k="brand" v="Primark"/>
    <tag k="brand:wikidata" v="Q137023"/>
    <tag k="brand:wikipedia" v="en:Primark"/>
    <tag k="contact:city" v="Strasbourg"/>
    <tag k="contact:housenumber" v="1"/>
    <tag k="contact:phone" v="+33 3 68331660"/>
    <tag k="contact:postcode" v="67000"/>
    <tag k="contact:street" v="Rue du Noyer"/>
    <tag k="contact:website" v="https://stores.primark.com/fr_fr/france/strasbourg/1-rue-du-noyer-3-quai-kellermann"/>
    <tag k="name" v="Primark"/>
    <tag k="opening_hours" v="Mo-Sa 10:00-20:00"/>
    <tag k="shop" v="clothes"/>
    <tag k="source" v="cadastre-dgi-fr source : Direction Générale des Impôts - Cadastre. Mise à jour : 2009"/>
    <tag k="wheelchair" v="yes"/>
  </node>
  <node id="2126871067" lat="49.4899860" lon="0.1288814" version="7" timestamp="2023-10-24T11:54:48Z" changeset="143061111" uid="1903730" user="Kurosawa06">
    <tag k="addr:city" v="Le Havre"/>
    <tag k="addr:postcode" v="76600"/>
    <tag k="addr:street" v="Quai Frissard"/>
    <tag k="brand" v="Primark"/>
    <tag k="brand:wikidata" v="Q137023"/>
    <tag k="brand:wikipedia" v="en:Primark"/>
    <tag k="internet_access" v="wlan"/>
    <tag k="level" v="0"/>
    <tag k="name" v="Primark"/>
    <tag k="opening_hours" v="Mo-Sa 10:00-20:00, Su 11:00-19:00"/>
    <tag k="shop" v="clothes"/>
  </node>
  <node id="3634097697" lat="43.3631455" lon="5.3464687" version="4" timestamp="2023-05-31T15:41:02Z" changeset="136795373" uid="10569470" user="Romainluc">
    <tag k="brand" v="Primark"/>
    <tag k="brand:wikidata" v="Q137023"/>
    <tag k="brand:wikipedia" v="en:Primark"/>
    <tag k="level" v="0;1"/>
    <tag k="name" v="Primark"/>
    <tag k="note" v="boutique sur 2 niveaux"/>
    <tag k="shop" v="clothes"/>
    <tag k="source" v="survey 2015"/>
    <tag k="wheelchair" v="yes"/>
  </node>
  <node id="3679328221" lat="47.3559707" lon="5.0507459" version="5" timestamp="2021-11-06T09:42:35Z" changeset="113438870" uid="598012" user="_1110">
    <tag k="brand" v="Primark"/>
    <tag k="brand:wikidata" v="Q137023"/>
    <tag k="brand:wikipedia" v="en:Primark"/>
    <tag k="name" v="Primark"/>
    <tag k="opening_hours" v="Mo-Fr 10:00-20:00; Sa 09:00-20:00; Su off"/>
    <tag k="shop" v="clothes"/>
  </node>
  <node id="3813631865" lat="45.7619716" lon="4.8570541" version="9" timestamp="2022-07-21T08:11:00Z" changeset="123880743" uid="12391080" user="Mevesscarto">
    <tag k="branch" v="Lyon"/>
    <tag k="brand" v="Primark"/>
    <tag k="brand:wikidata" v="Q137023"/>
    <tag k="brand:wikipedia" v="fr:Primark"/>
    <tag k="contact:facebook" v="primark"/>
    <tag k="level" v="2;3"/>
    <tag k="name" v="Primark"/>
    <tag k="opening_hours" v="Mo-Sa 09:30-20:00"/>
    <tag k="phone" v="+33 4 37 24 11 09"/>
    <tag k="shop" v="clothes"/>
    <tag k="website" v="https://www.primark.com/fr/magasin/lyon"/>
  </node>
  <node id="4378161489" lat="48.7813143" lon="2.4558852" version="6" timestamp="2023-11-03T19:10:51Z" changeset="143587935" uid="9451067" user="b-jazz-bot">
    <tag k="addr:postcode" v="94000"/>
    <tag k="addr:street" v="Avenue de la France Libre"/>
    <tag k="brand" v="Primark"/>
    <tag k="brand:wikidata" v="Q137023"/>
    <tag k="brand:wikipedia" v="en:Primark"/>
    <tag k="int_name" v="Primark"/>
    <tag k="level" v="0"/>
    <tag k="name" v="Primark"/>
    <tag k="name:ar" v="بريمارك كبير"/>
    <tag k="opening_hours" v="Mo-Sa 10:00-20:00"/>
    <tag k="phone" v="+33148536602"/>
    <tag k="shop" v="clothes"/>
    <tag k="website" v="https://www.primark.com/"/>
  </node>
  <node id="4466154171" lat="50.6370402" lon="3.0757525" version="6" timestamp="2023-09-20T12:35:47Z" changeset="141511810" uid="20284227" user="ObscureAngel">
    <tag k="addr:city" v="Lille"/>
    <tag k="addr:postcode" v="59777"/>
    <tag k="brand" v="Primark"/>
    <tag k="brand:wikidata" v="Q137023"/>
    <tag k="brand:wikipedia" v="en:Primark"/>
    <tag k="indoor" v="yes"/>
    <tag k="level" v="1"/>
    <tag k="name" v="Primark"/>
    <tag k="opening_hours" v="Mo-Sa 10:00-20:00"/>
    <tag k="operator" v="Primark"/>
    <tag k="shop" v="clothes"/>
    <tag k="wheelchair" v="yes"/>
  </node>
  <node id="5241741277" lat="49.1049634" lon="6.1826527" version="8" timestamp="2023-08-09T07:42:26Z" changeset="139644878" uid="3199858" user="Mateusz Konieczny - bot account">
    <tag k="brand" v="Primark"/>
    <tag k="brand:wikidata" v="Q137023"/>
    <tag k="brand:wikipedia" v="en:Primark"/>
    <tag k="indoor" v="yes"/>
    <tag k="indoor:level" v="1"/>
    <tag k="layer" v="1"/>
    <tag k="level" v="1"/>
    <tag k="name" v="Primark"/>
    <tag k="shop" v="clothes"/>
    <tag k="start_date" v="2018-03-21"/>
  </node>
  <node id="5873091408" lat="43.6076015" lon="1.4452668" version="7" timestamp="2023-03-23T11:34:14Z" changeset="134018224" uid="9958443" user="cloak">
    <tag k="brand" v="Primark"/>
    <tag k="brand:wikidata" v="Q137023"/>
    <tag k="brand:wikipedia" v="en:Primark"/>
    <tag k="check_date:opening_hours" v="2023-03-23"/>
    <tag k="name" v="Primark"/>
    <tag k="opening_hours" v="Mo-Sa 10:00-19:30"/>
    <tag k="phone" v="+33 5 34 33 00 05"/>
    <tag k="shop" v="clothes"/>
    <tag k="website" v="https://stores.primark.com/france/toulouse/41-rue-de-remusat"/>
  </node>
  <node id="6109533239" lat="43.6632862" lon="7.1284629" version="7" timestamp="2023-08-26T12:10:58Z" changeset="140409152" uid="15175787" user="uMatt-5">
    <tag k="addr:housenumber" v="119"/>
    <tag k="addr:postcode" v="06800"/>
    <tag k="addr:street" v="Avenue des Alpes"/>
    <tag k="brand" v="Primark"/>
    <tag k="brand:wikidata" v="Q137023"/>
    <tag k="brand:wikipedia" v="en:Primark"/>
    <tag k="check_date:opening_hours" v="2023-08-25"/>
    <tag k="name" v="Primark"/>
    <tag k="opening_hours" v="Mo-Sa 10:00-20:00; Su 11:00-19:00"/>
    <tag k="phone" v="+33 4 93 29 43 01"/>
    <tag k="shop" v="clothes"/>
    <tag k="website" v="https://stores.primark.com/fr_fr/france/cagnes-sur-mer/centre-commercial-polygone-riviera"/>
    <tag k="wheelchair" v="yes"/>
  </node>
  <node id="6149280399" lat="48.6296499" lon="2.4280254" version="1" timestamp="2018-12-20T08:23:44Z" changeset="65633419" uid="4154080" user="noyeux">
    <tag k="brand" v="Primark"/>
    <tag k="brand:wikidata" v="Q137023"/>
    <tag k="brand:wikipedia" v="en:Primark"/>
    <tag k="name" v="Primark"/>
    <tag k="shop" v="clothes"/>
  </node>
  <node id="8887809192" lat="43.1383296" lon="6.0068559" version="2" timestamp="2023-09-13T20:52:45Z" changeset="141229456" uid="20120763" user="Bishop83160">
    <tag k="addr:housenumber" v="1"/>
    <tag k="addr:street" v="L'Avenue 83"/>
    <tag k="brand" v="Primark"/>
    <tag k="brand:wikidata" v="Q137023"/>
    <tag k="brand:wikipedia" v="en:Primark"/>
    <tag k="check_date" v="2023-09-13"/>
    <tag k="name" v="Primark"/>
    <tag k="shop" v="clothes"/>
  </node>
  <node id="8936602589" lat="48.8266826" lon="1.9625536" version="1" timestamp="2021-07-20T19:46:00Z" changeset="108337118" uid="4468387" user="gfdklgdldsfgkgfd">
    <tag k="brand" v="Primark"/>
    <tag k="brand:wikidata" v="Q137023"/>
    <tag k="brand:wikipedia" v="en:Primark"/>
    <tag k="name" v="Primark"/>
    <tag k="shop" v="clothes"/>
  </node>
  <way id="669229191" version="16" timestamp="2023-12-12T09:32:05Z" changeset="145029544" uid="2678738" user="fgouget">
    <nd ref="1746701979"/>
    <nd ref="1746701991"/>
    <nd ref="7343775655"/>
    <nd ref="2773943774"/>
    <nd ref="7343775661"/>
    <nd ref="7343775660"/>
    <nd ref="2773943663"/>
    <nd ref="7343775659"/>
    <nd ref="7343775658"/>
    <nd ref="2695632403"/>
    <nd ref="1746701979"/>
    <tag k="addr:city" v="Thiais"/>
    <tag k="addr:postcode" v="94320"/>
    <tag k="addr:street" v="Avenue du Luxembourg"/>
    <tag k="brand" v="Primark"/>
    <tag k="brand:wikidata" v="Q137023"/>
    <tag k="brand:wikipedia" v="en:Primark"/>
    <tag k="building:levels" v="2"/>
    <tag k="indoor" v="room"/>
    <tag k="internet_access" v="yes"/>
    <tag k="level" v="0"/>
    <tag k="name" v="Primark"/>
    <tag k="opening_date" v="2020"/>
    <tag k="opening_hours" v="Mo,Sa 10:00-20:00; Tu-Fr 10:00-20:30; Su 11:00-19:00"/>
    <tag k="phone" v="+33 1 48 53 66 02"/>
    <tag k="shop" v="clothes"/>
  </way>
  <way id="886307198" version="4" timestamp="2022-02-22T11:39:27Z" changeset="117723190" uid="8427311" user="whatismoss">
    <nd ref="8241352218"/>
    <nd ref="8241352417"/>
    <nd ref="8241208631"/>
    <nd ref="5764143250"/>
    <nd ref="1240429456"/>
    <nd ref="9526954379"/>
    <nd ref="9526954378"/>
    <nd ref="9526954347"/>
    <nd ref="8241147022"/>
    <nd ref="8241352121"/>
    <nd ref="8241597360"/>
    <nd ref="8241352122"/>
    <nd ref="8241597286"/>
    <nd ref="8241208430"/>
    <nd ref="8241208623"/>
    <nd ref="8241208429"/>
    <nd ref="8241208825"/>
    <nd ref="8241352218"/>
    <tag k="access" v="customers"/>
    <tag k="brand" v="Primark"/>
    <tag k="brand:wikidata" v="Q137023"/>
    <tag k="brand:wikipedia" v="en:Primark"/>
    <tag k="indoor" v="room"/>
    <tag k="level" v="0"/>
    <tag k="name" v="Primark"/>
    <tag k="room" v="shop"/>
    <tag k="shop" v="clothes"/>
  </way>
  <way id="1049251429" version="3" timestamp="2023-03-01T22:17:12Z" changeset="133189874" uid="392288" user="Kalepom">
    <nd ref="1667398074"/>
    <nd ref="7282984984"/>
    <nd ref="7282987585"/>
    <nd ref="1667398084"/>
    <nd ref="7282987586"/>
    <nd ref="9642644629"/>
    <nd ref="9642644447"/>
    <nd ref="6857896664"/>
    <nd ref="9642644630"/>
    <nd ref="1667398074"/>
    <tag k="access" v="yes"/>
    <tag k="addr:street" v="Avenue des quarante journaux"/>
    <tag k="brand" v="Primark"/>
    <tag k="brand:wikidata" v="Q137023"/>
    <tag k="brand:wikipedia" v="en:Primark"/>
    <tag k="indoor" v="room"/>
    <tag k="level" v="0"/>
    <tag k="name" v="Primark"/>
    <tag k="opening_hours" v="Mo-Sa 10:00-20:00"/>
    <tag k="phone" v="+33557443809"/>
    <tag k="room" v="shop"/>
    <tag k="shop" v="clothes"/>
    <tag k="website" v="https://stores.primark.com/fr_fr/france/bordeaux/primark-bordeaux-lac-centre-commercial-aushopping-bordeaux-lac"/>
  </way>
  <way id="1069872744" version="3" timestamp="2023-11-07T18:20:50Z" changeset="143748502" uid="9451067" user="b-jazz-bot">
    <nd ref="9819409636"/>
    <nd ref="9819409637"/>
    <nd ref="9817681936"/>
    <nd ref="9819409574"/>
    <nd ref="9819409575"/>
    <nd ref="9819409576"/>
    <nd ref="9819409577"/>
    <nd ref="9819409540"/>
    <nd ref="9819409541"/>
    <nd ref="9819409542"/>
    <nd ref="9819409539"/>
    <nd ref="9819409538"/>
    <nd ref="9819409537"/>
    <nd ref="9819409536"/>
    <nd ref="9819409535"/>
    <nd ref="9819409534"/>
    <nd ref="9819409533"/>
    <nd ref="9819409532"/>
    <nd ref="9819409531"/>
    <nd ref="9819409530"/>
    <nd ref="9819409529"/>
    <nd ref="9819409528"/>
    <nd ref="9819409527"/>
    <nd ref="9819409526"/>
    <nd ref="9819409636"/>
    <tag k="brand" v="Primark"/>
    <tag k="brand:wikidata" v="Q137023"/>
    <tag k="indoor" v="room"/>
    <tag k="level" v="1"/>
    <tag k="name" v="Primark"/>
    <tag k="opening_hours" v="Mo-Sa 09:30-20:00"/>
    <tag k="phone" v="+33 4 37 24 11 09"/>
    <tag k="shop" v="clothes"/>
    <tag k="website" v="https://www.primark.com/fr/articles"/>
  </way>
  <way id="1071998602" version="2" timestamp="2022-07-21T08:11:00Z" changeset="123880743" uid="12391080" user="Mevesscarto">
    <nd ref="9836442332"/>
    <nd ref="9822179683"/>
    <nd ref="9822179684"/>
    <nd ref="9822179685"/>
    <nd ref="9822179686"/>
    <nd ref="9822179687"/>
    <nd ref="9822179688"/>
    <nd ref="9822179689"/>
    <nd ref="9822179690"/>
    <nd ref="9822179691"/>
    <nd ref="9836442307"/>
    <nd ref="9836442306"/>
    <nd ref="9836442322"/>
    <nd ref="9836442321"/>
    <nd ref="9836442320"/>
    <nd ref="9836442319"/>
    <nd ref="9836442318"/>
    <nd ref="9836442317"/>
    <nd ref="9836442316"/>
    <nd ref="9836442315"/>
    <nd ref="9836442314"/>
    <nd ref="9836442313"/>
    <nd ref="9836442312"/>
    <nd ref="9836442311"/>
    <nd ref="9836442310"/>
    <nd ref="9836442309"/>
    <nd ref="9836442308"/>
    <nd ref="9836442330"/>
    <nd ref="9836442331"/>
    <nd ref="9836442332"/>
    <tag k="branch" v="Lyon"/>
    <tag k="brand" v="Primark"/>
    <tag k="brand:wikidata" v="Q137023"/>
    <tag k="brand:wikipedia" v="fr:Primark"/>
    <tag k="contact:facebook" v="primark"/>
    <tag k="indoor" v="room"/>
    <tag k="level" v="2"/>
    <tag k="name" v="Primark"/>
    <tag k="opening_hours" v="Mo-Sa 09:30-20:00"/>
    <tag k="phone" v="+33 4 37 24 11 09"/>
    <tag k="shop" v="clothes"/>
    <tag k="website" v="https://www.primark.com/fr/magasin/lyon"/>
  </way>
  <way id="1116602568" version="6" timestamp="2024-01-14T21:11:39Z" changeset="146259167" uid="17241720" user="poudlardo">
    <nd ref="11517509790"/>
    <nd ref="10769660171"/>
    <nd ref="11517509791"/>
    <nd ref="10769660170"/>
    <nd ref="11517509792"/>
    <nd ref="10769660169"/>
    <nd ref="11517509577"/>
    <nd ref="10212577215"/>
    <nd ref="10212577214"/>
    <nd ref="7872652115"/>
    <nd ref="10224491056"/>
    <nd ref="10212586918"/>
    <nd ref="7872652114"/>
    <nd ref="10212586917"/>
    <nd ref="7872652107"/>
    <nd ref="11517509790"/>
    <tag k="brand" v="Primark"/>
    <tag k="brand:wikidata" v="Q137023"/>
    <tag k="indoor" v="room"/>
    <tag k="level" v="4"/>
    <tag k="name" v="Primark"/>
    <tag k="opening_hours" v="Mo-Sa 10:00-20:30; Su 11:00-19:00"/>
    <tag k="shop" v="clothes"/>
  </way>
  <way id="1159401766" version="2" timestamp="2023-08-03T15:51:54Z" changeset="139401156" uid="10852353" user="€liz">
    <nd ref="8892347422"/>
    <nd ref="8892347421"/>
    <nd ref="8892347825"/>
    <nd ref="10781827434"/>
    <nd ref="10781827438"/>
    <nd ref="8892347328"/>
    <nd ref="8892348124"/>
    <nd ref="8892347820"/>
    <nd ref="9868826569"/>
    <nd ref="10781827435"/>
    <nd ref="10781827436"/>
    <nd ref="10781827437"/>
    <nd ref="8892347422"/>
    <tag k="brand" v="Primark"/>
    <tag k="brand:wikidata" v="Q137023"/>
    <tag k="clothes" v="women;men;children"/>
    <tag k="indoor" v="room"/>
    <tag k="level" v="0"/>
    <tag k="name" v="Primark"/>
    <tag k="room" v="shop"/>
    <tag k="shop" v="clothes"/>
  </way>
  <way id="1227215749" version="9" timestamp="2024-06-13T12:22:33Z" changeset="152631549" uid="918586" user="Binnette">
    <nd ref="11380155935"/>
    <nd ref="11383489597"/>
    <nd ref="11384715781"/>
    <nd ref="10171076882"/>
    <nd ref="11384692764"/>
    <nd ref="11384692767"/>
    <nd ref="11384692768"/>
    <nd ref="11384715775"/>
    <nd ref="11384715777"/>
    <nd ref="11384715780"/>
    <nd ref="11380218626"/>
    <nd ref="11383523717"/>
    <nd ref="11383489596"/>
    <nd ref="11384580019"/>
    <nd ref="11383523716"/>
    <nd ref="11384602587"/>
    <nd ref="11384602588"/>
    <nd ref="11384580058"/>
    <nd ref="11384602579"/>
    <nd ref="11384602580"/>
    <nd ref="11383523700"/>
    <nd ref="11383523704"/>
    <nd ref="11380218625"/>
    <nd ref="11384715807"/>
    <nd ref="11383489594"/>
    <nd ref="11383523715"/>
    <nd ref="11384602601"/>
    <nd ref="11383489599"/>
    <nd ref="11384602604"/>
    <nd ref="11380155935"/>
    <tag k="brand" v="Primark"/>
    <tag k="brand:wikidata" v="Q137023"/>
    <tag k="check_date" v="2024-06-13"/>
    <tag k="indoor" v="shop"/>
    <tag k="level" v="1"/>
    <tag k="name" v="Primark"/>
    <tag k="ref:FR:Grenoble:GrandPlace:id" v="131"/>
    <tag k="shop" v="clothes"/>
  </way>
  <way id="1227561891" version="7" timestamp="2024-06-13T12:22:33Z" changeset="152631549" uid="918586" user="Binnette">
    <nd ref="11383489598"/>
    <nd ref="11384715791"/>
    <nd ref="11383489589"/>
    <nd ref="11384715790"/>
    <nd ref="11383489597"/>
    <nd ref="11384715781"/>
    <nd ref="11384110164"/>
    <nd ref="10171076882"/>
    <nd ref="11384692764"/>
    <nd ref="11384692767"/>
    <nd ref="11384692768"/>
    <nd ref="11384715775"/>
    <nd ref="11384715777"/>
    <nd ref="11384715780"/>
    <nd ref="11380218626"/>
    <nd ref="11383489596"/>
    <nd ref="11383489595"/>
    <nd ref="11383489591"/>
    <nd ref="11383489590"/>
    <nd ref="11380218624"/>
    <nd ref="11383523703"/>
    <nd ref="11383523706"/>
    <nd ref="11380218625"/>
    <nd ref="11384715807"/>
    <nd ref="11383489594"/>
    <nd ref="11383489593"/>
    <nd ref="11383489592"/>
    <nd ref="11383489598"/>
    <tag k="brand" v="Primark"/>
    <tag k="brand:wikidata" v="Q137023"/>
    <tag k="check_date" v="2024-06-13"/>
    <tag k="indoor" v="shop"/>
    <tag k="level" v="0"/>
    <tag k="name" v="Primark"/>
    <tag k="ref:FR:Grenoble:GrandPlace:id" v="131"/>
    <tag k="shop" v="clothes"/>
  </way>
  <node id="1667398074" lat="44.8785273" lon="-0.5652380" version="2" timestamp="2020-03-10T17:24:58Z" changeset="82017828" uid="394332" user="Kolossus"/>
  <node id="1667398084" lat="44.8791999" lon="-0.5646225" version="2" timestamp="2020-03-10T17:24:58Z" changeset="82017828" uid="394332" user="Kolossus"/>
  <node id="6857896664" lat="44.8787901" lon="-0.5651347" version="4" timestamp="2023-03-01T22:17:12Z" changeset="133189874" uid="392288" user="Kalepom"/>
  <node id="7282984984" lat="44.8785358" lon="-0.5650954" version="1" timestamp="2020-03-10T17:24:58Z" changeset="82017828" uid="394332" user="Kolossus"/>
  <node id="7282987585" lat="44.8786270" lon="-0.5645547" version="1" timestamp="2020-03-10T17:24:58Z" changeset="82017828" uid="394332" user="Kolossus"/>
  <node id="7282987586" lat="44.8791858" lon="-0.5648430" version="1" timestamp="2020-03-10T17:24:58Z" changeset="82017828" uid="394332" user="Kolossus"/>
  <node id="9642644447" lat="44.8792510" lon="-0.5651709" version="1" timestamp="2022-04-05T08:55:03Z" changeset="119333548" uid="15438615" user="BoumbaClap"/>
  <node id="9642644629" lat="44.8792651" lon="-0.5648540" version="1" timestamp="2022-04-05T08:55:03Z" changeset="119333548" uid="15438615" user="BoumbaClap"/>
  <node id="9642644630" lat="44.8787816" lon="-0.5652689" version="1" timestamp="2022-04-05T08:55:03Z" changeset="119333548" uid="15438615" user="BoumbaClap"/>
  <node id="9817681936" lat="45.7619928" lon="4.8567013" version="1" timestamp="2022-06-14T17:11:22Z" changeset="122381504" uid="12391080" user="Mevesscarto"/>
  <node id="9819409526" lat="45.7619560" lon="4.8574351" version="1" timestamp="2022-06-15T09:03:13Z" changeset="122407047" uid="12391080" user="Mevesscarto"/>
  <node id="9819409527" lat="45.7619537" lon="4.8574699" version="1" timestamp="2022-06-15T09:03:13Z" changeset="122407047" uid="12391080" user="Mevesscarto"/>
  <node id="9819409528" lat="45.7621295" lon="4.8574515" version="1" timestamp="2022-06-15T09:03:13Z" changeset="122407047" uid="12391080" user="Mevesscarto"/>
  <node id="9819409529" lat="45.7620942" lon="4.8573390" version="1" timestamp="2022-06-15T09:03:13Z" changeset="122407047" uid="12391080" user="Mevesscarto"/>
  <node id="9819409530" lat="45.7622080" lon="4.8572858" version="1" timestamp="2022-06-15T09:03:13Z" changeset="122407047" uid="12391080" user="Mevesscarto"/>
  <node id="9819409531" lat="45.7621740" lon="4.8572174" version="1" timestamp="2022-06-15T09:03:13Z" changeset="122407047" uid="12391080" user="Mevesscarto"/>
  <node id="9819409532" lat="45.7621611" lon="4.8571726" version="1" timestamp="2022-06-15T09:03:13Z" changeset="122407047" uid="12391080" user="Mevesscarto"/>
  <node id="9819409533" lat="45.7621533" lon="4.8571332" version="1" timestamp="2022-06-15T09:03:13Z" changeset="122407047" uid="12391080" user="Mevesscarto"/>
  <node id="9819409534" lat="45.7621488" lon="4.8570753" version="1" timestamp="2022-06-15T09:03:13Z" changeset="122407047" uid="12391080" user="Mevesscarto"/>
  <node id="9819409535" lat="45.7621318" lon="4.8570786" version="1" timestamp="2022-06-15T09:03:13Z" changeset="122407047" uid="12391080" user="Mevesscarto"/>
  <node id="9819409536" lat="45.7621254" lon="4.8570069" version="1" timestamp="2022-06-15T09:03:13Z" changeset="122407047" uid="12391080" user="Mevesscarto"/>
  <node id="9819409537" lat="45.7621469" lon="4.8570016" version="1" timestamp="2022-06-15T09:03:13Z" changeset="122407047" uid="12391080" user="Mevesscarto"/>
  <node id="9819409538" lat="45.7621524" lon="4.8569543" version="1" timestamp="2022-06-15T09:03:13Z" changeset="122407047" uid="12391080" user="Mevesscarto"/>
  <node id="9819409539" lat="45.7621639" lon="4.8568997" version="1" timestamp="2022-06-15T09:03:13Z" changeset="122407047" uid="12391080" user="Mevesscarto"/>
  <node id="9819409540" lat="45.7621123" lon="4.8567626" version="1" timestamp="2022-06-15T09:03:13Z" changeset="122407047" uid="12391080" user="Mevesscarto"/>
  <node id="9819409541" lat="45.7621139" lon="4.8567903" version="1" timestamp="2022-06-15T09:03:13Z" changeset="122407047" uid="12391080" user="Mevesscarto"/>
  <node id="9819409542" lat="45.7621804" lon="4.8568523" version="1" timestamp="2022-06-15T09:03:13Z" changeset="122407047" uid="12391080" user="Mevesscarto"/>
  <node id="9819409574" lat="45.7620061" lon="4.8567221" version="1" timestamp="2022-06-15T09:03:13Z" changeset="122407047" uid="12391080" user="Mevesscarto"/>
  <node id="9819409575" lat="45.7620272" lon="4.8567451" version="1" timestamp="2022-06-15T09:03:13Z" changeset="122407047" uid="12391080" user="Mevesscarto"/>
  <node id="9819409576" lat="45.7620574" lon="4.8567609" version="1" timestamp="2022-06-15T09:03:13Z" changeset="122407047" uid="12391080" user="Mevesscarto"/>
  <node id="9819409577" lat="45.7620859" lon="4.8567655" version="1" timestamp="2022-06-15T09:03:13Z" changeset="122407047" uid="12391080" user="Mevesscarto"/>
  <node id="9819409636" lat="45.7618950" lon="4.8574468" version="1" timestamp="2022-06-15T09:03:13Z" changeset="122407047" uid="12391080" user="Mevesscarto"/>
  <node id="9819409637" lat="45.7618325" lon="4.8567300" version="1" timestamp="2022-06-15T09:03:13Z" changeset="122407047" uid="12391080" user="Mevesscarto"/>
  <node id="9822179683" lat="45.7621126" lon="4.8567661" version="1" timestamp="2022-06-16T09:26:49Z" changeset="122454192" uid="12391080" user="Mevesscarto"/>
  <node id="9822179684" lat="45.7620857" lon="4.8567671" version="1" timestamp="2022-06-16T09:26:49Z" changeset="122454192" uid="12391080" user="Mevesscarto"/>
  <node id="9822179685" lat="45.7620562" lon="4.8567630" version="1" timestamp="2022-06-16T09:26:49Z" changeset="122454192" uid="12391080" user="Mevesscarto"/>
  <node id="9822179686" lat="45.7620275" lon="4.8567490" version="1" timestamp="2022-06-16T09:26:49Z" changeset="122454192" uid="12391080" user="Mevesscarto"/>
  <node id="9822179687" lat="45.7620083" lon="4.8567295" version="1" timestamp="2022-06-16T09:26:49Z" changeset="122454192" uid="12391080" user="Mevesscarto"/>
  <node id="9822179688" lat="45.7619915" lon="4.8566991" version="1" timestamp="2022-06-16T09:26:49Z" changeset="122454192" uid="12391080" user="Mevesscarto"/>
  <node id="9822179689" lat="45.7618893" lon="4.8567161" version="1" timestamp="2022-06-16T09:26:49Z" changeset="122454192" uid="12391080" user="Mevesscarto"/>
  <node id="9822179690" lat="45.7618902" lon="4.8567279" version="1" timestamp="2022-06-16T09:26:49Z" changeset="122454192" uid="12391080" user="Mevesscarto"/>
  <node id="9822179691" lat="45.7618358" lon="4.8567369" version="1" timestamp="2022-06-16T09:26:49Z" changeset="122454192" uid="12391080" user="Mevesscarto"/>
  <node id="9836442306" lat="45.7618521" lon="4.8569393" version="1" timestamp="2022-06-21T15:28:52Z" changeset="122674142" uid="12391080" user="Mevesscarto"/>
  <node id="9836442307" lat="45.7618487" lon="4.8568976" version="1" timestamp="2022-06-21T15:28:52Z" changeset="122674142" uid="12391080" user="Mevesscarto"/>
  <node id="9836442308" lat="45.7621674" lon="4.8568768" version="1" timestamp="2022-06-21T15:28:52Z" changeset="122674142" uid="12391080" user="Mevesscarto"/>
  <node id="9836442309" lat="45.7621543" lon="4.8569229" version="1" timestamp="2022-06-21T15:28:52Z" changeset="122674142" uid="12391080" user="Mevesscarto"/>
  <node id="9836442310" lat="45.7621443" lon="4.8569965" version="1" timestamp="2022-06-21T15:28:52Z" changeset="122674142" uid="12391080" user="Mevesscarto"/>
  <node id="9836442311" lat="45.7621230" lon="4.8570015" version="1" timestamp="2022-06-21T15:28:52Z" changeset="122674142" uid="12391080" user="Mevesscarto"/>
  <node id="9836442312" lat="45.7621308" lon="4.8570820" version="1" timestamp="2022-06-21T15:28:52Z" changeset="122674142" uid="12391080" user="Mevesscarto"/>
  <node id="9836442313" lat="45.7621452" lon="4.8570776" version="1" timestamp="2022-06-21T15:28:52Z" changeset="122674142" uid="12391080" user="Mevesscarto"/>
  <node id="9836442314" lat="45.7621504" lon="4.8571256" version="1" timestamp="2022-06-21T15:28:52Z" changeset="122674142" uid="12391080" user="Mevesscarto"/>
  <node id="9836442315" lat="45.7621587" lon="4.8571662" version="1" timestamp="2022-06-21T15:28:52Z" changeset="122674142" uid="12391080" user="Mevesscarto"/>
  <node id="9836442316" lat="45.7621752" lon="4.8572210" version="1" timestamp="2022-06-21T15:28:52Z" changeset="122674142" uid="12391080" user="Mevesscarto"/>
  <node id="9836442317" lat="45.7622056" lon="4.8572847" version="1" timestamp="2022-06-21T15:28:52Z" changeset="122674142" uid="12391080" user="Mevesscarto"/>
  <node id="9836442318" lat="45.7620938" lon="4.8573395" version="1" timestamp="2022-06-21T15:28:52Z" changeset="122674142" uid="12391080" user="Mevesscarto"/>
  <node id="9836442319" lat="45.7621269" lon="4.8574481" version="1" timestamp="2022-06-21T15:28:52Z" changeset="122674142" uid="12391080" user="Mevesscarto"/>
  <node id="9836442320" lat="45.7619511" lon="4.8574699" version="1" timestamp="2022-06-21T15:28:52Z" changeset="122674142" uid="12391080" user="Mevesscarto"/>
  <node id="9836442321" lat="45.7619544" lon="4.8574345" version="1" timestamp="2022-06-21T15:28:52Z" changeset="122674142" uid="12391080" user="Mevesscarto"/>
  <node id="9836442322" lat="45.7618928" lon="4.8574447" version="1" timestamp="2022-06-21T15:28:52Z" changeset="122674142" uid="12391080" user="Mevesscarto"/>
  <node id="9836442330" lat="45.7621739" lon="4.8568593" version="1" timestamp="2022-06-21T15:28:52Z" changeset="122674142" uid="12391080" user="Mevesscarto"/>
  <node id="9836442331" lat="45.7621578" lon="4.8568630" version="1" timestamp="2022-06-21T15:28:52Z" changeset="122674142" uid="12391080" user="Mevesscarto"/>
  <node id="9836442332" lat="45.7621324" lon="4.8567597" version="1" timestamp="2022-06-21T15:28:52Z" changeset="122674142" uid="12391080" user="Mevesscarto"/>
  <node id="10171076882" lat="45.1577581" lon="5.7292007" version="3" timestamp="2023-11-29T11:43:12Z" changeset="144584581" uid="918586" user="Binnette"/>
  <node id="11380155935" lat="45.1583514" lon="5.7291994" version="2" timestamp="2023-11-29T11:43:12Z" changeset="144584581" uid="918586" user="Binnette"/>
  <node id="11380218624" lat="45.1582542" lon="5.7299345" version="2" timestamp="2023-11-29T11:43:12Z" changeset="144584581" uid="918586" user="Binnette"/>
  <node id="11380218625" lat="45.1582548" lon="5.7297040" version="2" timestamp="2023-11-29T11:43:12Z" changeset="144584581" uid="918586" user="Binnette"/>
  <node id="11380218626" lat="45.1577624" lon="5.7299009" version="2" timestamp="2023-11-29T11:43:12Z" changeset="144584581" uid="918586" user="Binnette"/>
  <node id="11383489589" lat="45.1582033" lon="5.7292884" version="2" timestamp="2023-11-29T23:09:53Z" changeset="144606770" uid="918586" user="Binnette"/>
  <node id="11383489590" lat="45.1582541" lon="5.7301949" version="2" timestamp="2023-11-29T21:47:06Z" changeset="144604933" uid="918586" user="Binnette">
    <tag k="entrance" v="yes"/>
    <tag k="level" v="1"/>
  </node>
  <node id="11383489591" lat="45.1582546" lon="5.7303055" version="1" timestamp="2023-11-29T11:43:12Z" changeset="144584581" uid="918586" user="Binnette"/>
  <node id="11383489592" lat="45.1582281" lon="5.7294620" version="1" timestamp="2023-11-29T11:43:12Z" changeset="144584581" uid="918586" user="Binnette"/>
  <node id="11383489593" lat="45.1582278" lon="5.7295365" version="1" timestamp="2023-11-29T11:43:12Z" changeset="144584581" uid="918586" user="Binnette"/>
  <node id="11383489594" lat="45.1582527" lon="5.7295364" version="1" timestamp="2023-11-29T11:43:12Z" changeset="144584581" uid="918586" user="Binnette"/>
  <node id="11383489595" lat="45.1579881" lon="5.7303089" version="1" timestamp="2023-11-29T11:43:12Z" changeset="144584581" uid="918586" user="Binnette"/>
  <node id="11383489596" lat="45.1579893" lon="5.7299005" version="1" timestamp="2023-11-29T11:43:12Z" changeset="144584581" uid="918586" user="Binnette"/>
  <node id="11383489597" lat="45.1582030" lon="5.7292004" version="2" timestamp="2023-11-29T23:09:53Z" changeset="144606770" uid="918586" user="Binnette"/>
  <node id="11383489598" lat="45.1582049" lon="5.7294609" version="1" timestamp="2023-11-29T11:43:12Z" changeset="144584581" uid="918586" user="Binnette"/>
  <node id="11383489599" lat="45.1583518" lon="5.7292869" version="1" timestamp="2023-11-29T11:43:12Z" changeset="144584581" uid="918586" user="Binnette"/>
  <node id="11383523700" lat="45.1580804" lon="5.7297062" version="2" timestamp="2023-11-29T21:47:06Z" changeset="144604933" uid="918586" user="Binnette"/>
  <node id="11383523703" lat="45.1582559" lon="5.7298996" version="2" timestamp="2023-11-29T21:47:06Z" changeset="144604933" uid="918586" user="Binnette"/>
  <node id="11383523704" lat="45.1581044" lon="5.7297058" version="1" timestamp="2023-11-29T11:43:12Z" changeset="144584581" uid="918586" user="Binnette"/>
  <node id="11383523706" lat="45.1582554" lon="5.7298024" version="1" timestamp="2023-11-29T11:43:12Z" changeset="144584581" uid="918586" user="Binnette"/>
  <node id="11383523715" lat="45.1583515" lon="5.7294439" version="1" timestamp="2023-11-29T11:43:12Z" changeset="144584581" uid="918586" user="Binnette"/>
  <node id="11383523716" lat="45.1579885" lon="5.7297076" version="2" timestamp="2023-11-29T21:47:06Z" changeset="144604933" uid="918586" user="Binnette"/>
  <node id="11383523717" lat="45.1579099" lon="5.7299022" version="2" timestamp="2023-11-29T21:47:06Z" changeset="144604933" uid="918586" user="Binnette"/>
  <node id="11384110164" lat="45.1580054" lon="5.7292008" version="1" timestamp="2023-11-29T17:15:19Z" changeset="144597273" uid="161202" user="colargol">
    <tag k="access" v="private"/>
    <tag k="entrance" v="yes"/>
  </node>
  <node id="11384580019" lat="45.1579886" lon="5.7297316" version="1" timestamp="2023-11-29T21:47:06Z" changeset="144604933" uid="918586" user="Binnette"/>
  <node id="11384580058" lat="45.1580391" lon="5.7297072" version="1" timestamp="2023-11-29T21:47:06Z" changeset="144604933" uid="918586" user="Binnette"/>
  <node id="11384602579" lat="45.1580574" lon="5.7297071" version="1" timestamp="2023-11-29T21:47:06Z" changeset="144604933" uid="918586" user="Binnette"/>
  <node id="11384602580" lat="45.1580731" lon="5.7297069" version="1" timestamp="2023-11-29T21:47:06Z" changeset="144604933" uid="918586" user="Binnette"/>
  <node id="11384602587" lat="45.1580165" lon="5.7297074" version="1" timestamp="2023-11-29T21:47:06Z" changeset="144604933" uid="918586" user="Binnette"/>
  <node id="11384602588" lat="45.1580235" lon="5.7297074" version="1" timestamp="2023-11-29T21:47:06Z" changeset="144604933" uid="918586" user="Binnette"/>
  <node id="11384602601" lat="45.1583516" lon="5.7293996" version="1" timestamp="2023-11-29T21:47:06Z" changeset="144604933" uid="918586" user="Binnette"/>
  <node id="11384602604" lat="45.1583518" lon="5.7292776" version="1" timestamp="2023-11-29T21:47:06Z" changeset="144604933" uid="918586" user="Binnette"/>
  <node id="11384692764" lat="45.1577591" lon="5.7293490" version="1" timestamp="2023-11-29T23:09:53Z" changeset="144606770" uid="918586" user="Binnette"/>
  <node id="11384692767" lat="45.1577593" lon="5.7293687" version="1" timestamp="2023-11-29T23:09:53Z" changeset="144606770" uid="918586" user="Binnette"/>
  <node id="11384692768" lat="45.1577595" lon="5.7294089" version="1" timestamp="2023-11-29T23:09:53Z" changeset="144606770" uid="918586" user="Binnette"/>
  <node id="11384715775" lat="45.1577600" lon="5.7295111" version="1" timestamp="2023-11-29T23:09:53Z" changeset="144606770" uid="918586" user="Binnette"/>
  <node id="11384715777" lat="45.1577604" lon="5.7295824" version="1" timestamp="2023-11-29T23:09:53Z" changeset="144606770" uid="918586" user="Binnette"/>
  <node id="11384715780" lat="45.1577605" lon="5.7296027" version="1" timestamp="2023-11-29T23:09:53Z" changeset="144606770" uid="918586" user="Binnette"/>
  <node id="11384715781" lat="45.1580825" lon="5.7292012" version="1" timestamp="2023-11-29T23:09:53Z" changeset="144606770" uid="918586" user="Binnette"/>
  <node id="11384715790" lat="45.1582032" lon="5.7292577" version="1" timestamp="2023-11-29T23:09:53Z" changeset="144606770" uid="918586" user="Binnette"/>
  <node id="11384715791" lat="45.1582033" lon="5.7292900" version="1" timestamp="2023-11-29T23:09:53Z" changeset="144606770" uid="918586" user="Binnette"/>
  <node id="11384715807" lat="45.1582531" lon="5.7295646" version="1" timestamp="2023-11-29T23:09:53Z" changeset="144606770" uid="918586" user="Binnette"/>
  <node id="1746701979" lat="48.7582282" lon="2.3704322" version="3" timestamp="2014-04-06T21:18:15Z" changeset="21541238" uid="1779584" user="dhuyp"/>
  <node id="1746701991" lat="48.7582557" lon="2.3712938" version="3" timestamp="2014-04-06T21:18:15Z" changeset="21541238" uid="1779584" user="dhuyp"/>
  <node id="2695632403" lat="48.7575178" lon="2.3704768" version="3" timestamp="2014-04-06T21:18:44Z" changeset="21541238" uid="1779584" user="dhuyp"/>
  <node id="2773943663" lat="48.7575377" lon="2.3711029" version="1" timestamp="2014-04-06T21:17:05Z" changeset="21541238" uid="1779584" user="dhuyp"/>
  <node id="2773943774" lat="48.7578398" lon="2.3710874" version="1" timestamp="2014-04-06T21:17:07Z" changeset="21541238" uid="1779584" user="dhuyp"/>
  <node id="7343775655" lat="48.7578450" lon="2.3713234" version="1" timestamp="2020-03-29T17:52:29Z" changeset="82786947" uid="10917174" user="B75"/>
  <node id="7343775658" lat="48.7575246" lon="2.3706886" version="1" timestamp="2020-03-29T17:52:29Z" changeset="82786947" uid="10917174" user="B75"/>
  <node id="7343775659" lat="48.7575292" lon="2.3708350" version="1" timestamp="2020-03-29T17:52:29Z" changeset="82786947" uid="10917174" user="B75"/>
  <node id="7343775660" lat="48.7576733" lon="2.3710959" version="1" timestamp="2020-03-29T17:52:29Z" changeset="82786947" uid="10917174" user="B75"/>
  <node id="7343775661" lat="48.7578032" lon="2.3710893" version="1" timestamp="2020-03-29T17:52:29Z" changeset="82786947" uid="10917174" user="B75"/>
  <node id="7872652107" lat="48.9268976" lon="2.3300537" version="1" timestamp="2020-09-03T13:27:53Z" changeset="90365277" uid="8256689" user="Clem0908"/>
  <node id="7872652114" lat="48.9271549" lon="2.3306432" version="1" timestamp="2020-09-03T13:27:53Z" changeset="90365277" uid="8256689" user="Clem0908"/>
  <node id="7872652115" lat="48.9268796" lon="2.3311897" version="1" timestamp="2020-09-03T13:27:53Z" changeset="90365277" uid="8256689" user="Clem0908"/>
  <node id="10212577214" lat="48.9264769" lon="2.3306854" version="1" timestamp="2022-11-23T18:05:43Z" changeset="129292528" uid="8256689" user="Clem0908"/>
  <node id="10212577215" lat="48.9265571" lon="2.3305701" version="1" timestamp="2022-11-23T18:05:43Z" changeset="129292528" uid="8256689" user="Clem0908"/>
  <node id="10212586917" lat="48.9272124" lon="2.3305868" version="1" timestamp="2022-11-23T18:05:43Z" changeset="129292528" uid="8256689" user="Clem0908"/>
  <node id="10212586918" lat="48.9270248" lon="2.3309014" version="1" timestamp="2022-11-23T18:05:43Z" changeset="129292528" uid="8256689" user="Clem0908"/>
  <node id="10224491056" lat="48.9269562" lon="2.3310370" version="1" timestamp="2022-11-28T21:45:54Z" changeset="129493528" uid="8256689" user="Clem0908"/>
  <node id="10769660169" lat="48.9264943" lon="2.3303836" version="2" timestamp="2024-01-14T21:11:22Z" changeset="146259167" uid="17241720" user="poudlardo">
    <tag k="indoor" v="door"/>
    <tag k="level" v="3"/>
  </node>
  <node id="10769660170" lat="48.9265781" lon="2.3302667" version="2" timestamp="2024-01-14T21:11:22Z" changeset="146259167" uid="17241720" user="poudlardo">
    <tag k="indoor" v="door"/>
    <tag k="level" v="3"/>
  </node>
  <node id="10769660171" lat="48.9267088" lon="2.3300842" version="3" timestamp="2024-01-14T21:11:22Z" changeset="146259167" uid="17241720" user="poudlardo">
    <tag k="indoor" v="door"/>
    <tag k="level" v="3;4"/>
  </node>
  <node id="11517509577" lat="48.9264667" lon="2.3304221" version="1" timestamp="2024-01-14T21:11:16Z" changeset="146259167" uid="17241720" user="poudlardo"/>
  <node id="11517509790" lat="48.9268122" lon="2.3299400" version="1" timestamp="2024-01-14T21:11:15Z" changeset="146259167" uid="17241720" user="poudlardo"/>
  <node id="11517509791" lat="48.9266122" lon="2.3302191" version="1" timestamp="2024-01-14T21:11:15Z" changeset="146259167" uid="17241720" user="poudlardo"/>
  <node id="11517509792" lat="48.9265385" lon="2.3303219" version="1" timestamp="2024-01-14T21:11:16Z" changeset="146259167" uid="17241720" user="poudlardo"/>
  <node id="8892347328" lat="48.8559234" lon="2.7809183" version="1" timestamp="2021-07-04T12:29:23Z" changeset="107388530" uid="9213880" user="PandaJoueur"/>
  <node id="8892347421" lat="48.8559998" lon="2.7803705" version="1" timestamp="2021-07-04T12:29:24Z" changeset="107388530" uid="9213880" user="PandaJoueur"/>
  <node id="8892347422" lat="48.8560103" lon="2.7803397" version="2" timestamp="2023-04-03T13:40:38Z" changeset="134455804" uid="10852353" user="€liz"/>
  <node id="8892347820" lat="48.8564917" lon="2.7812737" version="2" timestamp="2022-07-05T18:54:42Z" changeset="123247361" uid="10852353" user="€liz"/>
  <node id="8892347825" lat="48.8559773" lon="2.7804221" version="1" timestamp="2021-07-04T12:29:24Z" changeset="107388530" uid="9213880" user="PandaJoueur"/>
  <node id="8892348124" lat="48.8560717" lon="2.7811986" version="1" timestamp="2021-07-04T12:29:23Z" changeset="107388530" uid="9213880" user="PandaJoueur"/>
  <node id="9868826569" lat="48.8565200" lon="2.7808747" version="2" timestamp="2023-04-03T13:56:36Z" changeset="134456481" uid="10852353" user="€liz"/>
  <node id="10781827434" lat="48.8558231" lon="2.7806066" version="1" timestamp="2023-04-03T13:40:38Z" changeset="134455804" uid="10852353" user="€liz"/>
  <node id="10781827435" lat="48.8565328" lon="2.7807099" version="2" timestamp="2023-04-03T13:56:36Z" changeset="134456481" uid="10852353" user="€liz"/>
  <node id="10781827436" lat="48.8562942" lon="2.7806621" version="2" timestamp="2023-08-03T15:51:54Z" changeset="139401156" uid="10852353" user="€liz"/>
  <node id="10781827437" lat="48.8563186" lon="2.7803899" version="1" timestamp="2023-04-03T13:40:38Z" changeset="134455804" uid="10852353" user="€liz"/>
  <node id="10781827438" lat="48.8559643" lon="2.7808652" version="1" timestamp="2023-04-03T13:40:38Z" changeset="134455804" uid="10852353" user="€liz"/>
  <node id="8241208429" lat="50.4134102" lon="2.9785055" version="2" timestamp="2020-12-19T14:14:43Z" changeset="96109943" uid="161619" user="FvGordon"/>
  <node id="8241208430" lat="50.4135410" lon="2.9786007" version="2" timestamp="2020-12-19T14:14:43Z" changeset="96109943" uid="161619" user="FvGordon"/>
  <node id="8241208623" lat="50.4134948" lon="2.9785819" version="2" timestamp="2020-12-19T14:14:43Z" changeset="96109943" uid="161619" user="FvGordon"/>
  <node id="8241208825" lat="50.4133546" lon="2.9784438" version="2" timestamp="2020-12-19T14:14:43Z" changeset="96109943" uid="161619" user="FvGordon"/>
  <node id="8241352218" lat="50.4132938" lon="2.9782836" version="2" timestamp="2020-12-19T14:14:43Z" changeset="96109943" uid="161619" user="FvGordon"/>
  <node id="8241352417" lat="50.4135498" lon="2.9776153" version="1" timestamp="2020-12-18T20:16:59Z" changeset="96089174" uid="8427311" user="whatismoss"/>
  <node id="1240429456" lat="50.4143556" lon="2.9770616" version="4" timestamp="2022-02-22T11:39:27Z" changeset="117723190" uid="8427311" user="whatismoss"/>
  <node id="5764143250" lat="50.4139798" lon="2.9767116" version="2" timestamp="2020-12-18T18:58:20Z" changeset="96087059" uid="8427311" user="whatismoss"/>
  <node id="8241147022" lat="50.4138189" lon="2.9783618" version="2" timestamp="2021-04-03T13:25:36Z" changeset="102234106" uid="8427311" user="whatismoss"/>
  <node id="8241208631" lat="50.4136147" lon="2.9776812" version="1" timestamp="2020-12-18T18:58:19Z" changeset="96087059" uid="8427311" user="whatismoss"/>
  <node id="8241352121" lat="50.4137767" lon="2.9784656" version="2" timestamp="2022-02-22T11:39:27Z" changeset="117723190" uid="8427311" user="whatismoss"/>
  <node id="8241352122" lat="50.4136412" lon="2.9783401" version="1" timestamp="2020-12-18T20:16:59Z" changeset="96089174" uid="8427311" user="whatismoss"/>
  <node id="8241597286" lat="50.4136159" lon="2.9784081" version="1" timestamp="2020-12-18T22:44:03Z" changeset="96092973" uid="8427311" user="whatismoss"/>
  <node id="8241597360" lat="50.4137081" lon="2.9784018" version="1" timestamp="2020-12-18T22:44:04Z" changeset="96092973" uid="8427311" user="whatismoss"/>
  <node id="9526954347" lat="50.4138655" lon="2.9782418" version="1" timestamp="2022-02-22T11:39:27Z" changeset="117723190" uid="8427311" user="whatismoss"/>
  <node id="9526954378" lat="50.4142411" lon="2.9772735" version="1" timestamp="2022-02-22T11:39:27Z" changeset="117723190" uid="8427311" user="whatismoss"/>
  <node id="9526954379" lat="50.4142659" lon="2.9772909" version="1" timestamp="2022-02-22T11:39:27Z" changeset="117723190" uid="8427311" user="whatismoss"/>

</osm>
