<?xml version="1.0" encoding="UTF-8"?>
<osm version="0.6" generator="Overpass API 0.7.62.1 084b4234">
<note>The data included in this document is from www.openstreetmap.org. The data is made available under ODbL.</note>
<meta osm_base="2024-07-14T15:11:00Z" areas="2024-07-14T10:52:45Z"/>

  <node id="336371586" lat="46.1913877" lon="6.7760501" version="14" timestamp="2023-12-23T01:22:42Z" changeset="145424570" uid="2226887" user="déni">
    <tag k="addr:city" v="Morzine"/>
    <tag k="addr:postcode" v="74110"/>
    <tag k="addr:street" v="Place Centrale"/>
    <tag k="brand" v="Carrefour Montagne"/>
    <tag k="brand:wikidata" v="Q2940193"/>
    <tag k="brand:wikipedia" v="fr:Carrefour Montagne"/>
    <tag k="contact:phone" v="+33 4 50 74 16 78"/>
    <tag k="contact:website" v="http://www.carrefour.fr/magasin/montagne-avoriaz"/>
    <tag k="name" v="Carrefour Montagne"/>
    <tag k="official_name" v="Carrefour Montagne Avoriaz"/>
    <tag k="opening_hours" v="Mo-Su 08:00-20:30"/>
    <tag k="operator" v="Groupe Carrefour"/>
    <tag k="operator:wikidata" v="Q3117359"/>
    <tag k="operator:wikipedia" v="fr:Groupe Carrefour"/>
    <tag k="payment:coins" v="yes"/>
    <tag k="payment:mastercard" v="yes"/>
    <tag k="payment:notes" v="yes"/>
    <tag k="payment:visa" v="yes"/>
    <tag k="shop" v="convenience"/>
  </node>
  <node id="534675022" lat="42.9066677" lon="-0.1045588" version="6" timestamp="2024-07-10T09:19:52Z" changeset="153774870" uid="21646451" user="ThéoPMP">
    <tag k="brand" v="Carrefour Montagne"/>
    <tag k="brand:wikidata" v="Q2940193"/>
    <tag k="name" v="Carrefour Montagne"/>
    <tag k="operator" v="Carrefour"/>
    <tag k="shop" v="convenience"/>
  </node>
  <node id="1198832700" lat="45.5351764" lon="6.6373604" version="5" timestamp="2021-04-22T09:38:39Z" changeset="103399512" uid="13147368" user="Frenchy_UK1">
    <tag k="brand" v="Carrefour Montagne"/>
    <tag k="brand:wikidata" v="Q2940193"/>
    <tag k="name" v="Carrefour Montagne"/>
    <tag k="operator" v="SARL BEL"/>
    <tag k="shop" v="supermarket"/>
    <tag k="source" v="cadastre-dgi-fr source : Direction Générale des Impôts - Cadastre. Mise à jour : 2011"/>
  </node>
  <node id="1217789006" lat="46.1574244" lon="6.6670758" version="16" timestamp="2023-11-29T20:16:42Z" changeset="144602647" uid="2226887" user="déni">
    <tag k="addr:city" v="Les Gets"/>
    <tag k="addr:housenumber" v="548"/>
    <tag k="addr:postcode" v="74260"/>
    <tag k="addr:street" v="Rue du Centre"/>
    <tag k="brand" v="Carrefour Montagne"/>
    <tag k="brand:wikidata" v="Q2940193"/>
    <tag k="brand:wikipedia" v="fr:Carrefour Montagne"/>
    <tag k="contact:phone" v="+33 4 50 79 71 42"/>
    <tag k="contact:website" v="http://www.carrefour.fr/magasin/montagne-les-gets"/>
    <tag k="name" v="Carrefour Montagne Les Gets"/>
    <tag k="official_name" v="Carrefour Montagne Les Gets"/>
    <tag k="opening_hours" v="Dec-Apr Mo-Su 08:00-20:00; Jul-Aug Mo-Su 8:00-20:00"/>
    <tag k="operator" v="Groupe Carrefour"/>
    <tag k="operator:wikidata" v="Q3117359"/>
    <tag k="operator:wikipedia" v="fr:Groupe Carrefour"/>
    <tag k="payment:coins" v="yes"/>
    <tag k="payment:mastercard" v="yes"/>
    <tag k="payment:notes" v="yes"/>
    <tag k="payment:visa" v="yes"/>
    <tag k="shop" v="supermarket"/>
    <tag k="source" v="cadastre-dgi-fr source : Direction Générale des Impôts - Cadastre. Mise à jour : 2011"/>
  </node>
  <node id="1727454323" lat="42.9111947" lon="0.1775480" version="5" timestamp="2024-05-26T19:25:54Z" changeset="151866970" uid="46239" user="MatthieuMartin">
    <tag k="addr:place" v="La Mongie"/>
    <tag k="addr:postcode" v="65200"/>
    <tag k="addr:street" v="Avenue du Tourmalet"/>
    <tag k="brand" v="Carrefour Montagne"/>
    <tag k="brand:wikidata" v="Q2940193"/>
    <tag k="brand:wikipedia" v="fr:Carrefour Montagne"/>
    <tag k="name" v="Carrefour Montagne"/>
    <tag k="operator" v="Carrefour"/>
    <tag k="shop" v="supermarket"/>
  </node>
  <node id="1827510137" lat="44.9331987" lon="6.5895559" version="7" timestamp="2023-02-01T15:11:52Z" changeset="131967481" uid="213513" user="ThomR">
    <tag k="addr:hamlet" v="Chantemerle"/>
    <tag k="brand" v="Carrefour Montagne"/>
    <tag k="brand:wikidata" v="Q2940193"/>
    <tag k="brand:wikipedia" v="fr:Carrefour Montagne"/>
    <tag k="name" v="Carrefour Montagne Saint-Chaffrey"/>
    <tag k="opening_hours" v="Mo-Su 08:00-20:00"/>
    <tag k="operator" v="Carrefour"/>
    <tag k="phone" v="+33 4 92 84 06 38"/>
    <tag k="shop" v="supermarket"/>
    <tag k="website" v="https://www.carrefour.fr/magasin/montagne-saint-chaffrey"/>
  </node>
  <node id="1913045829" lat="45.8217498" lon="6.7271781" version="7" timestamp="2024-02-29T13:27:42Z" changeset="148052695" uid="315359" user="symac">
    <tag k="brand" v="Carrefour Montagne"/>
    <tag k="brand:wikidata" v="Q2940193"/>
    <tag k="brand:wikipedia" v="fr:Carrefour Montagne"/>
    <tag k="check_date" v="2024-02-29"/>
    <tag k="contact:housenumber" v="109"/>
    <tag k="contact:phone" v="+33 4 50 47 01 72"/>
    <tag k="contact:street" v="Route de Notre-Dame de la Gorge"/>
    <tag k="contact:website" v="https://www.carrefour.fr/magasin/montagne-les-contamines"/>
    <tag k="delivery" v="yes"/>
    <tag k="name" v="Carrefour Montagne"/>
    <tag k="official_name" v="Carrefour Montagne Les Contamines"/>
    <tag k="opening_hours" v="Mo-Su 08:00-20:00"/>
    <tag k="operator" v="Groupe Carrefour"/>
    <tag k="operator:wikidata" v="Q3117359"/>
    <tag k="operator:wikipedia" v="fr:Groupe Carrefour"/>
    <tag k="payment:coins" v="yes"/>
    <tag k="payment:mastercard" v="yes"/>
    <tag k="payment:notes" v="yes"/>
    <tag k="payment:visa" v="yes"/>
    <tag k="shop" v="convenience"/>
    <tag k="wheelchair" v="yes"/>
  </node>
  <node id="2096804679" lat="45.2964674" lon="6.5841658" version="8" timestamp="2024-07-10T09:09:02Z" changeset="153774474" uid="21646451" user="ThéoPMP">
    <tag k="brand" v="Carrefour Montagne"/>
    <tag k="brand:wikidata" v="Q2940193"/>
    <tag k="name" v="Carrefour Montagne"/>
    <tag k="opening_hours" v="Mo-Su,PH 07:30-21:00"/>
    <tag k="opening_hours:covid19" v="off"/>
    <tag k="operator" v="Carrefour"/>
    <tag k="shop" v="convenience"/>
    <tag k="wheelchair" v="no"/>
  </node>
  <node id="2420985578" lat="45.0093227" lon="6.1231112" version="7" timestamp="2020-05-19T22:23:11Z" changeset="85465904" uid="3199858" user="Mateusz Konieczny - bot account">
    <tag k="brand" v="Carrefour Montagne"/>
    <tag k="brand:wikidata" v="Q2940193"/>
    <tag k="brand:wikipedia" v="fr:Carrefour Montagne"/>
    <tag k="name" v="Carrefour Montagne"/>
    <tag k="opening_hours" v="Mo-Sa 07:00-12:30,15:30-19:30; Su 07:00-12:30,16:30-19:30"/>
    <tag k="operator" v="Carrefour"/>
    <tag k="phone" v="+33 4 76 80 70 31"/>
    <tag k="shop" v="supermarket"/>
    <tag k="source" v="survey 2013"/>
    <tag k="website" v="https://www.carrefour.fr/magasin/montagne-les-2-alpes"/>
  </node>
  <node id="2765625818" lat="45.1729941" lon="6.4981295" version="7" timestamp="2024-03-04T03:05:12Z" changeset="148187778" uid="21147370" user="COUCOU77">
    <tag k="addr:city" v="Valmeinier"/>
    <tag k="addr:housenumber" v="102"/>
    <tag k="addr:postcode" v="73450"/>
    <tag k="addr:street" v="Place de Roche Noire"/>
    <tag k="brand" v="Carrefour Montagne"/>
    <tag k="brand:wikidata" v="Q2940193"/>
    <tag k="name" v="Carrefour Montagne"/>
    <tag k="opening_hours" v="Mo-Su 08:00-20:00"/>
    <tag k="operator" v="Proxi"/>
    <tag k="shop" v="convenience"/>
  </node>
  <node id="3319853300" lat="45.4691635" lon="6.9051032" version="6" timestamp="2021-07-02T08:13:47Z" changeset="107297705" uid="922338" user="Hervé TUC">
    <tag k="brand" v="Carrefour Montagne"/>
    <tag k="brand:wikidata" v="Q2940193"/>
    <tag k="brand:wikipedia" v="fr:Carrefour Montagne"/>
    <tag k="name" v="Carrefour Montagne"/>
    <tag k="opening_hours" v="Mo-Su 08:00-18:00"/>
    <tag k="operator" v="Carrefour"/>
    <tag k="shop" v="supermarket"/>
    <tag k="wheelchair" v="yes"/>
  </node>
  <node id="3659301953" lat="42.8172594" lon="0.3223264" version="8" timestamp="2023-03-01T14:18:18Z" changeset="133173168" uid="13985620" user="n-peugnet">
    <tag k="addr:city" v="Saint-Lary-Soulan"/>
    <tag k="addr:housenumber" v="2"/>
    <tag k="addr:postcode" v="65170"/>
    <tag k="addr:street" v="Rue de Soulan"/>
    <tag k="brand" v="Carrefour Montagne"/>
    <tag k="brand:wikidata" v="Q2940193"/>
    <tag k="brand:wikipedia" v="fr:Carrefour Montagne"/>
    <tag k="check_date:opening_hours" v="2023-03-01"/>
    <tag k="name" v="Carrefour Montagne"/>
    <tag k="opening_hours" v="Mo-Sa 08:00-21:00; Su 09:00-21:00"/>
    <tag k="phone" v="+33562401247"/>
    <tag k="shop" v="convenience"/>
    <tag k="wheelchair" v="yes"/>
  </node>
  <node id="5241188539" lat="42.8891818" lon="-0.1141636" version="3" timestamp="2022-12-07T13:00:45Z" changeset="129821166" uid="10239056" user="Troupal">
    <tag k="addr:housenumber" v="5 bis"/>
    <tag k="addr:street" v="Avenue du Général Leclerc"/>
    <tag k="brand" v="Carrefour Montagne"/>
    <tag k="brand:wikidata" v="Q2940193"/>
    <tag k="brand:wikipedia" v="fr:Carrefour Montagne"/>
    <tag k="contact:website" v="http://www.carrefour.fr/magasin/montagne-cauterets"/>
    <tag k="name" v="Carrefour Montagne"/>
    <tag k="opening_hours" v="PH,Mo-Su 08:00-21:00"/>
    <tag k="operator" v="Carrefour"/>
    <tag k="shop" v="supermarket"/>
  </node>
  <node id="6654657685" lat="44.6770838" lon="5.9269524" version="2" timestamp="2020-03-27T05:20:46Z" changeset="82693630" uid="1443767" user="Olyon">
    <tag k="brand" v="Carrefour Montagne"/>
    <tag k="brand:wikidata" v="Q2940193"/>
    <tag k="brand:wikipedia" v="fr:Carrefour Montagne"/>
    <tag k="name" v="Carrefour Montagne"/>
    <tag k="opening_hours" v="Mo-Su 07:30-20:30"/>
    <tag k="shop" v="convenience"/>
    <tag k="wheelchair" v="yes"/>
  </node>
  <node id="7663476067" lat="45.8569450" lon="6.6158194" version="3" timestamp="2020-07-04T20:26:08Z" changeset="87540635" uid="507417" user="tartiflex">
    <tag k="addr:city" v="Megève"/>
    <tag k="addr:housenumber" v="156"/>
    <tag k="addr:postcode" v="74120"/>
    <tag k="addr:street" v="Rue Ambroise Martin"/>
    <tag k="brand" v="Carrefour Montagne"/>
    <tag k="brand:wikidata" v="Q2940193"/>
    <tag k="brand:wikipedia" v="fr:Carrefour Montagne"/>
    <tag k="contact:phone" v="+33 4 50 21 46 92"/>
    <tag k="contact:website" v="https://www.carrefour.fr/magasin/montagne-megeve"/>
    <tag k="delivery" v="yes"/>
    <tag k="name" v="Carrefour Montagne"/>
    <tag k="official_name" v="Carrefour Montagne Megève"/>
    <tag k="opening_hours" v="Mo-Su 08:00-20:00"/>
    <tag k="operator" v="Groupe Carrefour"/>
    <tag k="operator:wikidata" v="Q3117359"/>
    <tag k="operator:wikipedia" v="fr:Groupe Carrefour"/>
    <tag k="payment:coins" v="yes"/>
    <tag k="payment:mastercard" v="yes"/>
    <tag k="payment:notes" v="yes"/>
    <tag k="payment:visa" v="yes"/>
    <tag k="shop" v="convenience"/>
    <tag k="wheelchair" v="yes"/>
  </node>
  <node id="7679873589" lat="45.9050731" lon="6.4233682" version="3" timestamp="2023-08-04T16:20:47Z" changeset="139449137" uid="15692211" user="Bernard 88 95">
    <tag k="addr:city" v="La Clusaz"/>
    <tag k="addr:housenumber" v="45"/>
    <tag k="addr:postcode" v="74220"/>
    <tag k="addr:street" v="Place de l'Église"/>
    <tag k="brand" v="Carrefour Montagne"/>
    <tag k="brand:wikidata" v="Q2940193"/>
    <tag k="brand:wikipedia" v="fr:8 à Huit"/>
    <tag k="contact:phone" v="+33 4 50 02 43 05"/>
    <tag k="contact:website" v="https://www.carrefour.fr/magasin/8-a-huit-la-clusaz"/>
    <tag k="delivery" v="yes"/>
    <tag k="name" v="Carrefour Montagne"/>
    <tag k="official_name" v="Carrefour 8 à Huit La Clusaz"/>
    <tag k="opening_hours" v="Mo-Sa 07:30-12:30, 15:15-19:30; Su 07:30-12:30"/>
    <tag k="operator" v="Groupe Carrefour"/>
    <tag k="operator:wikidata" v="Q3117359"/>
    <tag k="operator:wikipedia" v="fr:Groupe Carrefour"/>
    <tag k="payment:coins" v="yes"/>
    <tag k="payment:mastercard" v="yes"/>
    <tag k="payment:notes" v="yes"/>
    <tag k="payment:visa" v="yes"/>
    <tag k="shop" v="convenience"/>
    <tag k="wheelchair" v="limited"/>
  </node>
  <node id="11014107399" lat="45.4153131" lon="6.6506949" version="1" timestamp="2023-06-29T15:15:33Z" changeset="137923067" uid="19717397" user="Georgia Unrug">
    <tag k="brand" v="Carrefour Montagne"/>
    <tag k="brand:wikidata" v="Q2940193"/>
    <tag k="name" v="Carrefour Montagne"/>
    <tag k="shop" v="convenience"/>
  </node>
  <node id="12045387382" lat="45.4149155" lon="6.6375399" version="1" timestamp="2024-07-10T09:21:49Z" changeset="153774947" uid="21646451" user="ThéoPMP">
    <tag k="brand" v="Carrefour Montagne"/>
    <tag k="brand:wikidata" v="Q2940193"/>
    <tag k="name" v="Carrefour Montagne"/>
    <tag k="shop" v="convenience"/>
  </node>

</osm>
