[
    {
        "osm_id": 689143581,
        "osm_name": "Five Guys",
        "osm_url": "https://www.osm.org/node/689143581",
        "osm_business": "fast_food",
        "atp_city": "Paris",
        "atp_address": "17/19 Boulevard des Capucines",
        "osm_housenumber": "3",
        "osm_street": "Place de l'Op\u00e9ra",
        "atp_phone": "+33 1 42 93 95 13",
        "osm_phone": null,
        "atp_opening_hours": "Mo-Tu 11:00-24:00; We-Th 11:00-00:30; Fr-Sa 11:00-01:00; Su 11:00-24:00",
        "osm_hours": null,
        "atp_website": "https://restaurants.fiveguys.fr/\u00eele-de-france/17/19-boulevard-des-capucines",
        "osm_website": null,
        "brand_wikidata": "Q1131810",
        "brand": "Five Guys",
        "match_count": 1
    },
    {
        "osm_id": 699626470,
        "osm_name": "Five Guys",
        "osm_url": "https://www.osm.org/node/699626470",
        "osm_business": "fast_food",
        "atp_city": "Paris",
        "atp_address": "3 Place Blanche",
        "osm_housenumber": "3",
        "osm_street": "Place Blanche",
        "atp_phone": "+33 1 73 09 53 56",
        "osm_phone": null,
        "atp_opening_hours": "Mo-Th 11:00-24:00; Fr-Sa 11:00-01:00; Su 11:00-24:00",
        "osm_hours": null,
        "atp_website": "https://restaurants.fiveguys.fr/\u00eele-de-france/3-place-blanche",
        "osm_website": null,
        "brand_wikidata": "Q1131810",
        "brand": "Five Guys",
        "match_count": 1
    },
    {
        "osm_id": 843477428,
        "osm_name": "Five Guys",
        "osm_url": "https://www.osm.org/node/843477428",
        "osm_business": "fast_food",
        "atp_city": "Paris",
        "atp_address": "49-51 Av. des Champs-\u00c9lys\u00e9es",
        "osm_housenumber": null,
        "osm_street": null,
        "atp_phone": "+33 1 85 65 16 35",
        "osm_phone": null,
        "atp_opening_hours": "Mo-Th 11:00-01:00; Fr-Sa 11:00-02:00; Su 11:00-01:00",
        "osm_hours": "11:00-01:00",
        "atp_website": "https://restaurants.fiveguys.fr/\u00eele-de-france/49-51-av-des-champs-\u00e9lys\u00e9es",
        "osm_website": null,
        "brand_wikidata": "Q1131810",
        "brand": "Five Guys",
        "match_count": 1
    },
    {
        "osm_id": 1504098176,
        "osm_name": "Five Guys",
        "osm_url": "https://www.osm.org/node/1504098176",
        "osm_business": "fast_food",
        "atp_city": "Paris",
        "atp_address": "17/19 Boulevard des Capucines",
        "osm_housenumber": "17",
        "osm_street": "Boulevard des Capucines",
        "atp_phone": "+33 1 42 93 95 13",
        "osm_phone": "+33 1 42 93 95 13",
        "atp_opening_hours": "Mo-Tu 11:00-24:00; We-Th 11:00-00:30; Fr-Sa 11:00-01:00; Su 11:00-24:00",
        "osm_hours": "Mo-Th 11:00-24:00; Fr-Sa 11:00-01:00; Su 11:00-24:00",
        "atp_website": "https://restaurants.fiveguys.fr/\u00eele-de-france/17/19-boulevard-des-capucines",
        "osm_website": "https://www.fiveguys.fr",
        "brand_wikidata": "Q1131810",
        "brand": "Five Guys",
        "match_count": 1
    },
    {
        "osm_id": 1793052282,
        "osm_name": "Five Guys",
        "osm_url": "https://www.osm.org/node/1793052282",
        "osm_business": "fast_food",
        "atp_city": "Paris",
        "atp_address": "42 cour St Emilion",
        "osm_housenumber": "42",
        "osm_street": "Cour Saint-\u00c9milion",
        "atp_phone": "+33 1 43 44 46 51",
        "osm_phone": null,
        "atp_opening_hours": "Mo-Su 11:00-02:00",
        "osm_hours": "Su-Th 11:00-24:00; Fr-Sa 11:00-02:00",
        "atp_website": "https://restaurants.fiveguys.fr/\u00eele-de-france/42-cour-st-emilion",
        "osm_website": null,
        "brand_wikidata": "Q1131810",
        "brand": "Five Guys",
        "match_count": 1
    },
    {
        "osm_id": 2161966601,
        "osm_name": "Five Guys",
        "osm_url": "https://www.osm.org/node/2161966601",
        "osm_business": "fast_food",
        "atp_city": "Paris",
        "atp_address": "1 Place Joachim Du Belay",
        "osm_housenumber": null,
        "osm_street": null,
        "atp_phone": "+33 1 88 88 00 39",
        "osm_phone": null,
        "atp_opening_hours": "Mo-Th 11:00-24:00; Fr-Sa 11:00-01:00; Su 11:00-24:00",
        "osm_hours": "Su-Th 11:00-24:00, Fr,Sa 11:00-01:00",
        "atp_website": "https://restaurants.fiveguys.fr/ile-de-france/1-place-joachim-du-belay",
        "osm_website": null,
        "brand_wikidata": "Q1131810",
        "brand": "Five Guys",
        "match_count": 1
    },
    {
        "osm_id": 2458144307,
        "osm_name": "Five Guys",
        "osm_url": "https://www.osm.org/node/2458144307",
        "osm_business": "fast_food",
        "atp_city": "Toulouse",
        "atp_address": "24, rue Alsace Lorraine",
        "osm_housenumber": null,
        "osm_street": "Rue d'Alsace-Lorraine",
        "atp_phone": "+33 5 32 78 38 72",
        "osm_phone": null,
        "atp_opening_hours": "Mo-Su 11:00-24:00",
        "osm_hours": "Mo-Su 11:00-00:00",
        "atp_website": "https://restaurants.fiveguys.fr/occitanie/24-rue-alsace-lorraine",
        "osm_website": null,
        "brand_wikidata": "Q1131810",
        "brand": "Five Guys",
        "match_count": 1
    },
    {
        "osm_id": 3102189746,
        "osm_name": "Five Guys",
        "osm_url": "https://www.osm.org/node/3102189746",
        "osm_business": "fast_food",
        "atp_city": "Aix-en-Provence",
        "atp_address": "2 Avenue des Belges",
        "osm_housenumber": null,
        "osm_street": "Place de la Rotonde",
        "atp_phone": "+33 4 84 80 14 80",
        "osm_phone": null,
        "atp_opening_hours": "Mo-Su 11:00-23:00",
        "osm_hours": "Mo-Su 11:00-23:00",
        "atp_website": "https://restaurants.fiveguys.fr/provence-alpes-c\u00f4te-dazur/2-avenue-des-belges",
        "osm_website": null,
        "brand_wikidata": "Q1131810",
        "brand": "Five Guys",
        "match_count": 1
    },
    {
        "osm_id": 4683553415,
        "osm_name": "Five Guys",
        "osm_url": "https://www.osm.org/node/4683553415",
        "osm_business": "fast_food",
        "atp_city": "Chessy",
        "atp_address": "Avenue Paul Seramy",
        "osm_housenumber": null,
        "osm_street": "Avenue Paul S\u00e9ramy",
        "atp_phone": "+33 1 61 10 09 16",
        "osm_phone": "+33 1 61 10 09 16",
        "atp_opening_hours": "Mo-Su 10:30-01:00",
        "osm_hours": null,
        "atp_website": "https://restaurants.fiveguys.fr/\u00eele-de-france/avenue-paul-seramy",
        "osm_website": "https://restaurants.fiveguys.fr/ile-de-france/avenue-paul-seramy",
        "brand_wikidata": "Q1131810",
        "brand": "Five Guys",
        "match_count": 1
    },
    {
        "osm_id": 5248411622,
        "osm_name": "Five Guys",
        "osm_url": "https://www.osm.org/node/5248411622",
        "osm_business": "fast_food",
        "atp_city": "Clermont-Ferrand",
        "atp_address": "44, place de Jaude",
        "osm_housenumber": null,
        "osm_street": null,
        "atp_phone": "+33 4 63 46 74 02",
        "osm_phone": null,
        "atp_opening_hours": "Mo-We 11:00-22:00; Th-Sa 11:00-23:00; Su 11:00-22:00",
        "osm_hours": null,
        "atp_website": "https://restaurants.fiveguys.fr/auvergne-rh\u00f4ne-alpes/44-place-de-jaude",
        "osm_website": null,
        "brand_wikidata": "Q1131810",
        "brand": "Five Guys",
        "match_count": 1
    },
    {
        "osm_id": 5267690935,
        "osm_name": "Five Guys",
        "osm_url": "https://www.osm.org/node/5267690935",
        "osm_business": "fast_food",
        "atp_city": "Lille",
        "atp_address": "56 Rue de B\u00e9thune",
        "osm_housenumber": "56",
        "osm_street": "Rue de B\u00e9thune",
        "atp_phone": "+33 3 59 82 63 77",
        "osm_phone": "+33 3 61 08 03 72",
        "atp_opening_hours": "Mo-Th 11:00-23:00; Fr-Sa 11:00-23:30; Su 11:00-23:00",
        "osm_hours": "Mo-Su 11:00-23:00",
        "atp_website": "https://restaurants.fiveguys.fr/hauts-de-france/56-rue-de-b\u00e9thune",
        "osm_website": null,
        "brand_wikidata": "Q1131810",
        "brand": "Five Guys",
        "match_count": 1
    },
    {
        "osm_id": 6213853558,
        "osm_name": "Five Guys",
        "osm_url": "https://www.osm.org/node/6213853558",
        "osm_business": "fast_food",
        "atp_city": "Saint-Herblain",
        "atp_address": "Centre Commercial Atlantis",
        "osm_housenumber": null,
        "osm_street": null,
        "atp_phone": "+33 2 40 36 65 30",
        "osm_phone": null,
        "atp_opening_hours": "Mo-Sa 11:00-22:00",
        "osm_hours": null,
        "atp_website": "https://restaurants.fiveguys.fr/pays-de-la-loire/centre-commercial-atlantis",
        "osm_website": null,
        "brand_wikidata": "Q1131810",
        "brand": "Five Guys",
        "match_count": 1
    },
    {
        "osm_id": 7006284095,
        "osm_name": "Five Guys",
        "osm_url": "https://www.osm.org/node/7006284095",
        "osm_business": "fast_food",
        "atp_city": "Saint-Laurent-du-Var",
        "atp_address": "Avenue Eug\u00e8ne Donade\u00ef",
        "osm_housenumber": null,
        "osm_street": null,
        "atp_phone": "+33 4 89 41 83 10",
        "osm_phone": null,
        "atp_opening_hours": "Mo-Su 11:00-22:00",
        "osm_hours": null,
        "atp_website": "https://restaurants.fiveguys.fr/provence-alpes-c\u00f4te-dazur/avenue-eug\u00e8ne-donade\u00ef",
        "osm_website": null,
        "brand_wikidata": "Q1131810",
        "brand": "Five Guys",
        "match_count": 1
    },
    {
        "osm_id": 7542527985,
        "osm_name": "Five Guys",
        "osm_url": "https://www.osm.org/node/7542527985",
        "osm_business": "fast_food",
        "atp_city": "Franconville La Garenne",
        "atp_address": "326 Rue du Gal Leclerc",
        "osm_housenumber": null,
        "osm_street": null,
        "atp_phone": "+33 1 86 53 51 81",
        "osm_phone": null,
        "atp_opening_hours": "Mo-Su 11:00-23:00",
        "osm_hours": "Mo-Su 11:00-23:00",
        "atp_website": "https://restaurants.fiveguys.fr/\u00eele-de-france/326-rue-du-gal-leclerc",
        "osm_website": null,
        "brand_wikidata": "Q1131810",
        "brand": "Five Guys",
        "match_count": 1
    },
    {
        "osm_id": 8844552812,
        "osm_name": "Five Guys",
        "osm_url": "https://www.osm.org/node/8844552812",
        "osm_business": "fast_food",
        "atp_city": "Lyon",
        "atp_address": "63, Rue de la R\u00e9publique",
        "osm_housenumber": null,
        "osm_street": null,
        "atp_phone": "+33 4 51 08 54 96",
        "osm_phone": null,
        "atp_opening_hours": "Mo-Su 11:00-24:00",
        "osm_hours": "Mo-Su 11:00-24:00",
        "atp_website": "https://restaurants.fiveguys.fr/auvergne-rh\u00f4ne-alpes/63-rue-de-la-r\u00e9publique",
        "osm_website": null,
        "brand_wikidata": "Q1131810",
        "brand": "Five Guys",
        "match_count": 1
    },
    {
        "osm_id": 9035853429,
        "osm_name": "Five Guys",
        "osm_url": "https://www.osm.org/node/9035853429",
        "osm_business": "fast_food",
        "atp_city": "Strasbourg",
        "atp_address": "12/18, Rue des Grandes Arcades",
        "osm_housenumber": null,
        "osm_street": null,
        "atp_phone": "+33 3 69 24 65 04",
        "osm_phone": null,
        "atp_opening_hours": "Mo-Su 11:00-23:00",
        "osm_hours": null,
        "atp_website": "https://restaurants.fiveguys.fr/grand-est/12/18-rue-des-grandes-arcades",
        "osm_website": null,
        "brand_wikidata": "Q1131810",
        "brand": "Five Guys",
        "match_count": 1
    },
    {
        "osm_id": 64424339,
        "osm_name": "Five Guys",
        "osm_url": "https://www.osm.org/way/64424339",
        "osm_business": "fast_food",
        "atp_city": "Blagnac",
        "atp_address": "1 rue Gustave Flaubert",
        "osm_housenumber": "1",
        "osm_street": "Rue Gustave Flaubert",
        "atp_phone": "+33 5 32 78 28 84",
        "osm_phone": "+33 5 32 78 28 84",
        "atp_opening_hours": "Mo-Th 11:00-23:00; Fr-Sa 11:00-24:00; Su 11:00-23:00",
        "osm_hours": "Su-Th 11:00-23:00; Fr-Sa 11:00-00:00",
        "atp_website": "https://restaurants.fiveguys.fr/occitanie/1-rue-gustave-flaubert",
        "osm_website": "https://restaurants.fiveguys.fr/ile-de-france/1-rue-gustave-flaubert",
        "brand_wikidata": "Q1131810",
        "brand": "Five Guys",
        "match_count": 1
    },
    {
        "osm_id": 403870962,
        "osm_name": "Five Guys",
        "osm_url": "https://www.osm.org/way/403870962",
        "osm_business": "fast_food",
        "atp_city": "Paris",
        "atp_address": "Gare du Nord - 18 Rue de Dunkerque",
        "osm_housenumber": null,
        "osm_street": null,
        "atp_phone": "+33 1 40 37 02 63",
        "osm_phone": "+33 1 40 37 02 63",
        "atp_opening_hours": "Mo-Su 07:00-23:00",
        "osm_hours": "PH,Mo-Su 07:00-23:00",
        "atp_website": "https://restaurants.fiveguys.fr/\u00eele-de-france/gare-du-nord-18-rue-de-dunkerque",
        "osm_website": "https://restaurants.fiveguys.fr/ile-de-france/gare-du-nord-18-rue-de-dunkerque",
        "brand_wikidata": "Q1131810",
        "brand": "Five Guys",
        "match_count": 1
    },
    {
        "osm_id": 694251155,
        "osm_name": "Five Guys",
        "osm_url": "https://www.osm.org/way/694251155",
        "osm_business": "fast_food",
        "atp_city": "Anglet",
        "atp_address": "Centre commercial Bab 2",
        "osm_housenumber": null,
        "osm_street": null,
        "atp_phone": "+33 5 47 51 96 09",
        "osm_phone": null,
        "atp_opening_hours": "Mo-Su 11:00-22:00",
        "osm_hours": null,
        "atp_website": "https://restaurants.fiveguys.fr/nouvelle-aquitaine/centre-commercial-bab-2",
        "osm_website": null,
        "brand_wikidata": "Q1131810",
        "brand": "Five Guys",
        "match_count": 1
    }
]