<?xml version='1.0' encoding='UTF-8'?>
<osm version="0.6" generator="Overpass API 0.7.62.1 084b4234">
  <note>The data included in this document is from www.openstreetmap.org. The data is made available under ODbL.</note>
  <meta osm_base="2024-07-07T08:49:21Z" areas="2024-07-07T03:21:33Z" />
  <node id="827328844" lat="48.8398786" lon="2.2395850" version="3" timestamp="2021-12-28T09:58:40Z" changeset="115461750" uid="53948" user="illogict" action="modify">
    <tag k="brand" v="Natalys" />
    <tag k="brand:wikidata" v="Q3336439" />
    <tag k="brand:wikipedia" v="fr:Natalys" />
    <tag k="name" v="Natalys" />
    <tag k="shop" v="baby_goods" />
    <tag k="source" v="survey" />
    <tag k="phone" v="+33 1 46 05 33 22" />
    <tag k="website" v="https://boutiques.natalys.com/fr/france-FR/7040/natalys-boulogne/details" />
    <tag k="opening_hours" v="Mo-Tu 10:00-13:00,14:00-19:00; We-Sa 10:00-19:00" />
  </node>
  <node id="1528672386" lat="48.8581770" lon="2.3470090" version="7" timestamp="2022-11-09T13:19:57Z" changeset="128687785" uid="11291363" user="u4Dy46Xe">
    <tag k="addr:city" v="Paris" />
    <tag k="addr:housenumber" v="1" />
    <tag k="addr:postcode" v="75001" />
    <tag k="addr:street" v="Rue Saint-Denis" />
    <tag k="brand" v="Natalys" />
    <tag k="brand:wikidata" v="Q3336439" />
    <tag k="brand:wikipedia" v="fr:Du Pareil au Même (entreprise)" />
    <tag k="name" v="Natalys" />
    <tag k="opening_hours" v="Mo 11:00-19:00; Tu-Fr 10:00-19:00; Sa 10:00-20:00" />
    <tag k="payment:cash" v="yes" />
    <tag k="payment:coins" v="yes" />
    <tag k="payment:contactless" v="yes" />
    <tag k="payment:credit_cards" v="yes" />
    <tag k="phone" v="+33 1 40 15 08 34" />
    <tag k="shop" v="baby_goods" />
    <tag k="website" v="https://www.natalys.com/magasin/?storeID=7593" />
    <tag k="wheelchair" v="yes" />
  </node>
  <node id="4543576299" lat="48.8727686" lon="2.3267583" version="8" timestamp="2023-05-18T10:36:24Z" changeset="136248259" uid="242257" user="Emmanuel Dewaele" action="modify">
    <tag k="brand" v="Natalys" />
    <tag k="brand:wikidata" v="Q3336439" />
    <tag k="brand:wikipedia" v="fr:Natalys" />
    <tag k="check_date" v="2023-04-08" />
    <tag k="contact:city" v="Paris" />
    <tag k="contact:housenumber" v="42" />
    <tag k="contact:postcode" v="75009" />
    <tag k="contact:street" v="Rue Vignon" />
    <tag k="name" v="Natalys" />
    <tag k="opening_hours" v="Mo-Sa 10:00-19:00" />
    <tag k="shop" v="baby_goods" />
    <tag k="wheelchair" v="no" />
    <tag k="phone" v="+33 1 47 42 61 83" />
    <tag k="website" v="https://boutiques.natalys.com/fr/france-FR/7217/natalys-paris-vignon/details" />
  </node>
  <node id="4947711701" lat="48.8354406" lon="2.3531353" version="6" timestamp="2022-11-11T17:33:44Z" changeset="128786739" uid="172867" user="AmiFritz" action="modify">
    <tag k="brand" v="Natalys" />
    <tag k="brand:wikidata" v="Q3336439" />
    <tag k="brand:wikipedia" v="fr:Natalys" />
    <tag k="contact:city" v="Paris" />
    <tag k="contact:housenumber" v="43" />
    <tag k="contact:postcode" v="75013" />
    <tag k="contact:street" v="Avenue des Gobelins" />
    <tag k="level" v="0" />
    <tag k="name" v="Natalys" />
    <tag k="opening_hours" v="Mo-Sa 10:00-19:00" />
    <tag k="shop" v="baby_goods" />
    <tag k="wheelchair" v="no" />
    <tag k="phone" v="+33 1 47 07 42 12" />
    <tag k="website" v="https://boutiques.natalys.com/fr/france-FR/7219/natalys-paris-gobelins/details" />
  </node>
  <node id="5343505327" lat="50.6351444" lon="3.0616128" version="3" timestamp="2023-03-29T13:52:52Z" changeset="134264497" uid="4741702" user="Kazing">
    <tag k="brand" v="Natalys" />
    <tag k="brand:wikidata" v="Q3336439" />
    <tag k="clothes" v="children" />
    <tag k="contact:phone" v="+33320572110" />
    <tag k="contact:website" v="https://www.natalys.com/on/demandware.store/Sites-Natalys-Site/fr_FR/Stores-Details?storeID=7160" />
    <tag k="name" v="Natalys" />
    <tag k="opening_hours" v="Mo-Sa 10:00-19:00" />
    <tag k="shop" v="baby_goods" />
  </node>
  <node id="5537667778" lat="48.8304241" lon="2.3294003" version="3" timestamp="2021-03-25T21:51:41Z" changeset="101745318" uid="2729646" user="loumap" action="modify">
    <tag k="brand" v="Natalys" />
    <tag k="brand:wikidata" v="Q3336439" />
    <tag k="brand:wikipedia" v="fr:Natalys" />
    <tag k="name" v="Natalys" />
    <tag k="shop" v="baby_goods" />
    <tag k="phone" v="+33 1 43 27 21 25" />
    <tag k="website" v="https://boutiques.natalys.com/fr/france-FR/7220/natalys-paris-leclerc/details" />
    <tag k="opening_hours" v="Mo-Sa 10:00-19:00" />
  </node>
  <node id="7006414932" lat="45.7598446" lon="4.8338648" version="6" timestamp="2023-08-17T13:57:11Z" changeset="140014559" uid="101225" user="nuxper_np">
    <tag k="brand" v="Natalys" />
    <tag k="brand:wikidata" v="Q3336439" />
    <tag k="brand:wikipedia" v="fr:Natalys" />
    <tag k="clothes" v="babies" />
    <tag k="contact:facebook" v="https://www.facebook.com/natalys.officiel" />
    <tag k="contact:instagram" v="https://www.instagram.com/natalys_paris/" />
    <tag k="contact:youtube" v="https://www.youtube.com/user/natalysofficiel" />
    <tag k="name" v="Natalys" />
    <tag k="opening_hours" v="Mo 14:00-19:00; Tu-Sa 10:00-19:00" />
    <tag k="phone" v="+33 4 78 42 01 91" />
    <tag k="ref:FR:SIRET" v="65205083200219" />
    <tag k="shop" v="clothes" />
    <tag k="survey:date" v="2023-08-17" />
    <tag k="website" v="https://www.natalys.com/" />
  </node>
  <node id="7778255885" lat="48.8539370" lon="2.3653337" version="3" timestamp="2023-03-30T20:19:58Z" changeset="134319341" uid="506275" user="Bkissin" action="modify">
    <tag k="brand" v="Natalys" />
    <tag k="brand:wikidata" v="Q3336439" />
    <tag k="brand:wikipedia" v="fr:Natalys" />
    <tag k="name" v="Natalys" />
    <tag k="shop" v="baby_goods" />
    <tag k="phone" v="+33 1 48 87 77 42" />
    <tag k="website" v="https://boutiques.natalys.com/fr/france-FR/7283/natalys-paris-st-antoine/details" />
    <tag k="opening_hours" v="Mo-Sa 10:00-19:00" />
  </node>
  <node id="10052538128" lat="48.8520502" lon="2.3368795" version="1" timestamp="2022-09-26T00:02:55Z" changeset="126632182" uid="15094172" user="chl-osm">
    <tag k="brand" v="Natalys" />
    <tag k="brand:wikidata" v="Q3336439" />
    <tag k="brand:wikipedia" v="fr:Natalys" />
    <tag k="clothes" v="children" />
    <tag k="level" v="0" />
    <tag k="name" v="Natalys" />
    <tag k="shop" v="baby_goods" />
  </node>
</osm>
